"","x"
"ENSG00000120738",3.38885122694673
"ENSG00000125740",2.45023072198996
"ENSG00000196136",1.76046605320017
"ENSG00000254681",1.6732677341373
"ENSG00000128564",1.65063843237921
"ENSG00000215187",1.63497577351278
"ENSG00000163885",1.58191357719926
"ENSG00000134817",1.5397253818954
"ENSG00000159388",1.52219494606808
"ENSG00000178726",1.52128744027159
"ENSG00000236882",1.51561100630235
"ENSG00000204389",1.51453720425405
"ENSG00000179294",1.50701536073208
"ENSG00000161082",1.4979713954835
"ENSG00000090104",1.49586263557995
"ENSG00000135218",1.47015511630388
"ENSG00000184227",1.4263347804714
"ENSG00000114279",1.41440013355909
"ENSG00000272345",1.39311907161252
"ENSG00000166927",1.37494174121544
"ENSG00000139537",1.37387271169925
"ENSG00000167900",1.36852391361158
"ENSG00000177606",1.36627215747749
"ENSG00000167081",1.36191756076432
"ENSG00000131370",1.36111802612584
"ENSG00000215030",1.35145450460262
"ENSG00000196517",1.34958829269569
"ENSG00000189343",1.34654793158742
"ENSG00000251595",1.33708002401812
"ENSG00000149201",1.33481268697105
"ENSG00000104894",1.33393891546734
"ENSG00000154262",1.33328665780623
"ENSG00000171860",1.32929821391921
"ENSG00000173581",1.32500457975439
"ENSG00000105948",1.32411904340417
"ENSG00000228998",1.32196684803731
"ENSG00000258399",1.32107906180937
"ENSG00000162959",1.32064650460983
"ENSG00000258947",1.3205637496514
"ENSG00000138166",1.31879759341498
"ENSG00000170324",1.31748175091293
"ENSG00000244716",1.31420179507866
"ENSG00000164488",1.3132599096312
"ENSG00000241563",1.31174638522623
"ENSG00000073331",1.308513754686
"ENSG00000272198",1.30531547196897
"ENSG00000106069",1.30455291374235
"ENSG00000148798",1.30170688893387
"ENSG00000050767",1.29999461243181
"ENSG00000144802",1.29863938560197
"ENSG00000183230",1.29636588669971
"ENSG00000226403",1.29567226890756
"ENSG00000109944",1.29482965461692
"ENSG00000240409",1.29212488048527
"ENSG00000128965",1.28967067782954
"ENSG00000214694",1.2891170330831
"ENSG00000255182",1.28859679781639
"ENSG00000139200",1.28693322195593
"ENSG00000198668",1.28660712447504
"ENSG00000132205",1.28547972910127
"ENSG00000125851",1.28363867387081
"ENSG00000267270",1.27985245438005
"ENSG00000172578",1.27825595212308
"ENSG00000186603",1.27820468271697
"ENSG00000163131",1.27559103932952
"ENSG00000117543",1.27449769819427
"ENSG00000242852",1.27436408710718
"ENSG00000179085",1.27272473213741
"ENSG00000187951",1.27221845508508
"ENSG00000178187",1.27189491587078
"ENSG00000186470",1.27017282659147
"ENSG00000182580",1.26888306047638
"ENSG00000151929",1.26814547228283
"ENSG00000156398",1.26790928183085
"ENSG00000230733",1.26702575459828
"ENSG00000143384",1.2635294018851
"ENSG00000132849",1.26325670030405
"ENSG00000088387",1.26156525327959
"ENSG00000127948",1.26154708418782
"ENSG00000144339",1.26090506861768
"ENSG00000210100",1.26045124356569
"ENSG00000205129",1.26032680860806
"ENSG00000166923",1.2597709592495
"ENSG00000204147",1.25909095620627
"ENSG00000132967",1.25768677676343
"ENSG00000176884",1.25562273119486
"ENSG00000116337",1.25560512801128
"ENSG00000121931",1.25442286471801
"ENSG00000120696",1.25276226567448
"ENSG00000034693",1.25198553845902
"ENSG00000169255",1.2511593787886
"ENSG00000176533",1.25096506430032
"ENSG00000132334",1.24866602915007
"ENSG00000080824",1.24851729451775
"ENSG00000186818",1.24766347613366
"ENSG00000189241",1.24764687696738
"ENSG00000204065",1.24709838155401
"ENSG00000204252",1.24682459734733
"ENSG00000163376",1.246330058077
"ENSG00000142149",1.2454970008956
