"","distances"
"1",498699
"2",616036
"3",29102
"4",39285
"5",206367
"6",84660
"7",711236
"8",4176927
"9",1339684
"10",1049602
"11",640548
"12",574066
"13",29575
"14",574621
"15",59302
"16",543589
"17",132102
"18",3793655
"19",132521
"20",491304
"21",255653
"22",769598
"23",1206407
"24",355640
"25",267679
"26",369723
"27",94895
"28",356391
"29",1562295
"30",284869
"31",552866
"32",191189
"33",1130512
"34",796877
"35",-112
"36",187276
"37",324958
"38",567693
"39",94023
"40",1438705
"41",2382537
"42",1381211
"43",174953
"44",521682
"45",38004
"46",358938
"47",41593
"48",1772460
"49",11432
"50",530925
"51",1598486
"52",84083
"53",8430
"54",1077
"55",62201
"56",1535992
"57",47363
"58",38703
"59",348544
"60",404566
"61",1010022
"62",394404
"63",226160
"64",64920
"65",145887
"66",424741
"67",135379
"68",82158
"69",60335
"70",643225
"71",57994
"72",539200
"73",15350
"74",756522
"75",61704
"76",851138
"77",101577
"78",3908419
"79",232063
"80",609855
"81",130964
"82",28101
"83",68568
"84",5853576
"85",4656443
"86",877071
"87",454491
"88",2175665
"89",615481
"90",2359587
"91",3795550
"92",14559857
"93",76381
"94",794661
"95",1506572
"96",1306219
"97",1576531
"98",715489
"99",5097776
"100",352094
"101",93625
"102",7622202
"103",267982
"104",150222
"105",43238
"106",380331
"107",59096
"108",169204
"109",431856
"110",1039964
"111",6822
"112",1074142
"113",2148654
"114",861268
"115",278274
"116",28817211
"117",137473
"118",1939225
"119",979591
"120",1668305
"121",559020
"122",66942
"123",150458
"124",160306
"125",17273
"126",55337
"127",184378
"128",24318
"129",12925
"130",52177
"131",580971
"132",1619865
"133",44802
"134",103306
"135",8873
"136",231944
"137",373133
"138",117429
"139",113058
"140",25409
"141",135627
"142",73730
"143",22100
"144",27015
"145",237866
"146",333864
"147",397564
"148",354018
"149",13308
"150",3087945
"151",248074
"152",199681
"153",41634
"154",689408
"155",27331
"156",562707
"157",1062559
"158",2818044
"159",62497
"160",1067956
"161",455158
"162",398119
"163",1195491
"164",1164162
"165",109282
"166",1630770
"167",1419814
"168",1141907
"169",1833877
"170",841163
"171",687197
"172",960201
"173",3323237
"174",2315949
"175",480842
"176",6331823
"177",5578377
"178",2377296
"179",111878
"180",496148
"181",1077575
"182",123374
"183",694198
"184",746620
"185",400409
"186",20490
"187",139681
"188",246085
"189",3982908
"190",675786
"191",1609241
"192",2068
"193",3152491
"194",2724428
"195",2342140
"196",2289749
"197",77537
"198",749885
"199",734215
"200",446244
"201",1015167
"202",740994
"203",382855
"204",1351070
"205",1143828
"206",122822
"207",2744415
"208",232421
"209",48940
"210",5630299
"211",2649239
"212",1714002
"213",2128874
"214",17603
"215",15265
"216",180610
"217",3278825
"218",2976719
"219",786684
"220",5764349
"221",3780743
"222",4042469
"223",1402389
"224",1027727
"225",137251
"226",241125
"227",226101
"228",53547
"229",334328
"230",46881
"231",2994759
"232",935742
"233",3444131
"234",265159
"235",1041477
"236",104566
"237",260795
"238",138347
"239",5947
"240",124921
"241",4449196
"242",171964
"243",9542660
"244",34094
"245",596296
"246",1194522
"247",5217453
"248",2695971
"249",2541890
"250",3388394
"251",20816
"252",156045
"253",606819
"254",20565
"255",114739
"256",1811797
"257",157801
"258",673805
"259",161719
"260",75344
"261",143589
"262",1749
"263",4174
"264",391559
"265",10525362
"266",10088080
"267",721814
"268",327176
"269",118115
"270",4354
"271",822052
"272",49453
"273",2533429
"274",4423905
"275",95566
"276",-60555
"277",1190651
"278",6060226
"279",457641
"280",946675
"281",5739831
"282",306607
"283",6969426
"284",1004352
"285",425529
"286",6733688
"287",-39478
"288",15739229
"289",498927
"290",506745
"291",1759
"292",759341
"293",2845624
"294",2976631
"295",1520216
"296",2357175
"297",2121463
"298",30798
"299",3329964
"300",2415793
"301",2447889
"302",1713814
"303",1026343
"304",220295
"305",493458
"306",312335
"307",19059
"308",6081904
"309",2524738
"310",2218325
"311",1086729
"312",6368824
"313",18332
"314",40263
"315",251003
"316",1086970
"317",1455375
"318",1089029
"319",331522
"320",3995600
"321",970077
"322",496704
"323",1413242
"324",188639
"325",8048701
"326",315179
"327",732
"328",585800
"329",28930
"330",7548681
"331",325936
"332",114316
"333",418736
"334",2145539
"335",460907
"336",158242
"337",682706
"338",174973
"339",205702
"340",476323
"341",7374797
"342",1147880
"343",100784
"344",1149869
"345",4457835
"346",399069
"347",344938
"348",367574
"349",2357242
"350",43978
"351",232994
"352",1759179
"353",140817
"354",13096228
"355",4147023
"356",222733
"357",3729590
"358",1219991
"359",91272
"360",675311
"361",298326
"362",897142
"363",74732
"364",48369
"365",34642
"366",620056
"367",1645635
"368",61626
"369",1057088
"370",215754
"371",85396
"372",138091
"373",2216955
"374",1253347
"375",52698
"376",104601
"377",10206
"378",473574
"379",1306907
"380",28377
"381",6971
"382",17401
"383",21819
"384",53781
"385",40493
"386",25944
"387",156946
"388",302759
"389",67720
"390",172060
"391",15161
"392",416935
"393",125073
"394",431367
"395",1651982
"396",2065737
"397",997273
"398",5382939
"399",68232
"400",1933321
"401",5870562
"402",550164
"403",5528041
"404",8381928
"405",8448459
"406",1961210
"407",6773186
"408",1750930
"409",5267597
"410",6644843
"411",2349049
"412",581128
"413",623882
"414",384822
"415",2510608
"416",135223
"417",1260077
"418",738451
"419",312619
"420",1865557
"421",1303981
"422",5669551
"423",203072
"424",3311052
"425",969787
"426",3068325
"427",1688825
"428",984586
"429",6347912
"430",4820380
"431",7114050
"432",11588052
"433",57506
"434",343368
"435",565077
"436",2560215
"437",206790
"438",450561
"439",28577
"440",1006533
"441",194506
"442",1431428
"443",642824
"444",4393668
"445",634313
"446",990900
"447",1273104
"448",435717
"449",207212
"450",-22229
"451",199395
"452",46024
"453",479967
"454",60992
"455",35582
"456",210473
"457",1654
"458",335598
"459",689055
"460",338154
"461",178343
"462",199926
"463",116328
"464",3513473
"465",336826
"466",1322565
"467",2281042
"468",935740
"469",1931589
"470",84373
"471",1374951
"472",1156532
"473",3933120
"474",1724510
"475",1238987
"476",1329886
"477",1297345
"478",12703236
"479",154031
"480",4507265
"481",1799620
"482",518493
"483",24352
"484",8874568
"485",5854
"486",126
"487",183409
"488",281471
"489",8340740
"490",10270455
"491",123697
"492",286585
"493",1079267
"494",4421511
"495",2285583
"496",1023616
"497",741985
"498",81949
"499",1061362
"500",13922228
"501",33389
"502",2276979
"503",402811
"504",-1211
"505",2738013
"506",584421
"507",414385
"508",2667018
"509",6817796
"510",503583
"511",7714747
"512",5308582
"513",7048680
"514",835161
"515",3411324
"516",352661
"517",2488204
"518",2406230
"519",1413047
"520",1949102
"521",4364239
"522",28286
"523",453723
"524",2660501
"525",1360263
"526",977144
"527",8785357
"528",1880293
"529",1153199
"530",7185193
"531",746512
"532",25621
"533",759153
"534",329312
"535",570538
"536",417537
"537",274409
"538",4509075
"539",1519275
"540",6782904
"541",16540421
"542",1202487
"543",1382099
"544",907268
"545",5983256
"546",2588655
"547",7062669
"548",2249157
"549",3809539
"550",1482307
"551",2697449
"552",169799
"553",759992
"554",2231681
"555",647165
"556",3627949
"557",655234
"558",881917
"559",1862370
"560",581675
"561",1121771
"562",714921
"563",2848445
"564",1133049
"565",304663
"566",404682
"567",83665
"568",1317042
"569",772519
"570",889590
"571",4498535
"572",6180356
"573",28749
"574",27849
"575",16300393
"576",3677205
"577",170910
"578",2625010
"579",1215140
"580",2401789
"581",3582357
"582",680589
"583",385337
"584",3162321
"585",793391
"586",-872
"587",528116
"588",1096869
"589",109578
"590",1427337
"591",139125
"592",2288778
"593",953564
"594",712064
"595",49023
"596",349676
"597",13357
"598",437994
"599",68792
"600",32314
"601",200416
"602",2037
"603",372694
"604",9087671
"605",3699671
"606",2209039
"607",11473483
"608",3708004
"609",504206
"610",174671
"611",443127
"612",271620
"613",83628
"614",2283196
"615",908420
"616",63502
"617",683077
"618",350636
"619",144418
"620",205128
"621",68602
"622",131141
"623",392831
"624",696465
"625",1592364
"626",759938
"627",95502
"628",1143412
"629",2537512
"630",5703301
"631",1955806
"632",2237143
"633",132817
"634",1979458
"635",4212166
"636",205702
"637",1422352
"638",382593
"639",830421
"640",899099
"641",117997
"642",1155895
"643",253776
"644",650895
"645",89865
"646",1005088
"647",4464
"648",229264
"649",288774
"650",463944
"651",280230
"652",231351
"653",109967
"654",453260
"655",229509
"656",310439
"657",679188
"658",943665
"659",209977
"660",380727
"661",39177
"662",367674
"663",88182
"664",2891664
"665",485480
"666",821212
"667",273755
"668",672400
"669",73054
"670",74809
"671",111493
"672",44122
"673",883970
"674",151286
"675",1832305
"676",6215424
"677",471393
"678",3984730
"679",117087
"680",756241
"681",13925202
"682",7703504
"683",1823713
"684",115452
"685",1488815
"686",66332
"687",3061952
"688",206427
"689",77731
"690",1975046
"691",6742825
"692",2654533
"693",74860
"694",5846192
"695",4037679
"696",247393
"697",1452504
"698",30461
"699",346815
"700",4380721
"701",-168282
"702",231743
"703",1035477
"704",396433
"705",3080046
"706",1137172
"707",4562337
"708",7616769
"709",180476
"710",25
"711",540572
"712",52430
"713",271745
"714",6428309
"715",151428
"716",2515956
"717",4427951
"718",1019797
"719",1749703
"720",2265361
"721",11082051
"722",22947
"723",473515
"724",966872
"725",2971420
"726",458460
"727",349896
"728",105827
"729",79707
"730",9380604
"731",224809
"732",6475304
"733",97728
"734",1386622
"735",4388456
"736",910199
"737",44359
"738",2056414
"739",155028
"740",3569773
"741",3109022
"742",112804
"743",4011835
"744",131038
"745",24302
"746",655348
"747",51729
"748",272430
"749",725943
"750",9443574
"751",10642056
"752",111641
"753",208224
"754",346106
"755",5639846
"756",641754
"757",58482
"758",1828139
"759",650372
"760",1127580
"761",153657
"762",2570995
"763",7525841
"764",1892407
"765",1566408
"766",365514
"767",46064
"768",1462267
"769",3187980
"770",925122
"771",636855
"772",568151
"773",140695
"774",355907
"775",39415
"776",85005
"777",20409
"778",3300
"779",31903
"780",407275
"781",132783
"782",8102
"783",238425
"784",23243
"785",52075
"786",2088284
"787",1757965
"788",2458001
"789",569159
"790",3749871
"791",476051
"792",4770735
"793",309893
"794",2080844
"795",36989
"796",2890666
"797",3595624
"798",918401
"799",783207
"800",434851
"801",219102
"802",1356520
"803",1924851
"804",5067155
"805",892760
"806",496118
"807",1042060
"808",6909992
"809",325380
"810",248561
"811",377244
"812",5489
"813",476985
"814",193233
"815",438254
"816",214265
"817",5391050
"818",56493
"819",4640967
"820",4278847
"821",-96675
"822",314759
"823",293731
"824",10301813
"825",473381
"826",15883
"827",71002
"828",576818
"829",1616733
"830",500162
"831",951259
"832",901934
"833",1456342
"834",152
"835",-8829
"836",1521633
"837",7078350
"838",25090
"839",418234
"840",3307944
"841",1409193
"842",8731787
"843",4323502
"844",4455605
"845",2347953
"846",3344141
"847",53368
"848",1266554
"849",5997670
"850",281916
"851",380271
"852",3481581
"853",1158743
"854",5339284
"855",227360
"856",4452809
"857",694107
"858",202164
"859",18845
"860",884778
"861",2268674
"862",450863
"863",1543940
"864",2384983
"865",3813313
"866",504771
"867",19904661
"868",2013971
"869",8016443
"870",4558083
"871",4160638
"872",336014
"873",660620
"874",640237
"875",67489
"876",81289
"877",311910
"878",3404480
"879",158459
"880",755907
"881",6129238
"882",2341491
"883",115344
"884",3764482
"885",-2159
"886",7575094
"887",46211
"888",6467284
"889",478019
"890",145661
"891",62470
"892",115092
"893",13128
"894",389952
"895",659086
"896",2016799
"897",106711
"898",30345613
"899",821249
"900",5222750
"901",287843
"902",60120
"903",3149878
"904",3253590
"905",2018289
"906",123320
"907",8462502
"908",208488
"909",277186
"910",59982
"911",71633
"912",110869
"913",1273109
"914",1148088
"915",453689
"916",1509953
"917",233982
"918",145634
"919",1080121
"920",4394749
"921",760006
"922",3407822
"923",690044
"924",1578456
"925",454711
"926",919992
"927",209335
"928",108927
"929",957157
"930",6461247
"931",312898
"932",-52075
"933",917047
"934",614930
"935",1871817
"936",385657
"937",2581908
"938",569487
"939",2185455
"940",1221755
"941",513089
"942",220947
"943",381900
"944",11816
"945",54633
"946",899002
"947",1367902
"948",99309
"949",266618
"950",36889
"951",288809
"952",79877
"953",42095
"954",121105
"955",20817
"956",109468
"957",403154
"958",6239731
"959",-4636
"960",1121280
"961",1754286
"962",42950
"963",2769615
"964",115848
"965",13764501
"966",5066698
"967",4806168
"968",301887
"969",418010
"970",69241
"971",1348842
"972",614613
"973",910002
"974",1554943
"975",171164
"976",2083053
"977",2986276
"978",2641116
"979",956543
"980",425582
"981",6005862
"982",188500
"983",802622
"984",1454952
"985",532285
"986",1810958
"987",242461
"988",83736
"989",120752
"990",81449
"991",1877760
"992",2567345
"993",2017315
"994",52770
"995",6289897
"996",528671
"997",410009
"998",106153
"999",1580189
"1000",51575
"1001",3186800
"1002",179318
"1003",608390
"1004",3653786
"1005",158247
"1006",803396
"1007",1255611
"1008",772938
"1009",409460
"1010",20168
"1011",546587
"1012",563906
"1013",666660
"1014",439630
"1015",106275
"1016",675766
"1017",108971
"1018",42239
"1019",6159390
"1020",3532512
"1021",73954
"1022",3872047
"1023",819563
"1024",617638
"1025",3312987
"1026",697390
"1027",861518
"1028",863766
"1029",1185843
"1030",2683882
"1031",2147633
"1032",403261
"1033",374395
"1034",97660
"1035",83731
"1036",316696
"1037",-11287
"1038",127815
"1039",2059890
"1040",161870
"1041",172522
"1042",475305
"1043",505462
"1044",1986816
"1045",77162
"1046",801987
"1047",507867
"1048",841182
"1049",315643
"1050",989900
"1051",501900
"1052",1018492
"1053",134685
"1054",4715245
"1055",-57
"1056",143743
"1057",9663384
"1058",980439
"1059",2842799
"1060",352930
"1061",1922877
"1062",1657280
"1063",765988
"1064",8420699
"1065",1651555
"1066",621393
"1067",134242
"1068",163007
"1069",9654562
"1070",169640
"1071",32969
"1072",50929
"1073",222440
"1074",707325
"1075",44453
"1076",1087723
"1077",572600
"1078",2274322
"1079",16588
"1080",97052
"1081",1006840
"1082",27940
"1083",28525
"1084",232727
"1085",564717
"1086",176649
"1087",30363
"1088",293182
"1089",239606
"1090",57600
"1091",159928
"1092",57231
"1093",129168
"1094",397019
"1095",365498
"1096",471325
"1097",37100
"1098",23643
"1099",37225
"1100",74946
"1101",18997
"1102",396024
"1103",725338
"1104",204487
"1105",1040723
"1106",1658119
"1107",885654
"1108",1486644
"1109",94893
"1110",247183
"1111",1911410
"1112",396194
"1113",1013616
"1114",39974
"1115",4775391
"1116",2387273
"1117",1381297
"1118",2807757
"1119",3548697
"1120",1400764
"1121",1157448
"1122",4180079
"1123",921074
"1124",1049629
"1125",8818257
"1126",294224
"1127",1666
"1128",1789638
"1129",7111
"1130",2434885
"1131",1213360
"1132",250366
"1133",1043993
"1134",17418
"1135",2111263
"1136",1995494
"1137",1084602
"1138",748004
"1139",4568619
"1140",260114
"1141",618439
"1142",2626529
"1143",2156887
"1144",222805
"1145",86058
"1146",63874
"1147",38677
"1148",165731
"1149",1057708
"1150",465449
"1151",1804968
"1152",99420
"1153",122537
"1154",1624735
"1155",49444
"1156",2139471
"1157",3277329
"1158",1083938
"1159",2076600
"1160",3061813
"1161",830995
"1162",1284203
"1163",3303029
"1164",377859
"1165",1574409
"1166",-19267
"1167",7027634
"1168",1975756
"1169",167199
"1170",1509849
"1171",624910
"1172",678566
"1173",11091
"1174",2696338
"1175",140147
"1176",69825
"1177",139000
"1178",850970
"1179",91867
"1180",92177
"1181",639926
"1182",348521
"1183",1689928
"1184",103225
"1185",10409
"1186",244795
"1187",19759
"1188",202086
"1189",2015535
"1190",514421
"1191",41205
"1192",108412
"1193",42222
"1194",155965
"1195",822390
"1196",74576
"1197",75819
"1198",1053445
"1199",5301815
"1200",1791814
"1201",2017821
"1202",354353
"1203",724540
"1204",2106298
"1205",88809
"1206",3591443
"1207",58173
"1208",840161
"1209",15580469
"1210",1423917
"1211",1493262
"1212",264
"1213",3342351
"1214",5719862
"1215",411282
"1216",3326344
"1217",1711372
"1218",2219287
"1219",199938
"1220",59202
"1221",2732778
"1222",930423
"1223",2850146
"1224",1916315
"1225",1335556
"1226",91377
"1227",210090
"1228",6938468
"1229",942814
"1230",357912
"1231",183721
"1232",-6671
"1233",69984
"1234",236592
"1235",1389650
"1236",2465110
"1237",959827
"1238",1323418
"1239",516439
"1240",1626178
"1241",606020
"1242",1968830
"1243",4041205
"1244",120671
"1245",2208855
"1246",52099
"1247",1335904
"1248",57087
"1249",2018952
"1250",1603445
"1251",3584645
"1252",285831
"1253",170320
"1254",1561156
"1255",130191
"1256",21287269
"1257",608547
"1258",1530163
"1259",70995
"1260",1184785
"1261",568431
"1262",1336295
"1263",15306239
"1264",861956
"1265",2497859
"1266",338253
"1267",1967151
"1268",294312
"1269",8492182
"1270",2398069
"1271",100013
"1272",405858
"1273",1295411
"1274",177253
"1275",56838
"1276",58169
"1277",437218
"1278",604122
"1279",107787
"1280",21441
"1281",139201
"1282",2326
"1283",2125057
"1284",4848282
"1285",618604
"1286",2962118
"1287",123897
"1288",133603
"1289",17014
"1290",2321778
"1291",11436736
"1292",573374
"1293",90592
"1294",4562984
"1295",3263081
"1296",206353
"1297",2086421
"1298",6612002
"1299",5369164
"1300",31224
"1301",413216
"1302",406132
"1303",93180
"1304",797398
"1305",227725
"1306",2088852
"1307",63709
"1308",3798343
"1309",8195977
"1310",848063
"1311",64365
"1312",863062
"1313",1285963
"1314",584517
"1315",2684235
"1316",2991742
"1317",1002103
"1318",248856
"1319",1001153
"1320",367952
"1321",589677
"1322",1081261
"1323",293784
"1324",567291
"1325",291639
"1326",256173
"1327",3713755
"1328",1850125
"1329",2357013
"1330",1417231
"1331",20876
"1332",1395567
"1333",168972
"1334",2451738
"1335",3338422
"1336",2756
"1337",290584
"1338",145484
"1339",274320
"1340",50804
"1341",27358
"1342",74112
"1343",244499
"1344",575242
"1345",46679
"1346",174742
"1347",621044
"1348",1191671
"1349",697446
"1350",184796
"1351",3490069
"1352",2292050
"1353",206795
"1354",3392737
"1355",1891855
"1356",7693743
"1357",23698
"1358",581356
"1359",697842
"1360",7146
"1361",152100
"1362",418185
"1363",148424
"1364",668861
"1365",2647129
"1366",3046654
"1367",761447
"1368",461034
"1369",278322
"1370",241558
"1371",2188988
"1372",638538
"1373",1000707
"1374",421151
"1375",2255706
"1376",402824
"1377",239210
"1378",580568
"1379",370850
"1380",41742
"1381",4160572
"1382",191833
"1383",406429
"1384",419061
"1385",847973
"1386",899602
"1387",727754
"1388",4932693
"1389",197299
"1390",279780
"1391",91530
"1392",51485
"1393",610594
"1394",70270
"1395",48788
"1396",101868
"1397",284144
"1398",99
"1399",238739
"1400",2581
"1401",21009
"1402",37170
"1403",179611
"1404",505981
"1405",204430
"1406",4005
"1407",113570
"1408",281501
"1409",728157
"1410",188176
"1411",4906062
"1412",1364968
"1413",1023418
"1414",2029664
"1415",141693
"1416",307545
"1417",213339
"1418",2774159
"1419",505388
"1420",475145
"1421",9663
"1422",844349
"1423",416293
"1424",266067
"1425",432216
"1426",313715
"1427",1306289
"1428",4796656
"1429",455232
"1430",458703
"1431",411331
"1432",232694
"1433",303181
"1434",12523
"1435",26477
"1436",135246
"1437",77456
"1438",281974
"1439",24554
"1440",21911
"1441",242343
"1442",88588
"1443",15178172
"1444",107089
"1445",52967
"1446",223090
"1447",2849338
"1448",2686099
"1449",372542
"1450",2292978
"1451",138376
"1452",13415
"1453",23708
"1454",328787
"1455",102606
"1456",231447
"1457",807753
"1458",8208606
"1459",106168
"1460",61188
"1461",219585
"1462",59442
"1463",142151
"1464",269410
"1465",2489075
"1466",1870841
"1467",688454
"1468",729523
"1469",561306
"1470",268691
"1471",2232244
"1472",119306
"1473",1328067
"1474",455738
"1475",67761
"1476",90361
"1477",2494420
"1478",325550
"1479",297654
"1480",615492
"1481",95554
"1482",674921
"1483",574463
"1484",66575
"1485",544465
"1486",350153
"1487",274581
"1488",17993
"1489",65600
"1490",734652
"1491",100014
"1492",50073
"1493",956157
"1494",44785
"1495",525809
"1496",49801
"1497",1186138
"1498",46210
"1499",10723
"1500",829170
"1501",257109
"1502",34885
"1503",384204
"1504",55100
"1505",1215653
"1506",41880
"1507",459381
"1508",150005
"1509",154048
"1510",14816
"1511",67622
"1512",28303
"1513",226843
"1514",345640
"1515",99080
"1516",638292
"1517",6258264
"1518",412965
"1519",439105
"1520",2858876
"1521",117192
"1522",325268
"1523",397026
"1524",746524
"1525",380271
"1526",7140535
"1527",25555
"1528",199555
"1529",568718
"1530",976068
"1531",977696
"1532",3573750
"1533",4047877
"1534",421664
"1535",125437
"1536",1528544
"1537",153216
"1538",437468
"1539",-12827
"1540",283628
"1541",151822
"1542",33775
"1543",22282
"1544",1991304
"1545",129822
"1546",398106
"1547",1994320
"1548",152187
"1549",184834
"1550",1366019
"1551",295427
"1552",578677
"1553",187854
"1554",239205
"1555",267688
"1556",1845571
"1557",1862369
"1558",1662755
"1559",171012
"1560",739894
"1561",33716
"1562",1160649
"1563",4695
"1564",1227902
"1565",3156117
"1566",77447
"1567",1805526
"1568",110552
"1569",154167
"1570",1225784
"1571",444561
"1572",123310
"1573",3504061
"1574",99920
"1575",1804163
"1576",17602
"1577",62967
"1578",35321
"1579",78691
"1580",6608
"1581",377606
"1582",434391
"1583",24829
"1584",256057
"1585",184690
"1586",1325949
"1587",62276
"1588",169545
"1589",18563
"1590",664231
"1591",261984
"1592",248649
"1593",69379
"1594",782267
"1595",180076
"1596",5708
"1597",141161
"1598",124507
"1599",179510
"1600",114835
"1601",84968
"1602",4670
"1603",10095
"1604",277183
"1605",402274
"1606",2134354
"1607",677739
"1608",2283720
"1609",4018047
"1610",565884
"1611",113722
"1612",1180182
"1613",284519
"1614",288585
"1615",601608
"1616",9738912
"1617",2484446
"1618",363693
"1619",5360971
"1620",1777887
"1621",1904492
"1622",5774650
"1623",2592343
"1624",618515
"1625",351812
"1626",674891
"1627",3307033
"1628",4091395
"1629",4286168
"1630",3150778
"1631",528332
"1632",5693255
"1633",5718801
"1634",2336788
"1635",2246990
"1636",17569
"1637",441486
"1638",253596
"1639",359674
"1640",1254499
"1641",268311
"1642",177068
"1643",275701
"1644",595021
"1645",1708672
"1646",626993
"1647",201997
"1648",1455210
"1649",46347
"1650",52977
"1651",22585
"1652",701363
"1653",130851
"1654",442155
"1655",166381
"1656",1364214
"1657",548117
"1658",574597
"1659",1501823
"1660",88584
"1661",174314
"1662",698678
"1663",238397
"1664",40182
"1665",462416
"1666",640040
"1667",420667
"1668",436004
"1669",675496
"1670",230314
"1671",625698
"1672",64015
"1673",19382
"1674",505133
"1675",563846
"1676",866191
"1677",114816
"1678",2275287
"1679",8822177
"1680",621212
"1681",1532226
"1682",183125
"1683",151830
"1684",14484
"1685",485921
"1686",110675
"1687",280466
"1688",127298
"1689",264438
"1690",108532
"1691",47530
"1692",1044534
"1693",1046395
"1694",41539
"1695",430903
"1696",121578
"1697",5851
"1698",294125
"1699",124591
"1700",240767
"1701",214147
"1702",21536
"1703",174173
"1704",589032
"1705",721937
"1706",2013
"1707",181367
"1708",1179793
"1709",26221
"1710",354795
"1711",857457
"1712",764555
"1713",8759
"1714",111421
"1715",70444
"1716",436783
"1717",73244
"1718",151114
"1719",688143
"1720",92440
"1721",36417
"1722",222716
"1723",511771
"1724",123879
"1725",238949
"1726",131147
"1727",421006
"1728",121073
"1729",237401
"1730",193094
"1731",537022
"1732",29245
"1733",150474
"1734",625719
"1735",560729
"1736",164332
"1737",129649
"1738",1131
"1739",424020
"1740",732720
"1741",522459
"1742",305962
"1743",180258
"1744",6361
"1745",368749
"1746",381694
"1747",22661
"1748",103803
"1749",485396
"1750",272376
"1751",40153
"1752",117199
"1753",861230
"1754",39160
"1755",40022
"1756",17673
"1757",224259
"1758",90265
"1759",109304
"1760",267973
"1761",164323
"1762",77274
"1763",682297
"1764",120494
"1765",1898178
"1766",513949
"1767",1346566
"1768",623767
"1769",3204851
"1770",919767
"1771",203462
"1772",1216724
"1773",1787713
"1774",3441221
"1775",457019
"1776",319303
"1777",150131
"1778",309886
"1779",1221049
"1780",355897
"1781",2333145
"1782",312441
"1783",1589862
"1784",6877723
"1785",241514
"1786",1620777
"1787",1017780
"1788",614059
"1789",1787051
"1790",115156
"1791",379411
"1792",501228
"1793",2909045
"1794",3384981
"1795",562225
"1796",3638357
"1797",1697934
"1798",713838
"1799",1798431
"1800",597940
"1801",2141337
"1802",2447381
"1803",1025476
"1804",2203498
"1805",622351
"1806",893465
"1807",313694
"1808",30047
"1809",256856
"1810",14345563
"1811",36427
"1812",3319333
"1813",180881
"1814",737104
"1815",2796920
"1816",1071299
"1817",1648411
"1818",221993
"1819",1916138
"1820",388835
"1821",593004
"1822",383290
"1823",892454
"1824",993050
"1825",824915
"1826",286763
"1827",33987
"1828",447709
"1829",827144
"1830",265235
"1831",158194
"1832",396302
"1833",169874
"1834",196884
"1835",74035
"1836",573552
"1837",10770
"1838",890590
"1839",1106578
"1840",513073
"1841",249545
"1842",208727
"1843",81707
"1844",1751734
"1845",100280
"1846",65868
"1847",111679
"1848",2425644
"1849",8412
"1850",254283
"1851",301818
"1852",575972
"1853",809699
"1854",-7420
"1855",768996
"1856",5530795
"1857",17017
"1858",1512010
"1859",852459
"1860",414246
"1861",444500
"1862",216747
"1863",550313
"1864",219823
"1865",762970
"1866",812027
"1867",742027
"1868",301053
"1869",1142860
"1870",3542889
"1871",140933
"1872",115077
"1873",46097
"1874",252801
"1875",43255
"1876",393
"1877",141
"1878",6405
"1879",1371410
"1880",7136150
"1881",1713124
"1882",277647
"1883",1852030
"1884",1896214
"1885",423264
"1886",1402051
"1887",102172
"1888",2971238
"1889",10955833
"1890",4232128
"1891",6264313
"1892",550135
"1893",2030783
"1894",962692
"1895",886617
"1896",38706
"1897",155782
"1898",483837
"1899",86526
"1900",2467663
"1901",1479596
"1902",1821752
"1903",323306
"1904",228537
"1905",1059524
"1906",11017643
"1907",1145950
"1908",1930404
"1909",15021
"1910",140738
"1911",1028348
"1912",6787185
"1913",14306346
"1914",8886894
"1915",669532
"1916",330579
"1917",-986
"1918",3062841
"1919",3397193
"1920",9431254
"1921",4499241
"1922",4942304
"1923",2093504
"1924",127081
"1925",1316265
"1926",1046471
"1927",215374
"1928",617983
"1929",691484
"1930",13156540
"1931",1470544
"1932",1125043
"1933",916037
"1934",606715
"1935",46169
"1936",300905
"1937",437234
