"","distances"
"1",357462
"2",48405
"3",19556
"4",49039
"5",166178
"6",23143
"7",581698
"8",875226
"9",2923029
"10",1853098
"11",2413087
"12",606379
"13",19385
"14",6654
"15",374511
"16",150311
"17",132102
"18",3477318
"19",321330
"20",814450
"21",204265
"22",559000
"23",1206407
"24",294853
"25",336851
"26",527629
"27",356391
"28",2081496
"29",71231
"30",162523
"31",103500
"32",491653
"33",13653
"34",663731
"35",701197
"36",1355023
"37",94023
"38",1080047
"39",110760
"40",95977
"41",551124
"42",-618
"43",2241690
"44",731188
"45",37904
"46",714086
"47",358938
"48",1919670
"49",81883
"50",897768
"51",1227981
"52",84083
"53",59560
"54",891141
"55",166495
"56",1005597
"57",88724
"58",15506
"59",2172362
"60",1948927
"61",22968
"62",124931
"63",15818
"64",1663830
"65",304504
"66",165539
"67",1063152
"68",2764063
"69",303724
"70",928040
"71",68568
"72",17
"73",1797924
"74",179088
"75",5650146
"76",279613
"77",2793550
"78",145060
"79",188507
"80",1357773
"81",353711
"82",2830173
"83",6734256
"84",560194
"85",8974
"86",6605711
"87",2129022
"88",157983
"89",215341
"90",2238481
"91",1356740
"92",409109
"93",96024
"94",1654155
"95",587553
"96",1354237
"97",4939694
"98",739789
"99",2527727
"100",5068756
"101",267982
"102",520022
"103",123300
"104",24030
"105",688012
"106",480106
"107",47257
"108",223095
"109",226511
"110",40724
"111",276733
"112",3873937
"113",1362079
"114",756032
"115",1101586
"116",457031
"117",25287994
"118",815822
"119",1323804
"120",3191598
"121",66942
"122",150458
"123",488746
"124",492164
"125",219351
"126",38116
"127",1486692
"128",78011
"129",44802
"130",258453
"131",31047
"132",983138
"133",44125
"134",106110
"135",68104
"136",33381
"137",22100
"138",27015
"139",711125
"140",188168
"141",478570
"142",13308
"143",1413022
"144",646421
"145",1439180
"146",-128
"147",41634
"148",618268
"149",244287
"150",607852
"151",766848
"152",2818044
"153",62497
"154",1028755
"155",554313
"156",1613921
"157",3002222
"158",739648
"159",656587
"160",4856265
"161",960201
"162",3323237
"163",53614
"164",1192478
"165",1697241
"166",10824321
"167",126951
"168",3376085
"169",70775
"170",34517
"171",1538149
"172",1378539
"173",205379
"174",1027086
"175",38817
"176",1938309
"177",1960519
"178",545932
"179",706507
"180",850204
"181",630319
"182",2551566
"183",7037060
"184",51041
"185",374210
"186",808112
"187",1852942
"188",348780
"189",238931
"190",1119325
"191",1735351
"192",1143828
"193",2236308
"194",630122
"195",2543043
"196",267020
"197",6519924
"198",3844614
"199",17603
"200",180610
"201",33087
"202",3195926
"203",1812210
"204",168237
"205",839541
"206",368473
"207",355774
"208",7039870
"209",989869
"210",4026564
"211",358973
"212",415471
"213",19032
"214",248748
"215",574616
"216",294575
"217",1027727
"218",81906
"219",1035414
"220",334328
"221",46881
"222",86310
"223",1285286
"224",1512629
"225",4957153
"226",112146
"227",15438
"228",1041477
"229",104566
"230",260795
"231",229902
"232",972925
"233",2151428
"234",2887084
"235",428426
"236",1903641
"237",5188531
"238",637466
"239",1512678
"240",1865267
"241",2503705
"242",375333
"243",5242249
"244",1710302
"245",1075699
"246",843734
"247",692167
"248",114739
"249",323483
"250",1255268
"251",1350217
"252",18635
"253",17663
"254",34491
"255",120880
"256",150128
"257",10077734
"258",502090
"259",1872750
"260",7450467
"261",1443736
"262",118115
"263",5499638
"264",2639208
"265",644937
"266",4317255
"267",791356
"268",88263
"269",1331307
"270",8447995
"271",4919010
"272",602060
"273",237532
"274",259708
"275",2468822
"276",3744574
"277",597644
"278",663232
"279",15394039
"280",6446387
"281",1443117
"282",482974
"283",936595
"284",2357175
"285",1733635
"286",168068
"287",934644
"288",1196109
"289",919351
"290",14944
"291",4619507
"292",1713814
"293",1026343
"294",-53
"295",892047
"296",3430424
"297",902537
"298",5424507
"299",1188154
"300",1086729
"301",813342
"302",4985749
"303",587775
"304",251003
"305",2543523
"306",1089029
"307",71266
"308",259584
"309",3345060
"310",115060
"311",450919
"312",8519308
"313",646556
"314",549873
"315",1595060
"316",10333
"317",89443
"318",210871
"319",34842
"320",157105
"321",371222
"322",3801477
"323",3637182
"324",2923087
"325",851530
"326",376849
"327",704939
"328",205702
"329",5275249
"330",331924
"331",758066
"332",1077768
"333",13491
"334",1147880
"335",4152119
"336",30362
"337",399069
"338",344938
"339",142554
"340",68188
"341",104476
"342",37675
"343",49388
"344",815915
"345",1320044
"346",1738350
"347",321504
"348",107895
"349",189518
"350",1815794
"351",8927904
"352",4752268
"353",758030
"354",399015
"355",3266687
"356",1502959
"357",864528
"358",897142
"359",212454
"360",620056
"361",1340518
"362",330526
"363",294648
"364",803253
"365",138091
"366",2008206
"367",285979
"368",840987
"369",314582
"370",37747
"371",169018
"372",58233
"373",167642
"374",7414
"375",13683
"376",41597
"377",517626
"378",139098
"379",232334
"380",168711
"381",69881
"382",170997
"383",156946
"384",302759
"385",247411
"386",285125
"387",169901
"388",101829
"389",2634236
"390",1129594
"391",585110
"392",1013565
"393",5573704
"394",7096
"395",491644
"396",4325941
"397",113368
"398",19564941
"399",7135054
"400",3211905
"401",12417996
"402",34748
"403",6251027
"404",2623695
"405",524512
"406",32976
"407",134422
"408",100956
"409",93117
"410",174646
"411",1505139
"412",2821993
"413",1716504
"414",1362658
"415",280021
"416",2473774
"417",4166154
"418",45194
"419",1385231
"420",2266411
"421",299691
"422",237096
"423",59958
"424",5734102
"425",248333
"426",3216160
"427",2558344
"428",578888
"429",733789
"430",881605
"431",662227
"432",2019717
"433",514635
"434",4667520
"435",1845826
"436",2302990
"437",803012
"438",1721556
"439",6636474
"440",1207199
"441",3017740
"442",235457
"443",794128
"444",138010
"445",194506
"446",606611
"447",1006095
"448",2259340
"449",59449
"450",1206640
"451",740725
"452",29051
"453",674983
"454",438322
"455",2368145
"456",38811
"457",71012
"458",-22229
"459",935386
"460",139348
"461",693649
"462",625119
"463",173842
"464",205529
"465",479354
"466",285046
"467",3396131
"468",64956
"469",199362
"470",932192
"471",196258
"472",2081536
"473",2903944
"474",1518309
"475",269665
"476",235496
"477",2135634
"478",7212099
"479",14543771
"480",832071
"481",1191659
"482",4793691
"483",4529983
"484",3931251
"485",402378
"486",7810678
"487",3059280
"488",3517061
"489",4733939
"490",123501
"491",1079267
"492",4421511
"493",1023316
"494",1213754
"495",1023616
"496",565478
"497",96296
"498",2488146
"499",8306755
"500",892631
"501",1042314
"502",2199309
"503",2045992
"504",2544747
"505",705519
"506",717063
"507",126388
"508",3129383
"509",8440700
"510",6094809
"511",11676826
"512",1066703
"513",1950220
"514",289633
"515",4059897
"516",3430707
"517",6875972
"518",453723
"519",4800902
"520",5228583
"521",3640107
"522",154523
"523",11097467
"524",554728
"525",734234
"526",36312
"527",329312
"528",178978
"529",14011405
"530",17302686
"531",4431083
"532",417894
"533",1596430
"534",159659
"535",1237805
"536",153277
"537",11805001
"538",291633
"539",1345538
"540",1169461
"541",1146408
"542",1997363
"543",4246810
"544",647165
"545",416936
"546",3034145
"547",120855
"548",4195430
"549",1772968
"550",161986
"551",998562
"552",3890447
"553",-335
"554",536561
"555",220228
"556",1663697
"557",2933623
"558",2979242
"559",61962
"560",5132201
"561",1250621
"562",1731135
"563",55342
"564",9798868
"565",2341802
"566",434202
"567",1282373
"568",2563087
"569",32702
"570",2424560
"571",49227
"572",8691288
"573",174737
"574",-121172
"575",3158196
"576",74437
"577",2006473
"578",461905
"579",22598
"580",1104251
"581",2123830
"582",1128244
"583",738057
"584",49023
"585",119762
"586",7810
"587",97480
"588",510140
"589",32314
"590",113639
"591",14472
"592",-152937
"593",797448
"594",1831704
"595",4213221
"596",902594
"597",137614
"598",1379093
"599",154423
"600",2881024
"601",637075
"602",2854404
"603",2651700
"604",8216255
"605",3708004
"606",379752
"607",191757
"608",723893
"609",2276391
"610",46464
"611",716456
"612",57622
"613",227499
"614",520649
"615",960286
"616",205128
"617",1612473
"618",1552637
"619",749381
"620",1402786
"621",1188534
"622",6969005
"623",4102726
"624",42563
"625",612149
"626",8137414
"627",42688
"628",881204
"629",801548
"630",89726
"631",642044
"632",963763
"633",809325
"634",940409
"635",4464
"636",16606
"637",36504
"638",352430
"639",531214
"640",280230
"641",193587
"642",79511
"643",12792
"644",16005
"645",453260
"646",676925
"647",938366
"648",945691
"649",476998
"650",2806000
"651",1779101
"652",364859
"653",601862
"654",217774
"655",74809
"656",165823
"657",280218
"658",13731
"659",13880
"660",472502
"661",126639
"662",129635
"663",1430401
"664",49645
"665",402881
"666",35045
"667",5657804
"668",4516646
"669",853321
"670",32163
"671",15500077
"672",1728439
"673",498869
"674",2947935
"675",1496904
"676",1704056
"677",913396
"678",2255648
"679",1974832
"680",1852300
"681",230229
"682",6742825
"683",2808286
"684",111007
"685",10530846
"686",211767
"687",862370
"688",277712
"689",4324871
"690",215820
"691",1280366
"692",396433
"693",7220514
"694",479083
"695",5641936
"696",3655303
"697",1324788
"698",1174568
"699",5343296
"700",450290
"701",2777302
"702",3660935
"703",1019797
"704",332718
"705",2269560
"706",1519296
"707",898736
"708",368156
"709",1046
"710",524658
"711",396948
"712",1384793
"713",4053226
"714",2453073
"715",364926
"716",291383
"717",1466
"718",89169
"719",508069
"720",1060946
"721",2862345
"722",29039
"723",292070
"724",178334
"725",247562
"726",105827
"727",79707
"728",87211
"729",1142024
"730",14023966
"731",824683
"732",479119
"733",4127324
"734",814488
"735",831953
"736",294044
"737",44359
"738",527926
"739",1647403
"740",1144955
"741",1476303
"742",817378
"743",1453673
"744",153033
"745",3035601
"746",2170060
"747",112760
"748",564266
"749",167227
"750",272430
"751",9565948
"752",10034414
"753",1039485
"754",7723462
"755",2194039
"756",4382720
"757",6666404
"758",4292213
"759",566728
"760",4657158
"761",925122
"762",1229289
"763",649699
"764",6853
"765",20409
"766",44709
"767",602879
"768",1544442
"769",180204
"770",270200
"771",1181392
"772",2960914
"773",688441
"774",8740660
"775",912265
"776",2913181
"777",6488388
"778",2732791
"779",298468
"780",2584325
"781",1025774
"782",387124
"783",1578584
"784",531114
"785",458267
"786",543751
"787",2460395
"788",81511
"789",1591770
"790",5622567
"791",41002
"792",35634
"793",531979
"794",138393
"795",476985
"796",193233
"797",474337
"798",21986
"799",9301
"800",7712142
"801",6171705
"802",4116459
"803",264807
"804",1838938
"805",9057656
"806",33122
"807",22785
"808",475333
"809",291294
"810",2399925
"811",1860233
"812",179460
"813",3032754
"814",7037500
"815",563109
"816",3883703
"817",369482
"818",9262382
"819",6653738
"820",4432219
"821",3087725
"822",317721
"823",149091
"824",1266554
"825",13043333
"826",3822370
"827",227360
"828",4452809
"829",694107
"830",202164
"831",3772247
"832",44226
"833",1543940
"834",2401486
"835",273004
"836",355750
"837",2266573
"838",1696869
"839",3436387
"840",28092
"841",43648
"842",6950339
"843",6014469
"844",523377
"845",921279
"846",955745
"847",7246602
"848",694136
"849",1220080
"850",7812772
"851",403510
"852",280552
"853",324473
"854",119696
"855",473610
"856",27225
"857",31943
"858",56694
"859",51531
"860",444457
"861",242347
"862",500842
"863",9387065
"864",5692155
"865",5915403
"866",46211
"867",5811589
"868",90316
"869",637584
"870",477780
"871",92862
"872",23405
"873",88482
"874",247484
"875",28334523
"876",5022098
"877",763412
"878",2733266
"879",5169217
"880",875602
"881",6338458
"882",7270288
"883",58331
"884",88858
"885",272733
"886",58758
"887",59982
"888",1613418
"889",1552359
"890",845877
"891",1205951
"892",2548792
"893",7964806
"894",2398453
"895",2652377
"896",1555431
"897",4672541
"898",267381
"899",315647
"900",383125
"901",2547532
"902",47245
"903",268840
"904",71855
"905",959642
"906",1613652
"907",658742
"908",22510
"909",212316
"910",-239
"911",1430019
"912",370730
"913",429328
"914",328839
"915",513089
"916",658373
"917",20154
"918",109926
"919",1999942
"920",517644
"921",315285
"922",288809
"923",19961
"924",55399
"925",42095
"926",121105
"927",20817
"928",48579
"929",107078
"930",102703
"931",158817
"932",180404
"933",98628
"934",19485
"935",255028
"936",1496318
"937",4341656
"938",3041682
"939",1452904
"940",188566
"941",189795
"942",424763
"943",4551949
"944",1461596
"945",3808825
"946",834226
"947",13700060
"948",73165
"949",1423080
"950",614613
"951",2773254
"952",799103
"953",195105
"954",219811
"955",57389
"956",8058011
"957",67041
"958",875376
"959",425582
"960",7890009
"961",46503
"962",4448937
"963",1118193
"964",9886
"965",18259
"966",1586032
"967",2567345
"968",1039490
"969",603650
"970",208563
"971",262470
"972",3702325
"973",2282011
"974",1137798
"975",1268131
"976",375487
"977",3428227
"978",608390
"979",191401
"980",446442
"981",1175849
"982",1449572
"983",262408
"984",124319
"985",1635963
"986",178953
"987",38897
"988",-3682
"989",1822748
"990",237704
"991",221470
"992",574754
"993",70398
"994",1133882
"995",429937
"996",15316
"997",6042748
"998",3532512
"999",73954
"1000",4499935
"1001",385518
"1002",2574754
"1003",28287
"1004",8044808
"1005",25582
"1006",2147633
"1007",28172
"1008",324814
"1009",158141
"1010",127815
"1011",550068
"1012",666423
"1013",458725
"1014",387122
"1015",1218158
"1016",204976
"1017",906134
"1018",914344
"1019",1576627
"1020",-19
"1021",222813
"1022",353005
"1023",1339669
"1024",443590
"1025",469251
"1026",5455725
"1027",1260353
"1028",1836453
"1029",1416151
"1030",5082604
"1031",21801
"1032",15852159
"1033",185625
"1034",2539797
"1035",8736
"1036",82909
"1037",533390
"1038",368409
"1039",9817926
"1040",190213
"1041",825684
"1042",1227915
"1043",567610
"1044",903500
"1045",87446
"1046",67784
"1047",1109127
"1048",18224
"1049",832902
"1050",609058
"1051",3852
"1052",77667
"1053",22139
"1054",369377
"1055",242487
"1056",30363
"1057",484505
"1058",31726
"1059",79654
"1060",112799
"1061",85639
"1062",196771
"1063",265859
"1064",309208
"1065",419864
"1066",31315
"1067",-47633
"1068",46943
"1069",25421
"1070",23643
"1071",114323
"1072",18997
"1073",15384
"1074",1273912
"1075",1262561
"1076",1658119
"1077",85637
"1078",202791
"1079",575203
"1080",1486644
"1081",94893
"1082",247183
"1083",1911410
"1084",396194
"1085",463236
"1086",457949
"1087",135078
"1088",4775391
"1089",-1597
"1090",168605
"1091",20045
"1092",37677
"1093",629949
"1094",273043
"1095",1338201
"1096",1793728
"1097",4780787
"1098",165995
"1099",7163791
"1100",2570942
"1101",3121053
"1102",3558042
"1103",51502
"1104",141215
"1105",1044574
"1106",304002
"1107",91501
"1108",524460
"1109",3572145
"1110",398117
"1111",653370
"1112",214980
"1113",789754
"1114",151385
"1115",962267
"1116",1248835
"1117",669389
"1118",1084602
"1119",349335
"1120",844033
"1121",3836371
"1122",65312
"1123",1225667
"1124",1916673
"1125",248114
"1126",174842
"1127",88814
"1128",62681
"1129",3624318
"1130",48
"1131",1767920
"1132",85876
"1133",125101
"1134",22941
"1135",54983
"1136",19146
"1137",37289
"1138",243293
"1139",215487
"1140",439333
"1141",122027
"1142",570875
"1143",251008
"1144",706580
"1145",1187437
"1146",87931
"1147",1803291
"1148",1503388
"1149",194155
"1150",16648
"1151",1078851
"1152",2177391
"1153",3726067
"1154",382909
"1155",80529
"1156",3248664
"1157",1284203
"1158",3303029
"1159",377859
"1160",1621592
"1161",5919435
"1162",847591
"1163",2205989
"1164",4032071
"1165",706736
"1166",469423
"1167",11622
"1168",1121357
"1169",3883
"1170",139000
"1171",457318
"1172",467313
"1173",973206
"1174",107904
"1175",907852
"1176",1127990
"1177",35656
"1178",19759
"1179",724509
"1180",1463147
"1181",60641
"1182",13554
"1183",498631
"1184",108412
"1185",575936
"1186",141264
"1187",459020
"1188",4714
"1189",43136
"1190",123498
"1191",6445202
"1192",1665428
"1193",2555966
"1194",992872
"1195",419790
"1196",1254479
"1197",3823136
"1198",5280884
"1199",11202353
"1200",1259776
"1201",127552
"1202",3323736
"1203",5059150
"1204",1903655
"1205",466421
"1206",40539
"1207",214552
"1208",3326344
"1209",1281559
"1210",118698
"1211",240993
"1212",1092392
"1213",525825
"1214",3800263
"1215",1785874
"1216",240354
"1217",2020059
"1218",246127
"1219",298622
"1220",696250
"1221",134861
"1222",225637
"1223",716959
"1224",452062
"1225",12798
"1226",1524230
"1227",6232274
"1228",566384
"1229",38565
"1230",81544
"1231",69984
"1232",5192557
"1233",846071
"1234",880152
"1235",2318511
"1236",288594
"1237",1660855
"1238",325116
"1239",2123552
"1240",291443
"1241",3077810
"1242",1524041
"1243",57087
"1244",2018952
"1245",92376
"1246",1226583
"1247",55130
"1248",1211985
"1249",2742570
"1250",466901
"1251",4420223
"1252",18286434
"1253",929891
"1254",1530163
"1255",1495216
"1256",1984774
"1257",15167574
"1258",981945
"1259",3649827
"1260",138906
"1261",525009
"1262",2268612
"1263",3700138
"1264",3737648
"1265",128203
"1266",181036
"1267",2398069
"1268",435568
"1269",507921
"1270",228639
"1271",1053530
"1272",240610
"1273",546953
"1274",103483
"1275",319
"1276",401801
"1277",132551
"1278",64109
"1279",8490
"1280",16660
"1281",35430
"1282",2326
"1283",491620
"1284",5508826
"1285",273736
"1286",463555
"1287",3120733
"1288",92279
"1289",123897
"1290",421569
"1291",366233
"1292",13304498
"1293",57875
"1294",139940
"1295",429472
"1296",204600
"1297",1371735
"1298",570688
"1299",79294
"1300",245077
"1301",1970828
"1302",220979
"1303",4680053
"1304",76619
"1305",3297952
"1306",42353
"1307",124944
"1308",239066
"1309",5850578
"1310",3590195
"1311",93180
"1312",409227
"1313",505805
"1314",119104
"1315",473160
"1316",1101000
"1317",552006
"1318",49566
"1319",3717500
"1320",6783747
"1321",2381691
"1322",824271
"1323",525826
"1324",2744841
"1325",462173
"1326",23930
"1327",212391
"1328",3438007
"1329",1563846
"1330",1493325
"1331",792680
"1332",65980
"1333",557121
"1334",443553
"1335",572206
"1336",217281
"1337",290081
"1338",18737
"1339",4353032
"1340",277120
"1341",87741
"1342",5450808
"1343",461393
"1344",170827
"1345",9304
"1346",525216
"1347",27358
"1348",20075
"1349",260547
"1350",230
"1351",575242
"1352",232403
"1353",621044
"1354",32036
"1355",261872
"1356",749714
"1357",25773
"1358",3744628
"1359",460219
"1360",267435
"1361",1958936
"1362",206795
"1363",-9270
"1364",143299
"1365",3011597
"1366",2056854
"1367",2087335
"1368",3385091
"1369",204103
"1370",1151616
"1371",315444
"1372",628407
"1373",-66239
"1374",612968
"1375",152100
"1376",418185
"1377",148424
"1378",20865
"1379",4533796
"1380",1183538
"1381",344789
"1382",179049
"1383",269105
"1384",137318
"1385",722741
"1386",2761914
"1387",118578
"1388",1607619
"1389",135866
"1390",807896
"1391",169697
"1392",1345223
"1393",45448
"1394",1863468
"1395",663855
"1396",2886795
"1397",952306
"1398",419061
"1399",192922
"1400",654464
"1401",9017496
"1402",217364
"1403",572493
"1404",179882
"1405",65175
"1406",52748
"1407",7152
"1408",1220723
"1409",99
"1410",81956
"1411",114761
"1412",2581
"1413",21009
"1414",14405
"1415",7469
"1416",179611
"1417",505981
"1418",70407
"1419",120995
"1420",4005
"1421",1290031
"1422",418896
"1423",3804715
"1424",1563908
"1425",967024
"1426",3197300
"1427",141693
"1428",307545
"1429",936397
"1430",2023931
"1431",1153300
"1432",1193075
"1433",233371
"1434",416602
"1435",1403933
"1436",492122
"1437",860238
"1438",346522
"1439",3458445
"1440",455232
"1441",107879
"1442",309082
"1443",364356
"1444",591405
"1445",92893
"1446",131610
"1447",77456
"1448",187890
"1449",117961
"1450",270938
"1451",88588
"1452",15178172
"1453",194860
"1454",3382190
"1455",324654
"1456",819395
"1457",1407901
"1458",3259924
"1459",66606
"1460",21726
"1461",45909
"1462",335851
"1463",187694
"1464",9486916
"1465",444713
"1466",44479
"1467",37181
"1468",116157
"1469",160892
"1470",86691
"1471",1194204
"1472",745258
"1473",160152
"1474",1107941
"1475",754574
"1476",688454
"1477",1336316
"1478",359421
"1479",3937200
"1480",2361212
"1481",185555
"1482",1637617
"1483",1349788
"1484",13880
"1485",2078894
"1486",79756
"1487",565965
"1488",26530
"1489",28845
"1490",17993
"1491",405953
"1492",426778
"1493",54011
"1494",321596
"1495",258342
"1496",551178
"1497",642474
"1498",653306
"1499",49801
"1500",1186138
"1501",46210
"1502",10723
"1503",1000106
"1504",241315
"1505",18931
"1506",90596
"1507",20064
"1508",882773
"1509",1182572
"1510",275715
"1511",56457
"1512",28303
"1513",436970
"1514",722405
"1515",55830
"1516",2733439
"1517",3232267
"1518",711203
"1519",439105
"1520",72709
"1521",631789
"1522",881571
"1523",136865
"1524",56394
"1525",887560
"1526",46727
"1527",383589
"1528",141408
"1529",1109355
"1530",7087574
"1531",2006615
"1532",1060956
"1533",283117
"1534",71191
"1535",7276717
"1536",31355
"1537",548829
"1538",2252036
"1539",27866
"1540",246554
"1541",957041
"1542",171376
"1543",161384
"1544",42318
"1545",449359
"1546",333561
"1547",47858
"1548",57577
"1549",213678
"1550",801984
"1551",779909
"1552",64424
"1553",714351
"1554",65327
"1555",452439
"1556",709095
"1557",41576
"1558",679832
"1559",21583
"1560",484147
"1561",485173
"1562",1845571
"1563",3730029
"1564",2241419
"1565",4695
"1566",963847
"1567",177713
"1568",3016056
"1569",735799
"1570",357276
"1571",47070
"1572",659962
"1573",1942591
"1574",399509
"1575",477313
"1576",2979132
"1577",2715603
"1578",89239
"1579",65697
"1580",62967
"1581",385795
"1582",196589
"1583",69407
"1584",31655
"1585",99674
"1586",38189
"1587",663212
"1588",1575329
"1589",18563
"1590",248934
"1591",1150046
"1592",134144
"1593",907964
"1594",62630
"1595",469374
"1596",160195
"1597",60978
"1598",76290
"1599",11029
"1600",576830
"1601",180882
"1602",5693444
"1603",3689562
"1604",614048
"1605",601608
"1606",292899
"1607",7396791
"1608",50013
"1609",1798665
"1610",67119
"1611",8355487
"1612",2420077
"1613",1080239
"1614",150158
"1615",10146253
"1616",644263
"1617",3817471
"1618",3369796
"1619",2211990
"1620",2019786
"1621",2831269
"1622",1108534
"1623",142913
"1624",649797
"1625",3486803
"1626",1156708
"1627",6479810
"1628",1769479
"1629",2262173
"1630",441486
"1631",113975
"1632",162682
"1633",546269
"1634",359674
"1635",8184
"1636",14266
"1637",650545
"1638",96037
"1639",430654
"1640",181831
"1641",491519
"1642",630079
"1643",1495817
"1644",691537
"1645",397463
"1646",676638
"1647",342079
"1648",292258
"1649",150849
"1650",701363
"1651",359800
"1652",82646
"1653",106097
"1654",516865
"1655",34514
"1656",271186
"1657",690840
"1658",128483
"1659",955261
"1660",129421
"1661",24152
"1662",252990
"1663",184066
"1664",790046
"1665",194351
"1666",901216
"1667",120531
"1668",20840
"1669",1669931
"1670",259295
"1671",854049
"1672",53023
"1673",66078
"1674",559251
"1675",49627
"1676",29976
"1677",64015
"1678",1427470
"1679",629564
"1680",723027
"1681",1163573
"1682",481256
"1683",8822177
"1684",799498
"1685",882590
"1686",167161
"1687",1940
"1688",71679
"1689",723991
"1690",668402
"1691",198862
"1692",224481
"1693",24693
"1694",88214
"1695",182879
"1696",152908
"1697",335520
"1698",678408
"1699",192777
"1700",178467
"1701",496348
"1702",64441
"1703",23795
"1704",535057
"1705",769196
"1706",1117772
"1707",36432
"1708",201101
"1709",105469
"1710",1198031
"1711",288399
"1712",11244
"1713",206279
"1714",878731
"1715",91972
"1716",289758
"1717",217304
"1718",60796
"1719",114381
"1720",47564
"1721",436783
"1722",187412
"1723",164090
"1724",501429
"1725",725777
"1726",59875
"1727",248153
"1728",238949
"1729",259351
"1730",479420
"1731",34057
"1732",183478
"1733",217796
"1734",382174
"1735",1461648
"1736",363850
"1737",1873195
"1738",10254
"1739",339683
"1740",143894
"1741",401580
"1742",155348
"1743",411798
"1744",740495
"1745",841513
"1746",65374
"1747",80387
"1748",65772
"1749",103788
"1750",17673
"1751",39190
"1752",2450
"1753",42031
"1754",101945
"1755",148445
"1756",425664
"1757",8407
"1758",569428
"1759",281326
"1760",402580
"1761",923592
"1762",123541
"1763",753717
"1764",764441
"1765",291308
"1766",623767
"1767",4537097
"1768",203462
"1769",3040323
"1770",4156711
"1771",168893
"1772",323958
"1773",1532473
"1774",355897
"1775",9664884
"1776",1238631
"1777",541471
"1778",499653
"1779",1040842
"1780",19035
"1781",662043
"1782",19584
"1783",603776
"1784",255914
"1785",72615
"1786",3236
"1787",132032
"1788",763550
"1789",82415
"1790",885764
"1791",254010
"1792",313089
"1793",189779
"1794",2138725
"1795",2893288
"1796",684035
"1797",413528
"1798",8178
"1799",491719
"1800",88813
"1801",467871
"1802",2608927
"1803",1310597
"1804",2684389
"1805",597940
"1806",2141337
"1807",999070
"1808",2527335
"1809",2291625
"1810",90903
"1811",416315
"1812",124119
"1813",324310
"1814",453873
"1815",30254
"1816",118147
"1817",9222800
"1818",2158975
"1819",3714521
"1820",1131595
"1821",484337
"1822",4773697
"1823",2178092
"1824",790299
"1825",1117239
"1826",872862
"1827",1316318
"1828",245687
"1829",1271392
"1830",383527
"1831",347149
"1832",256927
"1833",378521
"1834",394381
"1835",10770
"1836",637179
"1837",219405
"1838",365890
"1839",1419452
"1840",430167
"1841",1375739
"1842",754583
"1843",178109
"1844",2014348
"1845",467412
"1846",179705
"1847",63418
"1848",2172530
"1849",36428
"1850",4295407
"1851",219660
"1852",406527
"1853",239718
"1854",25876
"1855",431160
"1856",290880
"1857",90712
"1858",206598
"1859",349501
"1860",23903
"1861",761133
"1862",1711378
"1863",848696
"1864",50175
"1865",409040
"1866",9339
"1867",424682
"1868",1403144
"1869",665543
"1870",4997900
"1871",18091
"1872",18721
"1873",258943
"1874",36281
"1875",393
"1876",141
"1877",6405
"1878",1388397
"1879",765754
"1880",106543
"1881",947141
"1882",11631983
"1883",1562315
"1884",646769
"1885",19975420
"1886",6676002
"1887",605373
"1888",1245956
"1889",647447
"1890",259066
"1891",78154
"1892",264982
"1893",455976
"1894",491122
"1895",99901
"1896",74094
"1897",48939
"1898",22528
"1899",2467663
"1900",1785864
"1901",1456373
"1902",323306
"1903",228537
"1904",970467
"1905",14144584
"1906",319899
"1907",1028348
"1908",1373356
"1909",3211304
"1910",124423
"1911",13384200
"1912",9205582
"1913",1923380
"1914",610933
"1915",3847174
"1916",1036784
"1917",1563134
"1918",11452
"1919",9025801
"1920",105369
"1921",280404
"1922",551165
"1923",9070484
"1924",187418
"1925",110920
"1926",199601
"1927",1857378
"1928",127081
"1929",3029440
"1930",617983
"1931",866868
"1932",1766934
"1933",13608190
"1934",1059513
"1935",493409
"1936",21765
"1937",53611
