"","distances"
"1",2852
"2",145029
"3",15078
"4",107051
"5",273912
"6",29102
"7",126391
"8",210326
"9",685990
"10",198932
"11",992012
"12",227140
"13",2106037
"14",364899
"15",1434230
"16",1249270
"17",457689
"18",625193
"19",1185116
"20",18695
"21",538380
"22",55863
"23",2873101
"24",90966
"25",138125
"26",38516
"27",306379
"28",2899085
"29",336851
"30",369723
"31",391201
"32",1631085
"33",284869
"34",837840
"35",406566
"36",767879
"37",1501837
"38",196155
"39",333156
"40",543219
"41",43316
"42",445159
"43",114652
"44",240299
"45",6484
"46",645638
"47",116470
"48",1936432
"49",101944
"50",731188
"51",70665
"52",431504
"53",620027
"54",41593
"55",1354187
"56",124144
"57",290261
"58",11432
"59",11863
"60",1914846
"61",52042
"62",264762
"63",9918
"64",18337
"65",2015409
"66",88724
"67",59566
"68",159402
"69",519254
"70",483128
"71",646502
"72",64920
"73",37600
"74",2157547
"75",332554
"76",159873
"77",595862
"78",61704
"79",851138
"80",4344959
"81",221704
"82",839739
"83",1298220
"84",366233
"85",48360
"86",179088
"87",1503691
"88",1835043
"89",596546
"90",5161578
"91",2405321
"92",2137983
"93",7736568
"94",705901
"95",5200950
"96",480109
"97",51816
"98",1154753
"99",189881
"100",2610324
"101",2237872
"102",1427114
"103",2392231
"104",4790872
"105",103542
"106",8863845
"107",43238
"108",340354
"109",24030
"110",235406
"111",127348
"112",1368491
"113",6822
"114",305869
"115",755502
"116",1192986
"117",2104739
"118",990249
"119",1775593
"120",41660
"121",457031
"122",26071581
"123",203202
"124",1253907
"125",-6436
"126",675734
"127",2271878
"128",217784
"129",138616
"130",284873
"131",55337
"132",86304
"133",239785
"134",108566
"135",1995907
"136",78011
"137",157368
"138",212528
"139",188
"140",210545
"141",699958
"142",104108
"143",27015
"144",237866
"145",333864
"146",123897
"147",18219
"148",226970
"149",447767
"150",2899082
"151",419656
"152",909217
"153",71659
"154",507168
"155",4099388
"156",944892
"157",343504
"158",588876
"159",1480655
"160",2909520
"161",6281061
"162",2050871
"163",2000339
"164",1645132
"165",1337102
"166",24879
"167",6610795
"168",4444668
"169",3359076
"170",232194
"171",88837
"172",244774
"173",283757
"174",282409
"175",535269
"176",65806
"177",138086
"178",486112
"179",6604
"180",532837
"181",205379
"182",456772
"183",139681
"184",246085
"185",859154
"186",591114
"187",396154
"188",110292
"189",6485589
"190",4009104
"191",4214248
"192",1723631
"193",459229
"194",583410
"195",898205
"196",1113181
"197",102719
"198",5235130
"199",3369693
"200",3698146
"201",1528786
"202",1153146
"203",2669841
"204",15265
"205",1717670
"206",3511622
"207",5290945
"208",469845
"209",1224557
"210",6878702
"211",754481
"212",5468660
"213",740159
"214",2293365
"215",29984
"216",82715
"217",120409
"218",71880
"219",204331
"220",107877
"221",8855553
"222",1911
"223",1210538
"224",104566
"225",407037
"226",1121821
"227",2151428
"228",5765122
"229",5254400
"230",2324134
"231",1865267
"232",2684294
"233",533139
"234",340724
"235",1103183
"236",792300
"237",2541890
"238",1710302
"239",1642212
"240",1350502
"241",489216
"242",407379
"243",732111
"244",439493
"245",40651
"246",34491
"247",120880
"248",11001322
"249",407328
"250",57198
"251",2647427
"252",165913
"253",7565439
"254",118115
"255",901669
"256",1660613
"257",2501809
"258",3009439
"259",164431
"260",6945560
"261",30029
"262",722837
"263",401106
"264",6052077
"265",6969426
"266",8440246
"267",20793196
"268",92942
"269",704890
"270",1991266
"271",186663
"272",1232159
"273",264664
"274",484536
"275",244298
"276",3823590
"277",3103177
"278",1484168
"279",3200257
"280",1635626
"281",1102658
"282",-53
"283",1882683
"284",2971770
"285",211397
"286",4364225
"287",1994819
"288",162902
"289",1201131
"290",5812044
"291",525627
"292",2454667
"293",1277707
"294",978005
"295",3811151
"296",2106664
"297",10023278
"298",210871
"299",34842
"300",300130
"301",332000
"302",169140
"303",2848804
"304",2204142
"305",1688872
"306",4064880
"307",516295
"308",6457729
"309",312438
"310",88764
"311",2078522
"312",13491
"313",299349
"314",94986
"315",547379
"316",5264448
"317",31842
"318",97561
"319",112069
"320",281922
"321",815915
"322",292513
"323",713082
"324",193902
"325",127763
"326",196443
"327",638213
"328",1088875
"329",973071
"330",842175
"331",1434655
"332",12289663
"333",446567
"334",4678240
"335",279615
"336",209518
"337",2055765
"338",34642
"339",1931780
"340",1961589
"341",138091
"342",100926
"343",351090
"344",714655
"345",422501
"346",1004805
"347",82199
"348",727339
"349",-8460
"350",345094
"351",254867
"352",110322
"353",68172
"354",662278
"355",410067
"356",20361
"357",6971
"358",17401
"359",6350
"360",11708
"361",1036900
"362",585754
"363",163082
"364",874893
"365",45261
"366",3406771
"367",1199432
"368",61757
"369",6336
"370",5231551
"371",88789
"372",1933321
"373",497044
"374",2002731
"375",3315203
"376",550164
"377",5528041
"378",1721884
"379",7345363
"380",7135054
"381",3211905
"382",146487
"383",38180
"384",307933
"385",963506
"386",6876491
"387",4516157
"388",360926
"389",5597727
"390",2010713
"391",1340300
"392",2554228
"393",486158
"394",470218
"395",1260077
"396",1395251
"397",1279280
"398",2999127
"399",559234
"400",2461859
"401",1321991
"402",433657
"403",4485955
"404",5573770
"405",419402
"406",1186280
"407",237133
"408",2442124
"409",2591997
"410",5277532
"411",8981348
"412",2448500
"413",6611773
"414",57506
"415",1150540
"416",365881
"417",2645794
"418",490212
"419",377693
"420",700532
"421",1078306
"422",344685
"423",2878175
"424",1206640
"425",740725
"426",29051
"427",1217984
"428",1519330
"429",607698
"430",207212
"431",326617
"432",479967
"433",98070
"434",85388
"435",34966
"436",-8253
"437",385929
"438",382110
"439",165380
"440",338154
"441",2166453
"442",2021637
"443",336826
"444",398104
"445",6525799
"446",1374951
"447",611509
"448",2135634
"449",8554561
"450",102327
"451",11941363
"452",789941
"453",832071
"454",3461713
"455",4184093
"456",3086765
"457",33711
"458",3248817
"459",480520
"460",43837
"461",359999
"462",126
"463",183409
"464",281471
"465",13676718
"466",3299260
"467",762635
"468",1511340
"469",2464743
"470",3902289
"471",506177
"472",3704247
"473",1352109
"474",5589993
"475",415092
"476",5236893
"477",1914257
"478",2276979
"479",272804
"480",2223276
"481",94088
"482",1178519
"483",4017215
"484",5647406
"485",645375
"486",1757366
"487",11278818
"488",8012281
"489",2278766
"490",1540446
"491",2488204
"492",3430707
"493",344872
"494",6363451
"495",493361
"496",36879
"497",4800902
"498",977144
"499",2717973
"500",4813121
"501",194128
"502",1119731
"503",1542680
"504",8444878
"505",106086
"506",1277601
"507",36312
"508",3207
"509",30076
"510",6232123
"511",1102111
"512",6712738
"513",17559464
"514",356361
"515",1382099
"516",2240326
"517",304241
"518",417894
"519",1460939
"520",29
"521",1963656
"522",2588655
"523",7062669
"524",3609079
"525",2048251
"526",4652637
"527",4977497
"528",995998
"529",267010
"530",1742168
"531",795118
"532",51546
"533",796596
"534",78728
"535",2430719
"536",1850710
"537",161986
"538",998562
"539",2261825
"540",151
"541",1160754
"542",83665
"543",-335
"544",2172916
"545",26534
"546",586767
"547",11467439
"548",665134
"549",1433807
"550",639864
"551",9798868
"552",606449
"553",5714768
"554",660935
"555",3123691
"556",1215140
"557",2401789
"558",206656
"559",3374279
"560",1420889
"561",3532653
"562",1991035
"563",553076
"564",3540846
"565",1006219
"566",43496
"567",1506785
"568",33994
"569",236604
"570",126323
"571",301000
"572",2204784
"573",3220097
"574",2679901
"575",4106649
"576",411703
"577",2518741
"578",155422
"579",2267665
"580",373051
"581",11837574
"582",3937932
"583",941268
"584",73844
"585",550119
"586",182059
"587",520296
"588",205128
"589",4152
"590",43844
"591",502218
"592",8591
"593",141025
"594",252552
"595",358198
"596",696465
"597",1668388
"598",3187
"599",77825
"600",7419542
"601",2890369
"602",3888791
"603",147464
"604",236245
"605",6436084
"606",1663366
"607",23917
"608",42688
"609",669797
"610",211027
"611",730933
"612",68105
"613",733408
"614",826740
"615",39806
"616",158785
"617",47551
"618",51783
"619",582130
"620",281313
"621",204321
"622",551435
"623",88750
"624",61813
"625",843655
"626",96871
"627",362000
"628",101684
"629",453260
"630",676925
"631",208945
"632",1383136
"633",1338396
"634",1799079
"635",477745
"636",2196241
"637",64182
"638",526616
"639",217774
"640",34883
"641",150001
"642",328195
"643",-23597
"644",89837
"645",472502
"646",126639
"647",129635
"648",8550853
"649",10149644
"650",10160084
"651",88315
"652",5358236
"653",1160207
"654",97074
"655",1704056
"656",3201830
"657",2094276
"658",1428506
"659",139127
"660",327200
"661",6742825
"662",2654533
"663",192318
"664",5527849
"665",140391
"666",2464672
"667",1482574
"668",947852
"669",893641
"670",757260
"671",1882172
"672",1459444
"673",215820
"674",181467
"675",47867
"676",91687
"677",119212
"678",522577
"679",134414
"680",396433
"681",3080046
"682",1137172
"683",2493589
"684",479083
"685",1508313
"686",4836664
"687",321242
"688",1154373
"689",1064825
"690",180476
"691",2590729
"692",296020
"693",5072614
"694",688757
"695",2640936
"696",2712264
"697",5330018
"698",3279712
"699",1033629
"700",223913
"701",5213780
"702",331650
"703",656591
"704",1346362
"705",1028745
"706",65557
"707",100551
"708",-93684
"709",508069
"710",244788
"711",3041126
"712",119407
"713",98220
"714",29039
"715",216505
"716",167879
"717",45654
"718",247562
"719",105827
"720",941378
"721",8535087
"722",40159
"723",6959893
"724",1206987
"725",2387283
"726",307560
"727",1687720
"728",513076
"729",153824
"730",330293
"731",294859
"732",1469470
"733",-2905
"734",2873306
"735",56285
"736",712333
"737",2844827
"738",3346659
"739",1633194
"740",31521
"741",290409
"742",81322
"743",725943
"744",1818328
"745",7416957
"746",577309
"747",7993839
"748",1997249
"749",827667
"750",6334946
"751",2685676
"752",4374916
"753",1267167
"754",1511979
"755",2852957
"756",805323
"757",2156728
"758",6603188
"759",1664725
"760",568151
"761",88937
"762",408184
"763",39415
"764",47265
"765",67044
"766",198780
"767",172129
"768",15582
"769",222614
"770",350659
"771",591714
"772",198487
"773",119244
"774",170439
"775",24933
"776",162914
"777",781468
"778",3355437
"779",8356684
"780",793342
"781",953929
"782",6629562
"783",3546746
"784",265889
"785",413082
"786",391003
"787",219102
"788",211766
"789",298468
"790",2584325
"791",1491330
"792",13739
"793",2181561
"794",1023639
"795",9661885
"796",630327
"797",377244
"798",376437
"799",109929
"800",600152
"801",186008
"802",842105
"803",4828006
"804",1658129
"805",10207459
"806",3223082
"807",6142224
"808",175299
"809",509010
"810",6151004
"811",152
"812",1969037
"813",2417563
"814",4136495
"815",504029
"816",3307944
"817",791474
"818",492268
"819",14908721
"820",348645
"821",2095918
"822",2147051
"823",176810
"824",3344141
"825",1337871
"826",93692
"827",4245518
"828",173623
"829",423636
"830",355790
"831",5442682
"832",5605573
"833",5172955
"834",4021679
"835",3159980
"836",952642
"837",1137540
"838",3217513
"839",6190981
"840",13089603
"841",67456
"842",6680148
"843",4947516
"844",6319006
"845",160692
"846",1243777
"847",42988
"848",598193
"849",22694
"850",206208
"851",111481
"852",201249
"853",74532
"854",18625
"855",18283
"856",206973
"857",462855
"858",2242450
"859",1847085
"860",122090
"861",50826
"862",564586
"863",158459
"864",755907
"865",2212347
"866",5748816
"867",470151
"868",245726
"869",1517419
"870",1574257
"871",1627570
"872",11424069
"873",453236
"874",61361
"875",1474773
"876",47993
"877",57970
"878",247484
"879",73520
"880",585041
"881",110652
"882",1632234
"883",72160
"884",1032805
"885",31500135
"886",-32973
"887",13577832
"888",353992
"889",327868
"890",519469
"891",1755199
"892",3700412
"893",1672356
"894",1613418
"895",3033757
"896",1023786
"897",684677
"898",331736
"899",1045934
"900",3337028
"901",760006
"902",1756778
"903",1682958
"904",2405214
"905",1307314
"906",335795
"907",8180499
"908",315647
"909",445151
"910",584223
"911",1326106
"912",508823
"913",268840
"914",10603
"915",2481908
"916",389093
"917",31798
"918",538595
"919",3527
"920",99748
"921",2243067
"922",54789
"923",1233975
"924",220947
"925",303527
"926",130840
"927",236490
"928",659785
"929",1921318
"930",109814
"931",317860
"932",382769
"933",414770
"934",843586
"935",53733
"936",166747
"937",5874993
"938",5044278
"939",88398
"940",686347
"941",115848
"942",2831839
"943",1569138
"944",1461596
"945",6482610
"946",1566808
"947",5248026
"948",4429786
"949",144233
"950",301887
"951",247283
"952",1965010
"953",169382
"954",2773254
"955",799103
"956",442652
"957",728819
"958",1497801
"959",5873475
"960",67041
"961",875376
"962",3804040
"963",4362819
"964",642266
"965",4018
"966",200484
"967",1151376
"968",30751
"969",314697
"970",104354
"971",949261
"972",629503
"973",65940
"974",222681
"975",-1673
"976",206046
"977",316486
"978",7073
"979",1625669
"980",7251
"981",19611
"982",3486693
"983",52770
"984",8676773
"985",164018
"986",1895037
"987",2972697
"988",3480080
"989",194669
"990",1983072
"991",-3682
"992",393960
"993",59937
"994",279977
"995",447685
"996",546587
"997",563906
"998",81661
"999",259893
"1000",225376
"1001",16394
"1002",1031837
"1003",108971
"1004",8556031
"1005",1216330
"1006",774836
"1007",4129884
"1008",538070
"1009",2143392
"1010",903348
"1011",855414
"1012",1785367
"1013",7408337
"1014",34310
"1015",367891
"1016",127815
"1017",383235
"1018",127727
"1019",937799
"1020",495843
"1021",414015
"1022",475305
"1023",505462
"1024",906134
"1025",146852
"1026",1726481
"1027",293029
"1028",17382
"1029",2198568
"1030",443590
"1031",1292383
"1032",2753280
"1033",1365924
"1034",317508
"1035",-57
"1036",1485139
"1037",519278
"1038",2558314
"1039",5082604
"1040",4036925
"1041",1950611
"1042",1435800
"1043",8096978
"1044",485180
"1045",1966392
"1046",513166
"1047",789023
"1048",-2058
"1049",155696
"1050",9654562
"1051",169640
"1052",240167
"1053",2104948
"1054",567610
"1055",59801
"1056",631635
"1057",171599
"1058",19405
"1059",423128
"1060",636298
"1061",250662
"1062",741107
"1063",322076
"1064",28525
"1065",183461
"1066",21398
"1067",686867
"1068",53470
"1069",125138
"1070",46746
"1071",348607
"1072",284318
"1073",4415
"1074",16520
"1075",159094
"1076",1055
"1077",371835
"1078",117104
"1079",-493
"1080",737049
"1081",452360
"1082",949870
"1083",1201115
"1084",191014
"1085",1428925
"1086",85637
"1087",555231
"1088",80138
"1089",20627
"1090",1486644
"1091",589661
"1092",568025
"1093",775803
"1094",104499
"1095",1397557
"1096",5113520
"1097",2387273
"1098",784561
"1099",118423
"1100",1340682
"1101",6827726
"1102",5455112
"1103",921074
"1104",395274
"1105",8828171
"1106",473460
"1107",2475
"1108",262008
"1109",11350
"1110",46050
"1111",951995
"1112",304002
"1113",91501
"1114",184023
"1115",7111
"1116",2434885
"1117",1060731
"1118",1159200
"1119",173847
"1120",1140145
"1121",2165739
"1122",1925373
"1123",349335
"1124",4956384
"1125",6051
"1126",301423
"1127",1024795
"1128",4650323
"1129",41789
"1130",24908
"1131",81589
"1132",30644
"1133",86058
"1134",63874
"1135",102473
"1136",275653
"1137",578405
"1138",67301
"1139",45360
"1140",19264
"1141",290741
"1142",372933
"1143",1995939
"1144",1703926
"1145",1627554
"1146",216230
"1147",110495
"1148",7685993
"1149",10035718
"1150",5919435
"1151",847591
"1152",1975756
"1153",93568
"1154",4619888
"1155",726907
"1156",719580
"1157",218725
"1158",1004319
"1159",146298
"1160",1160581
"1161",733791
"1162",1240183
"1163",144925
"1164",1466856
"1165",699822
"1166",238062
"1167",189042
"1168",11891
"1169",15874
"1170",210176
"1171",272454
"1172",211044
"1173",49197
"1174",638208
"1175",26742
"1176",145632
"1177",8157407
"1178",171777
"1179",1300693
"1180",2073275
"1181",1301881
"1182",167574
"1183",4684072
"1184",2304184
"1185",1340512
"1186",8623204
"1187",1507751
"1188",2397656
"1189",5135373
"1190",3384752
"1191",2605033
"1192",4064345
"1193",389376
"1194",36550
"1195",401069
"1196",8023830
"1197",2205304
"1198",121148
"1199",190929
"1200",698177
"1201",366888
"1202",261334
"1203",160948
"1204",985509
"1205",657177
"1206",410
"1207",5846435
"1208",1728911
"1209",845742
"1210",69984
"1211",1634476
"1212",3435541
"1213",1028816
"1214",3943245
"1215",514437
"1216",287305
"1217",2990633
"1218",3077810
"1219",52099
"1220",3421853
"1221",92376
"1222",1446107
"1223",49170
"1224",4053107
"1225",607
"1226",99312
"1227",348680
"1228",1458735
"1229",20960042
"1230",298778
"1231",2447677
"1232",3762385
"1233",29189675
"1234",1097805
"1235",-10634
"1236",2386199
"1237",764429
"1238",447502
"1239",17036
"1240",207006
"1241",100013
"1242",286768
"1243",104414
"1244",228639
"1245",951557
"1246",300735
"1247",120165
"1248",139380
"1249",465483
"1250",578610
"1251",11192
"1252",25440
"1253",40752
"1254",35430
"1255",117408
"1256",2012139
"1257",2978725
"1258",367225
"1259",869893
"1260",3120733
"1261",371944
"1262",133603
"1263",14118267
"1264",144920
"1265",105953
"1266",-28617
"1267",86695
"1268",1173682
"1269",245077
"1270",708139
"1271",1413815
"1272",330795
"1273",220979
"1274",87420
"1275",537704
"1276",1963136
"1277",1159341
"1278",1506109
"1279",556150
"1280",4467543
"1281",1568166
"1282",1187373
"1283",4173198
"1284",31224
"1285",1350109
"1286",407027
"1287",227725
"1288",345794
"1289",411084
"1290",803187
"1291",271851
"1292",309388
"1293",3717500
"1294",4713333
"1295",1708042
"1296",472113
"1297",862621
"1298",1812739
"1299",525826
"1300",248586
"1301",2490460
"1302",557885
"1303",212391
"1304",3438007
"1305",195986
"1306",966774
"1307",1797946
"1308",983743
"1309",247953
"1310",21179
"1311",33890
"1312",87037
"1313",1057930
"1314",217281
"1315",83127
"1316",73934
"1317",291639
"1318",256173
"1319",319080
"1320",2148792
"1321",-85734
"1322",1104490
"1323",2180715
"1324",1087994
"1325",443027
"1326",2641782
"1327",339892
"1328",414316
"1329",5558844
"1330",28963
"1331",71542
"1332",9304
"1333",423361
"1334",126518
"1335",290871
"1336",709965
"1337",566900
"1338",241679
"1339",401575
"1340",749714
"1341",25773
"1342",450643
"1343",361190
"1344",2611824
"1345",2318678
"1346",58857
"1347",1377525
"1348",335477
"1349",4846917
"1350",2087335
"1351",3464259
"1352",133957
"1353",763433
"1354",959319
"1355",365773
"1356",140342
"1357",697842
"1358",905806
"1359",20865
"1360",1011098
"1361",352136
"1362",5549439
"1363",346659
"1364",278322
"1365",241558
"1366",2565054
"1367",2408917
"1368",1051900
"1369",613140
"1370",402824
"1371",1299867
"1372",4119339
"1373",220805
"1374",1178886
"1375",786385
"1376",970237
"1377",8386934
"1378",572493
"1379",480269
"1380",315973
"1381",317266
"1382",610594
"1383",129231
"1384",101868
"1385",28275
"1386",20096
"1387",458145
"1388",7469
"1389",88648
"1390",61503
"1391",436602
"1392",37906
"1393",15020
"1394",70407
"1395",120995
"1396",629816
"1397",403956
"1398",35975
"1399",113120
"1400",119245
"1401",4355452
"1402",1415241
"1403",163088
"1404",1064499
"1405",3186268
"1406",48233
"1407",1108997
"1408",2122511
"1409",8951
"1410",2104488
"1411",416293
"1412",1116759
"1413",726303
"1414",128961
"1415",1538086
"1416",16078
"1417",53620
"1418",4247569
"1419",628952
"1420",182176
"1421",71923
"1422",142632
"1423",112438
"1424",6861
"1425",593958
"1426",88588
"1427",231153
"1428",14944148
"1429",771605
"1430",2846807
"1431",4888951
"1432",1075449
"1433",38876
"1434",21726
"1435",305289
"1436",344638
"1437",24394
"1438",807753
"1439",8208606
"1440",106168
"1441",274849
"1442",13467
"1443",268069
"1444",346920
"1445",173463
"1446",1107849
"1447",2231148
"1448",3762246
"1449",1922782
"1450",897008
"1451",1793831
"1452",2733
"1453",4724400
"1454",393185
"1455",275616
"1456",57730
"1457",513834
"1458",66575
"1459",1022692
"1460",236925
"1461",44687
"1462",526194
"1463",153870
"1464",54011
"1465",100014
"1466",168442
"1467",642474
"1468",380033
"1469",1612191
"1470",1138052
"1471",147149
"1472",39069
"1473",1856251
"1474",297309
"1475",21727
"1476",101470
"1477",43430
"1478",134530
"1479",6065
"1480",787346
"1481",638292
"1482",2733439
"1483",4441312
"1484",142059
"1485",729521
"1486",860824
"1487",278884
"1488",32812
"1489",268083
"1490",314959
"1491",67777
"1492",8182946
"1493",107206
"1494",535103
"1495",315082
"1496",18803
"1497",21107
"1498",199555
"1499",587576
"1500",1260497
"1501",49175
"1502",3263325
"1503",621884
"1504",221707
"1505",331832
"1506",3631673
"1507",26772
"1508",655767
"1509",46451
"1510",47121
"1511",1528544
"1512",153216
"1513",91732
"1514",414814
"1515",250698
"1516",67218
"1517",1130177
"1518",25572
"1519",102828
"1520",12722
"1521",823227
"1522",47858
"1523",129765
"1524",118755
"1525",15992
"1526",35536
"1527",307453
"1528",1582
"1529",1297553
"1530",26200
"1531",266462
"1532",617635
"1533",11146
"1534",616266
"1535",65981
"1536",347859
"1537",305557
"1538",21583
"1539",32659
"1540",359436
"1541",7303
"1542",5058727
"1543",993557
"1544",171012
"1545",962066
"1546",461142
"1547",1200991
"1548",92630
"1549",521252
"1550",3016056
"1551",297156
"1552",2939619
"1553",888686
"1554",731688
"1555",123310
"1556",5326
"1557",922115
"1558",1951618
"1559",2473420
"1560",234794
"1561",89239
"1562",65697
"1563",118601
"1564",78691
"1565",400743
"1566",190581
"1567",640255
"1568",178182
"1569",1432737
"1570",131142
"1571",18563
"1572",248934
"1573",63656
"1574",2342725
"1575",5708
"1576",275988
"1577",4549
"1578",285231
"1579",201834
"1580",201291
"1581",304292
"1582",230395
"1583",677739
"1584",1639474
"1585",3156339
"1586",707243
"1587",798125
"1588",2368923
"1589",1349346
"1590",292899
"1591",7396791
"1592",568559
"1593",1300942
"1594",11912062
"1595",662356
"1596",5774650
"1597",2592343
"1598",5899481
"1599",7683265
"1600",108123
"1601",7514603
"1602",3227020
"1603",5233305
"1604",4938576
"1605",551688
"1606",315042
"1607",37411
"1608",167053
"1609",8184
"1610",580286
"1611",900965
"1612",525142
"1613",224936
"1614",603255
"1615",20320
"1616",1051775
"1617",267230
"1618",468427
"1619",155748
"1620",201997
"1621",21188
"1622",772371
"1623",288360
"1624",3468
"1625",546136
"1626",1020112
"1627",296612
"1628",265335
"1629",366202
"1630",49337
"1631",85825
"1632",64235
"1633",330779
"1634",176894
"1635",106476
"1636",45224
"1637",582570
"1638",51693
"1639",223417
"1640",11516
"1641",566561
"1642",623391
"1643",279083
"1644",506919
"1645",847918
"1646",684077
"1647",1073308
"1648",35705
"1649",47274
"1650",212859
"1651",417970
"1652",139016
"1653",86557
"1654",116635
"1655",160145
"1656",2833
"1657",175032
"1658",199574
"1659",230341
"1660",112435
"1661",3487
"1662",129513
"1663",93673
"1664",9416
"1665",798310
"1666",359024
"1667",384191
"1668",1791145
"1669",481256
"1670",5906165
"1671",3296752
"1672",2137657
"1673",14484
"1674",354111
"1675",244485
"1676",164330
"1677",268835
"1678",398418
"1679",47530
"1680",1957362
"1681",145362
"1682",10505
"1683",555080
"1684",5851
"1685",430672
"1686",87711
"1687",349906
"1688",305932
"1689",65832
"1690",464377
"1691",510
"1692",181019
"1693",741571
"1694",97961
"1695",1115614
"1696",65622
"1697",354795
"1698",108445
"1699",730260
"1700",175599
"1701",162712
"1702",31400
"1703",141261
"1704",85993
"1705",32858
"1706",547039
"1707",233950
"1708",176998
"1709",1445465
"1710",418958
"1711",153141
"1712",41929
"1713",118541
"1714",10784
"1715",184145
"1716",102963
"1717",34057
"1718",35310
"1719",128824
"1720",669448
"1721",140168
"1722",510863
"1723",339059
"1724",41018
"1725",573529
"1726",50260
"1727",233474
"1728",909459
"1729",212837
"1730",968771
"1731",143894
"1732",675273
"1733",257323
"1734",485396
"1735",272376
"1736",40153
"1737",842444
"1738",32701
"1739",31598
"1740",65772
"1741",39160
"1742",40022
"1743",17673
"1744",126876
"1745",101945
"1746",148445
"1747",878943
"1748",141502
"1749",402580
"1750",541225
"1751",339482
"1752",188341
"1753",1540464
"1754",926748
"1755",903752
"1756",2288483
"1757",4841746
"1758",2888491
"1759",457019
"1760",168893
"1761",240198
"1762",-154
"1763",3270627
"1764",9792062
"1765",561425
"1766",1508425
"1767",830005
"1768",19584
"1769",5500
"1770",401918
"1771",54381
"1772",24435
"1773",255914
"1774",1479051
"1775",791923
"1776",5330148
"1777",1502227
"1778",336108
"1779",384787
"1780",29083
"1781",478414
"1782",124838
"1783",3251869
"1784",313594
"1785",6089594
"1786",67091
"1787",931824
"1788",1241920
"1789",160192
"1790",114275
"1791",904286
"1792",3647305
"1793",80424
"1794",7524
"1795",218592
"1796",3365281
"1797",176020
"1798",7542435
"1799",7030699
"1800",869913
"1801",58217
"1802",72623
"1803",2589930
"1804",5725059
"1805",432185
"1806",563993
"1807",179652
"1808",664924
"1809",29313
"1810",346173
"1811",2069141
"1812",568851
"1813",1271392
"1814",383527
"1815",13835
"1816",762200
"1817",110869
"1818",33058
"1819",30
"1820",113482
"1821",305202
"1822",637179
"1823",219405
"1824",1812997
"1825",198458
"1826",582971
"1827",196189
"1828",25152
"1829",1475319
"1830",968070
"1831",993057
"1832",679633
"1833",997523
"1834",982977
"1835",768996
"1836",3840755
"1837",912637
"1838",25876
"1839",245914
"1840",423508
"1841",337022
"1842",165356
"1843",198063
"1844",832454
"1845",1539773
"1846",590281
"1847",254965
"1848",493693
"1849",1557994
"1850",533025
"1851",301053
"1852",1142860
"1853",404554
"1854",3455126
"1855",18721
"1856",308853
"1857",2287497
"1858",947141
"1859",6011738
"1860",659013
"1861",2141454
"1862",1896214
"1863",312961
"1864",290566
"1865",86682
"1866",1158282
"1867",646769
"1868",1127972
"1869",2817936
"1870",2563252
"1871",6027321
"1872",10790760
"1873",2224237
"1874",2103185
"1875",647447
"1876",18108
"1877",240014
"1878",1026016
"1879",377098
"1880",58235
"1881",57157
"1882",27984
"1883",2642261
"1884",1302859
"1885",2637124
"1886",970467
"1887",-82
"1888",290879
"1889",11671655
"1890",1930404
"1891",1056310
"1892",169170
"1893",1370985
"1894",-123853
"1895",-90740
"1896",846959
"1897",117353
"1898",2606056
"1899",3151548
"1900",19345619
"1901",715036
"1902",218964
"1903",9867
"1904",1140638
"1905",743298
"1906",3062841
"1907",725457
"1908",550356
"1909",4335006
"1910",6558245
"1911",581758
"1912",111796
"1913",282454
"1914",3339138
"1915",-46761
"1916",4576032
"1917",2610463
"1918",1316265
"1919",783671
"1920",451688
"1921",617983
"1922",866868
"1923",11099144
"1924",5108826
"1925",675159
"1926",162764
"1927",523058
"1928",9527
"1929",40700
"1930",478408
