"","query.number","significant","p.value","term.size","query.size","overlap.size","precision","recall","term.id","domain","subgraph.number","term.name","relative.depth","intersection"
"1",1,TRUE,0.0251,105,55,5,0.091,0.048,"GO:0072599","BP",1,"establishment of protein localization to endoplasmic reticulum",1,"ENSG00000105640,ENSG00000109475,ENSG00000122406,ENSG00000161970,ENSG00000231500"
"2",1,TRUE,0.0208,101,55,5,0.091,0.05,"GO:0045047","BP",1,"protein targeting to ER",2,"ENSG00000105640,ENSG00000109475,ENSG00000122406,ENSG00000161970,ENSG00000231500"
"3",1,TRUE,0.0179,98,55,5,0.091,0.051,"GO:0006613","BP",1,"cotranslational protein targeting to membrane",1,"ENSG00000105640,ENSG00000109475,ENSG00000122406,ENSG00000161970,ENSG00000231500"
"4",1,TRUE,0.0132,92,55,5,0.091,0.054,"GO:0006614","BP",1,"SRP-dependent cotranslational protein targeting to membrane",2,"ENSG00000105640,ENSG00000109475,ENSG00000122406,ENSG00000161970,ENSG00000231500"
"5",1,TRUE,0.0391,115,55,5,0.091,0.043,"GO:0022626","CC",2,"cytosolic ribosome",1,"ENSG00000105640,ENSG00000109475,ENSG00000122406,ENSG00000161970,ENSG00000231500"
"6",1,TRUE,0.00504,136,25,5,0.2,0.037,"KEGG:03010","keg",3,"Ribosome",1,"ENSG00000105640,ENSG00000109475,ENSG00000122406,ENSG00000161970,ENSG00000231500"
