"","query.number","significant","p.value","term.size","query.size","overlap.size","precision","recall","term.id","domain","subgraph.number","term.name","relative.depth","intersection"
"1",1,TRUE,0.0104,59,75,5,0.067,0.085,"GO:0035082","BP",3,"axoneme assembly",1,"ENSG00000105479,ENSG00000154099,ENSG00000160188,ENSG00000163885,ENSG00000167646"
"2",1,TRUE,0.0223,32,75,4,0.053,0.125,"GO:0070286","BP",3,"axonemal dynein complex assembly",2,"ENSG00000105479,ENSG00000154099,ENSG00000163885,ENSG00000167646"
"3",1,TRUE,0.0066,296,75,9,0.12,0.03,"GO:0007018","BP",2,"microtubule-based movement",1,"ENSG00000105479,ENSG00000125409,ENSG00000150672,ENSG00000154099,ENSG00000158023,ENSG00000159433,ENSG00000163885,ENSG00000172361,ENSG00000196169"
"4",1,TRUE,0.000798,68,75,6,0.08,0.088,"GO:0003341","BP",2,"cilium movement",2,"ENSG00000105479,ENSG00000125409,ENSG00000154099,ENSG00000158023,ENSG00000163885,ENSG00000172361"
"5",1,TRUE,0.0448,583,75,11,0.147,0.019,"GO:0005929","CC",1,"cilium",1,"ENSG00000105479,ENSG00000125409,ENSG00000154099,ENSG00000158023,ENSG00000160188,ENSG00000163885,ENSG00000164161,ENSG00000172361,ENSG00000173175,ENSG00000186862,ENSG00000196169"
"6",1,TRUE,0.00596,76,24,4,0.167,0.053,"KEGG:01230","keg",4,"Biosynthesis of amino acids",1,"ENSG00000092621,ENSG00000111669,ENSG00000135069,ENSG00000183010"
