"","distances"
"1",148087
"2",15078
"3",107051
"4",23097
"5",418248
"6",210326
"7",24266
"8",489066
"9",1305531
"10",245772
"11",2106037
"12",489531
"13",19561
"14",2333183
"15",1938045
"16",589785
"17",324396
"18",3793655
"19",658088
"20",241016
"21",-218069
"22",204265
"23",37887
"24",1817260
"25",694198
"26",369723
"27",94895
"28",356391
"29",187651
"30",1849183
"31",71231
"32",359808
"33",82245
"34",585000
"35",1278775
"36",279255
"37",324958
"38",879477
"39",356276
"40",954178
"41",783461
"42",2241690
"43",870383
"44",102665
"45",316048
"46",769049
"47",1354187
"48",499167
"49",972127
"50",1363197
"51",84083
"52",1823016
"53",660542
"54",2112516
"55",469108
"56",566011
"57",367834
"58",643225
"59",82891
"60",528298
"61",128878
"62",1051102
"63",304504
"64",165539
"65",1063152
"66",2815050
"67",1339335
"68",197544
"69",1126372
"70",429738
"71",210435
"72",2107507
"73",749904
"74",1931759
"75",2292117
"76",279167
"77",790025
"78",158804
"79",251033
"80",1044374
"81",1335278
"82",4083456
"83",3344085
"84",5921133
"85",77181
"86",565776
"87",1038430
"88",972822
"89",1837468
"90",81391
"91",302912
"92",1356740
"93",409109
"94",96024
"95",1736422
"96",1072430
"97",715489
"98",1431649
"99",3170464
"100",262896
"101",3303981
"102",3477145
"103",1066400
"104",1049170
"105",340354
"106",101881
"107",621810
"108",480106
"109",287246
"110",269257
"111",1433335
"112",856798
"113",1770194
"114",3184822
"115",608146
"116",49140
"117",25143039
"118",771032
"119",227786
"120",4258364
"121",474408
"122",55337
"123",962181
"124",1566348
"125",157368
"126",375147
"127",307571
"128",470373
"129",16785
"130",184430
"131",22100
"132",272194
"133",1055350
"134",189915
"135",1298097
"136",646421
"137",931426
"138",51952
"139",260522
"140",256995
"141",618268
"142",593177
"143",304538
"144",766848
"145",2588100
"146",1985285
"147",398119
"148",1195491
"149",354674
"150",898023
"151",2444315
"152",4798823
"153",687197
"154",960201
"155",988154
"156",21098
"157",1575502
"158",643829
"159",511252
"160",1080369
"161",577479
"162",11313799
"163",2251906
"164",1106028
"165",70775
"166",88837
"167",887497
"168",489752
"169",123374
"170",138086
"171",1519049
"172",63320
"173",667078
"174",821788
"175",219967
"176",2752173
"177",79644
"178",450479
"179",2117300
"180",1866201
"181",4009104
"182",729225
"183",1573894
"184",1839210
"185",447894
"186",77537
"187",587192
"188",1852942
"189",348780
"190",587667
"191",1220585
"192",2323649
"193",122822
"194",1935303
"195",805597
"196",3369693
"197",6574506
"198",2386964
"199",167995
"200",17603
"201",15265
"202",5034201
"203",2098938
"204",317221
"205",6698973
"206",989869
"207",537990
"208",3483231
"209",1333519
"210",574616
"211",294575
"212",1092729
"213",318200
"214",763436
"215",334328
"216",46881
"217",86310
"218",1285286
"219",2594541
"220",2955240
"221",613269
"222",1397509
"223",1614466
"224",2151428
"225",1009778
"226",76498
"227",1009156
"228",1284237
"229",155103
"230",1206195
"231",623590
"232",5254400
"233",1376606
"234",596620
"235",259984
"236",1865267
"237",2889067
"238",32449
"239",279985
"240",340724
"241",6430028
"242",1075699
"243",524635
"244",4044789
"245",243775
"246",232566
"247",150128
"248",9530164
"249",1101517
"250",103144
"251",500501
"252",9311315
"253",1234200
"254",604274
"255",280033
"256",1805557
"257",130552
"258",684884
"259",1058663
"260",338130
"261",3043346
"262",2299752
"263",1823472
"264",1892965
"265",457641
"266",493498
"267",6601
"268",331552
"269",5596741
"270",413515
"271",7939490
"272",609868
"273",3209098
"274",3603250
"275",308390
"276",15912558
"277",506745
"278",3785456
"279",1122709
"280",1927493
"281",3688647
"282",1733635
"283",505778
"284",2079861
"285",5656434
"286",1713814
"287",1411740
"288",832380
"289",4371866
"290",211397
"291",4364225
"292",725909
"293",435965
"294",335267
"295",162902
"296",20858
"297",530726
"298",1325097
"299",5668316
"300",251003
"301",1937427
"302",804076
"303",1154342
"304",3345060
"305",115060
"306",3706985
"307",16556
"308",5770838
"309",549873
"310",1460853
"311",122243
"312",118170
"313",210871
"314",34842
"315",157105
"316",287232
"317",3254422
"318",490866
"319",1566691
"320",1688872
"321",1180191
"322",1939725
"323",690416
"324",376849
"325",139237
"326",1658803
"327",1285138
"328",6085647
"329",764641
"330",198320
"331",94986
"332",5465965
"333",-11240
"334",-66406
"335",981769
"336",212471
"337",40676
"338",851347
"339",3139019
"340",765504
"341",259973
"342",1155011
"343",5291225
"344",8314732
"345",958314
"346",1072462
"347",277030
"348",3108464
"349",507017
"350",672613
"351",1934952
"352",2489031
"353",1434636
"354",44557
"355",2074824
"356",184042
"357",1253347
"358",52698
"359",-8460
"360",176423
"361",94176
"362",25493
"363",81682
"364",350582
"365",296385
"366",12402
"367",115706
"368",14653
"369",443315
"370",50418
"371",53781
"372",40493
"373",25944
"374",664721
"375",172060
"376",211842
"377",70315
"378",277921
"379",5596151
"380",5658385
"381",70178
"382",1690797
"383",2553467
"384",89582
"385",9054657
"386",1721884
"387",7345363
"388",7135054
"389",1961210
"390",1044752
"391",1777263
"392",135525
"393",114800
"394",3505887
"395",3012782
"396",3284164
"397",603431
"398",561473
"399",6415563
"400",2002661
"401",581128
"402",134422
"403",428015
"404",384822
"405",1644527
"406",2320142
"407",501541
"408",2348247
"409",10138
"410",11433
"411",1315487
"412",1101797
"413",460038
"414",2461859
"415",1321991
"416",2766881
"417",1968203
"418",155649
"419",3068325
"420",2446605
"421",575490
"422",5689710
"423",191851
"424",1344814
"425",1631128
"426",2299813
"427",4667520
"428",3957490
"429",2834036
"430",5561714
"431",503263
"432",1158
"433",1150540
"434",2829780
"435",31518
"436",79879
"437",121980
"438",751001
"439",229734
"440",138010
"441",2439387
"442",1201487
"443",631424
"444",2016958
"445",1368381
"446",263940
"447",1159698
"448",123400
"449",594932
"450",124320
"451",284339
"452",19561
"453",479967
"454",386877
"455",496996
"456",625119
"457",250640
"458",178343
"459",1201017
"460",2041299
"461",560301
"462",605977
"463",7731
"464",1226826
"465",47979
"466",77802
"467",1946343
"468",935740
"469",3910053
"470",780519
"471",3933120
"472",3134480
"473",14919626
"474",601770
"475",9399910
"476",3086765
"477",33711
"478",1362009
"479",2247466
"480",614625
"481",281471
"482",7296434
"483",9459925
"484",2563858
"485",1993089
"486",3457929
"487",877509
"488",2705093
"489",741985
"490",81949
"491",1061362
"492",1170990
"493",4497228
"494",4668265
"495",1042314
"496",2199309
"497",2794892
"498",37572
"499",1503068
"500",16322
"501",1394018
"502",126388
"503",2596783
"504",1008412
"505",4829846
"506",89094
"507",373904
"508",159274
"509",2272415
"510",1011381
"511",16832041
"512",1066703
"513",4522930
"514",5164116
"515",4408816
"516",2464542
"517",5268887
"518",977144
"519",4561902
"520",3272081
"521",154523
"522",11225366
"523",673842
"524",568807
"525",36312
"526",107835
"527",34945
"528",178978
"529",102211
"530",605494
"531",5109366
"532",1184773
"533",1677163
"534",5031166
"535",36934
"536",1819709
"537",15022352
"538",63540
"539",1810906
"540",2240326
"541",304241
"542",1868452
"543",174642
"544",1963656
"545",1816941
"546",154183
"547",7620509
"548",3609079
"549",3997598
"550",508778
"551",5143808
"552",3494725
"553",2989280
"554",495666
"555",2757391
"556",1235232
"557",2016448
"558",151
"559",664096
"560",542941
"561",3285571
"562",6086955
"563",5132201
"564",1250621
"565",11690310
"566",2341802
"567",434202
"568",420800
"569",857823
"570",2089820
"571",449438
"572",2785033
"573",1475733
"574",1274629
"575",1013551
"576",3336934
"577",181205
"578",680589
"579",702820
"580",-121172
"581",3838680
"582",1096869
"583",109578
"584",772258
"585",3540846
"586",921277
"587",79821
"588",1064731
"589",82150
"590",501517
"591",33994
"592",10744
"593",17156
"594",21762
"595",88681
"596",14472
"597",-139065
"598",126323
"599",659008
"600",3610124
"601",1309020
"602",2041891
"603",7450864
"604",252665
"605",2817373
"606",5982208
"607",2233753
"608",2802660
"609",867377
"610",601829
"611",4218553
"612",865017
"613",350636
"614",144418
"615",333198
"616",569765
"617",840537
"618",55919
"619",237001
"620",127201
"621",597533
"622",95502
"623",2292765
"624",1220562
"625",3596581
"626",1907670
"627",4102726
"628",666076
"629",1837322
"630",5911746
"631",263121
"632",106493
"633",619014
"634",211027
"635",801548
"636",89726
"637",1294671
"638",253776
"639",727227
"640",20644
"641",23179
"642",11912
"643",440653
"644",491139
"645",57822
"646",13234
"647",136773
"648",288774
"649",463944
"650",175703
"651",102118
"652",35084
"653",153069
"654",1273562
"655",1592578
"656",3647774
"657",1128750
"658",170139
"659",814399
"660",601862
"661",268007
"662",278412
"663",118569
"664",179110
"665",2489041
"666",74037
"667",57608
"668",35045
"669",5657804
"670",448062
"671",5901
"672",4846758
"673",15349304
"674",1990458
"675",3373734
"676",1160207
"677",97074
"678",1897279
"679",3078756
"680",1657042
"681",2662333
"682",6265640
"683",2808286
"684",1076821
"685",4215450
"686",2730582
"687",2141630
"688",211767
"689",194416
"690",58812
"691",382219
"692",30461
"693",242937
"694",4324871
"695",193415
"696",-168282
"697",4799591
"698",4446416
"699",1508313
"700",4488785
"701",344682
"702",1487593
"703",1387979
"704",844505
"705",6228
"706",30046
"707",1174568
"708",5234735
"709",107424
"710",7375539
"711",262230
"712",730136
"713",1749703
"714",742480
"715",3716147
"716",668870
"717",5582101
"718",2453073
"719",519344
"720",22947
"721",1140416
"722",3032171
"723",168934
"724",47336
"725",29039
"726",2362139
"727",19753
"728",8529570
"729",5411715
"730",748614
"731",1395354
"732",4158
"733",1640480
"734",1031186
"735",1332236
"736",-48882
"737",405775
"738",37115
"739",392660
"740",173450
"741",294859
"742",1469470
"743",-2905
"744",1144955
"745",1996793
"746",211406
"747",1659155
"748",937809
"749",2096970
"750",2255756
"751",65848
"752",62055
"753",24302
"754",465240
"755",448725
"756",725943
"757",4382194
"758",14095724
"759",164354
"760",279227
"761",1198456
"762",6408882
"763",756493
"764",2362294
"765",1198712
"766",593880
"767",2570995
"768",3276500
"769",2852957
"770",4292213
"771",2775605
"772",5297025
"773",183087
"774",31903
"775",95298
"776",172129
"777",46596
"778",1790327
"779",25624
"780",119244
"781",270200
"782",154827
"783",1953278
"784",2063478
"785",8732619
"786",512494
"787",912265
"788",3998950
"789",1687032
"790",4599159
"791",310603
"792",457020
"793",19175
"794",951170
"795",6660899
"796",207086
"797",531114
"798",1131677
"799",4187706
"800",5689148
"801",194499
"802",417469
"803",103792
"804",5489
"805",352712
"806",14592
"807",374883
"808",287925
"809",23793
"810",21986
"811",3874696
"812",2586868
"813",10530076
"814",264807
"815",1838938
"816",2385712
"817",341229
"818",1076305
"819",4107956
"820",224160
"821",398894
"822",68503
"823",367939
"824",116253
"825",1130010
"826",1060242
"827",951259
"828",131069
"829",832601
"830",88304
"831",5694048
"832",117910
"833",4095645
"834",84170
"835",576993
"836",2835862
"837",1231658
"838",281481
"839",6074279
"840",3700716
"841",969714
"842",12283338
"843",317721
"844",149091
"845",185185
"846",6142492
"847",173623
"848",6407549
"849",1512500
"850",373184
"851",45741
"852",3347632
"853",227360
"854",4452809
"855",1281606
"856",556815
"857",1612092
"858",1209859
"859",295508
"860",1224150
"861",1429946
"862",58223
"863",2392511
"864",607021
"865",1034873
"866",587239
"867",477651
"868",2887147
"869",15339217
"870",1140004
"871",67456
"872",167697
"873",81539
"874",921279
"875",13934
"876",938678
"877",7246602
"878",276012
"879",1688966
"880",7859188
"881",598193
"882",22694
"883",363954
"884",99793
"885",210292
"886",431493
"887",468145
"888",4112784
"889",319132
"890",7557256
"891",64731
"892",2341491
"893",245726
"894",3168772
"895",1625970
"896",5915403
"897",6104045
"898",84896
"899",101110
"900",1148750
"901",118865
"902",247484
"903",830416
"904",2577310
"905",3491653
"906",21187557
"907",5022098
"908",763412
"909",768966
"910",1456396
"911",1335067
"912",8413290
"913",2018289
"914",955173
"915",519469
"916",1755199
"917",3700412
"918",960105
"919",88858
"920",272733
"921",296223
"922",2914734
"923",1199004
"924",519227
"925",615059
"926",93098
"927",2463059
"928",7451808
"929",928653
"930",1352647
"931",454711
"932",646196
"933",239486
"934",209335
"935",1069664
"936",1759399
"937",4805472
"938",112148
"939",315647
"940",383125
"941",2027980
"942",3013463
"943",448669
"944",62801
"945",436745
"946",490172
"947",63036
"948",2061463
"949",194986
"950",1660464
"951",132074
"952",861494
"953",2327237
"954",370330
"955",55399
"956",173056
"957",91091
"958",107078
"959",16054
"960",1250073
"961",531181
"962",195022
"963",53733
"964",166747
"965",5568695
"966",2946973
"967",1985391
"968",188566
"969",189795
"970",424763
"971",115848
"972",2831839
"973",7930970
"974",2709359
"975",5254463
"976",4429786
"977",917776
"978",69241
"979",1725320
"980",3853074
"981",407156
"982",305509
"983",8201469
"984",875376
"985",6549337
"986",100496
"987",267951
"988",348639
"989",1403741
"990",3290645
"991",61964
"992",154215
"993",1396273
"994",322232
"995",3360011
"996",123741
"997",328917
"998",6555138
"999",659178
"1000",1268131
"1001",375487
"1002",1505610
"1003",2972697
"1004",1755717
"1005",1449572
"1006",262408
"1007",124319
"1008",1635963
"1009",227937
"1010",667273
"1011",75029
"1012",501843
"1013",713194
"1014",42561
"1015",221470
"1016",334579
"1017",39856
"1018",237493
"1019",126024
"1020",466068
"1021",488309
"1022",429937
"1023",15316
"1024",2118573
"1025",3333304
"1026",132853
"1027",59261
"1028",3124782
"1029",3999371
"1030",819563
"1031",4672475
"1032",521567
"1033",3289173
"1034",1934170
"1035",2221337
"1036",230184
"1037",313312
"1038",684871
"1039",269721
"1040",168971
"1041",190406
"1042",152394
"1043",290128
"1044",199727
"1045",2589147
"1046",914344
"1047",1042771
"1048",153723
"1049",342022
"1050",285756
"1051",1710391
"1052",200490
"1053",47777
"1054",139298
"1055",2475027
"1056",890660
"1057",3027992
"1058",1216243
"1059",23143
"1060",324378
"1061",174302
"1062",1678336
"1063",5082604
"1064",4036925
"1065",1039615
"1066",3438165
"1067",8420699
"1068",820126
"1069",830503
"1070",954288
"1071",9654562
"1072",169640
"1073",1780930
"1074",1165531
"1075",1119362
"1076",211489
"1077",152577
"1078",468027
"1079",55487
"1080",170903
"1081",65203
"1082",1947596
"1083",176649
"1084",114800
"1085",57733
"1086",599423
"1087",85639
"1088",1530323
"1089",25421
"1090",189871
"1091",409086
"1092",261714
"1093",305345
"1094",1358753
"1095",1658119
"1096",85637
"1097",555231
"1098",80138
"1099",424617
"1100",1093966
"1101",94893
"1102",247183
"1103",61625
"1104",637718
"1105",988404
"1106",396194
"1107",463236
"1108",529416
"1109",39974
"1110",4738640
"1111",3603608
"1112",-7231
"1113",82453
"1114",7220082
"1115",352260
"1116",1390471
"1117",4180079
"1118",921074
"1119",1049629
"1120",851387
"1121",778487
"1122",71890
"1123",2210701
"1124",906213
"1125",2929453
"1126",231545
"1127",312311
"1128",262008
"1129",11350
"1130",46050
"1131",951995
"1132",304002
"1133",91501
"1134",184023
"1135",7111
"1136",2886036
"1137",628937
"1138",147406
"1139",190703
"1140",28309
"1141",1043993
"1142",2130682
"1143",1021982
"1144",68055
"1145",2995998
"1146",3836371
"1147",1367643
"1148",1916673
"1149",66019
"1150",720578
"1151",62681
"1152",538701
"1153",144714
"1154",906512
"1155",205893
"1156",1493848
"1157",55460
"1158",1744858
"1159",42853
"1160",10670
"1161",22369
"1162",118325
"1163",30644
"1164",139154
"1165",37289
"1166",102473
"1167",37020
"1168",6578
"1169",215487
"1170",439333
"1171",122027
"1172",113738
"1173",421195
"1174",614347
"1175",334806
"1176",155
"1177",563973
"1178",258463
"1179",246180
"1180",87931
"1181",1183833
"1182",368850
"1183",366741
"1184",1283722
"1185",194155
"1186",57638
"1187",3237336
"1188",3206200
"1189",256152
"1190",3061813
"1191",830995
"1192",5114080
"1193",566346
"1194",997209
"1195",5919435
"1196",847591
"1197",3729878
"1198",2689841
"1199",-30764
"1200",747113
"1201",136261
"1202",757706
"1203",896702
"1204",216405
"1205",92177
"1206",639926
"1207",348521
"1208",1689928
"1209",42998
"1210",88973
"1211",1740711
"1212",740577
"1213",105726
"1214",394841
"1215",13308
"1216",698442
"1217",49197
"1218",522117
"1219",4031
"1220",92916
"1221",43136
"1222",14835
"1223",87335
"1224",913001
"1225",4901499
"1226",2364984
"1227",3353942
"1228",127519
"1229",1862883
"1230",3570933
"1231",142
"1232",919109
"1233",12807998
"1234",339658
"1235",1390039
"1236",2457983
"1237",2413034
"1238",895734
"1239",1691364
"1240",2832920
"1241",2769277
"1242",40539
"1243",3603838
"1244",547211
"1245",1012530
"1246",3007473
"1247",962306
"1248",2630481
"1249",1882016
"1250",522739
"1251",425025
"1252",1484262
"1253",115890
"1254",1248103
"1255",1925353
"1256",5291530
"1257",811983
"1258",1634476
"1259",4573753
"1260",3632501
"1261",274364
"1262",3610011
"1263",-198840
"1264",291443
"1265",687918
"1266",4360729
"1267",2018952
"1268",92376
"1269",1446107
"1270",49170
"1271",4308040
"1272",189631
"1273",1326647
"1274",21175385
"1275",298778
"1276",608547
"1277",1625378
"1278",2035611
"1279",17602673
"1280",4444312
"1281",523339
"1282",294312
"1283",396592
"1284",5409705
"1285",2586155
"1286",1791157
"1287",512442
"1288",305716
"1289",47173
"1290",447502
"1291",207006
"1292",100013
"1293",2322017
"1294",172728
"1295",16238
"1296",152820
"1297",603780
"1298",25440
"1299",91500
"1300",117408
"1301",378702
"1302",1392796
"1303",2978725
"1304",1254138
"1305",32446
"1306",214890
"1307",775205
"1308",1317670
"1309",123897
"1310",14220425
"1311",57875
"1312",573374
"1313",204600
"1314",342194
"1315",908742
"1316",570688
"1317",3421914
"1318",1963136
"1319",364286
"1320",780701
"1321",2297015
"1322",2056555
"1323",213936
"1324",23261
"1325",1538327
"1326",2773871
"1327",463024
"1328",528307
"1329",3650974
"1330",406132
"1331",93180
"1332",204634
"1333",1663674
"1334",779198
"1335",3163
"1336",11178878
"1337",1402543
"1338",1812739
"1339",17398
"1340",361907
"1341",836271
"1342",436249
"1343",940690
"1344",482124
"1345",908242
"1346",3438007
"1347",1563846
"1348",2536029
"1349",387571
"1350",153290
"1351",10545
"1352",390509
"1353",870194
"1354",406402
"1355",106864
"1356",6900922
"1357",927732
"1358",443027
"1359",2641782
"1360",339892
"1361",87741
"1362",2300701
"1363",2938012
"1364",210886
"1365",1024759
"1366",122588
"1367",43788
"1368",829237
"1369",84518
"1370",1051619
"1371",749714
"1372",942688
"1373",2885499
"1374",777247
"1375",1958936
"1376",100178
"1377",186440
"1378",143299
"1379",115914
"1380",2673916
"1381",20919
"1382",2544914
"1383",-359697
"1384",3977624
"1385",877349
"1386",204103
"1387",763433
"1388",959319
"1389",118068
"1390",1293471
"1391",152100
"1392",2516099
"1393",640010
"1394",755063
"1395",2925266
"1396",179049
"1397",780347
"1398",346659
"1399",690253
"1400",1902377
"1401",118578
"1402",216343
"1403",1361468
"1404",855641
"1405",49168
"1406",153787
"1407",727720
"1408",613140
"1409",45448
"1410",1701815
"1411",367840
"1412",3690357
"1413",1418029
"1414",7878491
"1415",1124379
"1416",3724
"1417",826219
"1418",833718
"1419",362096
"1420",1270377
"1421",268671
"1422",914970
"1423",1101138
"1424",100725
"1425",4354679
"1426",2750074
"1427",3197300
"1428",208152
"1429",240126
"1430",851448
"1431",22630
"1432",2066735
"1433",2596166
"1434",7293495
"1435",37133
"1436",535802
"1437",309082
"1438",36616
"1439",305383
"1440",280538
"1441",163437
"1442",71923
"1443",12523
"1444",26477
"1445",50555
"1446",363295
"1447",398673
"1448",66538
"1449",18092
"1450",15178172
"1451",107089
"1452",52967
"1453",223090
"1454",4089287
"1455",2054560
"1456",1231188
"1457",1082383
"1458",41145
"1459",23708
"1460",21726
"1461",564351
"1462",383500
"1463",605702
"1464",8741961
"1465",33152
"1466",39183
"1467",142151
"1468",251384
"1469",227236
"1470",132419
"1471",205669
"1472",46401
"1473",1665442
"1474",7792342
"1475",1605736
"1476",997192
"1477",202169
"1478",67761
"1479",741556
"1480",2857741
"1481",769316
"1482",815700
"1483",814267
"1484",425244
"1485",557983
"1486",236925
"1487",28845
"1488",-54040
"1489",61788
"1490",65600
"1491",238007
"1492",494203
"1493",100014
"1494",133546
"1495",19633
"1496",1464509
"1497",61416
"1498",44785
"1499",525809
"1500",49801
"1501",1481009
"1502",1183357
"1503",95710
"1504",809738
"1505",898593
"1506",251377
"1507",150016
"1508",127769
"1509",462
"1510",6065
"1511",56457
"1512",482704
"1513",317699
"1514",248150
"1515",55830
"1516",5985777
"1517",521261
"1518",763812
"1519",631789
"1520",177062
"1521",588801
"1522",298421
"1523",330374
"1524",701180
"1525",58730
"1526",48533
"1527",8815722
"1528",307084
"1529",7468
"1530",529
"1531",322563
"1532",1630442
"1533",217589
"1534",914745
"1535",271061
"1536",577887
"1537",2464496
"1538",164567
"1539",4047877
"1540",31355
"1541",690180
"1542",1447987
"1543",635627
"1544",-12827
"1545",40917
"1546",17567
"1547",90083
"1548",448616
"1549",58164
"1550",580758
"1551",171376
"1552",161384
"1553",42318
"1554",622643
"1555",340451
"1556",971354
"1557",96010
"1558",985496
"1559",584855
"1560",10299
"1561",514026
"1562",1514626
"1563",71137
"1564",433145
"1565",2413482
"1566",3978734
"1567",867690
"1568",1214550
"1569",350278
"1570",356487
"1571",46222
"1572",100163
"1573",3506270
"1574",214873
"1575",591011
"1576",3615633
"1577",265903
"1578",123310
"1579",5326
"1580",2876174
"1581",519529
"1582",241672
"1583",565891
"1584",535310
"1585",181390
"1586",136786
"1587",142716
"1588",226550
"1589",196589
"1590",69407
"1591",297736
"1592",24829
"1593",256057
"1594",1622900
"1595",169545
"1596",1418055
"1597",248649
"1598",119086
"1599",863795
"1600",62630
"1601",69788
"1602",200723
"1603",577613
"1604",108194
"1605",148024
"1606",252187
"1607",78238
"1608",2134354
"1609",2966079
"1610",566189
"1611",1939832
"1612",204276
"1613",4022451
"1614",1354680
"1615",8036953
"1616",1396398
"1617",329888
"1618",2319300
"1619",5360971
"1620",12606960
"1621",618515
"1622",574289
"1623",644263
"1624",10479782
"1625",3916450
"1626",1516430
"1627",649797
"1628",2481304
"1629",902444
"1630",7678128
"1631",1585384
"1632",450473
"1633",244006
"1634",74270
"1635",133030
"1636",49835
"1637",8184
"1638",14266
"1639",650545
"1640",278641
"1641",25034
"1642",268311
"1643",491519
"1644",685468
"1645",285000
"1646",2126029
"1647",102126
"1648",779515
"1649",278845
"1650",430453
"1651",99371
"1652",791163
"1653",442155
"1654",166381
"1655",210962
"1656",420531
"1657",720841
"1658",610666
"1659",299674
"1660",277370
"1661",321240
"1662",231680
"1663",298162
"1664",1719365
"1665",942793
"1666",694252
"1667",658397
"1668",182682
"1669",53023
"1670",66078
"1671",202270
"1672",321460
"1673",122738
"1674",399530
"1675",241681
"1676",9416
"1677",714074
"1678",725351
"1679",723027
"1680",1163573
"1681",481256
"1682",5906165
"1683",4728927
"1684",167161
"1685",1940
"1686",354109
"1687",430649
"1688",27080
"1689",1168354
"1690",1471210
"1691",116437
"1692",389117
"1693",109396
"1694",430903
"1695",121578
"1696",1768733
"1697",612671
"1698",88613
"1699",100448
"1700",97961
"1701",1047528
"1702",71865
"1703",23255
"1704",26221
"1705",201816
"1706",11244
"1707",1732966
"1708",81061
"1709",641103
"1710",73244
"1711",151114
"1712",113745
"1713",1259249
"1714",4628
"1715",89
"1716",498351
"1717",34902
"1718",218392
"1719",152511
"1720",138612
"1721",202393
"1722",143936
"1723",143239
"1724",646709
"1725",855745
"1726",426160
"1727",-21373
"1728",222141
"1729",157255
"1730",271777
"1731",151055
"1732",51201
"1733",59004
"1734",103695
"1735",131945
"1736",78848
"1737",762605
"1738",34765
"1739",241969
"1740",28126
"1741",143894
"1742",6361
"1743",488302
"1744",59917
"1745",391478
"1746",920965
"1747",94570
"1748",608268
"1749",69908
"1750",108146
"1751",103788
"1752",107029
"1753",139414
"1754",53712
"1755",23044
"1756",584595
"1757",1140517
"1758",402580
"1759",1286825
"1760",428406
"1761",71262
"1762",18385
"1763",1308832
"1764",1641038
"1765",2288483
"1766",8902125
"1767",-154
"1768",4560990
"1769",312441
"1770",8102230
"1771",152983
"1772",541471
"1773",1485156
"1774",1017886
"1775",954616
"1776",392145
"1777",1111886
"1778",115156
"1779",379411
"1780",182037
"1781",254010
"1782",11225
"1783",2909045
"1784",3109059
"1785",415459
"1786",413528
"1787",61817
"1788",579453
"1789",467871
"1790",25020
"1791",616214
"1792",1938761
"1793",6885092
"1794",999070
"1795",1241920
"1796",1257142
"1797",4139876
"1798",7972709
"1799",1228230
"1800",2158975
"1801",2099038
"1802",833153
"1803",339939
"1804",660627
"1805",920306
"1806",1668869
"1807",83616
"1808",778952
"1809",4158831
"1810",790299
"1811",14423
"1812",1098832
"1813",1493862
"1814",714016
"1815",309095
"1816",344829
"1817",131924
"1818",1961433
"1819",2629264
"1820",117147
"1821",342131
"1822",62718
"1823",228582
"1824",277779
"1825",637271
"1826",754583
"1827",2193085
"1828",463429
"1829",220633
"1830",63418
"1831",844193
"1832",177785
"1833",274941
"1834",219950
"1835",908336
"1836",3267332
"1837",254181
"1838",818781
"1839",618737
"1840",795632
"1841",90712
"1842",27402
"1843",277750
"1844",70460
"1845",842803
"1846",1711378
"1847",228191
"1848",159950
"1849",133079
"1850",254965
"1851",36471
"1852",9297
"1853",409040
"1854",465262
"1855",42778
"1856",1349178
"1857",6031412
"1858",6405
"1859",2594606
"1860",5871645
"1861",1713124
"1862",277647
"1863",1668277
"1864",2411066
"1865",75124
"1866",176657
"1867",86682
"1868",1158282
"1869",4686356
"1870",1897749
"1871",6867133
"1872",366221
"1873",4497316
"1874",3237998
"1875",3911795
"1876",544310
"1877",676583
"1878",76362
"1879",606513
"1880",240014
"1881",1193650
"1882",581627
"1883",2467663
"1884",1302859
"1885",1112208
"1886",1125974
"1887",15473762
"1888",132904
"1889",2843020
"1890",980511
"1891",436231
"1892",5455032
"1893",10136048
"1894",8853060
"1895",233893
"1896",742499
"1897",1529192
"1898",543211
"1899",144028
"1900",3271801
"1901",1036784
"1902",4335006
"1903",6625219
"1904",958729
"1905",3906538
"1906",4816162
"1907",2228064
"1908",1459802
"1909",1534748
"1910",1258421
"1911",1766934
"1912",10715851
"1913",4233701
"1914",53611
"1915",231112
"1916",14781
