"","distances"
"1",156437
"2",23097
"3",966
"4",159344
"5",51842
"6",29102
"7",138510
"8",163439
"9",31999
"10",89575
"11",575254
"12",-41293
"13",177244
"14",18950
"15",20751
"16",426625
"17",421483
"18",245772
"19",769303
"20",1471735
"21",71701
"22",2515046
"23",1361241
"24",1185116
"25",3456030
"26",865638
"27",433386
"28",241016
"29",-218069
"30",204265
"31",1890595
"32",348758
"33",768051
"34",94895
"35",286343
"36",2150286
"37",71231
"38",359808
"39",82245
"40",1184272
"41",1008140
"42",535491
"43",644940
"44",356276
"45",17820
"46",424169
"47",114652
"48",280352
"49",87549
"50",783461
"51",2139310
"52",983552
"53",102665
"54",316048
"55",71641
"56",262951
"57",203093
"58",1419642
"59",124144
"60",1110169
"61",361786
"62",1329365
"63",1823016
"64",38703
"65",608798
"66",697784
"67",1407092
"68",360821
"69",80382
"70",212973
"71",27525
"72",1389075
"73",14227
"74",852277
"75",26982
"76",780303
"77",541075
"78",165539
"79",1063152
"80",2488537
"81",312625
"82",1339335
"83",197544
"84",1126372
"85",529235
"86",69446
"87",48360
"88",1831533
"89",2476942
"90",5161578
"91",145060
"92",188507
"93",150955
"94",158804
"95",64586
"96",3927466
"97",3187593
"98",1179919
"99",2100938
"100",705901
"101",5200950
"102",77181
"103",847652
"104",732120
"105",2849723
"106",158254
"107",2061834
"108",96024
"109",3708391
"110",4939694
"111",95167
"112",3033537
"113",3477145
"114",1580654
"115",330756
"116",257183
"117",380331
"118",59096
"119",1446136
"120",269257
"121",1433335
"122",2684940
"123",794792
"124",2383834
"125",608146
"126",49140
"127",30743138
"128",40953
"129",424293
"130",160995
"131",872757
"132",1499422
"133",64883
"134",157368
"135",722062
"136",149308
"137",73796
"138",6175
"139",44125
"140",243802
"141",324878
"142",318554
"143",89027
"144",733642
"145",38800
"146",812639
"147",402815
"148",646421
"149",344819
"150",626522
"151",260522
"152",58608
"153",191717
"154",618268
"155",96440
"156",543550
"157",667123
"158",2988779
"159",382176
"160",984093
"161",455158
"162",290778
"163",1480655
"164",8545467
"165",2875204
"166",2296623
"167",511252
"168",752995
"169",143548
"170",139316
"171",7258398
"172",6058426
"173",2525976
"174",563459
"175",221463
"176",901199
"177",628309
"178",218116
"179",489427
"180",142918
"181",328425
"182",1139645
"183",430790
"184",142376
"185",3228259
"186",706507
"187",6910902
"188",2342140
"189",2289749
"190",77537
"191",173805
"192",285660
"193",2238555
"194",238931
"195",1598916
"196",2323649
"197",509466
"198",1563705
"199",805597
"200",5714053
"201",1616682
"202",399848
"203",83913
"204",2444654
"205",2216193
"206",227630
"207",57950
"208",279509
"209",1027991
"210",112423
"211",5208046
"212",1717287
"213",3847576
"214",4700671
"215",537990
"216",545088
"217",3665926
"218",666257
"219",248748
"220",1149036
"221",110386
"222",528049
"223",524867
"224",1122628
"225",153671
"226",1285286
"227",2594541
"228",2955240
"229",2126737
"230",5291235
"231",1841335
"232",105677
"233",1518975
"234",621573
"235",5857772
"236",1512678
"237",4755419
"238",326219
"239",340724
"240",1103183
"241",3384812
"242",2371363
"243",2500752
"244",2240058
"245",26171
"246",212219
"247",176271
"248",136221
"249",11036837
"250",1116485
"251",592857
"252",1224481
"253",86043
"254",79214
"255",114843
"256",7673085
"257",582254
"258",1707958
"259",393932
"260",130552
"261",950203
"262",718795
"263",282985
"264",3664471
"265",723441
"266",1490803
"267",398700
"268",1101586
"269",126171
"270",1933319
"271",87378
"272",875934
"273",331552
"274",5596741
"275",2461293
"276",5889074
"277",3900827
"278",188709
"279",19503061
"280",5034375
"281",2976631
"282",482974
"283",1300572
"284",484536
"285",1518854
"286",2459173
"287",3103177
"288",187833
"289",6345731
"290",39114
"291",11950
"292",1411740
"293",493458
"294",1302971
"295",2030328
"296",902537
"297",211397
"298",1498361
"299",4092404
"300",335267
"301",162902
"302",645128
"303",455153
"304",813342
"305",4985749
"306",876906
"307",1937427
"308",903643
"309",1016010
"310",1166991
"311",3801009
"312",2418376
"313",99268
"314",5527083
"315",549873
"316",1460853
"317",122243
"318",738987
"319",119938
"320",399067
"321",2848804
"322",1817750
"323",3070067
"324",2560156
"325",863267
"326",2010248
"327",4930819
"328",71605
"329",1169759
"330",1077058
"331",13491
"332",299349
"333",837690
"334",1252798
"335",94986
"336",1149869
"337",4184140
"338",1431745
"339",153656
"340",40676
"341",2447779
"342",710267
"343",638213
"344",5713494
"345",32936
"346",7703619
"347",626435
"348",3698566
"349",911464
"350",3607605
"351",1401662
"352",1965808
"353",2077721
"354",372473
"355",1199658
"356",215754
"357",145742
"358",167544
"359",1067557
"360",422501
"361",501540
"362",1337301
"363",618529
"364",96103
"365",389913
"366",138014
"367",133662
"368",14653
"369",410067
"370",20361
"371",69881
"372",53781
"373",104214
"374",587228
"375",469903
"376",70315
"377",277921
"378",497484
"379",1651982
"380",17769
"381",2095754
"382",5888044
"383",4325941
"384",2715034
"385",3636346
"386",13672414
"387",7135054
"388",2163952
"389",1046948
"390",1597959
"391",6876491
"392",3284164
"393",603431
"394",7053492
"395",861071
"396",748856
"397",508725
"398",456463
"399",643249
"400",2945181
"401",1478676
"402",77107
"403",335298
"404",407518
"405",1109860
"406",224937
"407",977368
"408",1177626
"409",1023514
"410",559234
"411",3686511
"412",45194
"413",1385231
"414",3137905
"415",230125
"416",847784
"417",2143620
"418",2446605
"419",419402
"420",96443
"421",1369150
"422",477686
"423",134179
"424",2639589
"425",1254248
"426",17550
"427",1019130
"428",4037754
"429",4667520
"430",3939720
"431",2849915
"432",10304000
"433",61968
"434",18830
"435",31518
"436",364245
"437",543769
"438",608215
"439",194506
"440",1068346
"441",195980
"442",2144
"443",934932
"444",1201487
"445",306112
"446",59449
"447",2016958
"448",1634908
"449",85647
"450",1067802
"451",6801
"452",124966
"453",700947
"454",284339
"455",540723
"456",315752
"457",693649
"458",382110
"459",242721
"460",250640
"461",178343
"462",1201017
"463",3539376
"464",1226826
"465",3086039
"466",3910053
"467",780519
"468",3933120
"469",3134480
"470",15062655
"471",7690908
"472",5269294
"473",33711
"474",4338449
"475",183409
"476",13973642
"477",2889733
"478",360446
"479",383019
"480",356008
"481",7579615
"482",1023316
"483",2534151
"484",878710
"485",360782
"486",1985517
"487",4803339
"488",4178044
"489",1042314
"490",467654
"491",1379863
"492",2822449
"493",186682
"494",917775
"495",540757
"496",16322
"497",94088
"498",1178519
"499",3384292
"500",4896298
"501",859584
"502",113816
"503",645375
"504",2814804
"505",6208605
"506",4032675
"507",7433234
"508",2867974
"509",313381
"510",740458
"511",6357480
"512",344872
"513",3973425
"514",2387412
"515",493361
"516",6688939
"517",4114313
"518",3408255
"519",194128
"520",1119731
"521",10321431
"522",348486
"523",25836
"524",25621
"525",654593
"526",36312
"527",114204
"528",3207
"529",30076
"530",178978
"531",102211
"532",157843
"533",417537
"534",1221868
"535",844392
"536",2709038
"537",7350447
"538",637232
"539",36934
"540",1819709
"541",15022352
"542",-7486
"543",1864237
"544",2240326
"545",2254672
"546",174642
"547",1566737
"548",153277
"549",2058636
"550",146681
"551",1022694
"552",10634547
"553",1470065
"554",1948910
"555",508778
"556",3984137
"557",905454
"558",1616442
"559",267010
"560",2549655
"561",51546
"562",286918
"563",477015
"564",78728
"565",35209
"566",3498653
"567",1032700
"568",998562
"569",1624802
"570",1573303
"571",404315
"572",2506813
"573",26534
"574",586767
"575",4498535
"576",925863
"577",61962
"578",3638413
"579",1028157
"580",15385289
"581",434202
"582",1282373
"583",1635932
"584",871371
"585",2785033
"586",1475733
"587",2401789
"588",206656
"589",3374279
"590",1420889
"591",3635258
"592",1770505
"593",772258
"594",1104251
"595",3326774
"596",251586
"597",1524815
"598",21762
"599",106300
"600",-139065
"601",439440
"602",38374
"603",7538906
"604",1577182
"605",3058997
"606",2639982
"607",252665
"608",2289305
"609",466050
"610",5894879
"611",2233753
"612",1615451
"613",1167081
"614",1686819
"615",2493643
"616",1099721
"617",565547
"618",38709
"619",502758
"620",182059
"621",350636
"622",1334257
"623",236716
"624",669672
"625",237001
"626",127201
"627",1841154
"628",1140022
"629",1220562
"630",140080
"631",3301876
"632",6010868
"633",2544353
"634",4212166
"635",1869954
"636",23917
"637",456268
"638",401271
"639",730933
"640",68105
"641",1572137
"642",1760
"643",39806
"644",136290
"645",71835
"646",715989
"647",210646
"648",240979
"649",382488
"650",136072
"651",153045
"652",140578
"653",111771
"654",27086
"655",357190
"656",99445
"657",72959
"658",65548
"659",128147
"660",193587
"661",7946
"662",1261622
"663",208945
"664",469746
"665",1101012
"666",1095120
"667",1799079
"668",1843953
"669",104740
"670",449992
"671",26240
"672",131047
"673",168072
"674",797745
"675",277269
"676",280218
"677",-23597
"678",2341124
"679",49645
"680",74037
"681",57608
"682",35045
"683",6273629
"684",2438991
"685",1375912
"686",6184104
"687",10160084
"688",7070081
"689",4983657
"690",3600168
"691",139127
"692",611230
"693",6265640
"694",13775135
"695",862370
"696",2589271
"697",2057798
"698",400612
"699",152700
"700",119212
"701",522577
"702",573120
"703",9440895
"704",4488785
"705",344682
"706",321242
"707",1154373
"708",2446728
"709",7292525
"710",336635
"711",5715913
"712",942428
"713",1019797
"714",366658
"715",2121890
"716",3509017
"717",6507875
"718",2453073
"719",364926
"720",556976
"721",4180554
"722",119407
"723",163896
"724",1943449
"725",416354
"726",19753
"727",8344920
"728",115551
"729",152882
"730",523492
"731",2575746
"732",3273069
"733",1206987
"734",835238
"735",647599
"736",606098
"737",25696
"738",14597
"739",11832
"740",282983
"741",1536382
"742",-48882
"743",1008815
"744",173450
"745",294859
"746",2792829
"747",1595500
"748",712333
"749",1124048
"750",1668975
"751",377324
"752",1717413
"753",2255756
"754",65848
"755",174844
"756",624422
"757",196882
"758",725943
"759",2249584
"760",6104754
"761",1251077
"762",7993839
"763",587534
"764",82806
"765",7995744
"766",122784
"767",324031
"768",292033
"769",144454
"770",1386369
"771",1880741
"772",476763
"773",2729504
"774",3276500
"775",2852957
"776",433773
"777",6779968
"778",4176793
"779",727295
"780",37381
"781",286694
"782",150537
"783",30746
"784",31903
"785",95298
"786",172129
"787",15582
"788",522883
"789",1773725
"790",154827
"791",25573
"792",72320
"793",4701446
"794",7478431
"795",512494
"796",477065
"797",387362
"798",2913181
"799",130275
"800",575645
"801",6288289
"802",310603
"803",84619
"804",369102
"805",19175
"806",391003
"807",894608
"808",4499655
"809",1699122
"810",207086
"811",1681841
"812",2616352
"813",47528
"814",1669467
"815",5761832
"816",417469
"817",103792
"818",5489
"819",352712
"820",109929
"821",268417
"822",287925
"823",23793
"824",21986
"825",1043471
"826",2829509
"827",847798
"828",1726783
"829",43523
"830",76246
"831",1640155
"832",6727301
"833",1778772
"834",348460
"835",-96675
"836",314759
"837",706188
"838",751509
"839",8877370
"840",250876
"841",62971
"842",330096
"843",442286
"844",1130010
"845",1060242
"846",951259
"847",1107826
"848",2806309
"849",3237814
"850",5374058
"851",2273296
"852",219709
"853",7372558
"854",5049491
"855",12518998
"856",43651
"857",256502
"858",1030070
"859",93692
"860",4245518
"861",1110612
"862",663187
"863",3481581
"864",1158743
"865",1512500
"866",236905
"867",210202
"868",3347632
"869",227360
"870",6505927
"871",1612092
"872",655847
"873",658695
"874",88235
"875",2772525
"876",58223
"877",2392511
"878",607021
"879",2201886
"880",956090
"881",234044
"882",465612
"883",3089578
"884",10343387
"885",1561203
"886",1678460
"887",81539
"888",1457291
"889",4810018
"890",2840503
"891",77405
"892",1947722
"893",6558228
"894",1912894
"895",769576
"896",402078
"897",1847085
"898",863034
"899",1363890
"900",2022553
"901",3912766
"902",4756951
"903",1574257
"904",2622833
"905",4988044
"906",5749385
"907",186572
"908",203196
"909",294777
"910",850446
"911",47993
"912",57970
"913",696631
"914",78796
"915",208264
"916",22528
"917",757508
"918",3131879
"919",24007729
"920",6225119
"921",-32973
"922",8038277
"923",5945364
"924",327868
"925",2698449
"926",1274378
"927",2230278
"928",960105
"929",88858
"930",272733
"931",207525
"932",71633
"933",4180608
"934",1341431
"935",1402321
"936",3516624
"937",5234049
"938",2187860
"939",888918
"940",166922
"941",487652
"942",7903769
"943",159461
"944",702550
"945",2547532
"946",2901181
"947",389093
"948",187875
"949",407536
"950",212336
"951",2061463
"952",1925013
"953",229527
"954",379367
"955",2704590
"956",109814
"957",257944
"958",102415
"959",121105
"960",20817
"961",191325
"962",9176
"963",5845152
"964",4951689
"965",84422
"966",88398
"967",4059148
"968",1675548
"969",4328030
"970",4700080
"971",4381
"972",10247513
"973",298507
"974",73165
"975",4871416
"976",5146506
"977",2563575
"978",978195
"979",8433484
"980",722490
"981",4018
"982",1778027
"983",104354
"984",949261
"985",1372551
"986",120963
"987",241176
"988",111584
"989",1756073
"990",7251
"991",19611
"992",1222699
"993",2127002
"994",123741
"995",52770
"996",1729955
"997",3971439
"998",28993
"999",659178
"1000",1074427
"1001",80572
"1002",451726
"1003",1505610
"1004",1672010
"1005",936292
"1006",2589958
"1007",1312736
"1008",237437
"1009",1525290
"1010",816702
"1011",39059
"1012",43027
"1013",553640
"1014",29546
"1015",713194
"1016",281977
"1017",801478
"1018",16394
"1019",787153
"1020",474003
"1021",6189307
"1022",3204587
"1023",3999371
"1024",4621996
"1025",855414
"1026",3966794
"1027",10804
"1028",4205769
"1029",780529
"1030",68775
"1031",124689
"1032",24780
"1033",8528
"1034",42259
"1035",80814
"1036",93696
"1037",135321
"1038",94151
"1039",47127
"1040",530104
"1041",376300
"1042",77882
"1043",44531
"1044",312077
"1045",1347387
"1046",1843009
"1047",914344
"1048",1042771
"1049",507867
"1050",2198568
"1051",200490
"1052",47777
"1053",4500735
"1054",2104518
"1055",15157
"1056",540685
"1057",546355
"1058",82867
"1059",519278
"1060",2558314
"1061",5824891
"1062",3257738
"1063",1011881
"1064",3438165
"1065",10774098
"1066",11959604
"1067",875310
"1068",280016
"1069",59801
"1070",286193
"1071",194948
"1072",82018
"1073",487184
"1074",1050826
"1075",1229114
"1076",769583
"1077",242487
"1078",114800
"1079",57733
"1080",198722
"1081",209154
"1082",294116
"1083",120206
"1084",264685
"1085",62649
"1086",953067
"1087",5505
"1088",25421
"1089",14339
"1090",548265
"1091",971483
"1092",1201115
"1093",1806901
"1094",555231
"1095",139717
"1096",420831
"1097",937184
"1098",181709
"1099",247183
"1100",61625
"1101",637718
"1102",1397821
"1103",889560
"1104",5408821
"1105",66302
"1106",563577
"1107",3708406
"1108",3548697
"1109",779091
"1110",6066232
"1111",921074
"1112",395274
"1113",580303
"1114",1985527
"1115",2401295
"1116",4361398
"1117",152883
"1118",46050
"1119",1697059
"1120",7111
"1121",2886036
"1122",781566
"1123",250366
"1124",74418
"1125",742122
"1126",96089
"1127",142170
"1128",770335
"1129",3443658
"1130",1084602
"1131",206911
"1132",55056
"1133",3787802
"1134",1498890
"1135",941485
"1136",158062
"1137",6051
"1138",1267018
"1139",41331
"1140",2750120
"1141",1902189
"1142",62940
"1143",155418
"1144",64716
"1145",15906
"1146",19146
"1147",19726
"1148",75520
"1149",26943
"1150",37020
"1151",6578
"1152",215487
"1153",439333
"1154",122027
"1155",67301
"1156",45360
"1157",19264
"1158",290741
"1159",96383
"1160",18712
"1161",494140
"1162",54223
"1163",588025
"1164",144877
"1165",191631
"1166",189557
"1167",99420
"1168",214094
"1169",1554344
"1170",110800
"1171",1873422
"1172",70502
"1173",6587225
"1174",907334
"1175",3791318
"1176",3163890
"1177",1289086
"1178",566346
"1179",8963268
"1180",5285771
"1181",706736
"1182",-30764
"1183",489629
"1184",221275
"1185",229479
"1186",673835
"1187",132845
"1188",891845
"1189",91867
"1190",92177
"1191",810117
"1192",107904
"1193",66649
"1194",542696
"1195",173017
"1196",845250
"1197",55318
"1198",527608
"1199",1956823
"1200",264389
"1201",181324
"1202",278283
"1203",272454
"1204",441537
"1205",375245
"1206",4031
"1207",164021
"1208",87335
"1209",8229731
"1210",47923
"1211",4777440
"1212",645368
"1213",2605222
"1214",960869
"1215",764832
"1216",650985
"1217",88195
"1218",9817272
"1219",191828
"1220",1507751
"1221",2397656
"1222",60046
"1223",8536698
"1224",1389753
"1225",77022
"1226",872342
"1227",2018547
"1228",1142305
"1229",837651
"1230",22964
"1231",3927215
"1232",1132837
"1233",2630481
"1234",108663
"1235",611423
"1236",1549764
"1237",405012
"1238",19600
"1239",28081
"1240",121148
"1241",190929
"1242",1095647
"1243",115890
"1244",59379
"1245",632677
"1246",217608
"1247",1831
"1248",213853
"1249",607128
"1250",5846435
"1251",1728911
"1252",3020139
"1253",2675497
"1254",1520060
"1255",516439
"1256",520911
"1257",1085446
"1258",1055507
"1259",921141
"1260",16352
"1261",3368386
"1262",1505330
"1263",3319408
"1264",4145473
"1265",49170
"1266",4237032
"1267",1588462
"1268",10125617
"1269",11627127
"1270",608547
"1271",3540618
"1272",250218
"1273",23078247
"1274",294312
"1275",396592
"1276",5409705
"1277",287668
"1278",1097805
"1279",2381169
"1280",764429
"1281",447502
"1282",100013
"1283",1659654
"1284",659508
"1285",172728
"1286",806101
"1287",246275
"1288",378702
"1289",1392796
"1290",6337179
"1291",2494382
"1292",152612
"1293",1740274
"1294",11436736
"1295",174419
"1296",144920
"1297",219961
"1298",1371735
"1299",7435311
"1300",4863538
"1301",23261
"1302",1538327
"1303",3245488
"1304",528307
"1305",3650974
"1306",406132
"1307",93180
"1308",389514
"1309",1047561
"1310",102776
"1311",1101000
"1312",9151695
"1313",1875346
"1314",3256512
"1315",1285963
"1316",436249
"1317",146130
"1318",904501
"1319",908242
"1320",857239
"1321",1436183
"1322",1191163
"1323",1062266
"1324",183086
"1325",1360934
"1326",1174017
"1327",387571
"1328",33890
"1329",531200
"1330",804881
"1331",462480
"1332",103561
"1333",32111
"1334",38567
"1335",34152
"1336",269855
"1337",83005
"1338",2791174
"1339",739794
"1340",708397
"1341",1417231
"1342",1443576
"1343",315111
"1344",2300701
"1345",2487058
"1346",256481
"1347",171469
"1348",689
"1349",1195703
"1350",43788
"1351",992073
"1352",1051619
"1353",1336778
"1354",34243
"1355",193598
"1356",4020769
"1357",753172
"1358",291575
"1359",1377525
"1360",606036
"1361",2811816
"1362",2445190
"1363",-359697
"1364",5886648
"1365",57697
"1366",2544747
"1367",620771
"1368",1296377
"1369",352136
"1370",3057348
"1371",1707409
"1372",1191283
"1373",354393
"1374",332149
"1375",838533
"1376",1222202
"1377",629837
"1378",1011315
"1379",807897
"1380",1090002
"1381",613140
"1382",737314
"1383",580568
"1384",1150435
"1385",2886795
"1386",220805
"1387",3672192
"1388",6526175
"1389",3724
"1390",2586831
"1391",265084
"1392",362096
"1393",7833
"1394",14230
"1395",14752
"1396",499050
"1397",30802
"1398",175385
"1399",84132
"1400",195979
"1401",38151
"1402",143239
"1403",21633
"1404",270307
"1405",281646
"1406",84699
"1407",93780
"1408",1178617
"1409",293357
"1410",480455
"1411",39001
"1412",237432
"1413",-3075
"1414",3750297
"1415",1667966
"1416",1300377
"1417",2865497
"1418",338899
"1419",240126
"1420",851448
"1421",22630
"1422",2023931
"1423",169222
"1424",812168
"1425",217343
"1426",2149171
"1427",1190697
"1428",1650445
"1429",2145386
"1430",46437
"1431",1683470
"1432",504818
"1433",305383
"1434",84483
"1435",176566
"1436",303181
"1437",41550
"1438",519965
"1439",399667
"1440",255620
"1441",14910877
"1442",3923879
"1443",4281613
"1444",603715
"1445",1075449
"1446",13415
"1447",48438
"1448",305289
"1449",165016
"1450",383500
"1451",310168
"1452",8386906
"1453",57661
"1454",98218
"1455",559830
"1456",33152
"1457",199605
"1458",37117
"1459",285513
"1460",78153
"1461",132419
"1462",205669
"1463",1105146
"1464",624579
"1465",484380
"1466",283813
"1467",231556
"1468",160220
"1469",3070841
"1470",761913
"1471",5041620
"1472",1157597
"1473",2154808
"1474",27716
"1475",297654
"1476",40360
"1477",223158
"1478",1272025
"1479",275616
"1480",57730
"1481",1260295
"1482",557983
"1483",236925
"1484",528718
"1485",600526
"1486",761595
"1487",128049
"1488",61416
"1489",44785
"1490",525809
"1491",1240184
"1492",250904
"1493",538797
"1494",590040
"1495",20064
"1496",17050
"1497",809738
"1498",729434
"1499",68913
"1500",204738
"1501",41945
"1502",284449
"1503",67622
"1504",482704
"1505",2573271
"1506",4414613
"1507",38454
"1508",1209746
"1509",631789
"1510",1744030
"1511",314959
"1512",5249
"1513",58730
"1514",323977
"1515",507433
"1516",7379926
"1517",594257
"1518",666324
"1519",490723
"1520",1335825
"1521",312691
"1522",1027026
"1523",145513
"1524",1855542
"1525",872840
"1526",305162
"1527",3652438
"1528",400868
"1529",31355
"1530",387815
"1531",1419876
"1532",590579
"1533",546556
"1534",81453
"1535",102881
"1536",150872
"1537",93574
"1538",58164
"1539",580758
"1540",337277
"1541",42318
"1542",622643
"1543",340451
"1544",284519
"1545",35536
"1546",307453
"1547",165242
"1548",524859
"1549",261878
"1550",707049
"1551",130133
"1552",617635
"1553",1514626
"1554",522625
"1555",174427
"1556",2195997
"1557",2644621
"1558",1242262
"1559",1204101
"1560",1291426
"1561",241311
"1562",1319866
"1563",2515460
"1564",921958
"1565",1383156
"1566",1323932
"1567",399509
"1568",265903
"1569",123310
"1570",5326
"1571",2876174
"1572",519529
"1573",241672
"1574",682121
"1575",486203
"1576",765341
"1577",54139
"1578",118554
"1579",262907
"1580",305295
"1581",1401557
"1582",-1437
"1583",244979
"1584",485876
"1585",242477
"1586",261984
"1587",248649
"1588",119086
"1589",936093
"1590",5708
"1591",69788
"1592",219148
"1593",166227
"1594",224858
"1595",92724
"1596",283292
"1597",243949
"1598",156959
"1599",78238
"1600",2196696
"1601",339443
"1602",3679894
"1603",1285033
"1604",2261322
"1605",882416
"1606",2025276
"1607",204933
"1608",7826919
"1609",1396398
"1610",2792025
"1611",5360971
"1612",2420077
"1613",11212488
"1614",198476
"1615",3764053
"1616",701469
"1617",3913388
"1618",11541575
"1619",3227020
"1620",6832929
"1621",339989
"1622",32873
"1623",194391
"1624",54004
"1625",243401
"1626",783870
"1627",78062
"1628",84980
"1629",438867
"1630",648849
"1631",360466
"1632",126258
"1633",157891
"1634",2126029
"1635",1006040
"1636",628942
"1637",168660
"1638",1118179
"1639",106097
"1640",166381
"1641",78561
"1642",2051429
"1643",51693
"1644",223417
"1645",174199
"1646",137308
"1647",19182
"1648",311562
"1649",298162
"1650",99973
"1651",430229
"1652",1183148
"1653",436854
"1654",384171
"1655",790106
"1656",71522
"1657",578808
"1658",242995
"1659",116635
"1660",36771
"1661",93312
"1662",39588
"1663",175032
"1664",473050
"1665",239027
"1666",1020140
"1667",622789
"1668",255288
"1669",588544
"1670",1647715
"1671",5906165
"1672",3296752
"1673",1615107
"1674",339262
"1675",15171
"1676",72237
"1677",599355
"1678",142208
"1679",132682
"1680",390357
"1681",1017037
"1682",118989
"1683",125037
"1684",556261
"1685",541814
"1686",352443
"1687",64441
"1688",812796
"1689",604524
"1690",517211
"1691",254798
"1692",123903
"1693",194374
"1694",88613
"1695",1278369
"1696",141160
"1697",201816
"1698",573043
"1699",308535
"1700",846823
"1701",85993
"1702",627777
"1703",233950
"1704",358682
"1705",1002068
"1706",4628
"1707",89
"1708",98837
"1709",374077
"1710",34902
"1711",90188
"1712",65050
"1713",174420
"1714",138612
"1715",255421
"1716",378658
"1717",1046402
"1718",69567
"1719",301651
"1720",377360
"1721",165143
"1722",50260
"1723",1455824
"1724",539242
"1725",339683
"1726",400984
"1727",268189
"1728",59917
"1729",83537
"1730",1059608
"1731",40153
"1732",183916
"1733",691694
"1734",220320
"1735",254316
"1736",90265
"1737",912676
"1738",101635
"1739",32383
"1740",108156
"1741",137565
"1742",1569638
"1743",428406
"1744",2068147
"1745",142178
"1746",3028710
"1747",2409481
"1748",2396379
"1749",4045751
"1750",327248
"1751",2370139
"1752",588674
"1753",825655
"1754",460178
"1755",8425552
"1756",62507
"1757",322621
"1758",82790
"1759",658605
"1760",2013475
"1761",158707
"1762",2068387
"1763",1350583
"1764",2577897
"1765",3627321
"1766",659368
"1767",331044
"1768",3476437
"1769",783189
"1770",4794849
"1771",1384288
"1772",1188809
"1773",1411845
"1774",4484553
"1775",30254
"1776",217185
"1777",367766
"1778",256856
"1779",3130146
"1780",9016361
"1781",5027906
"1782",1387852
"1783",920306
"1784",3754477
"1785",1098487
"1786",1916138
"1787",902277
"1788",156835
"1789",918129
"1790",345322
"1791",29313
"1792",704649
"1793",395099
"1794",1258463
"1795",712352
"1796",90350
"1797",110869
"1798",292653
"1799",297280
"1800",-534
"1801",437593
"1802",909497
"1803",316442
"1804",22216
"1805",669461
"1806",205726
"1807",202182
"1808",342131
"1809",62718
"1810",228582
"1811",277779
"1812",1632948
"1813",2644763
"1814",220633
"1815",63418
"1816",681492
"1817",158690
"1818",59860
"1819",48924
"1820",32251
"1821",26599
"1822",247405
"1823",219950
"1824",157803
"1825",8756
"1826",139969
"1827",424446
"1828",399523
"1829",2321989
"1830",746116
"1831",321013
"1832",618737
"1833",5113
"1834",476223
"1835",398328
"1836",27402
"1837",372430
"1838",79981
"1839",762640
"1840",52621
"1841",1539773
"1842",335960
"1843",99049
"1844",271339
"1845",128278
"1846",9297
"1847",219823
"1848",670408
"1849",107855
"1850",2576974
"1851",564366
"1852",213698
"1853",2850094
"1854",443675
"1855",443808
"1856",36281
"1857",8207023
"1858",4134897
"1859",2344908
"1860",75124
"1861",176657
"1862",1344543
"1863",646769
"1864",778573
"1865",218187
"1866",94812
"1867",-130170
"1868",5565378
"1869",5886147
"1870",122154
"1871",373503
"1872",4232128
"1873",4004510
"1874",2450605
"1875",179967
"1876",4025013
"1877",386518
"1878",4077522
"1879",342075
"1880",761703
"1881",1125974
"1882",1797504
"1883",9106441
"1884",1374172
"1885",2948063
"1886",1196552
"1887",1786209
"1888",3977890
"1889",1032693
"1890",1834276
"1891",10136048
"1892",8853060
"1893",233893
"1894",211848
"1895",726528
"1896",9867
"1897",2000181
"1898",56331
"1899",3002022
"1900",267427
"1901",403627
"1902",550356
"1903",1563134
"1904",2591769
"1905",6625219
"1906",567138
"1907",111796
"1908",4064347
"1909",5165545
"1910",3369858
"1911",1534748
"1912",1083037
"1913",11270145
"1914",1885882
"1915",344039
"1916",3062304
"1917",244022
"1918",438301
"1919",284963
