"","distances"
"1",406848
"2",79554
"3",49039
"4",24027
"5",16374
"6",50000
"7",43825
"8",829095
"9",4176927
"10",1339684
"11",1249270
"12",650776
"13",455185
"14",646474
"15",537137
"16",18695
"17",114446
"18",132102
"19",3477318
"20",321330
"21",1409
"22",270707
"23",666268
"24",2242910
"25",14423
"26",1413361
"27",2581674
"28",430046
"29",1499297
"30",68497
"31",361001
"32",338488
"33",49336
"34",411714
"35",94023
"36",1309159
"37",95977
"38",3878505
"39",377813
"40",430201
"41",203093
"42",41593
"43",1679871
"44",75819
"45",11432
"46",530925
"47",61647
"48",274869
"49",1102379
"50",96483
"51",99848
"52",97355
"53",18337
"54",813374
"55",700993
"56",463443
"57",404566
"58",2186084
"59",64920
"60",37600
"61",538924
"62",584679
"63",426899
"64",350816
"65",683355
"66",643102
"67",310007
"68",614733
"69",916533
"70",2764063
"71",303724
"72",221704
"73",352111
"74",373742
"75",2014656
"76",5650146
"77",973504
"78",2381425
"79",2032828
"80",353711
"81",2980803
"82",5284496
"83",8762031
"84",2287965
"85",3079169
"86",2194916
"87",641276
"88",1024359
"89",538537
"90",455741
"91",161210
"92",4602859
"93",114074
"94",103542
"95",776044
"96",7046768
"97",728659
"98",1094883
"99",338694
"100",1031948
"101",92842
"102",679490
"103",60062
"104",1308367
"105",414908
"106",193309
"107",52585
"108",2279618
"109",756032
"110",1101586
"111",26725889
"112",78836
"113",1193896
"114",-6436
"115",-10018
"116",2627551
"117",337055
"118",217784
"119",138616
"120",229119
"121",86227
"122",184378
"123",24318
"124",12925
"125",52177
"126",357699
"127",1898224
"128",117982
"129",54383
"130",176144
"131",788690
"132",57455
"133",77116
"134",28813
"135",35224
"136",683984
"137",123897
"138",188168
"139",39614
"140",15783
"141",223889
"142",127592
"143",13308
"144",3067570
"145",433449
"146",-128
"147",759134
"148",27331
"149",7554
"150",136244
"151",4255521
"152",62497
"153",4021876
"154",637862
"155",109282
"156",1630770
"157",739648
"158",656587
"159",1141907
"160",4858617
"161",3098460
"162",326624
"163",1519852
"164",1154580
"165",14759079
"166",657567
"167",1077575
"168",894323
"169",202565
"170",275644
"171",1301028
"172",2001781
"173",4490024
"174",630319
"175",2551566
"176",3552037
"177",1573894
"178",1839210
"179",51041
"180",137075
"181",945399
"182",121493
"183",65287
"184",54756
"185",1545669
"186",898205
"187",1113181
"188",1334873
"189",75562
"190",1665068
"191",91566
"192",1612753
"193",11424612
"194",383188
"195",2342224
"196",1649684
"197",469845
"198",1658655
"199",6484938
"200",754481
"201",5468660
"202",18009
"203",415471
"204",19032
"205",940371
"206",885768
"207",349525
"208",229677
"209",10708
"210",362030
"211",763553
"212",3062120
"213",5185258
"214",15438
"215",1490196
"216",229902
"217",611715
"218",3451569
"219",571923
"220",2297422
"221",33295
"222",1279936
"223",6548475
"224",565150
"225",18495
"226",5721697
"227",326219
"228",7911620
"229",455932
"230",56688
"231",178142
"232",692167
"233",114739
"234",1045745
"235",407379
"236",575895
"237",53167
"238",524112
"239",34491
"240",9890175
"241",511048
"242",536253
"243",508569
"244",57198
"245",389599
"246",2067778
"247",6336272
"248",375675
"249",721814
"250",327176
"251",173458
"252",249672
"253",1513697
"254",6419468
"255",237399
"256",16377734
"257",5561807
"258",312557
"259",75369
"260",7165080
"261",-39478
"262",2970565
"263",12696918
"264",498927
"265",288309
"266",159245
"267",1759
"268",5018447
"269",1443117
"270",1520216
"271",1082619
"272",3485880
"273",3525335
"274",187833
"275",14944
"276",1178759
"277",691134
"278",5408962
"279",53693
"280",493458
"281",312335
"282",19059
"283",11230198
"284",20858
"285",7512155
"286",18332
"287",2454667
"288",554272
"289",287125
"290",498555
"291",725334
"292",27108
"293",71266
"294",3739213
"295",605754
"296",1473758
"297",1662672
"298",3112996
"299",901316
"300",646556
"301",2554961
"302",535582
"303",35804
"304",28930
"305",86627
"306",138925
"307",4413617
"308",2867867
"309",325936
"310",114316
"311",2361088
"312",1719316
"313",174973
"314",205702
"315",5736797
"316",647268
"317",1825610
"318",417518
"319",547379
"320",-163977
"321",4457835
"322",399069
"323",393069
"324",97561
"325",68188
"326",-4698
"327",104383
"328",165941
"329",2163254
"330",43978
"331",815498
"332",1536036
"333",140817
"334",348423
"335",617520
"336",806863
"337",8927904
"338",864726
"339",4147023
"340",222733
"341",3955426
"342",919440
"343",27847
"344",240639
"345",554498
"346",298326
"347",1064571
"348",34642
"349",620056
"350",2094763
"351",-1486
"352",603748
"353",239276
"354",2216955
"355",477212
"356",82199
"357",71511
"358",508687
"359",112479
"360",10206
"361",23590
"362",94176
"363",133621
"364",69936
"365",243150
"366",102281
"367",79262
"368",53606
"369",672433
"370",107271
"371",28377
"372",6971
"373",17401
"374",6350
"375",260429
"376",891847
"377",559943
"378",285125
"379",169901
"380",125073
"381",961398
"382",22834
"383",2728145
"384",873039
"385",860786
"386",58257
"387",5508189
"388",5030720
"389",3668869
"390",134871
"391",15080544
"392",5894187
"393",6132455
"394",384080
"395",11230044
"396",539146
"397",6732327
"398",2349049
"399",524512
"400",32976
"401",296823
"402",1936542
"403",697371
"404",8661
"405",411265
"406",470218
"407",916111
"408",466511
"409",466056
"410",45047
"411",312619
"412",269651
"413",1238756
"414",103766
"415",445500
"416",1151463
"417",2512
"418",5438570
"419",433657
"420",372430
"421",202957
"422",1263813
"423",963467
"424",6841797
"425",1575207
"426",1613383
"427",3296837
"428",733789
"429",4010263
"430",7114050
"431",11588052
"432",9109
"433",1588778
"434",2025444
"435",331533
"436",179555
"437",677241
"438",443547
"439",230327
"440",-12601
"441",1068346
"442",4743277
"443",3004002
"444",1365000
"445",642232
"446",366728
"447",728796
"448",41499
"449",639
"450",132240
"451",1041614
"452",150066
"453",507
"454",205529
"455",199926
"456",116328
"457",207232
"458",1194795
"459",2391879
"460",64956
"461",1645210
"462",5003016
"463",84373
"464",2053939
"465",521120
"466",4376142
"467",4053210
"468",253771
"469",14179495
"470",337754
"471",4700471
"472",2749870
"473",6546070
"474",1281419
"475",480520
"476",433253
"477",5854
"478",126
"479",19650080
"480",1714005
"481",823552
"482",3457929
"483",434634
"484",8807
"485",248610
"486",122429
"487",1213754
"488",2193712
"489",96296
"490",616282
"491",6374080
"492",5210109
"493",2899893
"494",2276979
"495",89261
"496",208546
"497",145613
"498",1609874
"499",667109
"500",9961361
"501",578858
"502",19970646
"503",1940549
"504",1950220
"505",289633
"506",1540446
"507",2488204
"508",3430707
"509",344872
"510",6948111
"511",10889237
"512",3640107
"513",11257250
"514",4911641
"515",1102111
"516",24305434
"517",2740104
"518",1172416
"519",724798
"520",1490373
"521",2154046
"522",2736259
"523",9184710
"524",2503714
"525",200264
"526",1146408
"527",4186034
"528",1143688
"529",2231681
"530",1121208
"531",3034145
"532",1694901
"533",1265467
"534",495666
"535",581675
"536",2168489
"537",1708489
"538",1615578
"539",284905
"540",801321
"541",112085
"542",1095565
"543",800641
"544",3964629
"545",2979242
"546",6115481
"547",381272
"548",1670725
"549",1606348
"550",14991909
"551",239002
"552",170910
"553",2625010
"554",2712823
"555",1436529
"556",3900564
"557",385337
"558",4211271
"559",1942144
"560",502756
"561",432375
"562",732931
"563",1998901
"564",139253
"565",904559
"566",20872
"567",130718
"568",479344
"569",49023
"570",-37013
"571",98693
"572",7810
"573",97480
"574",510140
"575",815366
"576",7479156
"577",806077
"578",4457245
"579",2854404
"580",2267665
"581",3372026
"582",9388124
"583",103667
"584",5158
"585",443127
"586",271620
"587",3060720
"588",51836
"589",31347
"590",167936
"591",45559
"592",520649
"593",1399993
"594",4152
"595",43844
"596",131141
"597",586553
"598",252552
"599",425486
"600",696465
"601",850145
"602",505945
"603",72818
"604",3187
"605",597533
"606",952288
"607",147042
"608",105
"609",4893723
"610",2890369
"611",1534732
"612",2078315
"613",147464
"614",236245
"615",8137414
"616",181736
"617",1778211
"618",503268
"619",1134910
"620",476468
"621",60535
"622",73412
"623",190353
"624",620411
"625",99469
"626",4464
"627",209416
"628",1920
"629",69099
"630",132443
"631",25188
"632",14674
"633",1019652
"634",4056
"635",59288
"636",12792
"637",16005
"638",453260
"639",2653631
"640",380727
"641",425008
"642",88182
"643",1604142
"644",1918438
"645",-24842
"646",1106825
"647",672400
"648",73054
"649",74809
"650",111493
"651",328195
"652",691677
"653",129635
"654",7911697
"655",4642440
"656",16271745
"657",1728439
"658",498869
"659",4187110
"660",1823713
"661",913396
"662",3958897
"663",206427
"664",77731
"665",12840741
"666",5164051
"667",1164167
"668",207589
"669",83220
"670",1274909
"671",1166059
"672",844374
"673",5686817
"674",7617420
"675",654703
"676",1308466
"677",7616769
"678",1153571
"679",532713
"680",2221175
"681",4270005
"682",4801
"683",331654
"684",1929690
"685",3843400
"686",1645861
"687",5384472
"688",1425695
"689",1024318
"690",-19601
"691",212780
"692",6206221
"693",3359599
"694",830261
"695",100551
"696",-56052
"697",473515
"698",244788
"699",988
"700",295679
"701",2219888
"702",251426
"703",829237
"704",95694
"705",45654
"706",428453
"707",79707
"708",4266413
"709",6621131
"710",5165257
"711",3913
"712",97728
"713",368401
"714",995102
"715",2767329
"716",2257108
"717",37115
"718",153824
"719",2213257
"720",-2905
"721",157462
"722",2689483
"723",56285
"724",2377606
"725",4686186
"726",826457
"727",154248
"728",592094
"729",31521
"730",87614
"731",51729
"732",10480087
"733",577309
"734",8742784
"735",1039485
"736",116235
"737",535209
"738",272158
"739",36622
"740",5589906
"741",846324
"742",2281676
"743",1542616
"744",153657
"745",9397580
"746",125094
"747",4846439
"748",46064
"749",5792947
"750",716997
"751",181810
"752",42379
"753",19306
"754",15470
"755",42658
"756",457036
"757",47265
"758",56707
"759",3300
"760",510757
"761",181074
"762",329004
"763",591714
"764",1028516
"765",3824088
"766",360955
"767",165233
"768",4444921
"769",4610142
"770",953929
"771",5556244
"772",1071220
"773",2416807
"774",148694
"775",883118
"776",638290
"777",19175
"778",391003
"779",219102
"780",211766
"781",298468
"782",640721
"783",1924851
"784",1025774
"785",387124
"786",13739
"787",2766916
"788",2083160
"789",1042060
"790",7451729
"791",175754
"792",377244
"793",500710
"794",864720
"795",63803
"796",3572777
"797",1716758
"798",5668486
"799",59853
"800",4005297
"801",264807
"802",662935
"803",10790933
"804",672095
"805",3217743
"806",626709
"807",179460
"808",1222097
"809",152
"810",1513554
"811",375550
"812",2310981
"813",4235341
"814",3818086
"815",791474
"816",-771
"817",281481
"818",190869
"819",8731787
"820",6653738
"821",7008990
"822",52262
"823",1099488
"824",6142492
"825",656009
"826",6606709
"827",1131696
"828",4656045
"829",3279327
"830",110786
"831",1065908
"832",18845
"833",2645189
"834",655847
"835",338202
"836",44226
"837",184393
"838",88235
"839",3727562
"840",1137540
"841",2050500
"842",13894
"843",413516
"844",477651
"845",13259133
"846",3613836
"847",2335992
"848",245445
"849",78452
"850",352106
"851",1276227
"852",8087728
"853",9708221
"854",402762
"855",201249
"856",105856
"857",18283
"858",206973
"859",27225
"860",164447
"861",260633
"862",48455
"863",119853
"864",50826
"865",10536787
"866",3764482
"867",6302844
"868",1268599
"869",5392775
"870",515440
"871",188220
"872",415390
"873",116581
"874",258601
"875",145661
"876",179563
"877",13128
"878",389952
"879",585041
"880",70824
"881",75956
"882",1305185
"883",64517
"884",316813
"885",46057726
"886",46618
"887",3744903
"888",4565965
"889",770582
"890",318158
"891",3185985
"892",978323
"893",1542678
"894",684677
"895",331736
"896",1180912
"897",2530916
"898",606271
"899",2523015
"900",1601987
"901",64408
"902",928653
"903",2511414
"904",503326
"905",1323254
"906",7666230
"907",467046
"908",86935
"909",2215073
"910",10603
"911",27636
"912",1493458
"913",561796
"914",1494125
"915",59417
"916",66507
"917",-239
"918",459938
"919",176813
"920",754831
"921",487209
"922",54789
"923",164779
"924",328839
"925",1248866
"926",11816
"927",5126
"928",44890
"929",899002
"930",1969985
"931",516674
"932",362200
"933",158817
"934",28473
"935",2466026
"936",98628
"937",1908830
"938",4035358
"939",293048
"940",1121280
"941",1530522
"942",873855
"943",2798885
"944",4413867
"945",5410480
"946",834226
"947",1469497
"948",484957
"949",10853925
"950",550680
"951",27675
"952",160680
"953",1348842
"954",13190629
"955",67041
"956",4796468
"957",4362819
"958",412784
"959",377821
"960",108901
"961",1457532
"962",50203
"963",247512
"964",1334827
"965",874515
"966",120963
"967",120752
"968",330308
"969",9886
"970",211541
"971",4947672
"972",730332
"973",52770
"974",6289897
"975",983060
"976",1839086
"977",2391826
"978",1802607
"979",2009207
"980",1566447
"981",970181
"982",1163575
"983",81949
"984",772938
"985",409460
"986",591367
"987",563906
"988",478921
"989",225376
"990",466068
"991",7561
"992",675766
"993",108971
"994",6631271
"995",3201588
"996",3872047
"997",464014
"998",274467
"999",107035
"1000",727044
"1001",2012430
"1002",2826568
"1003",5299729
"1004",1716123
"1005",83
"1006",154683
"1007",150126
"1008",158141
"1009",62192
"1010",55355
"1011",1560657
"1012",683238
"1013",172522
"1014",1005675
"1015",204976
"1016",1873188
"1017",110396
"1018",1366631
"1019",945432
"1020",315643
"1021",145539
"1022",1222463
"1023",1039798
"1024",2318603
"1025",2248626
"1026",317508
"1027",1390549
"1028",8967344
"1029",601475
"1030",2982659
"1031",1286860
"1032",889312
"1033",9210807
"1034",14403
"1035",185625
"1036",2053052
"1037",782006
"1038",533390
"1039",158226
"1040",200814
"1041",9683362
"1042",71077
"1043",240167
"1044",52056
"1045",707325
"1046",1227915
"1047",1488579
"1048",19405
"1049",60533
"1050",425990
"1051",541491
"1052",114038
"1053",133210
"1054",1393853
"1055",3852
"1056",31037
"1057",31756
"1058",709324
"1059",71273
"1060",5799
"1061",206383
"1062",171828
"1063",31726
"1064",79654
"1065",50911
"1066",102075
"1067",4415
"1068",45665
"1069",129168
"1070",1049961
"1071",92690
"1072",104738
"1073",114323
"1074",18997
"1075",15384
"1076",2768474
"1077",991609
"1078",412641
"1079",295047
"1080",575203
"1081",1649692
"1082",1946390
"1083",1515279
"1084",5076769
"1085",71646
"1086",2361560
"1087",1381297
"1088",6417833
"1089",2625240
"1090",6543113
"1091",4446927
"1092",4216449
"1093",202505
"1094",2314880
"1095",2333967
"1096",811
"1097",55352
"1098",1302717
"1099",566646
"1100",69075
"1101",5860572
"1102",55056
"1103",6258715
"1104",1916673
"1105",584679
"1106",3657905
"1107",1799039
"1108",1972
"1109",18489
"1110",81589
"1111",60593
"1112",152807
"1113",38677
"1114",23006
"1115",217860
"1116",961635
"1117",465449
"1118",2062754
"1119",1505931
"1120",254760
"1121",2139471
"1122",1078851
"1123",3500567
"1124",6218528
"1125",978618
"1126",277318
"1127",2011393
"1128",1247799
"1129",11385859
"1130",93568
"1131",-147637
"1132",3403547
"1133",11091
"1134",1087483
"1135",517254
"1136",905705
"1137",1340550
"1138",28368
"1139",55331
"1140",810117
"1141",2126552
"1142",144925
"1143",19759
"1144",724509
"1145",21069
"1146",1373474
"1147",13573
"1148",60641
"1149",282440
"1150",48452
"1151",119558
"1152",152231
"1153",519127
"1154",49197
"1155",605892
"1156",6682793
"1157",1665428
"1158",1517570
"1159",607037
"1160",278458
"1161",14833
"1162",724540
"1163",663205
"1164",1254479
"1165",18362
"1166",17662761
"1167",5848445
"1168",170730
"1169",1391384
"1170",5059150
"1171",1903655
"1172",1184422
"1173",1741053
"1174",2035923
"1175",162
"1176",22964
"1177",209176
"1178",36550
"1179",1121563
"1180",700546
"1181",525825
"1182",1041832
"1183",2732778
"1184",1785874
"1185",240354
"1186",1783260
"1187",128192
"1188",68910
"1189",246127
"1190",698177
"1191",798941
"1192",507806
"1193",536340
"1194",235964
"1195",12798
"1196",49712
"1197",156905
"1198",7738250
"1199",150183
"1200",3181
"1201",637270
"1202",-6671
"1203",685500
"1204",4258636
"1205",1081816
"1206",846071
"1207",289220
"1208",1038700
"1209",1777779
"1210",6201627
"1211",120671
"1212",2009605
"1213",171040
"1214",52099
"1215",1269609
"1216",4036509
"1217",1268259
"1218",2222872
"1219",234595
"1220",607
"1221",170320
"1222",202967
"1223",889197
"1224",329957
"1225",-1897
"1226",32091
"1227",874718
"1228",7752661
"1229",12153871
"1230",929891
"1231",1530163
"1232",3762385
"1233",15167574
"1234",5492758
"1235",10110975
"1236",2463936
"1237",88526
"1238",1295411
"1239",177253
"1240",56838
"1241",58169
"1242",139380
"1243",260788
"1244",604122
"1245",107787
"1246",21441
"1247",139201
"1248",5267355
"1249",701901
"1250",1049713
"1251",775205
"1252",1177781
"1253",92279
"1254",1020944
"1255",2793547
"1256",6066217
"1257",4371634
"1258",146853
"1259",39889
"1260",429472
"1261",90592
"1262",158637
"1263",1808795
"1264",340845
"1265",2213110
"1266",87420
"1267",-21038
"1268",416288
"1269",186828
"1270",1757888
"1271",1664297
"1272",76619
"1273",435655
"1274",1498
"1275",2615681
"1276",42353
"1277",124944
"1278",213936
"1279",3139717
"1280",1450594
"1281",1171931
"1282",2609720
"1283",922714
"1284",530050
"1285",384785
"1286",99166
"1287",66987
"1288",4126
"1289",473160
"1290",1124989
"1291",271851
"1292",217734
"1293",49566
"1294",3717500
"1295",6616443
"1296",472113
"1297",862621
"1298",848063
"1299",2852814
"1300",940690
"1301",955975
"1302",4323159
"1303",703254
"1304",2034585
"1305",249959
"1306",201803
"1307",327930
"1308",59131
"1309",1145577
"1310",532069
"1311",4291657
"1312",2855120
"1313",1251069
"1314",44841
"1315",38726
"1316",641686
"1317",5469882
"1318",2756
"1319",261313
"1320",9304
"1321",1465755
"1322",55888
"1323",46679
"1324",809370
"1325",1156232
"1326",25773
"1327",697446
"1328",2732304
"1329",927551
"1330",2673967
"1331",4682886
"1332",2144959
"1333",704409
"1334",3464259
"1335",133957
"1336",763433
"1337",366724
"1338",756395
"1339",1885915
"1340",2525946
"1341",2242743
"1342",309703
"1343",1707501
"1344",137318
"1345",254573
"1346",740785
"1347",241558
"1348",2867977
"1349",1000707
"1350",135866
"1351",807896
"1352",1735995
"1353",373834
"1354",1392968
"1355",41742
"1356",5671502
"1357",427937
"1358",1946096
"1359",6070212
"1360",1423776
"1361",58939
"1362",148693
"1363",101802
"1364",179882
"1365",97535
"1366",36053
"1367",7152
"1368",43645
"1369",563526
"1370",129231
"1371",101868
"1372",260302
"1373",18726
"1374",288256
"1375",251945
"1376",151053
"1377",420747
"1378",120995
"1379",4005
"1380",113570
"1381",800390
"1382",207863
"1383",538160
"1384",-3075
"1385",3682576
"1386",94446
"1387",127134
"1388",1622146
"1389",1064499
"1390",3186268
"1391",538307
"1392",3424433
"1393",475145
"1394",9663
"1395",844349
"1396",157784
"1397",672212
"1398",639902
"1399",1306289
"1400",860238
"1401",37346
"1402",91753
"1403",3458445
"1404",346836
"1405",104399
"1406",891260
"1407",36639
"1408",72457
"1409",79542
"1410",11053
"1411",246650
"1412",168640
"1413",46919
"1414",72660
"1415",27395
"1416",6861
"1417",72450
"1418",54106
"1419",117961
"1420",21911
"1421",336744
"1422",16007630
"1423",2611964
"1424",1184502
"1425",1407901
"1426",2060550
"1427",854761
"1428",760599
"1429",9374275
"1430",106168
"1431",789689
"1432",267237
"1433",347416
"1434",532658
"1435",234960
"1436",1140901
"1437",137639
"1438",595323
"1439",754574
"1440",2202344
"1441",315106
"1442",204486
"1443",228014
"1444",175001
"1445",71247
"1446",71188
"1447",1542192
"1448",897008
"1449",1823180
"1450",1100440
"1451",1637617
"1452",656684
"1453",1217725
"1454",1283954
"1455",66575
"1456",288758
"1457",1392228
"1458",51090
"1459",49966
"1460",153870
"1461",551178
"1462",513260
"1463",128049
"1464",653306
"1465",1240184
"1466",-1149
"1467",19299
"1468",10723
"1469",599591
"1470",303146
"1471",91807
"1472",34885
"1473",47591
"1474",39069
"1475",80638
"1476",185891
"1477",33829
"1478",53409
"1479",1726311
"1480",9755
"1481",11694
"1482",47059
"1483",77264
"1484",154048
"1485",14816
"1486",107066
"1487",153183
"1488",45107
"1489",445393
"1490",2314344
"1491",1266206
"1492",3504754
"1493",412965
"1494",439105
"1495",72709
"1496",936357
"1497",496178
"1498",1107644
"1499",434114
"1500",36366
"1501",31001
"1502",804338
"1503",7142337
"1504",47747
"1505",254894
"1506",23213
"1507",529
"1508",103980
"1509",44183
"1510",1757528
"1511",-21520
"1512",183721
"1513",843891
"1514",141409
"1515",2727120
"1516",565052
"1517",3825422
"1518",469755
"1519",130689
"1520",46451
"1521",47121
"1522",1528544
"1523",153216
"1524",91732
"1525",67441
"1526",341640
"1527",7987
"1528",17567
"1529",217316
"1530",25681
"1531",154515
"1532",1031676
"1533",605450
"1534",333561
"1535",374791
"1536",539167
"1537",697686
"1538",8521
"1539",549153
"1540",152187
"1541",55997
"1542",106919
"1543",41870
"1544",1166132
"1545",41576
"1546",183979
"1547",689623
"1548",346330
"1549",421212
"1550",4490816
"1551",1242262
"1552",739894
"1553",128092
"1554",249639
"1555",1212432
"1556",98847
"1557",50791
"1558",92630
"1559",364218
"1560",3156117
"1561",77447
"1562",317215
"1563",214484
"1564",469514
"1565",659962
"1566",878354
"1567",888686
"1568",6877066
"1569",17602
"1570",118601
"1571",78691
"1572",174786
"1573",126755
"1574",-73
"1575",190581
"1576",73807
"1577",38189
"1578",8364
"1579",143626
"1580",464566
"1581",1597191
"1582",248934
"1583",2209301
"1584",180076
"1585",442037
"1586",14539
"1587",19433
"1588",114835
"1589",57488
"1590",31393
"1591",76290
"1592",11029
"1593",12959
"1594",181553
"1595",340831
"1596",87022
"1597",9645952
"1598",11569260
"1599",50013
"1600",1798665
"1601",2484446
"1602",8402073
"1603",359214
"1604",41967
"1605",626601
"1606",150158
"1607",5774650
"1608",4016502
"1609",674891
"1610",187243
"1611",3817471
"1612",5609087
"1613",2019786
"1614",108123
"1615",2918775
"1616",528332
"1617",408757
"1618",15646802
"1619",592524
"1620",452260
"1621",84176
"1622",362193
"1623",167053
"1624",136046
"1625",252609
"1626",145025
"1627",1409600
"1628",34447
"1629",428558
"1630",134723
"1631",262395
"1632",14465
"1633",1084788
"1634",54375
"1635",210380
"1636",468427
"1637",1158753
"1638",67973
"1639",198277
"1640",38867
"1641",12240
"1642",262816
"1643",46347
"1644",91874
"1645",701363
"1646",457867
"1647",106097
"1648",321837
"1649",230611
"1650",105444
"1651",40154
"1652",-340
"1653",85825
"1654",64235
"1655",95245
"1656",230732
"1657",146893
"1658",19741
"1659",174196
"1660",365832
"1661",191033
"1662",246694
"1663",124099
"1664",116529
"1665",137067
"1666",107278
"1667",11818
"1668",164461
"1669",2917
"1670",1415695
"1671",117739
"1672",501773
"1673",20840
"1674",1116513
"1675",53555
"1676",420667
"1677",156258
"1678",88980
"1679",168894
"1680",338588
"1681",68863
"1682",396596
"1683",64438
"1684",119461
"1685",607516
"1686",193235
"1687",136267
"1688",93673
"1689",9416
"1690",798310
"1691",7022984
"1692",4787128
"1693",799498
"1694",906558
"1695",122078
"1696",1940
"1697",269957
"1698",664981
"1699",104778
"1700",2916
"1701",254601
"1702",20746
"1703",58948
"1704",66714
"1705",-31655
"1706",271921
"1707",44410
"1708",321621
"1709",182879
"1710",152908
"1711",161716
"1712",1024292
"1713",178467
"1714",46550
"1715",15404
"1716",397457
"1717",90835
"1718",44464
"1719",340673
"1720",124591
"1721",459403
"1722",305932
"1723",33607
"1724",1074728
"1725",1612890
"1726",26746
"1727",252489
"1728",240172
"1729",648750
"1730",69148
"1731",259239
"1732",328342
"1733",242734
"1734",32858
"1735",1611854
"1736",123928
"1737",42245
"1738",21514
"1739",263157
"1740",334956
"1741",238949
"1742",194100
"1743",162047
"1744",337693
"1745",34057
"1746",35310
"1747",95163
"1748",17144
"1749",161706
"1750",-3774
"1751",9744
"1752",627539
"1753",833816
"1754",680
"1755",202295
"1756",334639
"1757",164332
"1758",129649
"1759",1131
"1760",623457
"1761",103695
"1762",2349549
"1763",129028
"1764",18772
"1765",462765
"1766",272376
"1767",196092
"1768",35500
"1769",648726
"1770",80387
"1771",208456
"1772",224259
"1773",215666
"1774",267973
"1775",79211
"1776",62861
"1777",34817
"1778",77274
"1779",41532
"1780",569428
"1781",1674769
"1782",888233
"1783",1099371
"1784",623767
"1785",142178
"1786",4360956
"1787",3280100
"1788",4156711
"1789",517560
"1790",297286
"1791",1221049
"1792",3328527
"1793",1697822
"1794",7195299
"1795",484882
"1796",960899
"1797",706176
"1798",173356
"1799",187395
"1800",54381
"1801",780
"1802",257036
"1803",110421
"1804",72615
"1805",3236
"1806",1036877
"1807",82415
"1808",791923
"1809",318798
"1810",511378
"1811",1989095
"1812",53961
"1813",2893288
"1814",740447
"1815",761762
"1816",203579
"1817",276097
"1818",2613261
"1819",839376
"1820",4253955
"1821",2141337
"1822",999070
"1823",979789
"1824",530107
"1825",30334
"1826",904286
"1827",2203498
"1828",49438
"1829",90903
"1830",416315
"1831",124119
"1832",324310
"1833",297809
"1834",80424
"1835",244993
"1836",16736
"1837",3396867
"1838",3291640
"1839",104
"1840",930517
"1841",72623
"1842",423442
"1843",2404209
"1844",979425
"1845",5353286
"1846",179652
"1847",664924
"1848",523606
"1849",1860765
"1850",568851
"1851",301757
"1852",827144
"1853",517664
"1854",13835
"1855",304009
"1856",20578
"1857",169874
"1858",196884
"1859",74035
"1860",87452
"1861",394381
"1862",2848
"1863",909078
"1864",2014064
"1865",298285
"1866",137763
"1867",1873897
"1868",178109
"1869",2014348
"1870",467412
"1871",582630
"1872",301122
"1873",68583
"1874",224824
"1875",314431
"1876",457582
"1877",891474
"1878",5263353
"1879",431689
"1880",85001
"1881",165356
"1882",198063
"1883",661442
"1884",62372
"1885",1306403
"1886",444500
"1887",328792
"1888",133079
"1889",749056
"1890",1340459
"1891",482041
"1892",1832577
"1893",3542889
"1894",42055
"1895",236899
"1896",765754
"1897",7512757
"1898",9980040
"1899",1798729
"1900",8658524
"1901",366221
"1902",7746194
"1903",2712197
"1904",2473353
"1905",647447
"1906",259066
"1907",78154
"1908",79878
"1909",1238751
"1910",125583
"1911",27984
"1912",134297
"1913",4281570
"1914",506094
"1915",81759
"1916",697615
"1917",15957246
"1918",1113225
"1919",52216
"1920",1370985
"1921",-123853
"1922",3211304
"1923",3415710
"1924",20092277
"1925",218964
"1926",1989450
"1927",6564496
"1928",8958827
"1929",11556
"1930",105369
"1931",4009478
"1932",227156
"1933",5483457
"1934",199601
"1935",2037137
"1936",2550086
"1937",451688
"1938",176556
"1939",379560
"1940",14594556
"1941",2157645
"1942",818370
"1943",232649
"1944",75277
"1945",359217
"1946",105783
"1947",40700
"1948",215170
"1949",248291
