"","x"
"ENSG00000143156",0.580997607146231
"ENSG00000122674",0.580391271204358
"ENSG00000167491",0.579482528058601
"ENSG00000226054",0.579449374349567
"ENSG00000006327",0.577578833155091
"ENSG00000163082",0.57676845860706
"ENSG00000126698",0.576650082127928
"ENSG00000198018",0.576242470503569
"ENSG00000112208",0.575901730914462
"ENSG00000100403",0.575704987857281
"ENSG00000127124",0.575457500199878
"ENSG00000249119",0.575001127662273
"ENSG00000175772",0.574515421960644
"ENSG00000211643",0.574151361812313
"ENSG00000172965",0.573689188203329
"ENSG00000124507",0.572853740959297
"ENSG00000128245",0.571214755357903
"ENSG00000007237",0.571176915349898
"ENSG00000087303",0.571098132931778
"ENSG00000132386",0.57088999336887
"ENSG00000126226",0.570874946142707
"ENSG00000269028",0.570703309995336
"ENSG00000140320",0.57016274162525
"ENSG00000178573",0.570078172015987
"ENSG00000133103",0.569817067842223
"ENSG00000134871",0.569688194782554
"ENSG00000140274",0.567763368421557
"ENSG00000121454",0.567608656054039
"ENSG00000113532",0.567363102754992
"ENSG00000101367",0.567208059302614
"ENSG00000204650",0.565726892325296
"ENSG00000136149",0.56528256429581
"ENSG00000139910",0.565165892275417
"ENSG00000165055",0.563831160868065
"ENSG00000210082",0.563787771789946
"ENSG00000133816",0.562788573644988
"ENSG00000111912",0.562012377991474
"ENSG00000011201",0.56179811457186
"ENSG00000262902",0.560944767312469
"ENSG00000266718",0.559175963507339
"ENSG00000204291",0.557621213219094
"ENSG00000086548",0.55669264704624
"ENSG00000134153",0.555817808624914
"ENSG00000076201",0.555112303149617
"ENSG00000188211",0.554497379752655
"ENSG00000137501",0.554146315521177
"ENSG00000160712",0.550918132976156
"ENSG00000167642",0.550706281884731
"ENSG00000135404",0.549959562774789
"ENSG00000163964",0.549933958113586
"ENSG00000105193",0.549243150087984
"ENSG00000212719",0.548859444218582
"ENSG00000112078",0.548002381653153
"ENSG00000267534",0.546343227893486
"ENSG00000034152",0.545896971722612
"ENSG00000222041",0.543463721198377
"ENSG00000269918",0.541254735605911
"ENSG00000001629",0.540218140433428
"ENSG00000143321",0.539884211370054
"ENSG00000170417",0.539298134214541
"ENSG00000168575",0.538621204855485
"ENSG00000185818",0.537943137546358
"ENSG00000116688",0.536322884181569
"ENSG00000165527",0.534803412860194
"ENSG00000144649",0.534796244309057
"ENSG00000228653",0.530948215056223
"ENSG00000126773",0.530220710985221
"ENSG00000150051",0.5286864585103
"ENSG00000240409",0.528168537558306
"ENSG00000056661",0.525556552477294
"ENSG00000152990",0.525207627188486
"ENSG00000184009",0.523945258339789
"ENSG00000228589",0.523244722170525
"ENSG00000183943",0.520132903308237
"ENSG00000119737",0.519463102621449
"ENSG00000224578",0.516459390092743
"ENSG00000268995",0.514555633681902
"ENSG00000255642",0.514466549792053
"ENSG00000163293",0.513795407253493
"ENSG00000140280",0.510288699427755
"ENSG00000104059",0.504979433090444
"ENSG00000215105",0.504026359064823
"ENSG00000197991",0.503408117324477
"ENSG00000237938",0.492093165031535
"ENSG00000115380",0.491640168894368
"ENSG00000058404",0.488127661227935
"ENSG00000123342",0.476012047921711
"ENSG00000164023",0.464526563671683
"ENSG00000245025",0.446778425527825
"ENSG00000138755",0.445789604008897
"ENSG00000087916",0.428090258585302
"ENSG00000148053",0.426596316332421
"ENSG00000100505",0.417388656868767
"ENSG00000138829",0.411035807715201
"ENSG00000158683",0.371250380061285
"ENSG00000125735",0.355569333807445
"ENSG00000172137",0.348172181247304
"ENSG00000188820",0.318743609612572
"ENSG00000246203",0.264651436894026
"ENSG00000105409",0.231225619378661
