"","distances"
"1",494804
"2",2852
"3",332756
"4",423657
"5",28493
"6",107100
"7",23143
"8",124742
"9",657965
"10",1076123
"11",13507
"12",2634142
"13",1381992
"14",1258332
"15",146297
"16",650776
"17",1123211
"18",6654
"19",411973
"20",114446
"21",132102
"22",216516
"23",3092550
"24",641796
"25",333167
"26",54218
"27",1898451
"28",394299
"29",14423
"30",698879
"31",2619649
"32",856905
"33",13653
"34",717491
"35",1008140
"36",75003
"37",1133767
"38",1082906
"39",103034
"40",95977
"41",551124
"42",116470
"43",2781225
"44",423604
"45",285542
"46",116419
"47",4446286
"48",96483
"49",84083
"50",1225181
"51",589517
"52",400288
"53",227838
"54",697784
"55",1407092
"56",469108
"57",1032324
"58",971073
"59",683355
"60",1326493
"61",165539
"62",199913
"63",4142538
"64",221704
"65",839739
"66",1126372
"67",429738
"68",140520
"69",48360
"70",3767468
"71",80696
"72",2958079
"73",2793550
"74",418163
"75",891824
"76",1297597
"77",1516767
"78",259273
"79",5284496
"80",2100938
"81",6535364
"82",2364655
"83",2092242
"84",81391
"85",302912
"86",567350
"87",788662
"88",2410529
"89",520258
"90",538537
"91",455741
"92",161210
"93",4790872
"94",8908905
"95",490643
"96",163277
"97",688012
"98",10167
"99",539243
"100",509713
"101",3104336
"102",34047
"103",925059
"104",2165261
"105",953416
"106",658855
"107",1652528
"108",24207423
"109",115940
"110",68845
"111",1254349
"112",3321892
"113",402279
"114",160995
"115",94954
"116",73161
"117",52177
"118",108566
"119",2075563
"120",312515
"121",208608
"122",307571
"123",149308
"124",92018
"125",44125
"126",16785
"127",77116
"128",106610
"129",61380
"130",711125
"131",229141
"132",298577
"133",127592
"134",2271169
"135",1233531
"136",486760
"137",184091
"138",48116
"139",27331
"140",70810
"141",75955
"142",607852
"143",766848
"144",2911476
"145",-224
"146",1897770
"147",1218316
"148",1164162
"149",4514412
"150",7450557
"151",419052
"152",2150796
"153",7258398
"154",4239726
"155",145367
"156",495074
"157",2251906
"158",1286959
"159",427215
"160",49108
"161",1785251
"162",6604
"163",327610
"164",928413
"165",501253
"166",1178242
"167",142376
"168",2514877
"169",22954
"170",79644
"171",45687
"172",470687
"173",1609241
"174",630319
"175",801925
"176",5185336
"177",1573894
"178",2401162
"179",587192
"180",1852942
"181",100333
"182",1729208
"183",3055888
"184",1935303
"185",142198
"186",3231673
"187",3104580
"188",1616682
"189",5243456
"190",255314
"191",3511622
"192",5117100
"193",789205
"194",346811
"195",368473
"196",21077
"197",269773
"198",370088
"199",13313040
"200",19032
"201",2857430
"202",107877
"203",861734
"204",86310
"205",2272948
"206",450345
"207",935742
"208",307377
"209",2230152
"210",112146
"211",1765203
"212",972925
"213",3664405
"214",1972173
"215",1402613
"216",-115
"217",5879234
"218",34094
"219",9762189
"220",1688020
"221",1000815
"222",1710302
"223",1075699
"224",686408
"225",984367
"226",323483
"227",1546652
"228",575895
"229",324903
"230",143589
"231",1749
"232",107715
"233",10781693
"234",245033
"235",24623
"236",1842715
"237",111347
"238",1188508
"239",79214
"240",6059476
"241",375675
"242",721814
"243",231649
"244",252793
"245",4354
"246",582254
"247",222436
"248",49453
"249",2533429
"250",69127
"251",589961
"252",4084493
"253",395686
"254",2483637
"255",2648719
"256",88263
"257",485402
"258",211369
"259",6560004
"260",413515
"261",553557
"262",1432232
"263",5561807
"264",312557
"265",425529
"266",1832815
"267",173257
"268",5464217
"269",20448006
"270",3461007
"271",1232159
"272",1082619
"273",8619228
"274",3200257
"275",2740501
"276",1087771
"277",4562097
"278",4364225
"279",1994819
"280",162902
"281",20858
"282",10052346
"283",1277707
"284",785578
"285",169729
"286",259584
"287",3345060
"288",2625
"289",4025580
"290",3058888
"291",901316
"292",646556
"293",549873
"294",1717593
"295",421796
"296",426311
"297",28930
"298",86627
"299",3024495
"300",1396456
"301",6153656
"302",1081874
"303",704939
"304",534336
"305",762407
"306",83975
"307",473519
"308",3746985
"309",2189320
"310",412306
"311",748507
"312",1245348
"313",175778
"314",3927562
"315",399069
"316",558751
"317",163198
"318",37675
"319",40676
"320",7385
"321",1234892
"322",812251
"323",232994
"324",196443
"325",896152
"326",553111
"327",140817
"328",348423
"329",617520
"330",806863
"331",8927904
"332",231529
"333",3935179
"334",159108
"335",446567
"336",316546
"337",3888242
"338",458947
"339",279615
"340",209518
"341",985341
"342",897142
"343",164689
"344",2415495
"345",772467
"346",760476
"347",713830
"348",714655
"349",549138
"350",994691
"351",71511
"352",68584
"353",314582
"354",10206
"355",154794
"356",25493
"357",81682
"358",69936
"359",243150
"360",190850
"361",53606
"362",267472
"363",115706
"364",14653
"365",232334
"366",168711
"367",54412
"368",11708
"369",107276
"370",25944
"371",844412
"372",573715
"373",4740
"374",986814
"375",2728145
"376",873039
"377",595703
"378",393481
"379",5270789
"380",512201
"381",2310307
"382",2002731
"383",-1892
"384",3291417
"385",9043078
"386",7345363
"387",4580782
"388",4450901
"389",188465
"390",855282
"391",30915
"392",146487
"393",38180
"394",208191
"395",13852
"396",10543753
"397",313260
"398",1217640
"399",6006914
"400",282308
"401",2592489
"402",194371
"403",247894
"404",389880
"405",160291
"406",846035
"407",779585
"408",411265
"409",293378
"410",87727
"411",28488
"412",333439
"413",1582578
"414",45047
"415",46517
"416",559404
"417",1238756
"418",1907617
"419",1067859
"420",27599
"421",460038
"422",3686511
"423",231830
"424",600272
"425",3458699
"426",230125
"427",5573770
"428",1859867
"429",4393679
"430",2922126
"431",186533
"432",1781377
"433",514635
"434",8661537
"435",25067
"436",241716
"437",803012
"438",8414298
"439",9109
"440",3526309
"441",2268686
"442",951
"443",616571
"444",205166
"445",195980
"446",146306
"447",289779
"448",6633183
"449",176678
"450",81993
"451",232683
"452",1757402
"453",121703
"454",377669
"455",665255
"456",740862
"457",338288
"458",5314343
"459",5210400
"460",1374951
"461",611509
"462",4547695
"463",18203154
"464",109927
"465",425665
"466",705944
"467",179152
"468",382442
"469",1191659
"470",2021322
"471",3213216
"472",3953529
"473",33711
"474",1362009
"475",308384
"476",2328672
"477",12764336
"478",265434
"479",1536653
"480",3172672
"481",1146264
"482",315064
"483",123501
"484",5639311
"485",479565
"486",2977081
"487",565478
"488",233021
"489",360782
"490",11984321
"491",500851
"492",467654
"493",1281887
"494",33389
"495",2276979
"496",89261
"497",420694
"498",37572
"499",1503068
"500",132498
"501",573084
"502",1085148
"503",2667018
"504",814037
"505",4829846
"506",89094
"507",373904
"508",113816
"509",2414207
"510",1011381
"511",2431687
"512",2387929
"513",66111
"514",1053390
"515",12104247
"516",1950220
"517",289633
"518",1540446
"519",628448
"520",4139639
"521",845294
"522",6798842
"523",28286
"524",411268
"525",4651706
"526",2016362
"527",2717973
"528",1741415
"529",3272081
"530",11385149
"531",673842
"532",568807
"533",36312
"534",7415999
"535",5821294
"536",2528495
"537",14576692
"538",845325
"539",3923140
"540",724798
"541",1779445
"542",159659
"543",3525352
"544",304679
"545",7385049
"546",4461238
"547",3028401
"548",3845902
"549",6629761
"550",135126
"551",1789026
"552",1090656
"553",1177762
"554",1121771
"555",1032700
"556",2643102
"557",632708
"558",103899
"559",284905
"560",939580
"561",758038
"562",1297579
"563",889590
"564",2933623
"565",3058729
"566",3638413
"567",1215827
"568",17186
"569",1075261
"570",1175887
"571",554529
"572",55342
"573",16195805
"574",8331553
"575",3159578
"576",4408473
"577",551526
"578",282200
"579",25546
"580",297014
"581",75949
"582",2517103
"583",3990678
"584",712064
"585",506109
"586",40203
"587",3466297
"588",1765865
"589",3263639
"590",197364
"591",722661
"592",200772
"593",271425
"594",154423
"595",2881024
"596",18613797
"597",6044
"598",174671
"599",723893
"600",1515086
"601",708625
"602",180706
"603",484671
"604",320951
"605",36869
"606",674710
"607",87053
"608",1023623
"609",665906
"610",840537
"611",1552637
"612",636352
"613",597533
"614",95502
"615",1143412
"616",256981
"617",314893
"618",4401902
"619",2882982
"620",6343
"621",1534732
"622",1871176
"623",201391
"624",2114522
"625",4212166
"626",1259494
"627",740518
"628",69548
"629",545674
"630",977762
"631",129238
"632",1480773
"633",414237
"634",368681
"635",601368
"636",413366
"637",232942
"638",61813
"639",1920
"640",251449
"641",14674
"642",9973
"643",463944
"644",175703
"645",442807
"646",16005
"647",101719
"648",313661
"649",1425283
"650",220518
"651",857015
"652",580341
"653",496622
"654",4601196
"655",747646
"656",73054
"657",246409
"658",248039
"659",3146
"660",551035
"661",2560418
"662",3389291
"663",2796941
"664",4913182
"665",32163
"666",15500077
"667",1728439
"668",41536
"669",255454
"670",4523807
"671",3393716
"672",1482160
"673",1974832
"674",77731
"675",942819
"676",132238
"677",10306841
"678",111007
"679",7920985
"680",381242
"681",1274909
"682",247393
"683",274391
"684",429974
"685",461974
"686",277712
"687",54054
"688",4380721
"689",16510
"690",1096490
"691",3476952
"692",4446416
"693",24751
"694",4847162
"695",736831
"696",319947
"697",344682
"698",1487593
"699",2361074
"700",267196
"701",1295987
"702",1027601
"703",3785619
"704",304169
"705",107424
"706",450290
"707",1728903
"708",3632042
"709",1879056
"710",730136
"711",332718
"712",5125936
"713",368156
"714",130313
"715",153459
"716",968912
"717",1016472
"718",5045667
"719",3359599
"720",65557
"721",37276
"722",611923
"723",966872
"724",2971420
"725",541100
"726",428453
"727",185408
"728",4146566
"729",12012197
"730",1372257
"731",2434314
"732",2789304
"733",37115
"734",294044
"735",2102165
"736",155028
"737",961132
"738",4021866
"739",1338705
"740",263373
"741",4269643
"742",450855
"743",301242
"744",114114
"745",5381967
"746",4799991
"747",9067083
"748",292659
"749",1242117
"750",111641
"751",6408882
"752",456796
"753",1592955
"754",595790
"755",28996
"756",160238
"757",402479
"758",1127580
"759",153657
"760",2570995
"761",9704444
"762",1178606
"763",724201
"764",1819731
"765",4357743
"766",181810
"767",72660
"768",88937
"769",89658
"770",286694
"771",112797
"772",67044
"773",198780
"774",172129
"775",105687
"776",132783
"777",350659
"778",1208916
"779",4408457
"780",656339
"781",5240683
"782",5244116
"783",2795853
"784",6283174
"785",1178880
"786",828758
"787",553085
"788",1101699
"789",1924851
"790",3160752
"791",531114
"792",458267
"793",769039
"794",1313587
"795",8001653
"796",202026
"797",41002
"798",194499
"799",1419245
"800",25452
"801",335737
"802",94328
"803",5391050
"804",1963348
"805",1233075
"806",6727301
"807",1770459
"808",4935241
"809",2156191
"810",361301
"811",1796149
"812",1937917
"813",62971
"814",1028220
"815",4176173
"816",1213618
"817",-8829
"818",1521633
"819",375550
"820",6521982
"821",36580
"822",417432
"823",3048657
"824",219709
"825",607900
"826",665001
"827",9779131
"828",5807081
"829",2095918
"830",2347953
"831",3275174
"832",43651
"833",7988997
"834",803670
"835",3108900
"836",958487
"837",1964571
"838",3613921
"839",5544756
"840",2674314
"841",1417691
"842",88235
"843",3744065
"844",2375432
"845",413516
"846",1696869
"847",3436387
"848",239593
"849",6950339
"850",3613836
"851",2596566
"852",1336357
"853",938678
"854",7246602
"855",276012
"856",10201330
"857",324473
"858",10035
"859",317465
"860",40534
"861",206973
"862",168548
"863",5844
"864",7888
"865",2746846
"866",564586
"867",942585
"868",25410
"869",6129238
"870",1788940
"871",470151
"872",245726
"873",3168772
"874",1625970
"875",5915403
"876",5392775
"877",515440
"878",306520
"879",776323
"880",114147
"881",21331
"882",92862
"883",47993
"884",405029
"885",488582
"886",1945251
"887",243504
"888",841502
"889",1696309
"890",22987846
"891",9538637
"892",277648
"893",3228306
"894",777767
"895",875602
"896",9167135
"897",3700412
"898",1189322
"899",277186
"900",395205
"901",3185985
"902",100562
"903",723051
"904",519227
"905",750539
"906",1957917
"907",35282
"908",15354
"909",3337028
"910",4615344
"911",142475
"912",1578456
"913",318922
"914",1286193
"915",2889312
"916",4672541
"917",638064
"918",1096114
"919",1845658
"920",331688
"921",10603
"922",513187
"923",893288
"924",561796
"925",334274
"926",329906
"927",574061
"928",66286
"929",22510
"930",63036
"931",661265
"932",1372951
"933",429328
"934",1061729
"935",3691502
"936",109814
"937",317860
"938",42095
"939",359448
"940",85315
"941",158817
"942",28473
"943",1699060
"944",95425
"945",177431
"946",419918
"947",195022
"948",255028
"949",9523526
"950",1353719
"951",910692
"952",2969921
"953",6146507
"954",1711278
"955",1469497
"956",1125693
"957",10553967
"958",160680
"959",1966645
"960",3782588
"961",528350
"962",8058011
"963",978195
"964",8433484
"965",46503
"966",412784
"967",217465
"968",26530
"969",3574950
"970",267390
"971",72800
"972",123560
"973",254524
"974",61964
"975",261977
"976",1614178
"977",29547
"978",1409084
"979",1039490
"980",730332
"981",52770
"982",7733333
"983",3917885
"984",1726411
"985",292229
"986",982596
"987",722388
"988",1566447
"989",138306
"990",27884
"991",173805
"992",1738942
"993",81949
"994",286059
"995",68217
"996",185179
"997",1124839
"998",873125
"999",165747
"1000",70398
"1001",850535
"1002",7043187
"1003",3201588
"1004",256881
"1005",4344713
"1006",858979
"1007",2012430
"1008",856932
"1009",855414
"1010",2965142
"1011",454544
"1012",1934170
"1013",25582
"1014",210505
"1015",90231
"1016",281615
"1017",7270
"1018",383235
"1019",400412
"1020",69067
"1021",378521
"1022",250885
"1023",204450
"1024",965593
"1025",713513
"1026",2287086
"1027",801987
"1028",2793303
"1029",249569
"1030",139298
"1031",1292383
"1032",917508
"1033",3687123
"1034",-57
"1035",143743
"1036",1315781
"1037",645939
"1038",242087
"1039",6656942
"1040",980439
"1041",3257738
"1042",1922877
"1043",277140
"1044",519937
"1045",192037
"1046",1379789
"1047",6893728
"1048",2276499
"1049",928460
"1050",462369
"1051",69739
"1052",134242
"1053",163007
"1054",9654562
"1055",88671
"1056",192586
"1057",996068
"1058",630290
"1059",988302
"1060",135394
"1061",59801
"1062",380180
"1063",115709
"1064",279074
"1065",19405
"1066",60533
"1067",67784
"1068",211489
"1069",795970
"1070",9882
"1071",55153
"1072",54382
"1073",111695
"1074",1129939
"1075",183461
"1076",65287
"1077",837479
"1078",206383
"1079",21943
"1080",269895
"1081",112799
"1082",42220
"1083",4415
"1084",45665
"1085",148802
"1086",371835
"1087",491922
"1088",8323
"1089",64221
"1090",78538
"1091",23643
"1092",37225
"1093",97004
"1094",2590609
"1095",1220803
"1096",1123273
"1097",80138
"1098",1536637
"1099",1188445
"1100",1547438
"1101",287704
"1102",405360
"1103",5110797
"1104",6944064
"1105",11722121
"1106",2941808
"1107",3253048
"1108",3413093
"1109",36984
"1110",150364
"1111",141215
"1112",1527919
"1113",184023
"1114",4834190
"1115",96089
"1116",142170
"1117",770335
"1118",1266674
"1119",4322103
"1120",4004812
"1121",4187063
"1122",65559
"1123",1140437
"1124",1178105
"1125",1438228
"1126",343745
"1127",2271010
"1128",375860
"1129",439333
"1130",745325
"1131",130801
"1132",706580
"1133",929651
"1134",99420
"1135",122537
"1136",1505931
"1137",117143
"1138",163534
"1139",5250894
"1140",3477294
"1141",103645
"1142",382909
"1143",2459796
"1144",1227530
"1145",3000402
"1146",1692656
"1147",11133656
"1148",3269950
"1149",1297858
"1150",489629
"1151",221275
"1152",136261
"1153",542054
"1154",140147
"1155",38212
"1156",132845
"1157",26526
"1158",457318
"1159",467313
"1160",55331
"1161",639926
"1162",2082079
"1163",103225
"1164",320012
"1165",202086
"1166",573457
"1167",1391431
"1168",60641
"1169",282440
"1170",157792
"1171",9450
"1172",152231
"1173",575936
"1174",165699
"1175",262950
"1176",6785444
"1177",1491312
"1178",2356217
"1179",14833
"1180",992872
"1181",1786268
"1182",3823136
"1183",17997851
"1184",1566981
"1185",264
"1186",3182754
"1187",95780
"1188",1543175
"1189",3442602
"1190",77022
"1191",4632371
"1192",1281559
"1193",118698
"1194",3318803
"1195",3647298
"1196",964114
"1197",240354
"1198",1267759
"1199",1835461
"1200",1469029
"1201",102385
"1202",235964
"1203",12798
"1204",8287314
"1205",3181
"1206",690548
"1207",2490681
"1208",606020
"1209",1229116
"1210",287305
"1211",2164268
"1212",1146202
"1213",3981662
"1214",378972
"1215",2684718
"1216",2159263
"1217",448135
"1218",3229512
"1219",1096614
"1220",168126
"1221",32091
"1222",874718
"1223",1796908
"1224",18286434
"1225",298778
"1226",608547
"1227",1530163
"1228",70995
"1229",2035611
"1230",17602673
"1231",3801608
"1232",525009
"1233",2268612
"1234",5409705
"1235",4381845
"1236",7210
"1237",6049
"1238",9735
"1239",45485
"1240",190895
"1241",860811
"1242",232182
"1243",100013
"1244",405858
"1245",1497028
"1246",56838
"1247",58169
"1248",206111
"1249",123161
"1250",644505
"1251",140275
"1252",45036
"1253",40752
"1254",47018
"1255",108496
"1256",2012139
"1257",2978725
"1258",701901
"1259",419635
"1260",3524447
"1261",92279
"1262",1020944
"1263",1275171
"1264",1224261
"1265",10358113
"1266",897279
"1267",2142126
"1268",245077
"1269",1413815
"1270",573077
"1271",147214
"1272",416288
"1273",186828
"1274",1614056
"1275",138813
"1276",206353
"1277",2086421
"1278",792404
"1279",1887786
"1280",1018244
"1281",2821979
"1282",2040965
"1283",527792
"1284",3256969
"1285",655186
"1286",199295
"1287",1025319
"1288",1215174
"1289",315082
"1290",309388
"1291",10547172
"1292",9739
"1293",3134913
"1294",525826
"1295",836271
"1296",1299589
"1297",223003
"1298",288983
"1299",462173
"1300",374287
"1301",965938
"1302",2666966
"1303",966774
"1304",254355
"1305",476738
"1306",1007801
"1307",177678
"1308",249959
"1309",364147
"1310",24557
"1311",247953
"1312",21179
"1313",33890
"1314",74839
"1315",10545
"1316",443553
"1317",508712
"1318",804068
"1319",173793
"1320",2503937
"1321",7278918
"1322",1121120
"1323",339892
"1324",684107
"1325",5156092
"1326",163063
"1327",119449
"1328",288620
"1329",376175
"1330",27358
"1331",344522
"1332",575242
"1333",867031
"1334",355893
"1335",25506
"1336",1048204
"1337",4538402
"1338",1958936
"1339",684450
"1340",48792
"1341",158280
"1342",2411888
"1343",2056854
"1344",402697
"1345",-359697
"1346",679264
"1347",4975140
"1348",57697
"1349",1037277
"1350",446558
"1351",522621
"1352",173256
"1353",992581
"1354",2240667
"1355",2143005
"1356",192129
"1357",2253280
"1358",110506
"1359",56641
"1360",1152716
"1361",1754915
"1362",212803
"1363",216343
"1364",273115
"1365",1161435
"1366",640950
"1367",-5487
"1368",11066
"1369",153787
"1370",1411815
"1371",1460407
"1372",439402
"1373",167938
"1374",804540
"1375",2883252
"1376",430976
"1377",269038
"1378",112176
"1379",32486
"1380",699975
"1381",366349
"1382",46722
"1383",-1854
"1384",8142992
"1385",463017
"1386",117141
"1387",917786
"1388",2890
"1389",180344
"1390",82605
"1391",114761
"1392",2581
"1393",61074
"1394",88648
"1395",1226
"1396",10088
"1397",172915
"1398",297090
"1399",11057
"1400",5299
"1401",92851
"1402",120995
"1403",423653
"1404",363217
"1405",355066
"1406",469277
"1407",6449914
"1408",3197300
"1409",1336335
"1410",22630
"1411",2023931
"1412",2831725
"1413",753793
"1414",973872
"1415",5383438
"1416",303237
"1417",104399
"1418",458703
"1419",649404
"1420",9989
"1421",144047
"1422",15392
"1423",303070
"1424",162812
"1425",148190
"1426",305266
"1427",326116
"1428",15084623
"1429",52967
"1430",3382190
"1431",1184502
"1432",1407901
"1433",372542
"1434",1231188
"1435",1434337
"1436",47759
"1437",165016
"1438",143482
"1439",552018
"1440",9162748
"1441",39183
"1442",182994
"1443",207366
"1444",571542
"1445",605502
"1446",234960
"1447",816673
"1448",1452713
"1449",402175
"1450",688454
"1451",1551183
"1452",5132409
"1453",296546
"1454",927428
"1455",1637617
"1456",88395
"1457",524976
"1458",1920496
"1459",1440145
"1460",638020
"1461",17993
"1462",279117
"1463",51090
"1464",464967
"1465",318296
"1466",19633
"1467",82397
"1468",551178
"1469",758288
"1470",597487
"1471",1186138
"1472",59404
"1473",190647
"1474",374368
"1475",132210
"1476",294353
"1477",47591
"1478",18931
"1479",204432
"1480",1436644
"1481",41880
"1482",459381
"1483",41945
"1484",150016
"1485",201690
"1486",198917
"1487",255234
"1488",121257
"1489",99080
"1490",1438956
"1491",2085337
"1492",3232267
"1493",236907
"1494",1057142
"1495",729521
"1496",703874
"1497",207339
"1498",887560
"1499",839
"1500",117192
"1501",36755
"1502",137004
"1503",36366
"1504",31001
"1505",965646
"1506",113141
"1507",6761085
"1508",199698
"1509",173229
"1510",529
"1511",103980
"1512",212454
"1513",1630442
"1514",-21520
"1515",183721
"1516",758737
"1517",77681
"1518",2979449
"1519",4394542
"1520",469755
"1521",291703
"1522",76519
"1523",1447987
"1524",153216
"1525",167423
"1526",341640
"1527",7987
"1528",17567
"1529",322966
"1530",84904
"1531",208876
"1532",546080
"1533",225558
"1534",182742
"1535",1063006
"1536",76757
"1537",759155
"1538",1326219
"1539",26200
"1540",152187
"1541",262024
"1542",452439
"1543",1514626
"1544",21583
"1545",32659
"1546",665047
"1547",4058990
"1548",577347
"1549",2146209
"1550",350325
"1551",203585
"1552",517345
"1553",491945
"1554",3840081
"1555",1893552
"1556",878354
"1557",1013193
"1558",112382
"1559",545825
"1560",3947786
"1561",125877
"1562",682121
"1563",392832
"1564",243317
"1565",88691
"1566",142716
"1567",151649
"1568",167026
"1569",119163
"1570",134503
"1571",141867
"1572",472459
"1573",1232441
"1574",247943
"1575",313971
"1576",1150046
"1577",315980
"1578",774425
"1579",458175
"1580",138437
"1581",57488
"1582",51516
"1583",73296
"1584",12959
"1585",263554
"1586",120199
"1587",23577
"1588",677739
"1589",1639474
"1590",635564
"1591",566189
"1592",1939832
"1593",204276
"1594",12889899
"1595",50013
"1596",464638
"1597",1790245
"1598",-21973
"1599",7436007
"1600",419351
"1601",3177845
"1602",10814087
"1603",198476
"1604",340084
"1605",187243
"1606",2663613
"1607",412917
"1608",701469
"1609",6447564
"1610",139005
"1611",776979
"1612",27481
"1613",42429
"1614",108123
"1615",3728970
"1616",142913
"1617",3180955
"1618",12465147
"1619",769637
"1620",277421
"1621",84176
"1622",194391
"1623",54004
"1624",243401
"1625",14266
"1626",761018
"1627",229043
"1628",803564
"1629",635779
"1630",262395
"1631",183552
"1632",1008051
"1633",691537
"1634",397463
"1635",676638
"1636",67973
"1637",271887
"1638",5838
"1639",3468
"1640",430453
"1641",1444572
"1642",109879
"1643",78561
"1644",453518
"1645",-340
"1646",85825
"1647",720841
"1648",968998
"1649",95279
"1650",11516
"1651",91733
"1652",474184
"1653",1239360
"1654",281076
"1655",373657
"1656",393505
"1657",325706
"1658",14247
"1659",389950
"1660",214872
"1661",30093
"1662",10905
"1663",870961
"1664",34306
"1665",211666
"1666",340036
"1667",26244
"1668",136513
"1669",64438
"1670",119461
"1671",816439
"1672",248435
"1673",116010
"1674",1395313
"1675",6355155
"1676",4787128
"1677",712482
"1678",1125788
"1679",485103
"1680",50912
"1681",15171
"1682",49308
"1683",372896
"1684",228806
"1685",2916
"1686",180839
"1687",167943
"1688",99256
"1689",271921
"1690",652919
"1691",152908
"1692",161716
"1693",649245
"1694",116437
"1695",192777
"1696",93232
"1697",45518
"1698",46550
"1699",15404
"1700",10505
"1701",352443
"1702",138040
"1703",37205
"1704",5851
"1705",294125
"1706",124591
"1707",769196
"1708",1117772
"1709",155960
"1710",100448
"1711",97961
"1712",1597916
"1713",108445
"1714",68420
"1715",327153
"1716",208045
"1717",147902
"1718",-142355
"1719",201397
"1720",261895
"1721",8759
"1722",179618
"1723",951966
"1724",439031
"1725",27215
"1726",92440
"1727",261254
"1728",106425
"1729",250104
"1730",666494
"1731",31418
"1732",162047
"1733",378949
"1734",35310
"1735",95163
"1736",192093
"1737",46081
"1738",382174
"1739",978333
"1740",14815
"1741",930759
"1742",424020
"1743",279799
"1744",999292
"1745",10254
"1746",34765
"1747",241969
"1748",28126
"1749",143894
"1750",6361
"1751",556280
"1752",255740
"1753",133174
"1754",1655450
"1755",336826
"1756",39190
"1757",756716
"1758",142274
"1759",926906
"1760",2295185
"1761",973902
"1762",926748
"1763",903752
"1764",3620729
"1765",1456501
"1766",1787713
"1767",4156711
"1768",517560
"1769",297286
"1770",2959203
"1771",1606832
"1772",8813414
"1773",252532
"1774",234819
"1775",825278
"1776",124900
"1777",427266
"1778",1016100
"1779",129880
"1780",214340
"1781",1228029
"1782",103062
"1783",497054
"1784",88196
"1785",292808
"1786",313089
"1787",2405928
"1788",3158214
"1789",975103
"1790",467121
"1791",88813
"1792",467871
"1793",25020
"1794",3344777
"1795",151527
"1796",1316719
"1797",5622773
"1798",979789
"1799",530107
"1800",3312822
"1801",1494186
"1802",186848
"1803",9016361
"1804",2158975
"1805",2644928
"1806",208833
"1807",266385
"1808",181815
"1809",146526
"1810",552619
"1811",543591
"1812",2544641
"1813",2598200
"1814",221993
"1815",2018746
"1816",267109
"1817",593004
"1818",596602
"1819",1192464
"1820",189840
"1821",1725597
"1822",344829
"1823",517664
"1824",13835
"1825",396302
"1826",169874
"1827",124023
"1828",31030
"1829",381034
"1830",297280
"1831",655667
"1832",54485
"1833",51740
"1834",1705257
"1835",21322
"1836",215809
"1837",279296
"1838",540644
"1839",272272
"1840",142180
"1841",1322445
"1842",968070
"1843",886245
"1844",525587
"1845",254283
"1846",301818
"1847",337945
"1848",67142
"1849",48924
"1850",327632
"1851",219950
"1852",619171
"1853",4579157
"1854",406527
"1855",239718
"1856",290977
"1857",50704
"1858",495518
"1859",621630
"1860",704
"1861",29467
"1862",246406
"1863",345831
"1864",1792450
"1865",335960
"1866",499740
"1867",36471
"1868",138847
"1869",308525
"1870",161444
"1871",419987
"1872",1409170
"1873",1468087
"1874",404554
"1875",3423352
"1876",18091
"1877",18721
"1878",252801
"1879",4104
"1880",141
"1881",1260531
"1882",92758
"1883",765754
"1884",1101565
"1885",7397693
"1886",1668277
"1887",79886
"1888",791766
"1889",1500653
"1890",75124
"1891",176657
"1892",86682
"1893",998018
"1894",955530
"1895",1028959
"1896",94812
"1897",2716999
"1898",55149
"1899",9102842
"1900",4667141
"1901",223726
"1902",7323761
"1903",1434647
"1904",1303097
"1905",714653
"1906",22528
"1907",3950060
"1908",1119051
"1909",697615
"1910",15957246
"1911",2801730
"1912",3434470
"1913",124423
"1914",1309989
"1915",1834276
"1916",21300621
"1917",610933
"1918",2815196
"1919",655056
"1920",3205638
"1921",11452
"1922",5077949
"1923",3903303
"1924",1124912
"1925",11402191
"1926",127081
"1927",3993740
"1928",13682146
"1929",3463519
"1930",89173
"1931",215977
"1932",359217
"1933",105783
"1934",40700
"1935",478408
