"","distances"
"1",365221
"2",966
"3",202368
"4",17746
"5",60251
"6",49039
"7",24027
"8",16374
"9",50000
"10",43825
"11",84660
"12",229223
"13",1621165
"14",227140
"15",2705295
"16",2420500
"17",146297
"18",650776
"19",506312
"20",654633
"21",543589
"22",132102
"23",1686684
"24",1665753
"25",280635
"26",248421
"27",393804
"28",519465
"29",2542809
"30",823935
"31",2882777
"32",1966078
"33",-112
"34",2809317
"35",645638
"36",116470
"37",1391691
"38",1381211
"39",423604
"40",124334
"41",67841
"42",3557277
"43",1028138
"44",177644
"45",1128479
"46",1440664
"47",159402
"48",2320745
"49",538924
"50",584679
"51",761523
"52",15818
"53",214835
"54",1663830
"55",614733
"56",1154016
"57",936832
"58",261638
"59",1453012
"60",68568
"61",1126372
"62",112913
"63",228275
"64",3944473
"65",3042314
"66",257622
"67",2018988
"68",140171
"69",826010
"70",438306
"71",74445
"72",10034891
"73",669083
"74",705901
"75",5200950
"76",77181
"77",401328
"78",145917
"79",2012699
"80",2399823
"81",716247
"82",846372
"83",409109
"84",96024
"85",1306219
"86",2132483
"87",1605929
"88",3358477
"89",261624
"90",352094
"91",129880
"92",2466547
"93",4554502
"94",728659
"95",28825
"96",257183
"97",264122
"98",509934
"99",300293
"100",10167
"101",1065850
"102",276733
"103",628165
"104",448391
"105",937735
"106",23991
"107",414908
"108",71688
"109",6726332
"110",23423836
"111",575324
"112",158412
"113",2273347
"114",2010387
"115",304971
"116",66487
"117",229119
"118",17273
"119",259069
"120",243031
"121",308571
"122",2075804
"123",458497
"124",228005
"125",113058
"126",25409
"127",16785
"128",184430
"129",22100
"130",272194
"131",414855
"132",89027
"133",200937
"134",448922
"135",3014007
"136",51952
"137",433449
"138",-128
"139",41634
"140",618268
"141",96440
"142",19091
"143",99862
"144",346223
"145",1062559
"146",2818044
"147",62497
"148",1067956
"149",455158
"150",398119
"151",1195491
"152",26903
"153",1071460
"154",109282
"155",1630770
"156",739648
"157",656587
"158",6013160
"159",305286
"160",3193234
"161",9414004
"162",8074692
"163",292809
"164",1341717
"165",149713
"166",40106
"167",836755
"168",202565
"169",489427
"170",357204
"171",272963
"172",246085
"173",80857
"174",38817
"175",821788
"176",1067638
"177",1819357
"178",103566
"179",45687
"180",1525238
"181",6910902
"182",2342140
"183",1770168
"184",119521
"185",1216198
"186",121493
"187",1683489
"188",348780
"189",238931
"190",288322
"191",1220585
"192",1137708
"193",1278424
"194",1935303
"195",142198
"196",630122
"197",232421
"198",1223171
"199",10287
"200",1158565
"201",4248998
"202",599732
"203",1153146
"204",2669841
"205",244140
"206",857261
"207",3462688
"208",45642
"209",2554949
"210",346811
"211",848975
"212",6825835
"213",2096401
"214",545088
"215",4340289
"216",1970902
"217",305516
"218",116618
"219",120409
"220",280326
"221",226101
"222",53547
"223",539299
"224",2803687
"225",935742
"226",3568874
"227",112146
"228",15438
"229",1727993
"230",124921
"231",298748
"232",318003
"233",2151428
"234",1009778
"235",1841335
"236",105677
"237",229713
"238",1279936
"239",7958157
"240",259984
"241",5438681
"242",8039417
"243",375787
"244",606819
"245",20565
"246",1181039
"247",115995
"248",851207
"249",161719
"250",24791
"251",48501
"252",176271
"253",39395
"254",17663
"255",9928637
"256",511048
"257",359249
"258",169625
"259",494116
"260",10106359
"261",593722
"262",785206
"263",944472
"264",781960
"265",55384
"266",130552
"267",2414172
"268",1833385
"269",-60555
"270",391796
"271",3047877
"272",398700
"273",2151299
"274",88263
"275",1725812
"276",5596741
"277",101269
"278",867504
"279",1432232
"280",5561807
"281",2967542
"282",13562659
"283",4997417
"284",2642653
"285",4259298
"286",1122709
"287",4442978
"288",3098052
"289",168068
"290",2502019
"291",704041
"292",187833
"293",50469
"294",1838317
"295",2447889
"296",2740501
"297",2049285
"298",2030328
"299",6360931
"300",964648
"301",200327
"302",1086729
"303",813342
"304",101788
"305",5319862
"306",251003
"307",1086970
"308",849279
"309",287125
"310",226801
"311",56756
"312",199714
"313",1016010
"314",3504906
"315",1951829
"316",1829188
"317",5086326
"318",646556
"319",2191237
"320",315179
"321",732
"322",3e+05
"323",411365
"324",138925
"325",4413617
"326",2763603
"327",35822
"328",2923087
"329",1024381
"330",2010248
"331",4650990
"332",312438
"333",816491
"334",1181046
"335",640565
"336",491764
"337",4883889
"338",258400
"339",104383
"340",165941
"341",495022
"342",615337
"343",812251
"344",232994
"345",1119295
"346",321504
"347",320288
"348",923792
"349",452352
"350",66568
"351",18382003
"352",507017
"353",341575
"354",1151201
"355",974614
"356",48369
"357",704505
"358",1645635
"359",1420478
"360",85396
"361",44557
"362",54554
"363",2834849
"364",336929
"365",67874
"366",102391
"367",307627
"368",62868
"369",58233
"370",69936
"371",96103
"372",140242
"373",190850
"374",195889
"375",616187
"376",54412
"377",206934
"378",104214
"379",664721
"380",172060
"381",15161
"382",112993
"383",114035
"384",1323940
"385",1604139
"386",1129594
"387",873039
"388",925270
"389",7631250
"390",-9319
"391",2553467
"392",3291417
"393",302656
"394",15287829
"395",938795
"396",7135054
"397",3211905
"398",594818
"399",827523
"400",5750883
"401",4649813
"402",603431
"403",6644843
"404",2349049
"405",524512
"406",356772
"407",488472
"408",4121508
"409",316965
"410",77107
"411",466056
"412",45047
"413",312619
"414",221629
"415",1450940
"416",2807527
"417",5664344
"418",2266411
"419",299691
"420",540505
"421",4815990
"422",1155655
"423",3021773
"424",696490
"425",3369520
"426",2177079
"427",13846179
"428",6684871
"429",1150540
"430",365881
"431",2025444
"432",331533
"433",31518
"434",250768
"435",109151
"436",241198
"437",100255
"438",822028
"439",951
"440",-12601
"441",1068346
"442",344685
"443",2878175
"444",2016958
"445",29051
"446",674983
"447",2649839
"448",121703
"449",366728
"450",3746
"451",540723
"452",217903
"453",288105
"454",23041
"455",262954
"456",453146
"457",653348
"458",3575413
"459",29912
"460",404436
"461",1645210
"462",77802
"463",4867823
"464",2197297
"465",521120
"466",1309166
"467",59687
"468",2231384
"469",4185556
"470",253771
"471",1297345
"472",12772668
"473",44433
"474",2741729
"475",1516804
"476",7544895
"477",3328489
"478",965191
"479",5854
"480",126
"481",40630
"482",122507
"483",10786849
"484",3517061
"485",4733939
"486",735559
"487",786515
"488",4957183
"489",248610
"490",3875189
"491",233021
"492",6920796
"493",89741
"494",4719888
"495",2899893
"496",210539
"497",2794892
"498",1820536
"499",16322
"500",5497575
"501",5450660
"502",159274
"503",503583
"504",7898232
"505",1053390
"506",11140646
"507",2799191
"508",1422191
"509",1012356
"510",1678748
"511",2406230
"512",1413047
"513",3973425
"514",2387412
"515",493361
"516",2711642
"517",3197159
"518",4561902
"519",4191978
"520",10294316
"521",106086
"522",569203
"523",100032
"524",527945
"525",5271498
"526",293459
"527",1184773
"528",5821294
"529",637232
"530",1858031
"531",2855893
"532",3911227
"533",7886655
"534",3494333
"535",96473
"536",304241
"537",188425
"538",1779445
"539",426079
"540",1362962
"541",16084267
"542",1482307
"543",2697449
"544",3343783
"545",1527659
"546",3167369
"547",655234
"548",2176296
"549",1177762
"550",1121771
"551",714921
"552",2848445
"553",2008898
"554",83665
"555",-335
"556",536561
"557",220228
"558",800641
"559",4915108
"560",446643
"561",1005350
"562",3068671
"563",2052139
"564",167459
"565",665134
"566",381272
"567",1585390
"568",10536066
"569",2750532
"570",3414374
"571",482512
"572",10118438
"573",922191
"574",4394884
"575",179595
"576",-872
"577",2579917
"578",1104251
"579",2123830
"580",252147
"581",1006219
"582",164364
"583",423895
"584",422047
"585",82150
"586",538918
"587",32314
"588",113639
"589",44557
"590",-99992
"591",7979218
"592",1049528
"593",4198333
"594",2464807
"595",1811688
"596",1183095
"597",1446966
"598",10934294
"599",3439770
"600",393908
"601",252127
"602",57622
"603",73844
"604",143814
"605",520649
"606",960286
"607",887713
"608",8591
"609",907825
"610",2453770
"611",1143412
"612",98530
"613",883146
"614",7300485
"615",3681652
"616",148465
"617",51839
"618",132817
"619",6003435
"620",1969245
"621",138493
"622",79521
"623",979505
"624",730933
"625",68105
"626",209361
"627",503268
"628",1134910
"629",1093633
"630",28041
"631",467199
"632",16606
"633",196163
"634",69099
"635",195533
"636",663293
"637",362000
"638",59288
"639",12792
"640",1167660
"641",938366
"642",699668
"643",2871274
"644",1276397
"645",446162
"646",586191
"647",1008222
"648",217774
"649",192079
"650",44122
"651",197882
"652",27093
"653",122984
"654",472502
"655",1753370
"656",469232
"657",824959
"658",5374016
"659",2372567
"660",1593112
"661",718727
"662",32163
"663",13925202
"664",2834532
"665",498869
"666",2947935
"667",3223543
"668",115452
"669",3078756
"670",1974832
"671",77731
"672",1697183
"673",230229
"674",106806
"675",15748515
"676",1164167
"677",2439652
"678",694766
"679",413490
"680",242937
"681",464499
"682",1882172
"683",3527270
"684",4996523
"685",2708234
"686",24751
"687",5967932
"688",3332159
"689",758851
"690",267196
"691",30046
"692",2221175
"693",4161444
"694",151428
"695",331654
"696",76488
"697",5593554
"698",1147293
"699",262230
"700",730136
"701",1749703
"702",3598856
"703",468194
"704",121002
"705",849645
"706",7253996
"707",1346362
"708",1861672
"709",291383
"710",100551
"711",-93684
"712",756532
"713",398708
"714",2110813
"715",479974
"716",220277
"717",334941
"718",482576
"719",204243
"720",87211
"721",723334
"722",3420896
"723",4917897
"724",1369439
"725",4177737
"726",824683
"727",4629562
"728",-421
"729",1676186
"730",37115
"731",392660
"732",2056414
"733",155028
"734",961132
"735",1476303
"736",817378
"737",3222973
"738",3808925
"739",68552
"740",177950
"741",24302
"742",655348
"743",174911
"744",5227599
"745",4347149
"746",18119391
"747",2581860
"748",563582
"749",85039
"750",783676
"751",593880
"752",2570995
"753",1267167
"754",4901883
"755",805323
"756",2156728
"757",7593483
"758",817805
"759",294822
"760",88937
"761",457036
"762",47265
"763",14870
"764",29066
"765",211586
"766",56516
"767",410840
"768",238425
"769",23243
"770",52075
"771",1258255
"772",581995
"773",25573
"774",2290673
"775",1595301
"776",360955
"777",569159
"778",3749871
"779",476051
"780",4770735
"781",2399529
"782",238346
"783",7052881
"784",291156
"785",951305
"786",553085
"787",4884593
"788",387124
"789",1578584
"790",1789879
"791",369584
"792",3163336
"793",5735233
"794",268607
"795",35634
"796",56849
"797",1082708
"798",706618
"799",33075
"800",94328
"801",278215
"802",382515
"803",10026857
"804",56161
"805",-96675
"806",314759
"807",4631970
"808",657474
"809",4917858
"810",62971
"811",330096
"812",576818
"813",1616733
"814",2365789
"815",322549
"816",1213618
"817",1513554
"818",2826499
"819",4282931
"820",418234
"821",3307944
"822",916154
"823",10067263
"824",3304195
"825",6963872
"826",176810
"827",2373816
"828",1278277
"829",1408674
"830",4961075
"831",355790
"832",281916
"833",5159766
"834",717756
"835",754098
"836",3822370
"837",227360
"838",5172955
"839",268277
"840",884778
"841",3030518
"842",88235
"843",3727562
"844",2153761
"845",1083383
"846",985794
"847",1175544
"848",3769446
"849",6950339
"850",6453032
"851",256491
"852",947304
"853",938678
"854",7598319
"855",1688966
"856",3331751
"857",4160638
"858",598193
"859",284497
"860",111481
"861",119696
"862",210292
"863",402078
"864",246705
"865",84625
"866",119853
"867",1862753
"868",2616292
"869",319132
"870",1404281
"871",8907303
"872",1517419
"873",14658576
"874",738555
"875",415390
"876",116581
"877",446266
"878",144187
"879",28391
"880",367468
"881",749791
"882",169188
"883",1978542
"884",506274
"885",25419087
"886",4413541
"887",3383351
"888",2680675
"889",287843
"890",6555260
"891",2979246
"892",3978701
"893",3630621
"894",3750884
"895",845877
"896",519227
"897",615059
"898",93098
"899",1402321
"900",6705501
"901",1601987
"902",179549
"903",473493
"904",1578456
"905",318922
"906",97186
"907",8817922
"908",179967
"909",30184
"910",1511713
"911",450829
"912",1396834
"913",385657
"914",1092691
"915",353624
"916",930188
"917",62801
"918",254852
"919",152409
"920",407536
"921",99748
"922",1696471
"923",487209
"924",289131
"925",1061729
"926",349085
"927",307900
"928",318188
"929",2151174
"930",454675
"931",477262
"932",446097
"933",2592382
"934",19485
"935",690513
"936",5548873
"937",1121280
"938",15184195
"939",9326460
"940",4806168
"941",601904
"942",1514519
"943",614613
"944",910002
"945",3136498
"946",219811
"947",8181018
"948",67041
"949",875376
"950",425582
"951",8654000
"952",26530
"953",1454952
"954",120703
"955",50203
"956",104354
"957",53520
"958",1486154
"959",379642
"960",123560
"961",561507
"962",64600
"963",1586032
"964",29547
"965",2508868
"966",815154
"967",6289897
"968",528671
"969",6799107
"970",3400296
"971",10066
"972",138306
"973",237437
"974",2003997
"975",363594
"976",553640
"977",749030
"978",42561
"979",221470
"980",574754
"981",70398
"982",126024
"983",494727
"984",431082
"985",429937
"986",6159390
"987",132853
"988",1984021
"989",1216330
"990",73954
"991",4855484
"992",617638
"993",2062602
"994",28287
"995",3725219
"996",705431
"997",234963
"998",-317091
"999",5135996
"1000",1040748
"1001",28172
"1002",488000
"1003",684871
"1004",520548
"1005",1349341
"1006",3102225
"1007",110396
"1008",1061480
"1009",293029
"1010",945432
"1011",495308
"1012",776156
"1013",501900
"1014",1271077
"1015",1918782
"1016",2248626
"1017",594845
"1018",15157
"1019",1216243
"1020",412314
"1021",7864303
"1022",238152
"1023",3897065
"1024",352930
"1025",1011881
"1026",157741
"1027",707357
"1028",2521745
"1029",7215354
"1030",1029286
"1031",404065
"1032",1030293
"1033",8736
"1034",621393
"1035",158226
"1036",9990453
"1037",32969
"1038",1145139
"1039",1180402
"1040",2138949
"1041",158458
"1042",493685
"1043",132721
"1044",786410
"1045",568389
"1046",21398
"1047",85774
"1048",408827
"1049",58054
"1050",216114
"1051",81611
"1052",443059
"1053",18913
"1054",57600
"1055",50911
"1056",54946
"1057",42220
"1058",4415
"1059",177137
"1060",1055
"1061",12547
"1062",242746
"1063",309208
"1064",471325
"1065",-47633
"1066",46943
"1067",51621
"1068",37225
"1069",74946
"1070",41282
"1071",378648
"1072",9734
"1073",852947
"1074",1457802
"1075",1428925
"1076",295047
"1077",2749029
"1078",1370755
"1079",1199263
"1080",604942
"1081",7229619
"1082",1289132
"1083",3176124
"1084",11722121
"1085",395274
"1086",4841748
"1087",4465924
"1088",2475
"1089",27322
"1090",1874152
"1091",184023
"1092",7111
"1093",86745
"1094",2333967
"1095",1628166
"1096",670702
"1097",992731
"1098",1266674
"1099",1021982
"1100",814714
"1101",68933
"1102",998171
"1103",206911
"1104",55056
"1105",383451
"1106",456268
"1107",4004812
"1108",1225667
"1109",1695450
"1110",158062
"1111",6051
"1112",17256
"1113",363139
"1114",618439
"1115",41331
"1116",2860417
"1117",1744684
"1118",10670
"1119",179293
"1120",123710
"1121",167451
"1122",117653
"1123",961635
"1124",1061084
"1125",1099071
"1126",167468
"1127",99420
"1128",122537
"1129",87931
"1130",1183833
"1131",254760
"1132",6758937
"1133",2076600
"1134",506054
"1135",2459796
"1136",1830049
"1137",2370702
"1138",1247799
"1139",377859
"1140",7542031
"1141",1785012
"1142",1009427
"1143",3584786
"1144",450149
"1145",1333218
"1146",946164
"1147",140147
"1148",230653
"1149",717642
"1150",120727
"1151",91867
"1152",28368
"1153",55331
"1154",639926
"1155",348521
"1156",1689928
"1157",136880
"1158",92379
"1159",193744
"1160",724509
"1161",1404435
"1162",9280
"1163",13573
"1164",347041
"1165",227690
"1166",108412
"1167",272454
"1168",211044
"1169",247316
"1170",366371
"1171",87335
"1172",6263189
"1173",1719490
"1174",1517570
"1175",1021328
"1176",992872
"1177",5452775
"1178",1933713
"1179",11154799
"1180",5707448
"1181",264
"1182",170730
"1183",6497088
"1184",895537
"1185",809937
"1186",124607
"1187",813679
"1188",2018547
"1189",1575416
"1190",338357
"1191",1698440
"1192",700546
"1193",525825
"1194",416771
"1195",199938
"1196",4071903
"1197",611423
"1198",240354
"1199",563464
"1200",522739
"1201",324000
"1202",89178
"1203",124841
"1204",559744
"1205",696250
"1206",446563
"1207",507806
"1208",774549
"1209",350904
"1210",-42198
"1211",6637883
"1212",753182
"1213",566384
"1214",183721
"1215",69984
"1216",236592
"1217",3855311
"1218",959827
"1219",1047834
"1220",272221
"1221",2143967
"1222",9804943
"1223",5598688
"1224",5831067
"1225",69836
"1226",-1897
"1227",32091
"1228",874718
"1229",7752661
"1230",12481098
"1231",608547
"1232",3900425
"1233",1336295
"1234",4470728
"1235",10691658
"1236",981945
"1237",2497859
"1238",991135
"1239",1489770
"1240",294312
"1241",396592
"1242",7464277
"1243",128203
"1244",1976726
"1245",100013
"1246",286768
"1247",1725157
"1248",58169
"1249",206111
"1250",328086
"1251",319
"1252",502764
"1253",36095
"1254",91610
"1255",16660
"1256",35430
"1257",2326
"1258",491620
"1259",6395739
"1260",32446
"1261",214890
"1262",775205
"1263",1317670
"1264",123897
"1265",9798441
"1266",4639552
"1267",822709
"1268",41039
"1269",1734946
"1270",2428210
"1271",353865
"1272",537704
"1273",186828
"1274",2853933
"1275",4020208
"1276",798508
"1277",561087
"1278",2578188
"1279",1187373
"1280",463024
"1281",528307
"1282",3172296
"1283",826028
"1284",1115683
"1285",4126
"1286",781468
"1287",803187
"1288",508775
"1289",3798343
"1290",6616443
"1291",1423689
"1292",848063
"1293",64365
"1294",863062
"1295",2709935
"1296",955975
"1297",23930
"1298",212391
"1299",3438007
"1300",1264997
"1301",254355
"1302",248856
"1303",1001153
"1304",131313
"1305",177678
"1306",589677
"1307",505500
"1308",531200
"1309",293784
"1310",83959
"1311",30565
"1312",404444
"1313",1850125
"1314",1799710
"1315",443027
"1316",1493529
"1317",7294204
"1318",171469
"1319",162234
"1320",484720
"1321",451889
"1322",290871
"1323",584968
"1324",46679
"1325",26857
"1326",2563
"1327",855926
"1328",922356
"1329",25773
"1330",815933
"1331",2885499
"1332",460219
"1333",2292050
"1334",315192
"1335",335477
"1336",2673916
"1337",292433
"1338",1557275
"1339",68198
"1340",402697
"1341",4544766
"1342",204103
"1343",1744211
"1344",365773
"1345",140342
"1346",-66239
"1347",612968
"1348",650905
"1349",1563026
"1350",3394108
"1351",1723835
"1352",307437
"1353",438805
"1354",740785
"1355",241558
"1356",117327
"1357",1754915
"1358",2267129
"1359",542714
"1360",169697
"1361",727720
"1362",613140
"1363",737314
"1364",6769475
"1365",366349
"1366",46722
"1367",899602
"1368",727754
"1369",148693
"1370",101802
"1371",294558
"1372",7970
"1373",14752
"1374",770743
"1375",195726
"1376",2890
"1377",8705
"1378",143239
"1379",309790
"1380",7469
"1381",88648
"1382",1226
"1383",10088
"1384",458464
"1385",37906
"1386",241417
"1387",1255089
"1388",433209
"1389",3693005
"1390",307200
"1391",1415241
"1392",967024
"1393",197469
"1394",2896481
"1395",68268
"1396",141693
"1397",307545
"1398",936397
"1399",2717009
"1400",475145
"1401",702741
"1402",261480
"1403",157784
"1404",1082632
"1405",1376008
"1406",59007
"1407",81300
"1408",919842
"1409",2375863
"1410",1310940
"1411",535802
"1412",366924
"1413",590431
"1414",9989
"1415",227260
"1416",117297
"1417",816
"1418",516329
"1419",399667
"1420",35978
"1421",15146823
"1422",3623969
"1423",5020766
"1424",944799
"1425",138376
"1426",38876
"1427",21726
"1428",45909
"1429",335851
"1430",759071
"1431",8781257
"1432",5333
"1433",252351
"1434",13467
"1435",14421
"1436",39183
"1437",142151
"1438",251384
"1439",170588
"1440",1283480
"1441",745258
"1442",160152
"1443",307120
"1444",1520724
"1445",688454
"1446",404904
"1447",921899
"1448",203999
"1449",132029
"1450",2139887
"1451",119306
"1452",1793831
"1453",2733
"1454",263373
"1455",2494420
"1456",1349788
"1457",2017333
"1458",133876
"1459",557983
"1460",202526
"1461",26530
"1462",28845
"1463",17993
"1464",279117
"1465",480310
"1466",160334
"1467",50073
"1468",101000
"1469",2561773
"1470",659848
"1471",132210
"1472",257109
"1473",147149
"1474",18931
"1475",478
"1476",194474
"1477",34196
"1478",100473
"1479",1193899
"1480",537849
"1481",178333
"1482",134530
"1483",6065
"1484",56457
"1485",198917
"1486",255234
"1487",221010
"1488",90955
"1489",248150
"1490",55830
"1491",5985777
"1492",521261
"1493",2185238
"1494",227947
"1495",12512
"1496",1130963
"1497",48533
"1498",796335
"1499",907832
"1500",113141
"1501",6761085
"1502",47747
"1503",139510
"1504",49159
"1505",59807
"1506",152254
"1507",89446
"1508",1652079
"1509",-21520
"1510",1183096
"1511",88950
"1512",2727120
"1513",4394542
"1514",216695
"1515",250566
"1516",212717
"1517",47121
"1518",1582772
"1519",182566
"1520",337486
"1521",49704
"1522",180616
"1523",262200
"1524",179799
"1525",580758
"1526",201465
"1527",102828
"1528",929884
"1529",57577
"1530",40897
"1531",876431
"1532",726352
"1533",8521
"1534",17380
"1535",133868
"1536",1490479
"1537",273127
"1538",65981
"1539",771262
"1540",12893
"1541",202541
"1542",346330
"1543",78437
"1544",24331
"1545",267688
"1546",3708564
"1547",2815407
"1548",350325
"1549",402776
"1550",224224
"1551",1227902
"1552",73964
"1553",3480947
"1554",703249
"1555",1327060
"1556",259695
"1557",888686
"1558",399509
"1559",4044560
"1560",99920
"1561",1540145
"1562",72670
"1563",89239
"1564",39504
"1565",240413
"1566",174786
"1567",167026
"1568",168310
"1569",99674
"1570",2356192
"1571",18563
"1572",248934
"1573",307048
"1574",703551
"1575",98328
"1576",576430
"1577",219190
"1578",447191
"1579",183797
"1580",60978
"1581",92724
"1582",283292
"1583",401501
"1584",2881056
"1585",2283720
"1586",1045789
"1587",2796188
"1588",2368923
"1589",11126156
"1590",2484446
"1591",363693
"1592",7835889
"1593",359214
"1594",681838
"1595",8700887
"1596",779099
"1597",136993
"1598",15776922
"1599",528332
"1600",4526149
"1601",9277752
"1602",2573561
"1603",441486
"1604",10526
"1605",245878
"1606",95686
"1607",511544
"1608",278641
"1609",25034
"1610",56133
"1611",408896
"1612",209197
"1613",34447
"1614",595021
"1615",289683
"1616",1389065
"1617",868708
"1618",972867
"1619",38867
"1620",5838
"1621",283486
"1622",46347
"1623",52977
"1624",749695
"1625",1554655
"1626",95245
"1627",230732
"1628",146893
"1629",19741
"1630",610666
"1631",299674
"1632",24111
"1633",59913
"1634",129421
"1635",278560
"1636",210021
"1637",56059
"1638",514718
"1639",483614
"1640",1841161
"1641",602821
"1642",88980
"1643",212859
"1644",276714
"1645",136979
"1646",242995
"1647",66078
"1648",64438
"1649",119461
"1650",2833
"1651",321460
"1652",444565
"1653",248435
"1654",89463
"1655",641151
"1656",54252
"1657",359024
"1658",2195003
"1659",481256
"1660",9863064
"1661",630875
"1662",530186
"1663",76457
"1664",214145
"1665",457321
"1666",12698
"1667",238092
"1668",20746
"1669",58948
"1670",99256
"1671",271921
"1672",44410
"1673",586871
"1674",152908
"1675",274685
"1676",696099
"1677",478968
"1678",428491
"1679",188618
"1680",2350307
"1681",268448
"1682",181367
"1683",1115614
"1684",-3673
"1685",62131
"1686",242082
"1687",90064
"1688",441316
"1689",308535
"1690",255089
"1691",72537
"1692",201397
"1693",100230
"1694",80011
"1695",119156
"1696",46184
"1697",784322
"1698",113745
"1699",501429
"1700",27215
"1701",137981
"1702",52340
"1703",412168
"1704",275170
"1705",162269
"1706",454702
"1707",10784
"1708",184145
"1709",102963
"1710",74121
"1711",95163
"1712",192093
"1713",46081
"1714",382174
"1715",24962
"1716",140168
"1717",150474
"1718",239181
"1719",127933
"1720",236799
"1721",680
"1722",41018
"1723",295309
"1724",80822
"1725",299089
"1726",40038
"1727",73871
"1728",452213
"1729",577360
"1730",23272
"1731",329066
"1732",158787
"1733",50851
"1734",241969
"1735",206989
"1736",368749
"1737",99908
"1738",272544
"1739",625023
"1740",318045
"1741",67501
"1742",94570
"1743",815928
"1744",39160
"1745",40022
"1746",17673
"1747",39190
"1748",52354
"1749",138498
"1750",373217
"1751",85265
"1752",98242
"1753",1019131
"1754",564928
"1755",541225
"1756",637915
"1757",1941361
"1758",879464
"1759",727611
"1760",2757109
"1761",561968
"1762",203462
"1763",3648989
"1764",3800257
"1765",240198
"1766",19259
"1767",1519873
"1768",355897
"1769",1042782
"1770",3207575
"1771",6826329
"1772",274817
"1773",1564399
"1774",19035
"1775",706176
"1776",416567
"1777",54381
"1778",24435
"1779",359833
"1780",1394304
"1781",115156
"1782",379411
"1783",88196
"1784",-393
"1785",581864
"1786",189779
"1787",4418205
"1788",1230645
"1789",1314964
"1790",276097
"1791",276502
"1792",2309899
"1793",984164
"1794",887697
"1795",3184718
"1796",2141337
"1797",874460
"1798",365394
"1799",1313931
"1800",3199540
"1801",641906
"1802",324310
"1803",110417
"1804",114925
"1805",80424
"1806",7524
"1807",218592
"1808",176020
"1809",7766270
"1810",3448288
"1811",3237221
"1812",931451
"1813",1153280
"1814",1705047
"1815",6706808
"1816",306896
"1817",378569
"1818",1831127
"1819",381668
"1820",153193
"1821",426849
"1822",158831
"1823",51968
"1824",1100589
"1825",140186
"1826",13835
"1827",396302
"1828",169874
"1829",124023
"1830",2035481
"1831",740189
"1832",2419828
"1833",754583
"1834",178109
"1835",968070
"1836",993057
"1837",467412
"1838",254283
"1839",301818
"1840",301122
"1841",68583
"1842",177785
"1843",341967
"1844",143336
"1845",302281
"1846",-7420
"1847",325875
"1848",554949
"1849",2321989
"1850",2548836
"1851",124465
"1852",27402
"1853",277750
"1854",70460
"1855",10956
"1856",96688
"1857",605543
"1858",133693
"1859",680854
"1860",414246
"1861",612103
"1862",47905
"1863",536609
"1864",9297
"1865",439144
"1866",161444
"1867",354910
"1868",812027
"1869",742027
"1870",1468087
"1871",3603173
"1872",236899
"1873",312094
"1874",36281
"1875",852
"1876",4270
"1877",2204774
"1878",1101565
"1879",4815266
"1880",1283376
"1881",12467
"1882",2737448
"1883",1896214
"1884",2024364
"1885",646769
"1886",3978299
"1887",1897749
"1888",14050531
"1889",8599220
"1890",1063678
"1891",79878
"1892",1369565
"1893",229568
"1894",2056463
"1895",1711566
"1896",3648626
"1897",12342471
"1898",1257238
"1899",529574
"1900",1292386
"1901",52216
"1902",2478355
"1903",117353
"1904",436231
"1905",3613473
"1906",14306346
"1907",8428202
"1908",919681
"1909",209451
"1910",330579
"1911",-986
"1912",3062841
"1913",3205638
"1914",9216326
"1915",804172
"1916",116271
"1917",124645
"1918",2979487
"1919",642847
"1920",4576032
"1921",2610463
"1922",1316265
"1923",251152
"1924",523359
"1925",235134
"1926",215374
"1927",869133
"1928",409065
"1929",11270145
"1930",5003663
"1931",725299
"1932",634109
"1933",21765
"1934",53611
"1935",231112
