"","distances"
"1",314438
"2",273834
"3",100164
"4",59433
"5",711236
"6",116267
"7",942460
"8",2979229
"9",1161776
"10",1258332
"11",640548
"12",1282009
"13",717674
"14",3098301
"15",464263
"16",138125
"17",132521
"18",491304
"19",519465
"20",1850111
"21",355640
"22",267679
"23",369723
"24",391201
"25",256441
"26",1329982
"27",566870
"28",1035339
"29",538889
"30",889818
"31",117259
"32",75003
"33",239912
"34",750590
"35",929686
"36",114652
"37",11187
"38",7046
"39",790669
"40",-618
"41",1594569
"42",638798
"43",731188
"44",37904
"45",129162
"46",959311
"47",1919670
"48",81883
"49",530925
"50",229802
"51",1464581
"52",59560
"53",1613759
"54",679637
"55",42520
"56",1188552
"57",394404
"58",226160
"59",64920
"60",604429
"61",316016
"62",43322
"63",1365588
"64",128878
"65",70627
"66",735054
"67",851304
"68",53294
"69",3526104
"70",261638
"71",303724
"72",609855
"73",172980
"74",1398090
"75",436148
"76",3893517
"77",3651970
"78",2018988
"79",279167
"80",418163
"81",150955
"82",158804
"83",1297597
"84",46842
"85",9546504
"86",6196792
"87",565776
"88",2171642
"89",215341
"90",1935087
"91",302912
"92",1356740
"93",649236
"94",1654155
"95",-16544
"96",1628382
"97",1373985
"98",4424054
"99",6160681
"100",2548468
"101",24030
"102",688012
"103",796092
"104",337683
"105",38554
"106",755502
"107",1078059
"108",114180
"109",57433
"110",414908
"111",193309
"112",1259604
"113",31102690
"114",63019
"115",2969633
"116",460616
"117",285014
"118",99661
"119",164356
"120",52177
"121",445319
"122",178809
"123",1566348
"124",157368
"125",197586
"126",13525
"127",188
"128",210545
"129",474626
"130",252576
"131",348218
"132",471357
"133",229141
"134",428706
"135",13308
"136",153725
"137",812639
"138",1222836
"139",725777
"140",51952
"141",260522
"142",145095
"143",703546
"144",48116
"145",27331
"146",38248
"147",99862
"148",607852
"149",3607007
"150",1194714
"151",19384
"152",2874149
"153",637862
"154",109282
"155",4271370
"156",2982711
"157",2875204
"158",21098
"159",2449095
"160",8977481
"161",432219
"162",4444668
"163",862761
"164",2377296
"165",292809
"166",359904
"167",111402
"168",1080191
"169",628309
"170",548388
"171",416860
"172",328425
"173",1284065
"174",219967
"175",5271
"176",2668404
"177",175541
"178",375234
"179",2117300
"180",5931334
"181",729225
"182",1573894
"183",3565486
"184",459229
"185",583410
"186",1729208
"187",2921292
"188",122822
"189",1935303
"190",805597
"191",1988529
"192",1158565
"193",3698146
"194",399848
"195",83913
"196",4314402
"197",255314
"198",318532
"199",1260520
"200",3202959
"201",5196436
"202",789205
"203",346811
"204",186282
"205",7532393
"206",1551243
"207",537990
"208",545088
"209",3579895
"210",442339
"211",271428
"212",1149036
"213",110386
"214",528049
"215",116618
"216",381696
"217",21800
"218",107877
"219",861734
"220",86310
"221",1661398
"222",1044518
"223",935742
"224",2955240
"225",876517
"226",1490196
"227",138347
"228",273817
"229",7179104
"230",1279936
"231",5945103
"232",1376606
"233",596620
"234",2327301
"235",4704801
"236",6347110
"237",524635
"238",178142
"239",692167
"240",1181039
"241",1535113
"242",33749
"243",11153303
"244",87562
"245",407328
"246",2805144
"247",79214
"248",7220785
"249",494908
"250",2329594
"251",248988
"252",901825
"253",855280
"254",3764934
"255",3277951
"256",398700
"257",1489661
"258",652334
"259",1122481
"260",6560004
"261",101269
"262",8513996
"263",349531
"264",3209098
"265",2586317
"266",1385005
"267",108750
"268",11998418
"269",3818266
"270",5086610
"271",2223804
"272",2118527
"273",1221801
"274",2459173
"275",2079861
"276",704041
"277",187833
"278",14944
"279",15394
"280",6038589
"281",1102658
"282",-53
"283",553125
"284",312335
"285",9830260
"286",964648
"287",1380600
"288",813342
"289",5606168
"290",3395599
"291",226801
"292",211171
"293",894086
"294",259584
"295",3995600
"296",970077
"297",496704
"298",1829188
"299",99268
"300",7656043
"301",470512
"302",732
"303",343191
"304",27827
"305",91656
"306",25142
"307",163876
"308",138925
"309",25375
"310",7749438
"311",114316
"312",2560156
"313",863267
"314",682706
"315",1273695
"316",4930819
"317",71605
"318",88764
"319",1000536
"320",1824900
"321",417518
"322",3647330
"323",4515002
"324",619627
"325",104383
"326",37675
"327",2240689
"328",43978
"329",69299
"330",4033194
"331",14567296
"332",159108
"333",446567
"334",222733
"335",-6809
"336",3888242
"337",458947
"338",279615
"339",27847
"340",91272
"341",74779
"342",1982717
"343",3763434
"344",145742
"345",54554
"346",563675
"347",714655
"348",422501
"349",603477
"350",485937
"351",336929
"352",201521
"353",307627
"354",25493
"355",352573
"356",85753
"357",41597
"358",245885
"359",850166
"360",20361
"361",36864
"362",6350
"363",1620335
"364",67720
"365",172060
"366",15161
"367",112993
"368",40752
"369",250885
"370",617817
"371",70677
"372",1573727
"373",17769
"374",799984
"375",263594
"376",860786
"377",130260
"378",10427120
"379",3291417
"380",6150619
"381",8381928
"382",8448459
"383",1961210
"384",2982766
"385",135525
"386",3653718
"387",7634103
"388",6006914
"389",2995493
"390",296823
"391",2652820
"392",486158
"393",2624561
"394",46517
"395",38326
"396",312081
"397",796273
"398",558356
"399",280021
"400",111747
"401",2242973
"402",27599
"403",5109970
"404",3092012
"405",237096
"406",3303133
"407",2446605
"408",248333
"409",290830
"410",1268461
"411",1613383
"412",3296837
"413",1630438
"414",1288635
"415",1781377
"416",9197673
"417",7297
"418",14628
"419",241716
"420",1329
"421",9141242
"422",9109
"423",400027
"424",946656
"425",2025444
"426",61968
"427",377679
"428",1379841
"429",823678
"430",425375
"431",142736
"432",642824
"433",1201487
"434",631424
"435",2016958
"436",29051
"437",674983
"438",2048942
"439",51087
"440",435717
"441",513869
"442",19561
"443",479967
"444",386877
"445",85388
"446",1654
"447",284549
"448",302956
"449",453146
"450",62552
"451",265225
"452",479354
"453",207232
"454",1194795
"455",2661030
"456",932192
"457",2281042
"458",5224252
"459",521120
"460",1521059
"461",2231384
"462",5955876
"463",12211393
"464",425665
"465",705944
"466",4431460
"467",2749870
"468",450423
"469",26220
"470",3859446
"471",33711
"472",3248817
"473",575775
"474",359999
"475",126
"476",183409
"477",281471
"478",10489925
"479",3517061
"480",2297306
"481",873517
"482",1206589
"483",107171
"484",898643
"485",1700337
"486",3457929
"487",1023316
"488",1213754
"489",2193712
"490",233021
"491",476607
"492",11011080
"493",35136
"494",525309
"495",2899893
"496",2683724
"497",-25466
"498",1928577
"499",132498
"500",1178519
"501",414385
"502",2945794
"503",6025593
"504",44558
"505",503583
"506",1757366
"507",1011381
"508",4996149
"509",1194122
"510",10549128
"511",1015783
"512",462966
"513",3863235
"514",5973572
"515",4408816
"516",2929617
"517",6688939
"518",7865460
"519",913231
"520",10294316
"521",195076
"522",348486
"523",734234
"524",36312
"525",30076
"526",178978
"527",12996936
"528",18158902
"529",4484414
"530",1868452
"531",4370359
"532",1258154
"533",11236139
"534",2680788
"535",7057506
"536",102757
"537",1456578
"538",267010
"539",2619067
"540",974464
"541",2369655
"542",1121771
"543",4356182
"544",816336
"545",1329367
"546",5566619
"547",1470309
"548",1005350
"549",5132201
"550",167459
"551",1075261
"552",1175887
"553",13946405
"554",857823
"555",2352651
"556",4550197
"557",5843868
"558",181205
"559",1103406
"560",174737
"561",3290788
"562",282200
"563",25546
"564",297014
"565",134684
"566",2049077
"567",1208201
"568",1998901
"569",252147
"570",872272
"571",20872
"572",130718
"573",616606
"574",98693
"575",107202
"576",11425
"577",443356
"578",205204
"579",-99992
"580",105435
"581",12821
"582",301000
"583",357052
"584",5064356
"585",873879
"586",1049361
"587",1379093
"588",3092617
"589",4936931
"590",799060
"591",327605
"592",38497
"593",10932230
"594",1376652
"595",6044
"596",918509
"597",1696054
"598",1620806
"599",5985
"600",29539
"601",36869
"602",781332
"603",1088073
"604",763487
"605",11698
"606",239417
"607",386773
"608",181607
"609",313025
"610",3187
"611",1552581
"612",147042
"613",105
"614",314893
"615",4401902
"616",452169
"617",1907670
"618",4102726
"619",201391
"620",8136522
"621",138493
"622",860780
"623",1232157
"624",503268
"625",631640
"626",116753
"627",136604
"628",650895
"629",60535
"630",20644
"631",255032
"632",8064
"633",240979
"634",467199
"635",69605
"636",52630
"637",81661
"638",69099
"639",195533
"640",371920
"641",602659
"642",7946
"643",4056
"644",558480
"645",2653631
"646",476998
"647",367674
"648",1709326
"649",1918438
"650",638924
"651",1136156
"652",123287
"653",32731
"654",417717
"655",3146
"656",-23597
"657",89837
"658",2239875
"659",11865726
"660",15301714
"661",71707
"662",88315
"663",1782623
"664",3373734
"665",1057447
"666",64120
"667",1823713
"668",3201830
"669",3600168
"670",10424299
"671",939221
"672",4215450
"673",4554138
"674",1731026
"675",54054
"676",197325
"677",3843620
"678",450888
"679",1474183
"680",7781713
"681",1508313
"682",4114575
"683",319947
"684",344682
"685",5686960
"686",1027601
"687",4662542
"688",5794341
"689",1147293
"690",1868632
"691",2269560
"692",1519296
"693",1958618
"694",396948
"695",7253996
"696",3440328
"697",-93684
"698",22947
"699",473515
"700",966872
"701",2219888
"702",251426
"703",457659
"704",1230350
"705",10032635
"706",908774
"707",5549972
"708",188766
"709",1890102
"710",647599
"711",606098
"712",42585
"713",307560
"714",66593
"715",1332236
"716",831953
"717",294044
"718",219201
"719",1823347
"720",1142521
"721",1595500
"722",2047981
"723",1933170
"724",4041176
"725",35179
"726",65848
"727",174844
"728",19710866
"729",422276
"730",489080
"731",866423
"732",116235
"733",111641
"734",500682
"735",374496
"736",6258811
"737",58482
"738",1188955
"739",258804
"740",321581
"741",798240
"742",1489433
"743",9397580
"744",5266433
"745",1393168
"746",727715
"747",2446895
"748",1664725
"749",1144801
"750",65381
"751",6853
"752",20409
"753",3300
"754",198780
"755",189303
"756",75301
"757",433052
"758",78402
"759",591714
"760",149148
"761",356409
"762",100290
"763",72320
"764",3722784
"765",5616618
"766",3732474
"767",3988934
"768",3963984
"769",2416807
"770",148694
"771",2010937
"772",7257039
"773",854724
"774",2082679
"775",1561286
"776",8085046
"777",476985
"778",342513
"779",287925
"780",50243
"781",162234
"782",278215
"783",3074101
"784",847798
"785",1137450
"786",565874
"787",10143539
"788",904
"789",557106
"790",314759
"791",293731
"792",394750
"793",751509
"794",8877370
"795",773799
"796",576818
"797",545636
"798",439233
"799",2155004
"800",832601
"801",88304
"802",3357025
"803",2197055
"804",4263179
"805",417432
"806",3048657
"807",267690
"808",527945
"809",369482
"810",479001
"811",5831816
"812",4793817
"813",4150951
"814",8463336
"815",7549136
"816",5442682
"817",1512500
"818",236905
"819",3584915
"820",227360
"821",893698
"822",7236958
"823",655847
"824",338202
"825",252058
"826",2945660
"827",2033343
"828",2099010
"829",413516
"830",18718252
"831",1140004
"832",67456
"833",67804
"834",256491
"835",947304
"836",600036
"837",63201
"838",4393896
"839",2840503
"840",694136
"841",9708221
"842",284497
"843",509619
"844",267919
"845",67489
"846",51014
"847",468145
"848",3404480
"849",942585
"850",25410
"851",188673
"852",8328045
"853",115344
"854",87133
"855",1517419
"856",1433306
"857",13606015
"858",61361
"859",90316
"860",1371449
"861",23405
"862",786232
"863",249300
"864",835858
"865",744983
"866",316813
"867",26038776
"868",6225119
"869",2924787
"870",1326972
"871",395366
"872",3149878
"873",3253590
"874",2147393
"875",7487580
"876",873496
"877",58331
"878",2322005
"879",1668647
"880",723051
"881",519227
"882",615059
"883",5244179
"884",1378711
"885",4522239
"886",1352647
"887",454711
"888",646196
"889",655183
"890",957157
"891",193341
"892",6257279
"893",179967
"894",30184
"895",112148
"896",1298362
"897",1428975
"898",423851
"899",331688
"900",2930754
"901",187875
"902",25244
"903",490172
"904",212316
"905",701755
"906",754831
"907",1221755
"908",1276644
"909",44890
"910",52999
"911",546302
"912",282432
"913",1038494
"914",517644
"915",266618
"916",477262
"917",146428
"918",553157
"919",1814559
"920",843586
"921",255028
"922",325775
"923",5513185
"924",-4636
"925",1121280
"926",1530522
"927",198269
"928",42950
"929",407108
"930",963446
"931",514308
"932",424763
"933",115848
"934",4413867
"935",79903
"936",9101295
"937",5066698
"938",160704
"939",5241218
"940",27675
"941",73165
"942",6407572
"943",57389
"944",605812
"945",1497801
"946",5873475
"947",1124
"948",9595083
"949",642266
"950",1403741
"951",2083066
"952",131467
"953",503964
"954",83736
"955",120752
"956",260209
"957",46225
"958",29750
"959",1597359
"960",2557409
"961",1633543
"962",2048720
"963",3971439
"964",28993
"965",342301
"966",146993
"967",325232
"968",941705
"969",2946494
"970",969437
"971",532194
"972",292229
"973",3480080
"974",2256541
"975",393960
"976",59937
"977",39059
"978",1915046
"979",535394
"980",277746
"981",7561
"982",431082
"983",474003
"984",6443640
"985",1904216
"986",851436
"987",389955
"988",4499935
"989",274467
"990",617638
"991",214892
"992",5780976
"993",1383316
"994",2940241
"995",3236145
"996",247817
"997",180334
"998",1132274
"999",141557
"1000",139192
"1001",1189658
"1002",1219450
"1003",1055298
"1004",542828
"1005",1485572
"1006",17382
"1007",-19
"1008",778239
"1009",1339669
"1010",249569
"1011",659187
"1012",219418
"1013",134685
"1014",2753280
"1015",3221128
"1016",61549
"1017",82867
"1018",412314
"1019",47641
"1020",109104
"1021",242087
"1022",6175250
"1023",922343
"1024",3863067
"1025",2619834
"1026",2195132
"1027",6893728
"1028",1390970
"1029",895812
"1030",513166
"1031",8736
"1032",550372
"1033",237569
"1034",200814
"1035",9683362
"1036",124672
"1037",50929
"1038",996068
"1039",630290
"1040",500505
"1041",1296513
"1042",171599
"1043",272440
"1044",234070
"1045",231922
"1046",1685765
"1047",27940
"1048",28525
"1049",183461
"1050",21398
"1051",39144
"1052",742704
"1053",133545
"1054",157284
"1055",21943
"1056",141376
"1057",54151
"1058",270445
"1059",16520
"1060",386555
"1061",62649
"1062",953067
"1063",53996
"1064",145340
"1065",396024
"1066",9734
"1067",703725
"1068",59432
"1069",1262561
"1070",1658119
"1071",85637
"1072",2214891
"1073",496082
"1074",637718
"1075",1397821
"1076",463236
"1077",457949
"1078",5113520
"1079",-1597
"1080",2407817
"1081",563577
"1082",367950
"1083",1340682
"1084",12349866
"1085",921074
"1086",1049629
"1087",851387
"1088",778487
"1089",2533290
"1090",939685
"1091",3280318
"1092",192843
"1093",141215
"1094",794
"1095",951995
"1096",304002
"1097",91501
"1098",184023
"1099",149354
"1100",2333967
"1101",70414
"1102",887911
"1103",250366
"1104",136618
"1105",574231
"1106",78932
"1107",8649
"1108",189985
"1109",17418
"1110",770335
"1111",1266674
"1112",1248835
"1113",669389
"1114",967592
"1115",104448
"1116",5373
"1117",191831
"1118",5026658
"1119",4108684
"1120",1474004
"1121",1036670
"1122",1438228
"1123",343745
"1124",1767920
"1125",22369
"1126",1972
"1127",111906
"1128",30644
"1129",22941
"1130",54983
"1131",125660
"1132",4011
"1133",158254
"1134",2236266
"1135",250430
"1136",155
"1137",925978
"1138",99420
"1139",122537
"1140",87931
"1141",1302637
"1142",378392
"1143",244569
"1144",1542565
"1145",4636114
"1146",1805506
"1147",1083826
"1148",6646687
"1149",119651
"1150",1289086
"1151",277432
"1152",1088103
"1153",7946792
"1154",4846713
"1155",1087483
"1156",961695
"1157",626870
"1158",38212
"1159",3883
"1160",1218237
"1161",639926
"1162",1125942
"1163",955093
"1164",136880
"1165",60992
"1166",158459
"1167",881283
"1168",583531
"1169",995686
"1170",123284
"1171",48452
"1172",81415
"1173",41205
"1174",108412
"1175",42222
"1176",633131
"1177",18827
"1178",340487
"1179",14835
"1180",6585646
"1181",2818154
"1182",328387
"1183",607037
"1184",278458
"1185",-29382
"1186",1600001
"1187",770092
"1188",5882743
"1189",13927270
"1190",1423917
"1191",1634259
"1192",8467663
"1193",124607
"1194",4140597
"1195",837651
"1196",22964
"1197",209176
"1198",314238
"1199",118698
"1200",240993
"1201",2844348
"1202",137472
"1203",2562247
"1204",761204
"1205",3101812
"1206",69165
"1207",58614
"1208",68910
"1209",796949
"1210",1622643
"1211",1831
"1212",102015
"1213",657177
"1214",-986
"1215",6938468
"1216",569612
"1217",150183
"1218",3181
"1219",357912
"1220",38565
"1221",134822
"1222",1047834
"1223",7668597
"1224",1276753
"1225",2009605
"1226",617551
"1227",1269609
"1228",105827
"1229",2684718
"1230",1446107
"1231",49170
"1232",1161901
"1233",2222872
"1234",772773
"1235",1096614
"1236",300214
"1237",21287269
"1238",608547
"1239",1530163
"1240",70995
"1241",1675804
"1242",16928788
"1243",4698273
"1244",3491644
"1245",5409705
"1246",287668
"1247",4089234
"1248",435568
"1249",1046215
"1250",1053530
"1251",303937
"1252",206111
"1253",172728
"1254",748443
"1255",13717
"1256",5095
"1257",11192
"1258",25440
"1259",8490
"1260",194078
"1261",6128169
"1262",4361894
"1263",508785
"1264",9393886
"1265",4528543
"1266",74368
"1267",325858
"1268",-28617
"1269",86695
"1270",1944073
"1271",2707610
"1272",2684552
"1273",6195818
"1274",271780
"1275",1132923
"1276",2773871
"1277",4740861
"1278",406132
"1279",93180
"1280",204634
"1281",784928
"1282",4126
"1283",345794
"1284",102776
"1285",296910
"1286",779198
"1287",315082
"1288",10720533
"1289",472113
"1290",2677799
"1291",326771
"1292",-956
"1293",248586
"1294",1211302
"1295",419903
"1296",482124
"1297",557885
"1298",2605704
"1299",4339253
"1300",589677
"1301",327930
"1302",59131
"1303",1082083
"1304",263240
"1305",162456
"1306",291639
"1307",184463
"1308",166922
"1309",132842
"1310",2503937
"1311",5031723
"1312",708397
"1313",2641782
"1314",339892
"1315",5150891
"1316",656891
"1317",125778
"1318",1163743
"1319",435652
"1320",180885
"1321",174742
"1322",621044
"1323",32036
"1324",285414
"1325",724214
"1326",25773
"1327",3470953
"1328",229789
"1329",3292176
"1330",143299
"1331",115914
"1332",2673916
"1333",768167
"1334",1057099
"1335",4855766
"1336",877349
"1337",49885
"1338",1009654
"1339",303261
"1340",508690
"1341",514566
"1342",2298714
"1343",612111
"1344",1100979
"1345",2143005
"1346",67920
"1347",1183538
"1348",539537
"1349",269105
"1350",137318
"1351",311805
"1352",2046158
"1353",1222202
"1354",1607619
"1355",37187
"1356",88122
"1357",640950
"1358",-5487
"1359",1051900
"1360",709221
"1361",1863468
"1362",663855
"1363",2886795
"1364",220805
"1365",191833
"1366",1072769
"1367",592876
"1368",970237
"1369",727754
"1370",6070212
"1371",835996
"1372",550854
"1373",256440
"1374",158612
"1375",8226
"1376",48252
"1377",380340
"1378",7833
"1379",3403
"1380",45225
"1381",610594
"1382",70270
"1383",84132
"1384",56745
"1385",73651
"1386",295203
"1387",122510
"1388",21009
"1389",37170
"1390",627278
"1391",451883
"1392",281501
"1393",50491
"1394",403956
"1395",362692
"1396",287813
"1397",3682576
"1398",94446
"1399",127134
"1400",1622146
"1401",3978715
"1402",338899
"1403",470888
"1404",674278
"1405",2023931
"1406",15385
"1407",848285
"1408",56127
"1409",9663
"1410",-1776
"1411",1013701
"1412",1027654
"1413",1657732
"1414",3590750
"1415",1183619
"1416",96368
"1417",245302
"1418",228568
"1419",875603
"1420",79542
"1421",11053
"1422",339515
"1423",26477
"1424",816
"1425",306805
"1426",211147
"1427",242343
"1428",66538
"1429",35978
"1430",199804
"1431",18601503
"1432",5992518
"1433",25952
"1434",178594
"1435",69407
"1436",335851
"1437",427712
"1438",8780418
"1439",98218
"1440",26475
"1441",181882
"1442",38690
"1443",573322
"1444",176278
"1445",21505
"1446",86691
"1447",2543481
"1448",757824
"1449",172563
"1450",578348
"1451",3133756
"1452",4317790
"1453",2361212
"1454",4512286
"1455",874896
"1456",1022692
"1457",202526
"1458",64186
"1459",-54040
"1460",61788
"1461",279117
"1462",51090
"1463",426778
"1464",54011
"1465",100014
"1466",133546
"1467",956157
"1468",657887
"1469",1276315
"1470",840746
"1471",130739
"1472",91807
"1473",34885
"1474",47591
"1475",167377
"1476",882773
"1477",1126989
"1478",21727
"1479",284449
"1480",107066
"1481",2207107
"1482",5105260
"1483",444977
"1484",833162
"1485",729521
"1486",887416
"1487",303
"1488",209745
"1489",32812
"1490",655292
"1491",5249
"1492",58730
"1493",48533
"1494",430310
"1495",8016576
"1496",254818
"1497",59807
"1498",152254
"1499",44183
"1500",617809
"1501",1198869
"1502",447237
"1503",639479
"1504",141409
"1505",2103078
"1506",621884
"1507",489947
"1508",4116470
"1509",284415
"1510",433054
"1511",1611740
"1512",91732
"1513",388426
"1514",24653
"1515",123465
"1516",81453
"1517",61344
"1518",22164
"1519",926430
"1520",201465
"1521",778734
"1522",172860
"1523",47858
"1524",57577
"1525",284519
"1526",69993
"1527",538420
"1528",96010
"1529",585281
"1530",278322
"1531",11474
"1532",366060
"1533",15858
"1534",749924
"1535",810088
"1536",768384
"1537",166225
"1538",187854
"1539",549951
"1540",3708564
"1541",2909783
"1542",1611656
"1543",241311
"1544",87209
"1545",20679
"1546",3402521
"1547",106788
"1548",723493
"1549",2150958
"1550",1621303
"1551",191822
"1552",2876174
"1553",519529
"1554",99920
"1555",1117703
"1556",683043
"1557",469075
"1558",142377
"1559",13266
"1560",118554
"1561",201471
"1562",405780
"1563",161657
"1564",553770
"1565",606802
"1566",62276
"1567",169545
"1568",18563
"1569",248934
"1570",307048
"1571",261984
"1572",431716
"1573",936093
"1574",305397
"1575",285231
"1576",84968
"1577",90988
"1578",11029
"1579",201291
"1580",47293
"1581",148024
"1582",131174
"1583",1858835
"1584",2621191
"1585",1215636
"1586",1939832
"1587",2261322
"1588",1513071
"1589",1634646
"1590",7186757
"1591",1998042
"1592",329888
"1593",7882762
"1594",2420077
"1595",1237600
"1596",5774650
"1597",3599195
"1598",574289
"1599",7894777
"1600",3245084
"1601",1193304
"1602",2918775
"1603",528332
"1604",142913
"1605",3180955
"1606",8590970
"1607",4186508
"1608",441486
"1609",113975
"1610",305443
"1611",27625
"1612",202293
"1613",818586
"1614",145025
"1615",177949
"1616",46439
"1617",430654
"1618",181831
"1619",491519
"1620",28747
"1621",713144
"1622",142568
"1623",1129177
"1624",267230
"1625",626993
"1626",201997
"1627",782478
"1628",67973
"1629",44672
"1630",150407
"1631",55340
"1632",283486
"1633",46347
"1634",52977
"1635",99371
"1636",637268
"1637",796137
"1638",340058
"1639",548057
"1640",617612
"1641",901948
"1642",11516
"1643",91733
"1644",24152
"1645",137067
"1646",18750
"1647",19182
"1648",27599
"1649",830495
"1650",279083
"1651",88584
"1652",901216
"1653",1019040
"1654",481392
"1655",870961
"1656",675496
"1657",187070
"1658",36771
"1659",93312
"1660",644271
"1661",71773
"1662",592495
"1663",1125946
"1664",2679145
"1665",3925689
"1666",1871116
"1667",5002182
"1668",71679
"1669",183125
"1670",76457
"1671",49308
"1672",884796
"1673",167821
"1674",264438
"1675",268858
"1676",839636
"1677",36264
"1678",86716
"1679",472001
"1680",314073
"1681",93232
"1682",45518
"1683",109396
"1684",352443
"1685",64441
"1686",23795
"1687",95042
"1688",5851
"1689",528819
"1690",100806
"1691",583421
"1692",22788
"1693",707982
"1694",327699
"1695",1646650
"1696",23255
"1697",26221
"1698",558182
"1699",504013
"1700",69148
"1701",259239
"1702",201397
"1703",100230
"1704",141261
"1705",199883
"1706",47564
"1707",45607
"1708",387264
"1709",187412
"1710",36819
"1711",628885
"1712",27215
"1713",92440
"1714",261254
"1715",290785
"1716",59875
"1717",421671
"1718",65254
"1719",194100
"1720",41929
"1721",560740
"1722",95163
"1723",248183
"1724",382174
"1725",688701
"1726",69567
"1727",258728
"1728",426160
"1729",232301
"1730",49388
"1731",809457
"1732",103695
"1733",230310
"1734",162621
"1735",539242
"1736",518546
"1737",203889
"1738",336167
"1739",83537
"1740",257323
"1741",1678081
"1742",69908
"1743",31598
"1744",208456
"1745",279105
"1746",538624
"1747",1070844
"1748",108156
"1749",402580
"1750",541225
"1751",1228806
"1752",18385
"1753",414510
"1754",2518590
"1755",5110443
"1756",6014988
"1757",3786290
"1758",1290283
"1759",312441
"1760",8174349
"1761",1142099
"1762",1120489
"1763",662043
"1764",660787
"1765",493843
"1766",1394304
"1767",115156
"1768",509853
"1769",-393
"1770",581864
"1771",189779
"1772",5171237
"1773",684035
"1774",457032
"1775",12772
"1776",331044
"1777",24764
"1778",29083
"1779",670188
"1780",2361779
"1781",196434
"1782",4723550
"1783",2141337
"1784",2447381
"1785",212189
"1786",828727
"1787",1616337
"1788",1524981
"1789",7524
"1790",367766
"1791",256856
"1792",12176926
"1793",2158975
"1794",36427
"1795",2044619
"1796",313338
"1797",266385
"1798",931451
"1799",1040455
"1800",1729417
"1801",188813
"1802",979425
"1803",629191
"1804",867412
"1805",2614374
"1806",432185
"1807",56186
"1808",482798
"1809",179652
"1810",664924
"1811",29313
"1812",487484
"1813",1316318
"1814",309095
"1815",344829
"1816",426849
"1817",105320
"1818",1657132
"1819",347149
"1820",20578
"1821",206435
"1822",243050
"1823",33058
"1824",30
"1825",414254
"1826",456081
"1827",847458
"1828",401397
"1829",1113358
"1830",412700
"1831",289978
"1832",342750
"1833",1286429
"1834",2193085
"1835",463429
"1836",8412
"1837",254283
"1838",973298
"1839",548144
"1840",157803
"1841",8756
"1842",595742
"1843",554949
"1844",2321989
"1845",254181
"1846",1511758
"1847",290977
"1848",156066
"1849",431689
"1850",85001
"1851",418526
"1852",2211
"1853",291563
"1854",345831
"1855",62372
"1856",52621
"1857",1611785
"1858",609328
"1859",366179
"1860",184381
"1861",557824
"1862",812027
"1863",482041
"1864",665543
"1865",4772498
"1866",253609
"1867",278576
"1868",4104
"1869",36281
"1870",1082
"1871",1553
"1872",1256663
"1873",75771
"1874",7136150
"1875",993160
"1876",659013
"1877",277647
"1878",1744005
"1879",84728
"1880",1896214
"1881",638706
"1882",2197901
"1883",1127972
"1884",2716999
"1885",55149
"1886",8705163
"1887",373503
"1888",11808933
"1889",1245956
"1890",76362
"1891",546461
"1892",374287
"1893",79878
"1894",177741
"1895",455976
"1896",206340
"1897",581627
"1898",3773323
"1899",1112208
"1900",1359097
"1901",970467
"1902",9777257
"1903",1374172
"1904",2275189
"1905",697724
"1906",140738
"1907",1028348
"1908",1370985
"1909",981146
"1910",3114732
"1911",22559945
"1912",502234
"1913",22133
"1914",94409
"1915",2145195
"1916",3271801
"1917",3075363
"1918",2334270
"1919",11535088
"1920",5165545
"1921",4603679
"1922",235134
"1923",1632001
"1924",11270145
"1925",5876496
"1926",75277
"1927",381258
"1928",16520
"1929",94874
"1930",478408
