"","distances"
"1",367397
"2",202368
"3",48405
"4",39285
"5",38424
"6",24027
"7",16374
"8",50000
"9",100164
"10",59433
"11",32110
"12",175952
"13",400127
"14",1211205
"15",227140
"16",769303
"17",1471735
"18",71701
"19",114107
"20",3747795
"21",574621
"22",19385
"23",6654
"24",411973
"25",2008548
"26",1665753
"27",3377747
"28",340394
"29",299076
"30",369723
"31",94895
"32",3085260
"33",515133
"34",118219
"35",538889
"36",701197
"37",-296
"38",68497
"39",361001
"40",821983
"41",94023
"42",114723
"43",379808
"44",1840702
"45",1391691
"46",638798
"47",837622
"48",69727
"49",266537
"50",235091
"51",2077258
"52",372016
"53",803972
"54",142885
"55",1531476
"56",9918
"57",18337
"58",813374
"59",166495
"60",644012
"61",348544
"62",227838
"63",2112516
"64",311002
"65",37600
"66",538924
"67",1015386
"68",22968
"69",14227
"70",15818
"71",214835
"72",608715
"73",1051102
"74",304504
"75",165539
"76",101577
"77",3581906
"78",261638
"79",13803
"80",232063
"81",609855
"82",130964
"83",28101
"84",1226242
"85",429738
"86",4657446
"87",5981867
"88",158804
"89",251033
"90",353711
"91",2137983
"92",5050186
"93",2277397
"94",6132436
"95",471675
"96",5246534
"97",56982
"98",788662
"99",1980326
"100",2392231
"101",4602859
"102",114074
"103",103542
"104",622538
"105",129880
"106",5969411
"107",2046043
"108",276698
"109",163277
"110",383504
"111",338694
"112",779232
"113",235355
"114",24416
"115",63706
"116",679490
"117",60062
"118",1273923
"119",487576
"120",71688
"121",99057
"122",1195813
"123",1793431
"124",27303371
"125",2009122
"126",2969633
"127",376645
"128",229119
"129",86227
"130",184378
"131",24318
"132",431928
"133",219351
"134",1540209
"135",252786
"136",6141
"137",555523
"138",19634
"139",382272
"140",44125
"141",106110
"142",28813
"143",73730
"144",816530
"145",3772872
"146",1250401
"147",27331
"148",7554
"149",4546280
"150",-224
"151",984093
"152",2157049
"153",26903
"154",388962
"155",3289467
"156",3649989
"157",3065313
"158",693730
"159",2906733
"160",1080369
"161",139316
"162",1354462
"163",5895300
"164",8554741
"165",111878
"166",496148
"167",12158
"168",176270
"169",873794
"170",1048267
"171",2507793
"172",2930451
"173",22954
"174",1706415
"175",850204
"176",3205529
"177",6968018
"178",65835
"179",51041
"180",137075
"181",214824
"182",2481334
"183",100333
"184",231818
"185",587667
"186",740994
"187",319495
"188",1334873
"189",75562
"190",1665068
"191",1563705
"192",142198
"193",630122
"194",1875175
"195",898251
"196",6519924
"197",1579974
"198",2342224
"199",3429868
"200",3124140
"201",248053
"202",293483
"203",-1719
"204",3794709
"205",3012998
"206",2646832
"207",3618139
"208",2687841
"209",281197
"210",67849
"211",229677
"212",255153
"213",21800
"214",107877
"215",763553
"216",389834
"217",1943494
"218",6283650
"219",604111
"220",124921
"221",4449196
"222",171964
"223",31074
"224",9465550
"225",34094
"226",596296
"227",1194522
"228",259984
"229",5085015
"230",2356810
"231",1419289
"232",1000815
"233",2821881
"234",455932
"235",218461
"236",775273
"237",144311
"238",1811797
"239",157801
"240",575895
"241",274350
"242",379316
"243",120880
"244",10287240
"245",359249
"246",124533
"247",103144
"248",407328
"249",461236
"250",8901243
"251",721814
"252",817589
"253",1513697
"254",926904
"255",130552
"256",69127
"257",4447841
"258",1929005
"259",1490803
"260",1823472
"261",1366219
"262",485402
"263",6789343
"264",974412
"265",7004017
"266",312557
"267",425529
"268",1832815
"269",1344925
"270",188709
"271",877449
"272",2465337
"273",12489775
"274",2753494
"275",826744
"276",159245
"277",1759
"278",3606435
"279",3461007
"280",1232159
"281",3417403
"282",1013796
"283",3838090
"284",6388844
"285",1026343
"286",719727
"287",4939548
"288",5931891
"289",558773
"290",178068
"291",901629
"292",5812044
"293",587775
"294",2105852
"295",1727129
"296",725334
"297",4036055
"298",1448148
"299",496704
"300",1662672
"301",5140434
"302",646556
"303",549873
"304",1609756
"305",345330
"306",12371
"307",256939
"308",283293
"309",3066905
"310",2060045
"311",2329232
"312",1180191
"313",1740657
"314",108261
"315",152961
"316",1328693
"317",174973
"318",715617
"319",7271519
"320",13491
"321",964725
"322",160441
"323",40009
"324",1245348
"325",175778
"326",5042732
"327",398782
"328",1234892
"329",3039503
"330",1868086
"331",5291225
"332",4989792
"333",864726
"334",4611920
"335",169121
"336",3385449
"337",107558
"338",919440
"339",27847
"340",91272
"341",74779
"342",2652580
"343",1645635
"344",772467
"345",603748
"346",2259546
"347",184042
"348",75884
"349",575569
"350",458994
"351",337216
"352",254867
"353",96103
"354",85753
"355",41597
"356",638886
"357",485943
"358",17401
"359",6350
"360",11708
"361",53781
"362",970117
"363",302759
"364",67720
"365",197871
"366",112993
"367",294605
"368",101829
"369",1027515
"370",2758557
"371",873039
"372",925270
"373",61757
"374",5270789
"375",7096
"376",491644
"377",7683825
"378",302656
"379",134871
"380",8420500
"381",7345363
"382",7135054
"383",3642764
"384",38180
"385",307933
"386",12899419
"387",5597727
"388",282308
"389",3515194
"390",160291
"391",846035
"392",697371
"393",8661
"394",976689
"395",333439
"396",877840
"397",77107
"398",335298
"399",223774
"400",568126
"401",1279280
"402",615069
"403",1289324
"404",2512
"405",1101797
"406",5109970
"407",202957
"408",1263813
"409",963467
"410",969787
"411",4815990
"412",984586
"413",1380667
"414",136444
"415",73119
"416",8062401
"417",21011834
"418",565077
"419",3556861
"420",75122
"421",929161
"422",951
"423",1321783
"424",4503556
"425",1842455
"426",124339
"427",33
"428",438322
"429",2796670
"430",46024
"431",641577
"432",41499
"433",639
"434",88049
"435",934103
"436",71935
"437",250640
"438",178343
"439",199926
"440",338288
"441",1194795
"442",2021637
"443",404436
"444",3358209
"445",10623263
"446",1592164
"447",1238987
"448",1329886
"449",1297345
"450",102327
"451",15382992
"452",1516804
"453",3001989
"454",1421300
"455",4552364
"456",1644704
"457",480520
"458",433253
"459",260480
"460",8637664
"461",5392172
"462",4368863
"463",1871558
"464",4957183
"465",1656684
"466",2370219
"467",616282
"468",6374080
"469",89741
"470",3102936
"471",1951480
"472",467654
"473",1281887
"474",33389
"475",5751670
"476",717063
"477",3384292
"478",5208033
"479",89094
"480",4043195
"481",10264603
"482",6508147
"483",103102
"484",4260295
"485",8964854
"486",1974213
"487",2387412
"488",535816
"489",2660501
"490",1159926
"491",3388552
"492",981497
"493",1741415
"494",5974135
"495",30855
"496",8350125
"497",851151
"498",568807
"499",415116
"500",4911641
"501",7824727
"502",36934
"503",1819709
"504",17369120
"505",2240326
"506",574645
"507",3758849
"508",2356736
"509",9814829
"510",5858975
"511",810153
"512",3222760
"513",1121208
"514",2983395
"515",172739
"516",655234
"517",881917
"518",5762101
"519",3255530
"520",404682
"521",112085
"522",2172916
"523",26534
"524",5529541
"525",925863
"526",3173438
"527",2052139
"528",167459
"529",1300734
"530",1670725
"531",1877978
"532",12118833
"533",2089820
"534",3234843
"535",2973416
"536",1013551
"537",317833
"538",8677398
"539",469381
"540",1297914
"541",721938
"542",1127370
"543",2123830
"544",252147
"545",872272
"546",105814
"547",691707
"548",-37013
"549",244545
"550",124326
"551",408611
"552",68792
"553",32314
"554",113639
"555",14472
"556",-139065
"557",126323
"558",340330
"559",5377770
"560",2041891
"561",722661
"562",3638598
"563",637075
"564",2464807
"565",385476
"566",2267665
"567",1781520
"568",6629135
"569",85718
"570",3708004
"571",689919
"572",3858309
"573",250373
"574",5985
"575",147187
"576",45559
"577",520649
"578",960286
"579",268748
"580",43844
"581",131141
"582",325284
"583",901825
"584",17206
"585",2370880
"586",3187
"587",77825
"588",1402786
"589",39181
"590",98530
"591",883146
"592",1220562
"593",140080
"594",3162102
"595",105072
"596",2239150
"597",3994693
"598",413096
"599",6003435
"600",2122709
"601",116599
"602",42688
"603",4223186
"604",440653
"605",28041
"606",382488
"607",75776
"608",454492
"609",50101
"610",9973
"611",463944
"612",335795
"613",279690
"614",16005
"615",101719
"616",1756878
"617",874730
"618",52220
"619",639080
"620",2175100
"621",1276397
"622",446162
"623",60719
"624",1043615
"625",722499
"626",65743
"627",150001
"628",44122
"629",248039
"630",69594
"631",13880
"632",637791
"633",2390187
"634",5657804
"635",448062
"636",5901
"637",4110524
"638",16271745
"639",1728439
"640",3617149
"641",968372
"642",9148379
"643",10153088
"644",8139896
"645",381242
"646",1525458
"647",274391
"648",694766
"649",1175064
"650",4664668
"651",794546
"652",3476952
"653",1137172
"654",3054788
"655",5641936
"656",3869572
"657",540572
"658",52430
"659",6228
"660",30046
"661",1489594
"662",5072614
"663",428610
"664",1728903
"665",3843400
"666",3252263
"667",20880
"668",2121890
"669",2852791
"670",597461
"671",906173
"672",5570968
"673",331650
"674",2098560
"675",372669
"676",89169
"677",1174970
"678",295679
"679",2219888
"680",111594
"681",315156
"682",591855
"683",178334
"684",428453
"685",941378
"686",416354
"687",2879064
"688",12012197
"689",1372257
"690",4158
"691",5161990
"692",1062172
"693",1647403
"694",1144955
"695",1476303
"696",2482651
"697",1602900
"698",112804
"699",1717413
"700",1211023
"701",826457
"702",68552
"703",290739
"704",230840
"705",1337194
"706",4382194
"707",4347149
"708",10230835
"709",1069055
"710",111641
"711",6538942
"712",623728
"713",58482
"714",1828139
"715",1454409
"716",593880
"717",4147864
"718",4901883
"719",2983926
"720",1732832
"721",46064
"722",27588
"723",76390
"724",1085105
"725",4178275
"726",42746
"727",536047
"728",156667
"729",181810
"730",180046
"731",568158
"732",30746
"733",510757
"734",132783
"735",8102
"736",238425
"737",78402
"738",591714
"739",198487
"740",2585057
"741",2063478
"742",688441
"743",4887417
"744",4013322
"745",480548
"746",309893
"747",2080844
"748",1122758
"749",5284754
"750",148694
"751",883118
"752",638290
"753",19175
"754",4039528
"755",1025774
"756",387124
"757",1578584
"758",531114
"759",2082679
"760",2764079
"761",417011
"762",5622567
"763",41002
"764",35634
"765",102479
"766",541055
"767",470838
"768",374883
"769",287925
"770",317200
"771",3572777
"772",1997535
"773",565874
"774",268790
"775",4278847
"776",-96675
"777",1075392
"778",751509
"779",51858
"780",4039185
"781",4812991
"782",653463
"783",1616733
"784",500162
"785",2066125
"786",88304
"787",1379159
"788",1521633
"789",2933081
"790",4576427
"791",4327854
"792",479001
"793",9025051
"794",3761729
"795",4455605
"796",189130
"797",1714336
"798",3344141
"799",256502
"800",1030070
"801",5997670
"802",281916
"803",3911895
"804",2675096
"805",373184
"806",3686743
"807",893698
"808",4143575
"809",1163335
"810",2268674
"811",338202
"812",44226
"813",184393
"814",88235
"815",1224150
"816",1429946
"817",58223
"818",2033343
"819",1012803
"820",1083383
"821",958674
"822",1207736
"823",465612
"824",3301079
"825",6950339
"826",3613836
"827",2874448
"828",352106
"829",647033
"830",13934
"831",8545081
"832",9554406
"833",336014
"834",280552
"835",206208
"836",150962
"837",99793
"838",210292
"839",18625
"840",342559
"841",21599
"842",21256
"843",284321
"844",48455
"845",119853
"846",3940913
"847",74846
"848",44301
"849",242347
"850",10294521
"851",3764482
"852",13668219
"853",188220
"854",468397
"855",18336
"856",446266
"857",144187
"858",28391
"859",47993
"860",306573
"861",923648
"862",1213398
"863",64517
"864",72160
"865",882365
"866",1410901
"867",28421984
"868",6197350
"869",395366
"870",6436418
"871",5807923
"872",16886
"873",1274378
"874",2230278
"875",1189322
"876",277186
"877",148680
"878",110869
"879",4667383
"880",1713993
"881",10078257
"882",1724254
"883",97186
"884",646196
"885",503326
"886",7591160
"887",1369707
"888",467046
"889",15925
"890",1871817
"891",1511964
"892",1809296
"893",25244
"894",359753
"895",286118
"896",66507
"897",1467776
"898",55369
"899",304188
"900",31088
"901",54789
"902",501085
"903",811440
"904",206074
"905",164829
"906",318188
"907",3534304
"908",16054
"909",85315
"910",195701
"911",657537
"912",302802
"913",7062780
"914",2429872
"915",2280157
"916",4551949
"917",1461596
"918",258311
"919",3470214
"920",834226
"921",1469497
"922",1125693
"923",4381
"924",5248026
"925",4429786
"926",144233
"927",721407
"928",69241
"929",1725320
"930",4009249
"931",442652
"932",8258559
"933",45389
"934",875376
"935",3804040
"936",2390668
"937",635005
"938",217465
"939",26530
"940",1454952
"941",1932324
"942",456271
"943",118139
"944",123560
"945",83736
"946",120752
"947",81449
"948",154215
"949",32403
"950",64600
"951",1586032
"952",4729776
"953",262470
"954",1438199
"955",3971439
"956",379476
"957",5235404
"958",1747109
"959",1175849
"960",1566447
"961",194669
"962",173805
"963",1738942
"964",38897
"965",1263218
"966",838459
"967",221470
"968",334579
"969",221253
"970",723827
"971",732993
"972",6371453
"973",2311946
"974",851436
"975",389955
"976",256881
"977",136741
"978",4240935
"979",2574754
"980",28287
"981",1015589
"982",1453017
"983",1807109
"984",5230198
"985",823345
"986",634614
"987",112241
"988",204705
"989",106946
"990",60505
"991",41414
"992",906837
"993",232646
"994",410568
"995",1450649
"996",1570347
"997",492430
"998",1042771
"999",458874
"1000",1278792
"1001",989900
"1002",200490
"1003",300108
"1004",447945
"1005",472003
"1006",6109192
"1007",12982468
"1008",1039615
"1009",1994971
"1010",1379789
"1011",6846759
"1012",14403
"1013",185625
"1014",1029286
"1015",895812
"1016",817570
"1017",533390
"1018",368409
"1019",9683362
"1020",124672
"1021",50929
"1022",136944
"1023",52056
"1024",3542455
"1025",145804
"1026",211489
"1027",326729
"1028",280379
"1029",55487
"1030",55153
"1031",16588
"1032",97052
"1033",1006840
"1034",74834
"1035",183461
"1036",29995
"1037",31037
"1038",31756
"1039",804099
"1040",397706
"1041",114892
"1042",159928
"1043",188703
"1044",187986
"1045",10330
"1046",62649
"1047",754465
"1048",59784
"1049",63300
"1050",136381
"1051",396024
"1052",283327
"1053",454567
"1054",1262561
"1055",74977
"1056",1502141
"1057",2401664
"1058",347243
"1059",3322190
"1060",135078
"1061",4840749
"1062",168605
"1063",66302
"1064",979900
"1065",-7231
"1066",3176124
"1067",4972619
"1068",1157448
"1069",8435292
"1070",71890
"1071",3404000
"1072",3549513
"1073",11350
"1074",1666
"1075",794
"1076",1325012
"1077",551414
"1078",2434885
"1079",811
"1080",55352
"1081",100884
"1082",1196372
"1083",113032
"1084",1763944
"1085",962267
"1086",1021982
"1087",68055
"1088",669389
"1089",1298877
"1090",55056
"1091",383451
"1092",4568619
"1093",1225667
"1094",1695450
"1095",158062
"1096",349726
"1097",88814
"1098",62681
"1099",538701
"1100",41331
"1101",2860417
"1102",1744684
"1103",105296
"1104",196825
"1105",96167
"1106",13734
"1107",302899
"1108",1463026
"1109",130801
"1110",335768
"1111",334806
"1112",753900
"1113",167468
"1114",99420
"1115",214094
"1116",1183833
"1117",117143
"1118",49444
"1119",329756
"1120",196443
"1121",1283722
"1122",194155
"1123",16648
"1124",1078851
"1125",5361122
"1126",106713
"1127",3463093
"1128",86
"1129",744167
"1130",978618
"1131",2370702
"1132",3298011
"1133",-19267
"1134",7027634
"1135",6252100
"1136",1732272
"1137",757706
"1138",3883
"1139",870991
"1140",120727
"1141",146298
"1142",55331
"1143",639926
"1144",161146
"1145",1841462
"1146",42998
"1147",88973
"1148",92379
"1149",72999
"1150",814494
"1151",1404435
"1152",101876
"1153",415928
"1154",51451
"1155",25261
"1156",392006
"1157",267853
"1158",141264
"1159",536557
"1160",1089608
"1161",5483828
"1162",3197211
"1163",945433
"1164",798448
"1165",663205
"1166",1254479
"1167",3723345
"1168",919109
"1169",2304184
"1170",10256951
"1171",5760930
"1172",3129302
"1173",2832920
"1174",2769277
"1175",40539
"1176",2018547
"1177",1575416
"1178",518804
"1179",22964
"1180",209176
"1181",744051
"1182",368587
"1183",700546
"1184",1557498
"1185",173087
"1186",3647298
"1187",108663
"1188",611423
"1189",240354
"1190",1783260
"1191",224952
"1192",49586
"1193",190929
"1194",698177
"1195",366888
"1196",115890
"1197",917024
"1198",270381
"1199",710362
"1200",6147020
"1201",788167
"1202",569612
"1203",150183
"1204",408449
"1205",38565
"1206",81544
"1207",2503013
"1208",2465110
"1209",959827
"1210",31611
"1211",1140673
"1212",516439
"1213",520911
"1214",1777779
"1215",5151055
"1216",818469
"1217",4127308
"1218",57087
"1219",3925949
"1220",4710979
"1221",889197
"1222",428247
"1223",32091
"1224",2672997
"1225",18286434
"1226",2864236
"1227",1184785
"1228",6550155
"1229",3790222
"1230",10446290
"1231",991135
"1232",525009
"1233",523339
"1234",1382557
"1235",8053104
"1236",2278367
"1237",286768
"1238",104414
"1239",1295411
"1240",177253
"1241",788056
"1242",401801
"1243",132551
"1244",5095
"1245",11192
"1246",25440
"1247",8490
"1248",5344025
"1249",367225
"1250",273736
"1251",463555
"1252",3540287
"1253",421569
"1254",366233
"1255",2793547
"1256",6066217
"1257",4371634
"1258",691296
"1259",647353
"1260",908742
"1261",570688
"1262",1871197
"1263",573077
"1264",1076496
"1265",2778416
"1266",780410
"1267",435655
"1268",792404
"1269",2056555
"1270",776892
"1271",3783893
"1272",1528828
"1273",2698705
"1274",413216
"1275",513056
"1276",994860
"1277",522447
"1278",1101000
"1279",315082
"1280",217734
"1281",11174488
"1282",1844009
"1283",1707861
"1284",1211302
"1285",211018
"1286",682769
"1287",4348824
"1288",1264997
"1289",4191886
"1290",380128
"1291",162456
"1292",119240
"1293",74815
"1294",2503937
"1295",3681198
"1296",159990
"1297",1485035
"1298",1361660
"1299",102816
"1300",1338910
"1301",2787256
"1302",2938012
"1303",210886
"1304",220748
"1305",170827
"1306",197111
"1307",274320
"1308",126518
"1309",344522
"1310",738078
"1311",682080
"1312",1850396
"1313",184796
"1314",2518632
"1315",927551
"1316",2567350
"1317",186440
"1318",5328559
"1319",645655
"1320",381179
"1321",704409
"1322",3618477
"1323",763433
"1324",366724
"1325",315444
"1326",23698
"1327",365773
"1328",140342
"1329",909935
"1330",1407857
"1331",1092837
"1332",1445459
"1333",1287262
"1334",2222024
"1335",254573
"1336",50098
"1337",346659
"1338",2761914
"1339",1887619
"1340",206460
"1341",542714
"1342",2457350
"1343",1761828
"1344",3127930
"1345",1379503
"1346",592876
"1347",46722
"1348",7006605
"1349",1165479
"1350",826219
"1351",217364
"1352",572493
"1353",14181
"1354",83558
"1355",262198
"1356",7833
"1357",14230
"1358",23924
"1359",693054
"1360",84132
"1361",56745
"1362",284144
"1363",99
"1364",81956
"1365",114761
"1366",2581
"1367",21009
"1368",29444
"1369",2463
"1370",119334
"1371",217512
"1372",258994
"1373",283261
"1374",131021
"1375",910989
"1376",130785
"1377",8169
"1378",4277067
"1379",1563908
"1380",163088
"1381",778371
"1382",197469
"1383",2982096
"1384",208152
"1385",470888
"1386",2731355
"1387",665659
"1388",475145
"1389",9663
"1390",-1776
"1391",816649
"1392",416293
"1393",772044
"1394",1077746
"1395",431732
"1396",941337
"1397",538866
"1398",3295880
"1399",579401
"1400",689388
"1401",181157
"1402",79542
"1403",11053
"1404",9989
"1405",144047
"1406",71923
"1407",12523
"1408",77820
"1409",131610
"1410",162812
"1411",179462
"1412",21911
"1413",358794
"1414",11511
"1415",199804
"1416",14944148
"1417",107089
"1418",3482076
"1419",1184502
"1420",4985101
"1421",96119
"1422",139199
"1423",388391
"1424",807753
"1425",8528300
"1426",239270
"1427",247810
"1428",163682
"1429",363705
"1430",1296698
"1431",816673
"1432",307120
"1433",1520724
"1434",2526963
"1435",46074
"1436",96536
"1437",228014
"1438",175001
"1439",2633916
"1440",1385239
"1441",296546
"1442",927428
"1443",2306195
"1444",615492
"1445",1407358
"1446",512603
"1447",79756
"1448",565965
"1449",64186
"1450",17993
"1451",65600
"1452",111171
"1453",51090
"1454",426778
"1455",347020
"1456",19633
"1457",241781
"1458",2561773
"1459",-1149
"1460",223993
"1461",603947
"1462",130739
"1463",129051
"1464",34236
"1465",143218
"1466",20064
"1467",244607
"1468",8036
"1469",588747
"1470",560286
"1471",298850
"1472",8488
"1473",221126
"1474",21727
"1475",18742
"1476",77264
"1477",43430
"1478",103954
"1479",30288
"1480",266515
"1481",255234
"1482",121257
"1483",195769
"1484",1279848
"1485",499043
"1486",1266206
"1487",4441312
"1488",142059
"1489",851707
"1490",653128
"1491",278884
"1492",711937
"1493",117192
"1494",325268
"1495",31001
"1496",2138
"1497",719807
"1498",7142337
"1499",254818
"1500",111997
"1501",25555
"1502",199555
"1503",16301
"1504",1929640
"1505",914745
"1506",271061
"1507",577887
"1508",5924753
"1509",330874
"1510",224217
"1511",421664
"1512",46451
"1513",47121
"1514",1582772
"1515",182566
"1516",67441
"1517",264312
"1518",13561
"1519",7987
"1520",203699
"1521",61344
"1522",1160788
"1523",182742
"1524",990818
"1525",40897
"1526",76757
"1527",1479
"1528",403633
"1529",1494608
"1530",480081
"1531",1587258
"1532",305557
"1533",255705
"1534",346330
"1535",110466
"1536",267688
"1537",1845571
"1538",1862369
"1539",1662755
"1540",171012
"1541",739894
"1542",128092
"1543",1059963
"1544",4695
"1545",677799
"1546",649619
"1547",2343276
"1548",611443
"1549",16408
"1550",214484
"1551",1805600
"1552",259695
"1553",1289124
"1554",265903
"1555",123310
"1556",5326
"1557",3947786
"1558",125877
"1559",565891
"1560",628681
"1561",151166
"1562",17602
"1563",62967
"1564",142716
"1565",151649
"1566",15970
"1567",142377
"1568",168310
"1569",99674
"1570",38189
"1571",663212
"1572",1392626
"1573",169545
"1574",313971
"1575",63656
"1576",931264
"1577",248649
"1578",251215
"1579",576430
"1580",107778
"1581",62630
"1582",275988
"1583",157327
"1584",268583
"1585",139620
"1586",26193
"1587",340831
"1588",1695236
"1589",2796188
"1590",2368923
"1591",1349346
"1592",7764723
"1593",50013
"1594",2287968
"1595",2319300
"1596",8593657
"1597",41967
"1598",626601
"1599",5975920
"1600",2592343
"1601",2038893
"1602",4195729
"1603",3257570
"1604",7755942
"1605",4526149
"1606",1156708
"1607",5718801
"1608",737164
"1609",4186508
"1610",387905
"1611",253596
"1612",161925
"1613",16298
"1614",112921
"1615",108551
"1616",391610
"1617",238136
"1618",552882
"1619",408896
"1620",242078
"1621",28747
"1622",2312188
"1623",868708
"1624",779515
"1625",255970
"1626",394290
"1627",52977
"1628",99371
"1629",637268
"1630",130851
"1631",213386
"1632",82646
"1633",106097
"1634",42077
"1635",694213
"1636",-340
"1637",85825
"1638",64235
"1639",95245
"1640",441150
"1641",610666
"1642",95531
"1643",202627
"1644",95279
"1645",11516
"1646",136511
"1647",109913
"1648",18750
"1649",47528
"1650",184066
"1651",1239360
"1652",826794
"1653",579822
"1654",561444
"1655",198624
"1656",413920
"1657",88980
"1658",92774
"1659",411309
"1660",570235
"1661",119461
"1662",2833
"1663",383147
"1664",142880
"1665",319827
"1666",241681
"1667",89463
"1668",725387
"1669",359024
"1670",231110
"1671",723027
"1672",1163573
"1673",481256
"1674",9628059
"1675",100161
"1676",630875
"1677",2184
"1678",667557
"1679",744544
"1680",312299
"1681",206345
"1682",20793
"1683",1026122
"1684",72961
"1685",125037
"1686",411875
"1687",95807
"1688",415835
"1689",574808
"1690",129293
"1691",294125
"1692",124591
"1693",87711
"1694",100806
"1695",250666
"1696",222532
"1697",545988
"1698",518988
"1699",155960
"1700",129024
"1701",1096185
"1702",367428
"1703",11244
"1704",293451
"1705",585523
"1706",259239
"1707",201397
"1708",100230
"1709",80011
"1710",46854
"1711",111421
"1712",623616
"1713",341638
"1714",669693
"1715",491987
"1716",59875
"1717",248153
"1718",56185
"1719",105631
"1720",65254
"1721",131147
"1722",96669
"1723",322760
"1724",9946
"1725",102963
"1726",34057
"1727",183478
"1728",167941
"1729",499188
"1730",592801
"1731",342175
"1732",79667
"1733",695288
"1734",50117
"1735",40038
"1736",1131
"1737",909459
"1738",78848
"1739",110829
"1740",606473
"1741",50851
"1742",1053389
"1743",223721
"1744",22661
"1745",103803
"1746",1060011
"1747",93561
"1748",688065
"1749",223654
"1750",356214
"1751",267973
"1752",45642
"1753",98242
"1754",34817
"1755",979685
"1756",564928
"1757",1286825
"1758",428406
"1759",1097777
"1760",4245118
"1761",540736
"1762",32233
"1763",3888766
"1764",3950667
"1765",150131
"1766",1532473
"1767",3011978
"1768",2021144
"1769",7104112
"1770",629366
"1771",2021741
"1772",273783
"1773",780
"1774",17581
"1775",129880
"1776",110421
"1777",72615
"1778",1045968
"1779",937551
"1780",-393
"1781",254010
"1782",11225
"1783",511378
"1784",5712085
"1785",156136
"1786",292604
"1787",433832
"1788",508643
"1789",276502
"1790",2185543
"1791",9553
"1792",535985
"1793",367246
"1794",887697
"1795",573385
"1796",1798431
"1797",2759482
"1798",874460
"1799",108409
"1800",979789
"1801",3692694
"1802",49438
"1803",1291389
"1804",80424
"1805",125356
"1806",239406
"1807",3365281
"1808",13505469
"1809",751041
"1810",104
"1811",930517
"1812",1153280
"1813",1705047
"1814",4975795
"1815",388835
"1816",320207
"1817",175242
"1818",383290
"1819",892454
"1820",993050
"1821",824915
"1822",286763
"1823",-7841
"1824",716974
"1825",51968
"1826",1100589
"1827",491508
"1828",256927
"1829",324127
"1830",30
"1831",113482
"1832",961403
"1833",54485
"1834",1191735
"1835",245585
"1836",335952
"1837",14742
"1838",198458
"1839",298285
"1840",137763
"1841",342750
"1842",367401
"1843",440180
"1844",2822254
"1845",8412
"1846",254283
"1847",1072540
"1848",247405
"1849",66464
"1850",143336
"1851",809765
"1852",429979
"1853",3840755
"1854",219660
"1855",1435949
"1856",713916
"1857",96688
"1858",605543
"1859",1792450
"1860",728541
"1861",141982
"1862",439144
"1863",2137596
"1864",1468087
"1865",3603173
"1866",221835
"1867",64115
"1868",258943
"1869",393
"1870",1082
"1871",852
"1872",356
"1873",2537
"1874",1254058
"1875",75771
"1876",10415
"1877",9657539
"1878",1668277
"1879",888022
"1880",1610956
"1881",304454
"1882",6152164
"1883",1788338
"1884",6867133
"1885",366221
"1886",4232128
"1887",8762394
"1888",1339480
"1889",895351
"1890",18885
"1891",2992
"1892",57157
"1893",2288745
"1894",1888303
"1895",101340
"1896",761703
"1897",784460
"1898",323306
"1899",228537
"1900",13402077
"1901",1952763
"1902",1113225
"1903",52216
"1904",552838
"1905",818475
"1906",980511
"1907",2200278
"1908",13648362
"1909",2235429
"1910",6579370
"1911",980551
"1912",1877537
"1913",330579
"1914",-986
"1915",3062841
"1916",3205638
"1917",11452
"1918",8958827
"1919",804172
"1920",116271
"1921",124645
"1922",2979487
"1923",227156
"1924",-46761
"1925",4576032
"1926",2610463
"1927",2550086
"1928",235134
"1929",1632001
"1930",58843
"1931",3243946
"1932",7959672
"1933",1885882
"1934",2831829
"1935",627632
"1936",89173
"1937",215977
"1938",359217
"1939",19715
"1940",16520
"1941",21765
"1942",53611
"1943",231112
"1944",14781
"1945",231301
