"","distances"
"1",498699
"2",367397
"3",265896
"4",19556
"5",6623
"6",83114
"7",50000
"8",100164
"9",803868
"10",1076123
"11",13507
"12",227140
"13",2106037
"14",163076
"15",196333
"16",19561
"17",1252367
"18",1743521
"19",97587
"20",1083116
"21",19385
"22",537137
"23",150311
"24",719831
"25",1082467
"26",2421760
"27",114982
"28",241016
"29",1523
"30",37887
"31",1817260
"32",1500
"33",294853
"34",1222263
"35",1942618
"36",1247248
"37",168607
"38",538889
"39",90676
"40",664650
"41",68497
"42",778967
"43",411714
"44",1188234
"45",1147820
"46",2781225
"47",115518
"48",346725
"49",232849
"50",507960
"51",1354187
"52",417412
"53",11432
"54",597629
"55",142885
"56",126497
"57",1028138
"58",494484
"59",813374
"60",166495
"61",1005597
"62",227838
"63",2364614
"64",64920
"65",145887
"66",424741
"67",135379
"68",82158
"69",1071375
"70",332554
"71",203518
"72",550613
"73",278935
"74",716954
"75",3581906
"76",312625
"77",232063
"78",609855
"79",130964
"80",197544
"81",17
"82",1001881
"83",112913
"84",436148
"85",179088
"86",3439626
"87",3042314
"88",4820657
"89",3206489
"90",6734256
"91",560194
"92",8974
"93",705901
"94",5200950
"95",2347674
"96",307160
"97",157983
"98",215341
"99",1837468
"100",5951513
"101",4777139
"102",114074
"103",103542
"104",739789
"105",-210
"106",2466547
"107",3477145
"108",1066400
"109",1049170
"110",33818
"111",218153
"112",1239137
"113",287246
"114",226511
"115",40724
"116",1433335
"117",937735
"118",23991
"119",726600
"120",52585
"121",861268
"122",1362079
"123",756032
"124",27981720
"125",1253907
"126",-6436
"127",-10018
"128",2969633
"129",217784
"130",138616
"131",353827
"132",329209
"133",357699
"134",1898224
"135",103306
"136",197586
"137",426033
"138",32769
"139",435191
"140",25409
"141",16785
"142",106633
"143",35224
"144",33381
"145",986479
"146",65647
"147",251421
"148",3155207
"149",51952
"150",1191709
"151",48116
"152",27331
"153",4472005
"154",165735
"155",944892
"156",217718
"157",301475
"158",398119
"159",1195491
"160",481664
"161",768461
"162",1630770
"163",5562050
"164",687197
"165",1308445
"166",634172
"167",21098
"168",1575502
"169",419052
"170",1645132
"171",13663907
"172",2377296
"173",111878
"174",70775
"175",88837
"176",244774
"177",12158
"178",1015281
"179",123374
"180",1235982
"181",205379
"182",456772
"183",385990
"184",1272424
"185",828810
"186",1879907
"187",79644
"188",45687
"189",375234
"190",81621
"191",3604806
"192",1230261
"193",2724428
"194",729225
"195",3659406
"196",1221339
"197",54756
"198",1545669
"199",231818
"200",587667
"201",740994
"202",319495
"203",102719
"204",2323649
"205",2090595
"206",3407148
"207",267020
"208",437701
"209",6574506
"210",383188
"211",1994041
"212",167995
"213",216950
"214",5208046
"215",1039036
"216",6494623
"217",6718886
"218",320729
"219",18009
"220",415471
"221",19032
"222",940371
"223",1252240
"224",191174
"225",7318
"226",280326
"227",107877
"228",404361
"229",539299
"230",8135115
"231",15438
"232",1490196
"233",229902
"234",3638136
"235",5765122
"236",5254400
"237",596296
"238",565150
"239",596620
"240",259984
"241",4370057
"242",339507
"243",2695971
"244",2541890
"245",1710302
"246",1642212
"247",178142
"248",1159951
"249",1255268
"250",753297
"251",53167
"252",239601
"253",176271
"254",4174
"255",18635
"256",63967
"257",11028214
"258",24623
"259",73109
"260",407328
"261",57198
"262",389599
"263",830915
"264",9179505
"265",25805
"266",545408
"267",2111892
"268",249121
"269",2319249
"270",2724997
"271",6244111
"272",87378
"273",305794
"274",6703094
"275",306607
"276",553557
"277",1432232
"278",4919010
"279",3659337
"280",1152266
"281",188709
"282",3284861
"283",-39478
"284",12489775
"285",3599830
"286",159245
"287",1759
"288",3606435
"289",1394096
"290",1927493
"291",194917
"292",3393083
"293",1733635
"294",168068
"295",934644
"296",2219425
"297",1484168
"298",691134
"299",5243913
"300",220295
"301",5214309
"302",5424507
"303",964648
"304",162902
"305",645128
"306",455153
"307",813342
"308",5957447
"309",2298326
"310",226801
"311",1089029
"312",3970997
"313",1951829
"314",9766538
"315",534773
"316",458749
"317",25142
"318",69616
"319",3764914
"320",3532918
"321",672393
"322",2361088
"323",1242988
"324",704939
"325",715617
"326",4930819
"327",91091
"328",4152119
"329",617802
"330",344938
"331",545113
"332",1234892
"333",713082
"334",357597
"335",196443
"336",1304429
"337",107895
"338",189518
"339",259973
"340",15050021
"341",2796669
"342",3733759
"343",2701364
"344",2025929
"345",330526
"346",294648
"347",-1486
"348",603748
"349",303192
"350",2153915
"351",75884
"352",485937
"353",336929
"354",67874
"355",279396
"356",524881
"357",13683
"358",41597
"359",190850
"360",195889
"361",133662
"362",473786
"363",6971
"364",34949
"365",206934
"366",104214
"367",664721
"368",172060
"369",15161
"370",163082
"371",70315
"372",169901
"373",101829
"374",4740
"375",961398
"376",2758557
"377",1479310
"378",393481
"379",5464632
"380",1933321
"381",497044
"382",2043520
"383",89582
"384",3206694
"385",15287829
"386",10410717
"387",1667277
"388",1251238
"389",3789962
"390",3012782
"391",3837663
"392",34748
"393",6251027
"394",3213523
"395",194371
"396",5276185
"397",77107
"398",1160857
"399",1362658
"400",103766
"401",445500
"402",1177626
"403",1023514
"404",3040698
"405",1222969
"406",45194
"407",830857
"408",202957
"409",1263813
"410",1834961
"411",1082592
"412",4649065
"413",419402
"414",1380820
"415",2531825
"416",3919261
"417",1004720
"418",2019717
"419",514635
"420",4667520
"421",1845826
"422",3153476
"423",1721556
"424",7890912
"425",3017740
"426",235457
"427",343703
"428",914345
"429",3458117
"430",306112
"431",2242116
"432",29051
"433",1665850
"434",1757402
"435",74403
"436",124320
"437",273398
"438",3746
"439",920015
"440",198307
"441",31410
"442",188247
"443",23041
"444",766396
"445",173842
"446",17609
"447",178343
"448",668267
"449",28749
"450",675
"451",219351
"452",734069
"453",2021637
"454",1662045
"455",196258
"456",1709751
"457",3288335
"458",1518309
"459",611509
"460",2135634
"461",6784241
"462",253771
"463",1297345
"464",21380432
"465",3723838
"466",4375742
"467",126
"468",14598088
"469",4733939
"470",123501
"471",1993089
"472",3993601
"473",2977081
"474",2131330
"475",768134
"476",9381863
"477",5792848
"478",89261
"479",420694
"480",2616539
"481",717063
"482",2851692
"483",6280203
"484",373904
"485",3586361
"486",2431687
"487",14172836
"488",3772718
"489",1540446
"490",4949095
"491",1413047
"492",6948111
"493",4600565
"494",179466
"495",5228583
"496",336549
"497",3272081
"498",154523
"499",3900541
"500",7761734
"501",25836
"502",1187155
"503",3207
"504",30076
"505",975596
"506",5109366
"507",1184773
"508",1677163
"509",5154191
"510",16321965
"511",310264
"512",1875247
"513",2598247
"514",188425
"515",1779445
"516",426079
"517",1446952
"518",1816941
"519",154183
"520",11410211
"521",3997598
"522",508778
"523",5143808
"524",3494725
"525",120855
"526",2849396
"527",495666
"528",648710
"529",3369336
"530",1379425
"531",1133049
"532",304663
"533",542941
"534",-335
"535",3064094
"536",11328729
"537",700884
"538",381272
"539",1585390
"540",55342
"541",1606348
"542",8141084
"543",2783966
"544",420800
"545",3887641
"546",32702
"547",2625010
"548",1215140
"549",2401789
"550",317833
"551",3159578
"552",1103406
"553",4609456
"554",134684
"555",1239665
"556",1182035
"557",4075620
"558",624842
"559",49023
"560",119762
"561",7810
"562",97480
"563",11425
"564",480757
"565",32314
"566",21762
"567",106300
"568",-139065
"569",4423600
"570",3918255
"571",304487
"572",530337
"573",265861
"574",24206622
"575",708625
"576",46464
"577",110128
"578",763173
"579",1807107
"580",205128
"581",68602
"582",131141
"583",392831
"584",840537
"585",72818
"586",3187
"587",77825
"588",546000
"589",1143412
"590",6179235
"591",2239150
"592",1534732
"593",2078315
"594",147464
"595",236245
"596",8137414
"597",731202
"598",2408831
"599",253776
"600",168417
"601",611480
"602",1191864
"603",1920
"604",251449
"605",495787
"606",280230
"607",35084
"608",190833
"609",109967
"610",453260
"611",676925
"612",938366
"613",1374794
"614",425008
"615",88182
"616",3573023
"617",167950
"618",397259
"619",184929
"620",811435
"621",194268
"622",351350
"623",168726
"624",122984
"625",2239875
"626",607527
"627",6273629
"628",5901
"629",4110524
"630",18102026
"631",4949606
"632",1897279
"633",3078756
"634",2094276
"635",11757469
"636",1076821
"637",4396193
"638",3445332
"639",1635506
"640",461974
"641",4652407
"642",215820
"643",231743
"644",227405
"645",794546
"646",396433
"647",3080046
"648",5953965
"649",4952446
"650",3855082
"651",52430
"652",6791427
"653",499961
"654",76488
"655",6800950
"656",1868632
"657",5782162
"658",906173
"659",5570968
"660",331650
"661",656591
"662",2607401
"663",364926
"664",291383
"665",100551
"666",-93684
"667",508069
"668",663226
"669",3233606
"670",625073
"671",247562
"672",105827
"673",1505299
"674",8529570
"675",209836
"676",444609
"677",5241326
"678",289462
"679",1081904
"680",4158
"681",2767329
"682",167578
"683",1739360
"684",37115
"685",392660
"686",173450
"687",294859
"688",1647403
"689",157462
"690",3569773
"691",1453673
"692",1338705
"693",2096970
"694",2052846
"695",68552
"696",35179
"697",65848
"698",62055
"699",682118
"700",51729
"701",2854841
"702",7416957
"703",9232341
"704",82806
"705",157128
"706",866423
"707",245636
"708",208224
"709",272158
"710",6634643
"711",1269573
"712",1089002
"713",1198712
"714",3169727
"715",6516883
"716",612981
"717",2507364
"718",1178606
"719",365514
"720",85636
"721",1393168
"722",727715
"723",2446895
"724",1845675
"725",294822
"726",15470
"727",511922
"728",85005
"729",30746
"730",451666
"731",184041
"732",260080
"733",78402
"734",1258255
"735",119244
"736",270200
"737",1181392
"738",2960914
"739",688441
"740",8003418
"741",793342
"742",480548
"743",309893
"744",2594496
"745",130275
"746",2451624
"747",3829452
"748",1078677
"749",84619
"750",369102
"751",661035
"752",553289
"753",4889171
"754",13739
"755",1533923
"756",1789879
"757",369584
"758",895375
"759",1042060
"760",8050445
"761",5489
"762",676073
"763",438254
"764",23793
"765",21986
"766",162234
"767",5391050
"768",56493
"769",6476126
"770",4005297
"771",2105758
"772",51858
"773",-37767
"774",1848928
"775",4430718
"776",1682054
"777",224160
"778",471957
"779",71002
"780",3682611
"781",901934
"782",322549
"783",1379159
"784",1521633
"785",375550
"786",2310981
"787",4235341
"788",25090
"789",331637
"790",49829
"791",152646
"792",3990379
"793",492268
"794",5831816
"795",4793817
"796",4150951
"797",348645
"798",7544036
"799",317721
"800",149091
"801",185185
"802",6142492
"803",656009
"804",4637229
"805",1880352
"806",754098
"807",373184
"808",4656045
"809",3279327
"810",110786
"811",694107
"812",-82
"813",995559
"814",1612092
"815",1097198
"816",1611605
"817",1429946
"818",58223
"819",896025
"820",273004
"821",3217513
"822",15638
"823",5825730
"824",10539332
"825",1561203
"826",1400578
"827",67804
"828",78452
"829",81539
"830",227250
"831",647033
"832",523921
"833",69396
"834",63201
"835",15678873
"836",1415236
"837",42988
"838",336014
"839",280552
"840",206208
"841",417087
"842",399814
"843",311558
"844",33348
"845",181002
"846",2444421
"847",122090
"848",242347
"849",7557256
"850",64731
"851",1788940
"852",859615
"853",1844900
"854",8036089
"855",6201949
"856",535498
"857",258601
"858",298909
"859",23405
"860",88482
"861",247484
"862",749791
"863",1383535
"864",4532165
"865",26225679
"866",3650029
"867",1143621
"868",1918150
"869",3149878
"870",3253590
"871",2018289
"872",254705
"873",1565923
"874",6641938
"875",88858
"876",272733
"877",207525
"878",318158
"879",5762834
"880",1080121
"881",120174
"882",821237
"883",7604492
"884",255521
"885",2026846
"886",1106082
"887",1615920
"888",6461247
"889",1369707
"890",2930451
"891",959642
"892",353624
"893",561796
"894",334274
"895",94534
"896",254852
"897",947022
"898",1976615
"899",54789
"900",164779
"901",328839
"902",939578
"903",335678
"904",44890
"905",52999
"906",1999942
"907",873010
"908",36889
"909",320250
"910",258699
"911",48579
"912",107078
"913",1853586
"914",2084367
"915",4377344
"916",2623106
"917",40245
"918",1919651
"919",514308
"920",424763
"921",1272682
"922",2805650
"923",8084265
"924",484957
"925",6020696
"926",5408984
"927",147178
"928",1799558
"929",169382
"930",2773254
"931",642928
"932",127881
"933",195105
"934",55900
"935",8298855
"936",956543
"937",425582
"938",8199461
"939",119157
"940",1755032
"941",271445
"942",50203
"943",247512
"944",1334827
"945",131467
"946",65940
"947",242461
"948",462599
"949",32528
"950",297034
"951",973069
"952",288609
"953",2567345
"954",1890633
"955",123741
"956",328917
"957",3702325
"958",4862591
"959",2781253
"960",969437
"961",1343011
"962",1175849
"963",1449572
"964",34443
"965",10066
"966",138306
"967",124319
"968",1635963
"969",270989
"970",772938
"971",1221327
"972",281977
"973",334579
"974",221253
"975",274153
"976",1219477
"977",2235215
"978",6879522
"979",4982808
"980",2706689
"981",1062005
"982",697390
"983",2965142
"984",4448127
"985",1460832
"986",429120
"987",683184
"988",1437032
"989",414015
"990",2135171
"991",146852
"992",492430
"993",38830
"994",1000709
"995",153723
"996",342022
"997",285756
"998",353005
"999",1339669
"1000",200490
"1001",241798
"1002",469251
"1003",5770493
"1004",1640220
"1005",174302
"1006",242087
"1007",10986057
"1008",77851
"1009",1039615
"1010",1193560
"1011",751938
"1012",8395464
"1013",336029
"1014",1990501
"1015",513166
"1016",8736
"1017",82909
"1018",866285
"1019",9881534
"1020",50929
"1021",222440
"1022",1388964
"1023",593184
"1024",1619170
"1025",345108
"1026",76275
"1027",57770
"1028",724760
"1029",76178
"1030",1152174
"1031",268613
"1032",496225
"1033",58054
"1034",106259
"1035",53470
"1036",114800
"1037",5799
"1038",46746
"1039",198722
"1040",71557
"1041",186876
"1042",50911
"1043",102075
"1044",28086
"1045",27622
"1046",129168
"1047",278642
"1048",145802
"1049",210824
"1050",423082
"1051",31315
"1052",5505
"1053",96408
"1054",74946
"1055",41282
"1056",409086
"1057",261714
"1058",599622
"1059",1235964
"1060",1577707
"1061",733819
"1062",3651242
"1063",513916
"1064",1013616
"1065",5083774
"1066",168605
"1067",66302
"1068",629949
"1069",118423
"1070",-7231
"1071",82453
"1072",6417833
"1073",1208932
"1074",165995
"1075",5455112
"1076",2913245
"1077",876947
"1078",2401295
"1079",3974534
"1080",220450
"1081",354784
"1082",1527919
"1083",382217
"1084",2434885
"1085",1628166
"1086",113032
"1087",765969
"1088",995974
"1089",2165739
"1090",1808363
"1091",104448
"1092",5373
"1093",334255
"1094",844033
"1095",4004812
"1096",1225667
"1097",248114
"1098",584679
"1099",538701
"1100",41331
"1101",3279
"1102",2354936
"1103",233448
"1104",55460
"1105",2001233
"1106",30644
"1107",86058
"1108",19146
"1109",19726
"1110",13734
"1111",102473
"1112",275653
"1113",700312
"1114",1431896
"1115",929651
"1116",3903992
"1117",194155
"1118",16648
"1119",22029
"1120",6682774
"1121",256152
"1122",5301439
"1123",2011393
"1124",1247799
"1125",377859
"1126",11133656
"1127",3269950
"1128",1171563
"1129",1859889
"1130",457318
"1131",412882
"1132",28368
"1133",55331
"1134",639926
"1135",161146
"1136",1059386
"1137",845250
"1138",55318
"1139",118777
"1140",994025
"1141",1373474
"1142",13573
"1143",347041
"1144",48452
"1145",11891
"1146",15874
"1147",13308
"1148",41205
"1149",278020
"1150",903930
"1151",210744
"1152",1053445
"1153",4901499
"1154",580455
"1155",1665428
"1156",58111
"1157",2017821
"1158",1406300
"1159",6528593
"1160",16845864
"1161",127552
"1162",2413034
"1163",2633652
"1164",5035020
"1165",124607
"1166",5034215
"1167",28569
"1168",305029
"1169",1845368
"1170",1557498
"1171",2768393
"1172",1785874
"1173",240354
"1174",2020059
"1175",246127
"1176",298622
"1177",221189
"1178",101733
"1179",366888
"1180",115890
"1181",917024
"1182",1831
"1183",452062
"1184",91377
"1185",210090
"1186",1171397
"1187",5291530
"1188",808451
"1189",687807
"1190",-6671
"1191",5971066
"1192",31611
"1193",846071
"1194",13636
"1195",3183014
"1196",288594
"1197",8084294
"1198",2151757
"1199",2018952
"1200",2766260
"1201",2222872
"1202",489528
"1203",4647783
"1204",5955142
"1205",12153871
"1206",929891
"1207",1530163
"1208",70995
"1209",19718332
"1210",3649827
"1211",138906
"1212",1489770
"1213",294312
"1214",4139216
"1215",6609375
"1216",190895
"1217",305716
"1218",694855
"1219",1053530
"1220",303937
"1221",139380
"1222",260788
"1223",16238
"1224",152820
"1225",578610
"1226",56191
"1227",16660
"1228",35430
"1229",2326
"1230",108496
"1231",378702
"1232",4526182
"1233",701901
"1234",1908532
"1235",1177781
"1236",92279
"1237",123897
"1238",133603
"1239",17014
"1240",366233
"1241",1933427
"1242",857854
"1243",11395536
"1244",86695
"1245",1944073
"1246",245077
"1247",2405790
"1248",2563136
"1249",1159341
"1250",780410
"1251",672364
"1252",2871625
"1253",213936
"1254",1570592
"1255",1568166
"1256",1187373
"1257",463024
"1258",528307
"1259",438941
"1260",3590195
"1261",93180
"1262",409227
"1263",505805
"1264",119104
"1265",473160
"1266",1673832
"1267",11088669
"1268",1841769
"1269",1707861
"1270",2005862
"1271",482124
"1272",462173
"1273",23930
"1274",3652973
"1275",2090850
"1276",875410
"1277",131313
"1278",792680
"1279",327930
"1280",59131
"1281",74839
"1282",10545
"1283",390509
"1284",23142
"1285",508712
"1286",263240
"1287",162456
"1288",119240
"1289",74815
"1290",46433
"1291",206141
"1292",2148792
"1293",4311251
"1294",1485035
"1295",2641782
"1296",44841
"1297",2787256
"1298",3137460
"1299",689
"1300",131786
"1301",2756
"1302",478391
"1303",274320
"1304",221748
"1305",43788
"1306",190848
"1307",747804
"1308",682080
"1309",285414
"1310",724214
"1311",25773
"1312",697446
"1313",77284
"1314",64316
"1315",3490069
"1316",267435
"1317",2234236
"1318",78043
"1319",359988
"1320",2673916
"1321",20919
"1322",678770
"1323",386915
"1324",566279
"1325",645655
"1326",367309
"1327",-218374
"1328",704409
"1329",3385091
"1330",49885
"1331",133957
"1332",763433
"1333",366724
"1334",508690
"1335",230975
"1336",208350
"1337",612968
"1338",1640577
"1339",1092837
"1340",1445459
"1341",2925266
"1342",603878
"1343",254573
"1344",50098
"1345",882363
"1346",117327
"1347",1754915
"1348",53774
"1349",638538
"1350",22925
"1351",2051370
"1352",1035990
"1353",2153170
"1354",277749
"1355",367840
"1356",434775
"1357",2886795
"1358",952306
"1359",1213141
"1360",8214759
"1361",835996
"1362",28339
"1363",23379
"1364",90827
"1365",105630
"1366",362096
"1367",766550
"1368",84132
"1369",56745
"1370",260302
"1371",18726
"1372",99
"1373",81956
"1374",122510
"1375",38309
"1376",206639
"1377",10797
"1378",474698
"1379",30015
"1380",665684
"1381",728157
"1382",418896
"1383",-3075
"1384",7561991
"1385",2029664
"1386",208152
"1387",470888
"1388",589329
"1389",2122511
"1390",2140605
"1391",157784
"1392",672212
"1393",350165
"1394",973872
"1395",314272
"1396",1088214
"1397",3646479
"1398",37133
"1399",303237
"1400",228568
"1401",309082
"1402",36616
"1403",305383
"1404",42465
"1405",128585
"1406",117669
"1407",144047
"1408",238366
"1409",72660
"1410",27395
"1411",92217
"1412",179462
"1413",21911
"1414",242343
"1415",66538
"1416",18092
"1417",11511
"1418",15287298
"1419",322976
"1420",2849338
"1421",324654
"1422",2967651
"1423",2292978
"1424",153133
"1425",96119
"1426",139199
"1427",102606
"1428",427712
"1429",8925372
"1430",106168
"1431",61188
"1432",203009
"1433",13467
"1434",348473
"1435",176278
"1436",214622
"1437",2637762
"1438",1358223
"1439",688454
"1440",729523
"1441",561306
"1442",2831360
"1443",373176
"1444",1405784
"1445",67761
"1446",741556
"1447",185555
"1448",1637617
"1449",656684
"1450",615492
"1451",95554
"1452",767221
"1453",513834
"1454",66575
"1455",1310559
"1456",17993
"1457",65600
"1458",667227
"1459",160334
"1460",50073
"1461",66104
"1462",19633
"1463",551178
"1464",642474
"1465",61416
"1466",657887
"1467",1276315
"1468",10723
"1469",1000106
"1470",91807
"1471",147149
"1472",39069
"1473",80638
"1474",20064
"1475",17050
"1476",171572
"1477",1579541
"1478",292467
"1479",125810
"1480",103954
"1481",14816
"1482",798511
"1483",495661
"1484",3011727
"1485",2303573
"1486",880373
"1487",521261
"1488",188985
"1489",551670
"1490",631789
"1491",177062
"1492",121551
"1493",381105
"1494",70997
"1495",207339
"1496",330374
"1497",533353
"1498",158670
"1499",430310
"1500",804338
"1501",6436533
"1502",686042
"1503",199698
"1504",109423
"1505",11597
"1506",7468
"1507",529
"1508",154292
"1509",674167
"1510",976068
"1511",892542
"1512",77681
"1513",323520
"1514",577887
"1515",5924753
"1516",330874
"1517",224217
"1518",421664
"1519",125437
"1520",1904663
"1521",341640
"1522",7987
"1523",113166
"1524",1089127
"1525",21811
"1526",201465
"1527",1123312
"1528",40897
"1529",76757
"1530",1479
"1531",129579
"1532",374760
"1533",-31813
"1534",726352
"1535",278322
"1536",11474
"1537",366060
"1538",75496
"1539",106919
"1540",1148740
"1541",180824
"1542",718830
"1543",484147
"1544",5058727
"1545",1242262
"1546",1223826
"1547",856307
"1548",350278
"1549",98847
"1550",200939
"1551",100163
"1552",2587086
"1553",194716
"1554",232437
"1555",214873
"1556",214484
"1557",469514
"1558",659962
"1559",110552
"1560",1323932
"1561",943098
"1562",5326
"1563",2876174
"1564",519529
"1565",99920
"1566",1633516
"1567",89239
"1568",39504
"1569",419898
"1570",167026
"1571",13266
"1572",118554
"1573",19097
"1574",133362
"1575",69800
"1576",1867025
"1577",266841
"1578",1507229
"1579",134144
"1580",782267
"1581",107778
"1582",515097
"1583",19433
"1584",160195
"1585",46864
"1586",122977
"1587",43990
"1588",269268
"1589",131174
"1590",87022
"1591",2578980
"1592",2321833
"1593",635564
"1594",566189
"1595",2146422
"1596",4351980
"1597",8404229
"1598",1998042
"1599",329888
"1600",11196602
"1601",6609724
"1602",3599195
"1603",351812
"1604",198476
"1605",4504851
"1606",3369796
"1607",7520037
"1608",528332
"1609",142913
"1610",649797
"1611",2481304
"1612",12465147
"1613",17569
"1614",441486
"1615",113975
"1616",376849
"1617",152678
"1618",21008
"1619",74270
"1620",245878
"1621",95686
"1622",252609
"1623",801730
"1624",809827
"1625",630079
"1626",2189829
"1627",286002
"1628",1159645
"1629",1429299
"1630",442155
"1631",166381
"1632",104546
"1633",190127
"1634",34514
"1635",163219
"1636",98444
"1637",274889
"1638",991533
"1639",36844
"1640",343741
"1641",242004
"1642",24152
"1643",474569
"1644",780804
"1645",194351
"1646",1147198
"1647",1116513
"1648",21394
"1649",30093
"1650",10905
"1651",694252
"1652",168894
"1653",411728
"1654",209127
"1655",26244
"1656",53023
"1657",66078
"1658",64438
"1659",119461
"1660",359814
"1661",235642
"1662",593248
"1663",3433302
"1664",9323129
"1665",1816932
"1666",614338
"1667",430649
"1668",115372
"1669",104778
"1670",189913
"1671",564928
"1672",108532
"1673",47530
"1674",24693
"1675",839636
"1676",36264
"1677",513392
"1678",116437
"1679",515096
"1680",430903
"1681",129293
"1682",294125
"1683",594430
"1684",305932
"1685",33607
"1686",493154
"1687",612671
"1688",201101
"1689",105469
"1690",1096185
"1691",38105
"1692",-3673
"1693",23255
"1694",252489
"1695",123957
"1696",775947
"1697",69148
"1698",564306
"1699",31400
"1700",242734
"1701",32858
"1702",20317
"1703",524159
"1704",935619
"1705",787988
"1706",421671
"1707",334584
"1708",520676
"1709",149817
"1710",17144
"1711",1869
"1712",155302
"1713",433478
"1714",764091
"1715",696446
"1716",100382
"1717",104861
"1718",50117
"1719",40038
"1720",1131
"1721",271777
"1722",151055
"1723",279799
"1724",131945
"1725",78848
"1726",162621
"1727",539242
"1728",289876
"1729",180258
"1730",6361
"1731",368749
"1732",87370
"1733",59917
"1734",1366000
"1735",694028
"1736",80387
"1737",208456
"1738",743621
"1739",704752
"1740",541225
"1741",339482
"1742",628889
"1743",2323844
"1744",727611
"1745",2288483
"1746",1156442
"1747",1216724
"1748",1787713
"1749",4156711
"1750",414387
"1751",-154
"1752",1897
"1753",4864939
"1754",8904601
"1755",1340672
"1756",1017886
"1757",401918
"1758",520691
"1759",254258
"1760",1385213
"1761",115156
"1762",379411
"1763",88196
"1764",292808
"1765",11225
"1766",2577897
"1767",3785575
"1768",7439
"1769",292604
"1770",8178
"1771",12772
"1772",360189
"1773",508643
"1774",124838
"1775",25020
"1776",2185543
"1777",9553
"1778",4470105
"1779",4038485
"1780",677586
"1781",388617
"1782",3320730
"1783",11742
"1784",19804
"1785",416315
"1786",124119
"1787",639127
"1788",80424
"1789",7524
"1790",30254
"1791",118147
"1792",47073
"1793",13505469
"1794",833153
"1795",339939
"1796",1628459
"1797",112070
"1798",6746801
"1799",790299
"1800",1117239
"1801",1493862
"1802",1299539
"1803",-7841
"1804",344829
"1805",194662
"1806",229500
"1807",881469
"1808",131924
"1809",734849
"1810",459337
"1811",121439
"1812",486130
"1813",10770
"1814",637179
"1815",1958079
"1816",463903
"1817",304997
"1818",27113
"1819",196189
"1820",1556299
"1821",2299897
"1822",405254
"1823",295211
"1824",787474
"1825",480448
"1826",66464
"1827",143336
"1828",353992
"1829",4029809
"1830",818781
"1831",406527
"1832",239718
"1833",290977
"1834",423508
"1835",157826
"1836",277750
"1837",70460
"1838",842803
"1839",526685
"1840",893702
"1841",335960
"1842",499740
"1843",36471
"1844",422711
"1845",9339
"1846",424682
"1847",42778
"1848",812027
"1849",1153310
"1850",1573879
"1851",3137666
"1852",42055
"1853",221835
"1854",18091
"1855",1241
"1856",393
"1857",1082
"1858",852
"1859",356
"1860",2537
"1861",1371410
"1862",10415
"1863",765754
"1864",1101565
"1865",4815266
"1866",1283376
"1867",2646877
"1868",2049219
"1869",312961
"1870",2529582
"1871",5921836
"1872",6867133
"1873",366221
"1874",4497316
"1875",2887763
"1876",776233
"1877",4523212
"1878",707499
"1879",240014
"1880",1026016
"1881",155782
"1882",269951
"1883",57157
"1884",27984
"1885",134297
"1886",5189875
"1887",697615
"1888",556429
"1889",13402077
"1890",1797171
"1891",132904
"1892",15021
"1893",140738
"1894",954511
"1895",52216
"1896",2478355
"1897",584099
"1898",3613473
"1899",20923977
"1900",233893
"1901",742499
"1902",1681633
"1903",411458
"1904",142765
"1905",4362988
"1906",1563134
"1907",2591769
"1908",6625219
"1909",958729
"1910",3131196
"1911",227156
"1912",5357315
"1913",2407823
"1914",1316265
"1915",1046471
"1916",215374
"1917",869133
"1918",409065
"1919",13156540
"1920",344039
"1921",3014777
"1922",89173
"1923",134719
"1924",493409
"1925",342168
"1926",14781
"1927",-960
