"","x"
"ENSG00000144827",1.52344814704328
"ENSG00000168476",1.51353875556677
"ENSG00000089163",1.50705882352941
"ENSG00000197362",1.50191570881226
"ENSG00000156787",1.50067204301075
"ENSG00000235117",1.49122807017544
"ENSG00000188993",1.47922077922078
"ENSG00000245958",1.47441049359315
"ENSG00000232224",1.47275267815557
"ENSG00000068137",1.46774158525728
"ENSG00000272789",1.4605287690644
"ENSG00000235217",1.45166024582645
"ENSG00000185267",1.44918699186992
"ENSG00000178852",1.44839918256131
"ENSG00000260793",1.43822675468373
"ENSG00000225032",1.4338760570491
"ENSG00000178460",1.41708542713568
"ENSG00000268913",1.4068051791629
"ENSG00000132199",1.40597448875445
"ENSG00000258297",1.40585774058577
"ENSG00000138231",1.39481510577409
"ENSG00000124222",1.36274635299973
"ENSG00000164406",1.35877261998426
"ENSG00000085514",1.3559436224971
"ENSG00000173334",1.35209347614411
"ENSG00000124226",1.35199923290824
"ENSG00000253106",1.34938001458789
"ENSG00000261490",1.34561883311883
"ENSG00000213047",1.34245219328233
"ENSG00000213901",1.3413986013986
"ENSG00000069431",1.3412935127718
"ENSG00000176046",1.34086448659811
"ENSG00000159239",1.336
"ENSG00000081277",1.33573462891607
"ENSG00000267381",1.33572938689218
"ENSG00000137449",1.33239468618096
"ENSG00000267100",1.3292220113852
"ENSG00000266962",1.32789215686275
"ENSG00000173548",1.32646583405695
"ENSG00000138111",1.32314457314457
"ENSG00000088992",1.32226718560713
"ENSG00000250899",1.32192648922687
"ENSG00000145632",1.3218750899368
"ENSG00000116883",1.31898438640012
"ENSG00000197930",1.31843509825888
"ENSG00000182173",1.31562275822876
"ENSG00000235423",1.31275480489225
"ENSG00000185189",1.31208598584394
"ENSG00000198576",1.31142857142857
"ENSG00000186615",1.31094368535308
"ENSG00000164849",1.31088856161021
"ENSG00000136237",1.31077045086393
"ENSG00000261534",1.30799966528597
"ENSG00000235919",1.30124777183601
"ENSG00000100285",1.30108374384236
"ENSG00000163762",1.29665692956832
"ENSG00000256433",1.29395218002813
"ENSG00000138658",1.29384779225035
"ENSG00000156222",1.292
"ENSG00000178662",1.29105813080875
"ENSG00000266236",1.29078014184397
"ENSG00000133619",1.28294233268788
"ENSG00000160767",1.28285720537531
"ENSG00000079102",1.28259728455377
"ENSG00000122679",1.28104042994005
"ENSG00000164107",1.2809068083362
"ENSG00000243056",1.28082533711011
"ENSG00000262246",1.27958797561488
"ENSG00000185215",1.27843573079308
"ENSG00000166123",1.27822769972055
"ENSG00000148153",1.2770992235278
"ENSG00000272316",1.27689230769231
"ENSG00000112144",1.27628605662911
"ENSG00000147121",1.27581328668237
"ENSG00000136807",1.26886550165261
"ENSG00000272198",1.26848484848485
"ENSG00000155980",1.26847853695707
"ENSG00000069424",1.26676315161866
"ENSG00000125812",1.26469244769889
"ENSG00000177045",1.26320858325589
"ENSG00000198556",1.26278457287812
"ENSG00000272870",1.26252245777937
"ENSG00000176720",1.26137633914814
"ENSG00000141837",1.26135105204873
"ENSG00000147437",1.26115075825156
"ENSG00000258682",1.26086956521739
"ENSG00000183891",1.25888324873096
"ENSG00000184584",1.25882430333569
"ENSG00000178093",1.25764525993884
"ENSG00000121903",1.25700988947062
"ENSG00000166343",1.25696344471855
"ENSG00000148488",1.25685436893204
"ENSG00000139350",1.25483164206642
"ENSG00000236778",1.25417789757412
"ENSG00000164850",1.25326797385621
"ENSG00000109794",1.25266393916279
"ENSG00000131931",1.2521605548004
"ENSG00000171444",1.25165884886758
"ENSG00000181652",1.25066137566138
"ENSG00000269940",1.25
