"","x"
"ENSG00000103544",0.363877885502129
"ENSG00000133065",0.3629009116317
"ENSG00000131504",0.361480229185518
"ENSG00000149292",0.361179136055442
"ENSG00000181090",0.359550018663414
"ENSG00000165591",0.35816849620226
"ENSG00000159423",0.357885707699803
"ENSG00000167720",0.357671957671958
"ENSG00000089050",0.355630117571286
"ENSG00000180891",0.35499193039835
"ENSG00000164061",0.352285921625544
"ENSG00000135541",0.351445746717265
"ENSG00000176542",0.35021735944903
"ENSG00000159173",0.34891335488888
"ENSG00000272201",0.347466766768556
"ENSG00000124370",0.3472
"ENSG00000116704",0.345319655300809
"ENSG00000023228",0.344745194242981
"ENSG00000137275",0.344624806285728
"ENSG00000185245",0.342035898079578
"ENSG00000174306",0.341553026684941
"ENSG00000197629",0.340873962040933
"ENSG00000132821",0.339
"ENSG00000174100",0.336328626444159
"ENSG00000132591",0.335603341478105
"ENSG00000103254",0.334665334665335
"ENSG00000173171",0.334642520878933
"ENSG00000260618",0.33393665158371
"ENSG00000142459",0.333010189694462
"ENSG00000184924",0.331439393939394
"ENSG00000160791",0.330612244897959
"ENSG00000135069",0.329656511183805
"ENSG00000168575",0.329494851884448
"ENSG00000171777",0.329372836099294
"ENSG00000069431",0.327740208722224
"ENSG00000267673",0.327330723254545
"ENSG00000108950",0.326139462893057
"ENSG00000196873",0.320994794679005
"ENSG00000100522",0.315515324958029
"ENSG00000182858",0.31431223768452
"ENSG00000108798",0.313981987302525
"ENSG00000103381",0.313145756426898
"ENSG00000170604",0.312476113595815
"ENSG00000075618",0.311247990404981
"ENSG00000154153",0.310049405128987
"ENSG00000268836",0.308787432498773
"ENSG00000142892",0.307598727306757
"ENSG00000108733",0.306524436933963
"ENSG00000186628",0.305740203459547
"ENSG00000125798",0.300378148467031
"ENSG00000114520",0.297214422219391
"ENSG00000197226",0.295714928674824
"ENSG00000198886",0.291125369838252
"ENSG00000111843",0.289096872848423
"ENSG00000162378",0.287217506717886
"ENSG00000143195",0.287128712871287
"ENSG00000158864",0.285369420874934
"ENSG00000128346",0.283435582822086
"ENSG00000178772",0.282960327343889
"ENSG00000171444",0.282101132611011
"ENSG00000183688",0.280843486574915
"ENSG00000084676",0.280334756162519
"ENSG00000198763",0.276913967794375
"ENSG00000204291",0.27682465833091
"ENSG00000198700",0.273141948443254
"ENSG00000121316",0.269983416252073
"ENSG00000185896",0.267758061378268
"ENSG00000160188",0.260526315789474
"ENSG00000116898",0.26024241582646
"ENSG00000104432",0.25889164598842
"ENSG00000262801",0.257142857142857
"ENSG00000251034",0.254814814814815
"ENSG00000077809",0.254066062623398
"ENSG00000103569",0.250946644735839
"ENSG00000064607",0.246885201804688
"ENSG00000148120",0.245325243471712
"ENSG00000167965",0.245203484828673
"ENSG00000131558",0.24512619525353
"ENSG00000139168",0.24418700492921
"ENSG00000138777",0.241709187367153
"ENSG00000126107",0.241708294425693
"ENSG00000272269",0.236942675159236
"ENSG00000176715",0.234112639189314
"ENSG00000169570",0.232748325639539
"ENSG00000129636",0.230443374775297
"ENSG00000133935",0.227986280350212
"ENSG00000183615",0.227909619172888
"ENSG00000108666",0.225181598062954
"ENSG00000086232",0.222171815288853
"ENSG00000145982",0.217991902834008
"ENSG00000104972",0.216306475759088
"ENSG00000154917",0.208956942205848
"ENSG00000174886",0.208518580395596
"ENSG00000129965",0.189393939393939
"ENSG00000250588",0.177165354330709
"ENSG00000267801",0.176470588235294
"ENSG00000170266",0.172375377643505
"ENSG00000077713",0.162175902389426
"ENSG00000166377",0.15450878852761
"ENSG00000212443",0.126721763085399
