"","x"
"ENSG00000140688",0.547691455917441
"ENSG00000142459",0.547325468260398
"ENSG00000232724",0.546479086302095
"ENSG00000146674",0.54625499743626
"ENSG00000136160",0.545591192500192
"ENSG00000169084",0.544029671771846
"ENSG00000004866",0.542784231656274
"ENSG00000183011",0.537800287145167
"ENSG00000166797",0.532935014575128
"ENSG00000167671",0.529700226659523
"ENSG00000167244",0.524910680403182
"ENSG00000166710",0.521781346184936
"ENSG00000147443",0.517467273569242
"ENSG00000135778",0.512925806675032
"ENSG00000158864",0.511748725388635
"ENSG00000153560",0.511563836906916
"ENSG00000170043",0.509050720110766
"ENSG00000163050",0.508650526143249
"ENSG00000113209",0.50803229919252
"ENSG00000256811",0.507317073170732
"ENSG00000154153",0.505647962379035
"ENSG00000265413",0.503875968992248
"ENSG00000169093",0.503077289842042
"ENSG00000167383",0.50140538580107
"ENSG00000132591",0.500723316785603
"ENSG00000133983",0.499068955632241
"ENSG00000183891",0.496807472466193
"ENSG00000055950",0.495055805584696
"ENSG00000267801",0.494117647058824
"ENSG00000180787",0.492867518796079
"ENSG00000100097",0.492586217455492
"ENSG00000129965",0.487603305785124
"ENSG00000006831",0.486390226234126
"ENSG00000188582",0.486037835809364
"ENSG00000116030",0.486009307464602
"ENSG00000157992",0.484446068875893
"ENSG00000116898",0.481486933262499
"ENSG00000170214",0.475452814039741
"ENSG00000257878",0.47468908740585
"ENSG00000144802",0.471818615863926
"ENSG00000145982",0.470974358974359
"ENSG00000198700",0.464605064434627
"ENSG00000104972",0.462982718156603
"ENSG00000108666",0.458816532857568
"ENSG00000077713",0.456968108344255
"ENSG00000250479",0.456328043205271
"ENSG00000100129",0.456003790601083
"ENSG00000169020",0.451442448603609
"ENSG00000141552",0.445893404019868
"ENSG00000108733",0.445333484124516
"ENSG00000103254",0.436769933976638
"ENSG00000117362",0.432534173645839
"ENSG00000010256",0.430025445292621
"ENSG00000121316",0.427745664739884
"ENSG00000084676",0.426881259889225
"ENSG00000132613",0.424670156621142
"ENSG00000160188",0.424561403508772
"ENSG00000181090",0.42146303181627
"ENSG00000077809",0.412112945976996
"ENSG00000184924",0.410518937304652
"ENSG00000174306",0.405818387491105
"ENSG00000125798",0.404621314939086
"ENSG00000187951",0.404388714733542
"ENSG00000138777",0.40394783305648
"ENSG00000175544",0.401007361487795
"ENSG00000163864",0.400224075687788
"ENSG00000225630",0.40008807929565
"ENSG00000169570",0.398876170655567
"ENSG00000260618",0.398076923076923
"ENSG00000198890",0.398012498719394
"ENSG00000160791",0.396348012889366
"ENSG00000203724",0.395280235988201
"ENSG00000180992",0.393517473219438
"ENSG00000131558",0.390263697454907
"ENSG00000273014",0.38747553816047
"ENSG00000132821",0.387064439140811
"ENSG00000172301",0.386937057862041
"ENSG00000104432",0.38628762541806
"ENSG00000204291",0.384465388365291
"ENSG00000178772",0.382568953267658
"ENSG00000198763",0.37885863775322
"ENSG00000247595",0.372294372294372
"ENSG00000124370",0.369502671598849
"ENSG00000167965",0.368026288918181
"ENSG00000103569",0.367924139471372
"ENSG00000007255",0.366741990480053
"ENSG00000143756",0.358116127807055
"ENSG00000111843",0.355576510625956
"ENSG00000008513",0.352619385929855
"ENSG00000213700",0.332004377736085
"ENSG00000165511",0.330267423946285
"ENSG00000086232",0.316779398600277
"ENSG00000170604",0.310537906280641
"ENSG00000250303",0.259310344827586
"ENSG00000176715",0.245383229086641
"ENSG00000166377",0.241830089339766
"ENSG00000139168",0.219130527711306
"ENSG00000212443",0.213438735177866
"ENSG00000174886",0.190932398731012
"ENSG00000272269",0.190769552051791
