"","query.number","significant","p.value","term.size","query.size","overlap.size","precision","recall","term.id","domain","subgraph.number","term.name","relative.depth","intersection"
"1",1,TRUE,0.0362,68,40,4,0.1,0.059,"KEGG:05031","keg",1,"Amphetamine addiction",1,"ENSG00000125740,ENSG00000161509,ENSG00000182158,ENSG00000213639"
"2",1,TRUE,0.0201,107,40,5,0.125,0.047,"KEGG:04931","keg",3,"Insulin resistance",1,"ENSG00000009950,ENSG00000169047,ENSG00000182158,ENSG00000184557,ENSG00000213639"
"3",1,TRUE,0.0297,180,40,6,0.15,0.033,"KEGG:05034","keg",2,"Alcoholism",1,"ENSG00000069966,ENSG00000125740,ENSG00000148053,ENSG00000161509,ENSG00000182158,ENSG00000213639"
