"","x"
"ENSG00000163739",3.9786702298867
"ENSG00000215030",3.23634693852183
"ENSG00000007908",3.04854174776542
"ENSG00000092295",2.64435432120407
"ENSG00000125735",2.5785017247673
"ENSG00000163661",2.54082086468618
"ENSG00000143499",2.13241708451769
"ENSG00000143333",1.94786541474412
"ENSG00000178460",1.91365104835051
"ENSG00000137819",1.88382250543329
"ENSG00000101443",1.87962472122282
"ENSG00000148288",1.87729444317155
"ENSG00000131097",1.87146411733892
"ENSG00000050767",1.85639746512129
"ENSG00000102802",1.8524138189478
"ENSG00000011422",1.77778584844719
"ENSG00000120658",1.77421812015835
"ENSG00000235217",1.76074040565809
"ENSG00000130595",1.75921295043124
"ENSG00000240207",1.74056625269587
"ENSG00000138722",1.72274662120928
"ENSG00000121898",1.70907383935968
"ENSG00000205307",1.70559966515555
"ENSG00000256433",1.66901140514616
"ENSG00000103888",1.66468324854557
"ENSG00000105281",1.66413237326902
"ENSG00000239388",1.66074324638535
"ENSG00000131018",1.64752121997564
"ENSG00000069424",1.63250765929353
"ENSG00000028277",1.61955049530533
"ENSG00000182173",1.61890967631139
"ENSG00000185267",1.60487187770474
"ENSG00000166343",1.58698001783024
"ENSG00000132702",1.57237037498871
"ENSG00000187796",1.56498389713719
"ENSG00000185215",1.56429063760116
"ENSG00000154127",1.55699721964782
"ENSG00000180423",1.52134721430693
"ENSG00000167900",1.51475498023277
"ENSG00000167371",1.5110779690836
"ENSG00000268913",1.50731633622939
"ENSG00000174442",1.50545025537806
"ENSG00000213047",1.50537824577945
"ENSG00000232224",1.50379117693079
"ENSG00000131055",1.50037574793238
"ENSG00000178726",1.49948782577598
"ENSG00000228794",1.49455664536136
"ENSG00000134138",1.49373073409437
"ENSG00000165071",1.49332793146602
"ENSG00000109819",1.49268980674725
"ENSG00000206418",1.48698392076784
"ENSG00000100505",1.48592114606811
"ENSG00000183023",1.48169274320964
"ENSG00000171097",1.47993414561388
"ENSG00000156222",1.47815126786215
"ENSG00000137642",1.47478984735913
"ENSG00000102554",1.47387500847159
"ENSG00000165506",1.47366765347436
"ENSG00000105409",1.47031586264843
"ENSG00000114796",1.46993734923321
"ENSG00000106366",1.46933432445947
"ENSG00000198053",1.46527349368277
"ENSG00000088992",1.46344104295929
"ENSG00000150687",1.46162328855508
"ENSG00000087586",1.46151359582898
"ENSG00000100292",1.4604677622657
"ENSG00000178662",1.46039476685301
"ENSG00000092445",1.45991606054293
"ENSG00000119714",1.45451233862976
"ENSG00000146233",1.45333792512581
"ENSG00000105499",1.45276259306406
"ENSG00000185818",1.44390438366931
"ENSG00000164938",1.44321956116793
"ENSG00000253106",1.44309349590693
"ENSG00000124659",1.44255012641889
"ENSG00000185262",1.44037053816363
"ENSG00000171444",1.4392607018414
"ENSG00000105246",1.43762050373834
"ENSG00000146215",1.43469034859871
"ENSG00000112214",1.43385328201647
"ENSG00000124226",1.43367301475557
"ENSG00000122641",1.4332875503481
"ENSG00000083123",1.43234465899228
"ENSG00000236439",1.43157225173988
"ENSG00000167861",1.43118466511638
"ENSG00000167646",1.42902064756072
"ENSG00000266208",1.42886488482666
"ENSG00000101104",1.42867337655458
"ENSG00000162998",1.42796717528557
"ENSG00000140470",1.42547740368589
"ENSG00000180481",1.42441693379021
"ENSG00000184988",1.42333518448286
"ENSG00000137077",1.42121148927607
"ENSG00000129422",1.41920693435422
"ENSG00000235423",1.41880518463747
"ENSG00000067221",1.4174865873493
"ENSG00000089163",1.41744240118368
"ENSG00000113296",1.41469696981895
"ENSG00000196922",1.41027250524085
"ENSG00000158246",1.40803088014009
