"","x"
"ENSG00000110169",5.63433489827856
"ENSG00000185818",3.05660318438624
"ENSG00000197971",2.75885635972735
"ENSG00000161509",2.5560706190836
"ENSG00000168040",2.4044551798175
"ENSG00000215030",2.40343833170367
"ENSG00000133111",2.3426266158056
"ENSG00000259716",2.33790528920767
"ENSG00000103723",2.32568402471315
"ENSG00000125735",2.31721132049773
"ENSG00000246859",2.28002972489041
"ENSG00000167900",2.22881365032322
"ENSG00000166851",2.20289855072464
"ENSG00000143842",2.18219011748939
"ENSG00000092607",2.14873243609277
"ENSG00000122641",2.14131925558577
"ENSG00000065320",2.12739664418802
"ENSG00000149311",2.11796895253064
"ENSG00000011422",2.1138184241534
"ENSG00000169432",2.09098039215686
"ENSG00000121898",2.07071617440681
"ENSG00000103569",2.03732020690806
"ENSG00000079931",2.0261587026715
"ENSG00000091513",2.01517479977827
"ENSG00000115596",2.00175843448562
"ENSG00000250722",1.95438940133477
"ENSG00000266236",1.94297327507367
"ENSG00000272086",1.93814262023217
"ENSG00000170801",1.9373316683104
"ENSG00000161677",1.93438421822104
"ENSG00000106327",1.92335405706998
"ENSG00000106789",1.91772113209854
"ENSG00000125740",1.91274169824005
"ENSG00000111186",1.91011871742811
"ENSG00000216937",1.9043434183234
"ENSG00000134897",1.89518701233064
"ENSG00000120696",1.8898022136093
"ENSG00000165071",1.88951570958852
"ENSG00000261098",1.86874088478367
"ENSG00000132000",1.86513556709655
"ENSG00000131771",1.86172658005965
"ENSG00000144619",1.84960658393358
"ENSG00000143126",1.84179284619712
"ENSG00000103196",1.83243604279734
"ENSG00000108176",1.82517062926573
"ENSG00000139910",1.8246944573894
"ENSG00000178460",1.82415187860934
"ENSG00000206418",1.82342810574826
"ENSG00000180481",1.8211530442035
"ENSG00000069424",1.80080936407285
"ENSG00000042980",1.79574895092136
"ENSG00000187796",1.79382673214476
"ENSG00000018280",1.78876418311957
"ENSG00000108733",1.78729224998181
"ENSG00000157064",1.78558382177289
"ENSG00000183891",1.76424932009568
"ENSG00000173421",1.75677292698888
"ENSG00000100292",1.74711645075268
"ENSG00000119280",1.74634144315083
"ENSG00000167037",1.74220595868932
"ENSG00000116171",1.72927263975796
"ENSG00000068078",1.7278032361757
"ENSG00000132142",1.72238059723562
"ENSG00000100156",1.72159293092125
"ENSG00000262246",1.71287566742366
"ENSG00000269028",1.70077519098646
"ENSG00000185432",1.69963356562524
"ENSG00000099290",1.69959901713208
"ENSG00000175745",1.69823995700658
"ENSG00000156299",1.69551216741615
"ENSG00000113368",1.69200779727096
"ENSG00000100852",1.69156925168062
"ENSG00000119147",1.68064085365641
"ENSG00000155016",1.67679386534462
"ENSG00000167779",1.67372345701427
"ENSG00000261434",1.67052227218857
"ENSG00000184838",1.67014823928578
"ENSG00000142949",1.66942238458467
"ENSG00000197444",1.6681253387052
"ENSG00000174446",1.66043035107165
"ENSG00000115556",1.65772164256514
"ENSG00000251595",1.65747617482747
"ENSG00000188603",1.65069002783225
"ENSG00000258682",1.64877450980392
"ENSG00000115159",1.64554127002465
"ENSG00000134627",1.63611111111111
"ENSG00000272578",1.63606308471516
"ENSG00000166183",1.63503184341866
"ENSG00000137077",1.62983073531727
"ENSG00000251602",1.62859493293592
"ENSG00000267272",1.62659414280937
"ENSG00000134690",1.62338104976142
"ENSG00000005469",1.62276368933325
"ENSG00000100918",1.62253834783779
"ENSG00000114796",1.61863558110636
"ENSG00000171444",1.61535019459678
"ENSG00000068137",1.61442936686589
"ENSG00000023608",1.61435130210225
"ENSG00000198756",1.61345022195419
"ENSG00000146233",1.61316755283058
