"","distances"
"1",831661
"2",25273
"3",202368
"4",48405
"5",19556
"6",6623
"7",83114
"8",119904
"9",746384
"10",-41293
"11",1272182
"12",2634142
"13",1559900
"14",1936608
"15",455185
"16",606379
"17",589785
"18",18695
"19",114446
"20",132102
"21",1686684
"22",1792421
"23",138125
"24",38516
"25",306379
"26",622048
"27",1890595
"28",694198
"29",823935
"30",2597803
"31",2160109
"32",68497
"33",361001
"34",407923
"35",411714
"36",94023
"37",478815
"38",595520
"39",110760
"40",654066
"41",116470
"42",2887659
"43",69727
"44",346725
"45",71641
"46",118292
"47",116419
"48",2148437
"49",11432
"50",597629
"51",1311726
"52",52042
"53",413323
"54",1001494
"55",1005597
"56",404566
"57",1010022
"58",646502
"59",114739
"60",860831
"61",43322
"62",13205
"63",373727
"64",350816
"65",1328848
"66",310007
"67",4241681
"68",261638
"69",13803
"70",675015
"71",352111
"72",172980
"73",99887
"74",1173729
"75",228275
"76",3944473
"77",80696
"78",2080932
"79",973504
"80",988966
"81",1553828
"82",188507
"83",891824
"84",3512289
"85",5369613
"86",1301415
"87",560194
"88",8974
"89",6535364
"90",1231443
"91",546559
"92",157983
"93",2906590
"94",1564282
"95",1306219
"96",337995
"97",587553
"98",5970166
"99",114074
"100",788995
"101",93625
"102",7622202
"103",267982
"104",99029
"105",233566
"106",85528
"107",163277
"108",59096
"109",660211
"110",463246
"111",539962
"112",92842
"113",38554
"114",628165
"115",60062
"116",1308367
"117",414908
"118",71688
"119",2389881
"120",1923763
"121",507740
"122",25143039
"123",728560
"124",122197
"125",134804
"126",943744
"127",-6436
"128",2670658
"129",337055
"130",217784
"131",418654
"132",289959
"133",24318
"134",71819
"135",357699
"136",219351
"137",38116
"138",1486692
"139",125544
"140",117982
"141",6141
"142",750759
"143",73796
"144",6175
"145",8943
"146",176297
"147",35224
"148",683984
"149",123897
"150",188168
"151",65647
"152",374234
"153",48715
"154",3233909
"155",199681
"156",759134
"157",27331
"158",155401
"159",4255521
"160",62497
"161",1602885
"162",2331021
"163",637862
"164",109282
"165",1630770
"166",739648
"167",1803476
"168",2982711
"169",687197
"170",1308445
"171",2744478
"172",326624
"173",1192478
"174",760001
"175",11711698
"176",731090
"177",2377296
"178",292809
"179",1538149
"180",65806
"181",694198
"182",532837
"183",730714
"184",139681
"185",246085
"186",80857
"187",1745871
"188",1973105
"189",675786
"190",706507
"191",850204
"192",630319
"193",2551566
"194",8492280
"195",65287
"196",54756
"197",1545669
"198",549469
"199",288322
"200",740994
"201",1735351
"202",1774058
"203",1612753
"204",2677159
"205",331915
"206",267020
"207",437701
"208",5290440
"209",5582862
"210",2910642
"211",180610
"212",5290945
"213",469845
"214",346811
"215",108433
"216",248053
"217",293483
"218",-1719
"219",9609097
"220",3618139
"221",415471
"222",1993582
"223",305516
"224",29984
"225",147717
"226",56913
"227",10708
"228",241125
"229",226101
"230",4608071
"231",4895371
"232",604111
"233",972925
"234",2619783
"235",290462
"236",171964
"237",760777
"238",641915
"239",428426
"240",1163574
"241",5881251
"242",1469023
"243",5721697
"244",2695971
"245",1419289
"246",4848725
"247",692167
"248",458777
"249",489216
"250",407379
"251",575895
"252",53167
"253",189048
"254",379316
"255",300633
"256",10077734
"257",536253
"258",508569
"259",461236
"260",8463341
"261",1099082
"262",1389969
"263",49453
"264",868717
"265",926904
"266",130552
"267",69127
"268",2319249
"269",3043346
"270",4044152
"271",831710
"272",615009
"273",9538729
"274",4919010
"275",602060
"276",312557
"277",75369
"278",3640490
"279",188709
"280",2352579
"281",682295
"282",308390
"283",8061642
"284",3688443
"285",2753494
"286",498927
"287",288309
"288",475601
"289",5018447
"290",1927493
"291",1232159
"292",1082619
"293",6084267
"294",1016796
"295",15394
"296",906692
"297",691134
"298",5243913
"299",1087771
"300",3375371
"301",902537
"302",211397
"303",5931891
"304",1739046
"305",5812044
"306",461988
"307",369611
"308",1937427
"309",649661
"310",100147
"311",725334
"312",3876209
"313",605754
"314",970077
"315",496704
"316",7637578
"317",2554961
"318",12371
"319",542739
"320",28930
"321",252047
"322",7291794
"323",325936
"324",114316
"325",2361088
"326",314075
"327",460907
"328",376849
"329",476119
"330",174973
"331",5514543
"332",226608
"333",3074317
"334",-163977
"335",175778
"336",4515002
"337",344938
"338",31842
"339",97561
"340",68188
"341",-4698
"342",104383
"343",37675
"344",49388
"345",815915
"346",1220875
"347",43978
"348",815498
"349",1304429
"350",271587
"351",348423
"352",1509522
"353",3937002
"354",1508731
"355",3426130
"356",4173470
"357",159108
"358",446567
"359",222733
"360",52812
"361",169121
"362",3385449
"363",107558
"364",919440
"365",27847
"366",240639
"367",554498
"368",298326
"369",897142
"370",212454
"371",2025929
"372",256990
"373",437218
"374",-1486
"375",603748
"376",239276
"377",2008206
"378",687307
"379",171831
"380",68584
"381",314582
"382",37747
"383",657709
"384",190850
"385",53606
"386",138014
"387",616187
"388",54412
"389",1190053
"390",585754
"391",112993
"392",40752
"393",1404924
"394",22834
"395",1573727
"396",1129594
"397",873039
"398",595703
"399",135611
"400",5573704
"401",7096
"402",2354787
"403",497044
"404",5738067
"405",134871
"406",5528041
"407",9339709
"408",4580782
"409",5509930
"410",30915
"411",594818
"412",827523
"413",7012735
"414",3901948
"415",561473
"416",360926
"417",5203911
"418",148305
"419",3466227
"420",174646
"421",57069
"422",1996886
"423",8661
"424",411265
"425",470218
"426",1409623
"427",466056
"428",45047
"429",312619
"430",1865557
"431",11433
"432",97090
"433",1151463
"434",1146142
"435",4451812
"436",1154646
"437",2266411
"438",299691
"439",1392972
"440",4942622
"441",1380667
"442",136444
"443",1613383
"444",696490
"445",2204960
"446",17550
"447",2299504
"448",7227174
"449",4249260
"450",8091183
"451",478562
"452",57506
"453",3563628
"454",803859
"455",117023
"456",215606
"457",193188
"458",608215
"459",951
"460",-12601
"461",606611
"462",568248
"463",289779
"464",349301
"465",1885689
"466",1431798
"467",1398145
"468",674983
"469",2941952
"470",199395
"471",728796
"472",139348
"473",165552
"474",239296
"475",262954
"476",1122073
"477",305241
"478",106563
"479",991582
"480",2021637
"481",336826
"482",64956
"483",199362
"484",932192
"485",5409906
"486",1712095
"487",2395033
"488",2231384
"489",75721
"490",5823530
"491",102327
"492",12502638
"493",1215320
"494",3461713
"495",3434857
"496",615155
"497",3144394
"498",1362009
"499",308384
"500",1281419
"501",480520
"502",433253
"503",48233
"504",183409
"505",281471
"506",7296434
"507",6653199
"508",4368863
"509",123697
"510",157511
"511",123501
"512",1993089
"513",3457929
"514",2285583
"515",1023616
"516",7857232
"517",3593157
"518",892631
"519",1994753
"520",1281887
"521",33389
"522",2276979
"523",402811
"524",6922123
"525",67292
"526",5450660
"527",760091
"528",5249325
"529",2472374
"530",1053390
"531",10549128
"532",3444172
"533",1874102
"534",2488204
"535",2406230
"536",845294
"537",344872
"538",6363451
"539",535816
"540",9492897
"541",5964870
"542",156797
"543",2907616
"544",7185193
"545",554728
"546",130475
"547",1104991
"548",29392384
"549",310264
"550",420702
"551",4272680
"552",1490373
"553",434039
"554",97147
"555",1050033
"556",12031965
"557",4115556
"558",1997363
"559",635589
"560",169799
"561",759992
"562",6629761
"563",39515
"564",1694901
"565",2611501
"566",1044029
"567",714921
"568",1203905
"569",690189
"570",739972
"571",518535
"572",376082
"573",1726373
"574",220228
"575",800641
"576",7038474
"577",6115481
"578",155799
"579",123352
"580",1585390
"581",1253277
"582",482708
"583",8747968
"584",6641923
"585",32702
"586",2625010
"587",4262961
"588",4323381
"589",3162321
"590",793391
"591",74437
"592",1576301
"593",109578
"594",250222
"595",461905
"596",22598
"597",409256
"598",628981
"599",69027
"600",1612446
"601",541845
"602",28462
"603",872272
"604",156711
"605",18866
"606",490760
"607",119762
"608",134048
"609",408611
"610",256215
"611",2037
"612",372694
"613",6370894
"614",1049361
"615",448494
"616",304487
"617",200772
"618",441492
"619",54268
"620",3587113
"621",5132320
"622",3372026
"623",9388124
"624",6044
"625",174671
"626",723893
"627",2276391
"628",46464
"629",110128
"630",595000
"631",31347
"632",167936
"633",45559
"634",520649
"635",790626
"636",584125
"637",4152
"638",43844
"639",131141
"640",325284
"641",8591
"642",477570
"643",1367351
"644",854839
"645",39181
"646",256981
"647",1897605
"648",2841493
"649",2890369
"650",3681652
"651",42563
"652",94538
"653",51839
"654",8377536
"655",23917
"656",42688
"657",120331
"658",545674
"659",977762
"660",31687
"661",89726
"662",117997
"663",503268
"664",1134910
"665",1130291
"666",460261
"667",26177
"668",176315
"669",73404
"670",170620
"671",649083
"672",379979
"673",4056
"674",59288
"675",12792
"676",16005
"677",1148119
"678",1661513
"679",209977
"680",380727
"681",425008
"682",88182
"683",1604142
"684",2568789
"685",184929
"686",273755
"687",836164
"688",111493
"689",296016
"690",747540
"691",1622937
"692",140388
"693",10554560
"694",16406339
"695",1728439
"696",41536
"697",6869468
"698",3078756
"699",2094276
"700",942819
"701",400915
"702",10012652
"703",5665449
"704",140391
"705",642339
"706",1164167
"707",1780596
"708",247393
"709",274391
"710",6331642
"711",227405
"712",794546
"713",3476952
"714",3885217
"715",1986632
"716",4230357
"717",3332149
"718",1239225
"719",1537686
"720",296020
"721",4920049
"722",499961
"723",76488
"724",1728903
"725",1027148
"726",2453539
"727",3252263
"728",2269560
"729",1519296
"730",898736
"731",468194
"732",121002
"733",153459
"734",668870
"735",6574542
"736",364926
"737",372669
"738",860386
"739",304634
"740",2490094
"741",457659
"742",29039
"743",292070
"744",178334
"745",632570
"746",4146566
"747",5476501
"748",209836
"749",444609
"750",5241326
"751",289462
"752",188766
"753",870019
"754",4158
"755",1640480
"756",3425847
"757",2926526
"758",5235046
"759",1716851
"760",2967102
"761",826457
"762",68552
"763",112760
"764",174844
"765",462103
"766",5479504
"767",4347149
"768",605474
"769",577309
"770",10577163
"771",272158
"772",36622
"773",5639846
"774",731585
"775",1188955
"776",635465
"777",160238
"778",5959589
"779",4901883
"780",805323
"781",4019241
"782",1520315
"783",3187980
"784",925122
"785",817805
"786",264541
"787",126692
"788",457036
"789",85005
"790",30746
"791",451666
"792",232332
"793",329004
"794",1208916
"795",25624
"796",395210
"797",154827
"798",162914
"799",4218611
"800",165233
"801",4444921
"802",476051
"803",4013322
"804",3557217
"805",130275
"806",6049346
"807",148694
"808",883118
"809",265889
"810",369102
"811",434851
"812",219102
"813",553289
"814",640721
"815",1924851
"816",1025774
"817",-2392
"818",388372
"819",13739
"820",1533923
"821",531114
"822",458267
"823",971577
"824",306968
"825",496118
"826",23066
"827",727453
"828",7041104
"829",202026
"830",97775
"831",248561
"832",907066
"833",193233
"834",51420
"835",606116
"836",63803
"837",177662
"838",5072598
"839",1658129
"840",151749
"841",6174361
"842",59853
"843",4136379
"844",568273
"845",1779497
"846",3656677
"847",675962
"848",2167423
"849",1862340
"850",435947
"851",32874
"852",672095
"853",89504
"854",4176173
"855",1090885
"856",1688076
"857",375550
"858",2310981
"859",90072
"860",4136495
"861",25090
"862",331637
"863",3048657
"864",267690
"865",527945
"866",244802
"867",492268
"868",15467136
"869",7061874
"870",355635
"871",386688
"872",1337871
"873",4827510
"874",656009
"875",355790
"876",281916
"877",3911895
"878",11152480
"879",830932
"880",-82
"881",100501
"882",139305
"883",3415159
"884",363173
"885",1224150
"886",1429946
"887",58223
"888",896025
"889",273004
"890",2099010
"891",985794
"892",1175544
"893",14069185
"894",3268937
"895",352106
"896",9639396
"897",7545338
"898",1461652
"899",336014
"900",280552
"901",324473
"902",10035
"903",256257
"904",89175
"905",18283
"906",206973
"907",184378
"908",7888
"909",260633
"910",48455
"911",375574
"912",1847085
"913",863034
"914",158459
"915",6908882
"916",1900781
"917",729233
"918",87133
"919",1844900
"920",6765439
"921",7363324
"922",740908
"923",258601
"924",114147
"925",21331
"926",205593
"927",389952
"928",659086
"929",1685662
"930",448693
"931",37202153
"932",3149878
"933",7216446
"934",6641938
"935",88858
"936",76529
"937",425953
"938",318158
"939",3185985
"940",100562
"941",723051
"942",31878
"943",1133951
"944",93098
"945",145634
"946",684677
"947",1428532
"948",123191
"949",2530916
"950",4873735
"951",520843
"952",3274859
"953",108927
"954",1210747
"955",8246183
"956",1352265
"957",508823
"958",268840
"959",10603
"960",513187
"961",1480297
"962",669288
"963",658742
"964",300518
"965",459938
"966",176813
"967",754831
"968",487209
"969",289131
"970",328839
"971",811440
"972",381900
"973",11816
"974",119669
"975",837961
"976",1038494
"977",517644
"978",315285
"979",427182
"980",79636
"981",62531
"982",553157
"983",28473
"984",1814559
"985",747192
"986",6287505
"987",-4636
"988",1121280
"989",1530522
"990",873855
"991",2798885
"992",1134600
"993",2805650
"994",5410480
"995",834226
"996",1469497
"997",11253738
"998",144233
"999",550680
"1000",1588532
"1001",3445146
"1002",642928
"1003",407156
"1004",55900
"1005",8298855
"1006",1499177
"1007",3260565
"1008",5038806
"1009",26530
"1010",108901
"1011",1151376
"1012",271445
"1013",387343
"1014",1334827
"1015",131467
"1016",484184
"1017",243273
"1018",316486
"1019",7073
"1020",223032
"1021",4947672
"1022",346560
"1023",220266
"1024",52770
"1025",3994081
"1026",2282011
"1027",1137798
"1028",1580189
"1029",2457341
"1030",969437
"1031",608390
"1032",5999986
"1033",119443
"1034",140175
"1035",781124
"1036",591367
"1037",1054522
"1038",274153
"1039",306405
"1040",147735
"1041",2718120
"1042",3333304
"1043",132853
"1044",2839693
"1045",700206
"1046",4455764
"1047",406135
"1048",54341
"1049",214892
"1050",1795763
"1051",1777406
"1052",6079758
"1053",25582
"1054",3236145
"1055",104556
"1056",42259
"1057",262117
"1058",60505
"1059",41414
"1060",7270
"1061",892579
"1062",649897
"1063",1450649
"1064",505462
"1065",906134
"1066",964742
"1067",110396
"1068",77162
"1069",801987
"1070",153723
"1071",293029
"1072",1458457
"1073",979363
"1074",1332234
"1075",134685
"1076",1918782
"1077",2248626
"1078",317508
"1079",-57
"1080",184515
"1081",991457
"1082",165890
"1083",1658900
"1084",1416151
"1085",5082604
"1086",3897065
"1087",352930
"1088",2233621
"1089",751938
"1090",515324
"1091",765988
"1092",6846759
"1093",336029
"1094",1914815
"1095",74760
"1096",26421
"1097",477602
"1098",813007
"1099",200814
"1100",9590954
"1101",88671
"1102",124672
"1103",50929
"1104",136944
"1105",52056
"1106",707325
"1107",2721231
"1108",87446
"1109",67784
"1110",211489
"1111",849604
"1112",16971
"1113",899508
"1114",368970
"1115",183461
"1116",21398
"1117",3852
"1118",77667
"1119",22139
"1120",630409
"1121",30363
"1122",81611
"1123",46746
"1124",157284
"1125",21943
"1126",71557
"1127",58357
"1128",31726
"1129",249080
"1130",28086
"1131",27622
"1132",129168
"1133",187986
"1134",80090
"1135",101523
"1136",33269
"1137",210824
"1138",275941
"1139",145828
"1140",96408
"1141",97004
"1142",396024
"1143",1019615
"1144",2265753
"1145",561423
"1146",202791
"1147",2749029
"1148",1426030
"1149",513916
"1150",463236
"1151",457949
"1152",5178878
"1153",168605
"1154",20045
"1155",37677
"1156",2482433
"1157",1793728
"1158",3548697
"1159",1400764
"1160",8674645
"1161",7375901
"1162",220450
"1163",36984
"1164",3422
"1165",51502
"1166",1974443
"1167",149354
"1168",2359596
"1169",55352
"1170",1446091
"1171",529228
"1172",189985
"1173",1015393
"1174",4132900
"1175",104448
"1176",5373
"1177",334255
"1178",844033
"1179",292305
"1180",3627803
"1181",174842
"1182",866112
"1183",41331
"1184",2750120
"1185",55460
"1186",1884880
"1187",185367
"1188",135244
"1189",13734
"1190",79541
"1191",1666521
"1192",3692518
"1193",117143
"1194",412481
"1195",1784306
"1196",1078851
"1197",6142696
"1198",559401
"1199",6810175
"1200",1597464
"1201",80040
"1202",10509273
"1203",3269950
"1204",450149
"1205",1333218
"1206",11622
"1207",905705
"1208",187112
"1209",896702
"1210",216405
"1211",1010052
"1212",1059386
"1213",905477
"1214",199267
"1215",35656
"1216",227355
"1217",573457
"1218",1332719
"1219",27237
"1220",60641
"1221",282440
"1222",88268
"1223",49766
"1224",168175
"1225",158468
"1226",583259
"1227",18827
"1228",295266
"1229",177683
"1230",6547853
"1231",1418988
"1232",1138513
"1233",328387
"1234",607037
"1235",278458
"1236",798448
"1237",158892
"1238",419790
"1239",6969648
"1240",2579512
"1241",10164704
"1242",2293842
"1243",2031258
"1244",6497088
"1245",1708304
"1246",1332099
"1247",4241164
"1248",314238
"1249",400268
"1250",1092392
"1251",1557498
"1252",173087
"1253",2562247
"1254",2098661
"1255",2072297
"1256",190929
"1257",298622
"1258",221189
"1259",101733
"1260",282129
"1261",134861
"1262",225637
"1263",716959
"1264",483724
"1265",49712
"1266",156905
"1267",-986
"1268",7695642
"1269",94914
"1270",26753
"1271",3181
"1272",357912
"1273",38565
"1274",134822
"1275",2534974
"1276",3435541
"1277",31611
"1278",1731605
"1279",520911
"1280",1085446
"1281",3252451
"1282",3599145
"1283",2009605
"1284",617551
"1285",1269609
"1286",2795278
"1287",1226583
"1288",105444
"1289",1161901
"1290",2222872
"1291",234595
"1292",1414675
"1293",329957
"1294",2986440
"1295",21083904
"1296",70995
"1297",1184785
"1298",568431
"1299",1336295
"1300",19386952
"1301",359686
"1302",1489770
"1303",8889320
"1304",2886401
"1305",860811
"1306",104414
"1307",1295411
"1308",240610
"1309",58169
"1310",139380
"1311",29681
"1312",786200
"1313",107787
"1314",21441
"1315",45036
"1316",8490
"1317",16660
"1318",35430
"1319",5267355
"1320",367225
"1321",4501783
"1322",548704
"1323",366233
"1324",8882514
"1325",4528543
"1326",39889
"1327",822709
"1328",1944073
"1329",245077
"1330",1970828
"1331",413659
"1332",416288
"1333",2332441
"1334",1597431
"1335",435655
"1336",1498
"1337",2702856
"1338",1018244
"1339",2702048
"1340",1450594
"1341",1171931
"1342",2609720
"1343",31224
"1344",413216
"1345",406132
"1346",530050
"1347",505805
"1348",66987
"1349",4126
"1350",2158390
"1351",49566
"1352",10379868
"1353",11459
"1354",450967
"1355",5493558
"1356",1004983
"1357",23930
"1358",4161263
"1359",703254
"1360",254355
"1361",2005248
"1362",201803
"1363",327930
"1364",21179
"1365",609651
"1366",572206
"1367",532069
"1368",305848
"1369",27678
"1370",8644961
"1371",6136811
"1372",162234
"1373",267642
"1374",9304
"1375",423361
"1376",492544
"1377",230
"1378",575242
"1379",867031
"1380",32036
"1381",1051968
"1382",47809
"1383",642247
"1384",3703741
"1385",267435
"1386",1958936
"1387",206795
"1388",3392737
"1389",1891855
"1390",68198
"1391",587442
"1392",693134
"1393",704409
"1394",3385091
"1395",2122843
"1396",446558
"1397",1750416
"1398",4533796
"1399",1183538
"1400",539537
"1401",269105
"1402",1442677
"1403",2867977
"1404",2048156
"1405",2122860
"1406",1461520
"1407",663855
"1408",3338101
"1409",406429
"1410",619678
"1411",112502
"1412",366349
"1413",46722
"1414",8144124
"1415",3724
"1416",1413999
"1417",58939
"1418",148693
"1419",14181
"1420",83558
"1421",288553
"1422",3403
"1423",45225
"1424",693054
"1425",48788
"1426",195726
"1427",191735
"1428",99
"1429",81956
"1430",114761
"1431",43700
"1432",7469
"1433",88648
"1434",16197
"1435",527843
"1436",665684
"1437",1153197
"1438",3804715
"1439",127134
"1440",1406782
"1441",163088
"1442",1064499
"1443",808214
"1444",2559607
"1445",213339
"1446",589329
"1447",22630
"1448",2023931
"1449",15385
"1450",505388
"1451",475145
"1452",2245867
"1453",23978
"1454",209841
"1455",1245899
"1456",45036
"1457",1241930
"1458",96063
"1459",2025264
"1460",1729039
"1461",839009
"1462",47193
"1463",128585
"1464",271117
"1465",362835
"1466",92217
"1467",16259427
"1468",2849338
"1469",2686099
"1470",372542
"1471",1231188
"1472",854761
"1473",25952
"1474",138376
"1475",38876
"1476",21726
"1477",45909
"1478",139199
"1479",102606
"1480",187694
"1481",552018
"1482",9143063
"1483",219864
"1484",44479
"1485",241829
"1486",78153
"1487",395648
"1488",820345
"1489",1249438
"1490",137639
"1491",1358223
"1492",688454
"1493",729523
"1494",869863
"1495",71188
"1496",2139887
"1497",119306
"1498",1385239
"1499",296546
"1500",927428
"1501",1637617
"1502",1349788
"1503",13880
"1504",815700
"1505",513834
"1506",1325863
"1507",80028
"1508",61788
"1509",65600
"1510",111171
"1511",103498
"1512",153870
"1513",642474
"1514",61416
"1515",1938447
"1516",840746
"1517",130739
"1518",91807
"1519",34885
"1520",47591
"1521",18931
"1522",294613
"1523",33829
"1524",1802152
"1525",11694
"1526",47059
"1527",77264
"1528",251784
"1529",198917
"1530",45107
"1531",542082
"1532",1279848
"1533",499043
"1534",3589850
"1535",1437214
"1536",651247
"1537",1026885
"1538",653128
"1539",12512
"1540",900608
"1541",46727
"1542",58730
"1543",323977
"1544",1255428
"1545",235116
"1546",6055281
"1547",686042
"1548",315082
"1549",923254
"1550",839112
"1551",1027088
"1552",77681
"1553",2979449
"1554",4911298
"1555",130689
"1556",46451
"1557",1640497
"1558",153216
"1559",773771
"1560",25681
"1561",922363
"1562",391459
"1563",12722
"1564",823227
"1565",47858
"1566",129765
"1567",118755
"1568",129579
"1569",1267919
"1570",8521
"1571",17380
"1572",64424
"1573",211126
"1574",184096
"1575",75496
"1576",106919
"1577",41870
"1578",1280975
"1579",183979
"1580",32098
"1581",305557
"1582",71137
"1583",166225
"1584",804211
"1585",1845571
"1586",1862369
"1587",2909783
"1588",249639
"1589",802406
"1590",502487
"1591",50791
"1592",228530
"1593",20679
"1594",2483337
"1595",391734
"1596",2472624
"1597",259695
"1598",888686
"1599",123578
"1600",4769901
"1601",1804163
"1602",17602
"1603",118601
"1604",443862
"1605",209183
"1606",99674
"1607",38189
"1608",8364
"1609",20877
"1610",472459
"1611",9066
"1612",1325949
"1613",266841
"1614",248934
"1615",995835
"1616",563845
"1617",576430
"1618",812844
"1619",34419
"1620",19384
"1621",149700
"1622",181553
"1623",461844
"1624",4804495
"1625",1508841
"1626",2368923
"1627",1349346
"1628",9738912
"1629",2484446
"1630",5927155
"1631",2420077
"1632",1080239
"1633",150158
"1634",9667053
"1635",1140064
"1636",7750989
"1637",3903092
"1638",2918775
"1639",16882167
"1640",17569
"1641",277421
"1642",84176
"1643",152678
"1644",141659
"1645",208275
"1646",136046
"1647",252609
"1648",585206
"1649",82751
"1650",690466
"1651",469316
"1652",405613
"1653",14465
"1654",20320
"1655",106150
"1656",1008051
"1657",210380
"1658",833919
"1659",782478
"1660",67973
"1661",271887
"1662",394290
"1663",818984
"1664",671833
"1665",460363
"1666",227880
"1667",164661
"1668",330779
"1669",146893
"1670",196203
"1671",1084039
"1672",24152
"1673",252990
"1674",11818
"1675",164461
"1676",623391
"1677",373461
"1678",174314
"1679",157353
"1680",663457
"1681",87435
"1682",1046360
"1683",21394
"1684",1388202
"1685",209127
"1686",26244
"1687",230314
"1688",552587
"1689",351803
"1690",1511689
"1691",2679145
"1692",3925689
"1693",4787128
"1694",799498
"1695",906558
"1696",485103
"1697",533171
"1698",115372
"1699",120457
"1700",263957
"1701",127298
"1702",326813
"1703",2024374
"1704",178467
"1705",83261
"1706",549516
"1707",477220
"1708",87711
"1709",375303
"1710",174173
"1711",589032
"1712",961436
"1713",1096185
"1714",38105
"1715",648256
"1716",585523
"1717",602890
"1718",80011
"1719",124088
"1720",32858
"1721",547039
"1722",187412
"1723",227343
"1724",439031
"1725",27215
"1726",92440
"1727",631177
"1728",525368
"1729",34902
"1730",90188
"1731",31418
"1732",604246
"1733",95163
"1734",17144
"1735",1869
"1736",137004
"1737",451193
"1738",1011654
"1739",823621
"1740",40038
"1741",1806682
"1742",50851
"1743",241969
"1744",28126
"1745",979721
"1746",22661
"1747",103803
"1748",39092
"1749",434205
"1750",473984
"1751",614204
"1752",24916
"1753",26940
"1754",80387
"1755",113318
"1756",122106
"1757",756716
"1758",62861
"1759",8407
"1760",120494
"1761",1833378
"1762",753717
"1763",764441
"1764",926748
"1765",4537097
"1766",203462
"1767",3040323
"1768",4701654
"1769",297286
"1770",1221049
"1771",355897
"1772",1042782
"1773",3207575
"1774",7116527
"1775",110406
"1776",108048
"1777",105106
"1778",129078
"1779",960899
"1780",662043
"1781",19584
"1782",5500
"1783",158707
"1784",187395
"1785",131547
"1786",257036
"1787",214340
"1788",1045968
"1789",82415
"1790",791923
"1791",-393
"1792",254010
"1793",313089
"1794",189779
"1795",2138725
"1796",42294
"1797",2844133
"1798",1190040
"1799",12772
"1800",360189
"1801",508643
"1802",276502
"1803",2185543
"1804",596252
"1805",367246
"1806",678935
"1807",713838
"1808",1798431
"1809",3781500
"1810",239059
"1811",677586
"1812",574366
"1813",3199540
"1814",90903
"1815",549599
"1816",324310
"1817",368017
"1818",11212
"1819",244993
"1820",36427
"1821",3237221
"1822",931451
"1823",1153280
"1824",1705047
"1825",979425
"1826",4271867
"1827",1000162
"1828",859207
"1829",523606
"1830",478241
"1831",1369362
"1832",393
"1833",64732
"1834",153193
"1835",33987
"1836",105320
"1837",12879
"1838",1021603
"1839",131098
"1840",140186
"1841",13835
"1842",962304
"1843",30
"1844",1078377
"1845",54485
"1846",1870998
"1847",215809
"1848",298285
"1849",137763
"1850",4184575
"1851",405254
"1852",8412
"1853",254283
"1854",301818
"1855",301122
"1856",11864
"1857",3759
"1858",693678
"1859",302281
"1860",-7420
"1861",135281
"1862",134999
"1863",274553
"1864",3840755
"1865",957731
"1866",245914
"1867",156066
"1868",169062
"1869",816316
"1870",302305
"1871",1770625
"1872",444500
"1873",216747
"1874",993831
"1875",3715913
"1876",3542889
"1877",42055
"1878",221835
"1879",323970
"1880",43255
"1881",2675
"1882",1082
"1883",1553
"1884",2537
"1885",1371410
"1886",2211646
"1887",6443337
"1888",873641
"1889",1668277
"1890",150886
"1891",1896214
"1892",638706
"1893",1184279
"1894",102172
"1895",646769
"1896",3978299
"1897",19629510
"1898",3821566
"1899",1790826
"1900",79878
"1901",177741
"1902",455976
"1903",38706
"1904",507912
"1905",131778
"1906",48939
"1907",4281570
"1908",1456373
"1909",556429
"1910",970467
"1911",12342471
"1912",1930404
"1913",15021
"1914",140738
"1915",954511
"1916",52216
"1917",1370985
"1918",981146
"1919",2348146
"1920",124423
"1921",-139656
"1922",1231088
"1923",22023157
"1924",218964
"1925",981167
"1926",165002
"1927",329686
"1928",411458
"1929",6371678
"1930",11452
"1931",8958827
"1932",119989
"1933",1002927
"1934",3339138
"1935",5117185
"1936",313560
"1937",199601
"1938",1857378
"1939",3886127
"1940",691484
"1941",13786531
"1942",2157645
"1943",818370
"1944",89173
"1945",134719
"1946",75277
"1947",359217
"1948",19715
"1949",16520
"1950",21765
"1951",284963
"1952",248291
