"","distances"
"1",365221
"2",966
"3",527133
"4",23143
"5",803868
"6",116267
"7",512155
"8",556565
"9",1024605
"10",1798190
"11",1339684
"12",1249270
"13",650776
"14",455185
"15",29575
"16",614716
"17",880300
"18",1686684
"19",1982090
"20",1209374
"21",1817260
"22",348758
"23",36952
"24",299076
"25",369723
"26",94895
"27",286343
"28",2150286
"29",71231
"30",162523
"31",624077
"32",118219
"33",1374455
"34",-112
"35",848984
"36",723498
"37",379808
"38",803642
"39",3981447
"40",24874
"41",43230
"42",747469
"43",2055848
"44",2499270
"45",247256
"46",1035397
"47",1005597
"48",88724
"49",236294
"50",1933986
"51",311002
"52",37600
"53",80382
"54",566011
"55",82158
"56",60335
"57",643225
"58",14227
"59",576116
"60",128878
"61",1051102
"62",497226
"63",1063152
"64",2764063
"65",303724
"66",221704
"67",871058
"68",1001881
"69",112913
"70",436148
"71",3893517
"72",512311
"73",2625650
"74",2018988
"75",727594
"76",150955
"77",438306
"78",1173586
"79",2027468
"80",56484
"81",5284496
"82",1494476
"83",219655
"84",8974
"85",5921133
"86",550456
"87",69227
"88",2012699
"89",157983
"90",2092242
"91",3809089
"92",420262
"93",520258
"94",538537
"95",455741
"96",161210
"97",1431649
"98",3358477
"99",103542
"100",95167
"101",505600
"102",7842240
"103",28825
"104",69650
"105",233566
"106",335981
"107",169204
"108",431856
"109",10167
"110",539243
"111",223095
"112",1191646
"113",448391
"114",972179
"115",414908
"116",193309
"117",925059
"118",1362079
"119",1923763
"120",507740
"121",25488775
"122",880133
"123",943744
"124",-6436
"125",3012740
"126",217784
"127",66942
"128",150458
"129",160306
"130",17273
"131",160995
"132",94954
"133",579784
"134",129218
"135",38116
"136",1566348
"137",44802
"138",484256
"139",210545
"140",228005
"141",73796
"142",360740
"143",711125
"144",537968
"145",24995
"146",2205592
"147",984989
"148",260522
"149",256995
"150",618268
"151",82806
"152",155401
"153",346223
"154",3902718
"155",62497
"156",1602885
"157",398119
"158",1195491
"159",481664
"160",768461
"161",3124481
"162",1141907
"163",4858617
"164",1047712
"165",1575502
"166",419052
"167",326624
"168",331608
"169",752995
"170",143548
"171",577479
"172",120703
"173",296098
"174",5895300
"175",6058426
"176",2377296
"177",111878
"178",563459
"179",176270
"180",873794
"181",280643
"182",552001
"183",202565
"184",700908
"185",328425
"186",361348
"187",38817
"188",821788
"189",1067638
"190",1819357
"191",22954
"192",79644
"193",545932
"194",706507
"195",850204
"196",2068
"197",3152491
"198",2724428
"199",729225
"200",1573894
"201",1770168
"202",119521
"203",1378891
"204",1683489
"205",100333
"206",2164755
"207",1274772
"208",1261503
"209",122822
"210",1935303
"211",142198
"212",1389574
"213",5630299
"214",6624773
"215",17603
"216",15265
"217",5654404
"218",2677570
"219",168237
"220",469845
"221",546306
"222",1100362
"223",3453812
"224",1898645
"225",3780743
"226",3618139
"227",713291
"228",1970902
"229",66516
"230",675288
"231",142705
"232",-98146
"233",412739
"234",153671
"235",3885599
"236",2955240
"237",488526
"238",230016
"239",1265658
"240",4279677
"241",466575
"242",177993
"243",465448
"244",1972173
"245",155103
"246",33295
"247",1903641
"248",5254400
"249",596296
"250",616397
"251",446072
"252",259984
"253",1865267
"254",2889067
"255",2695971
"256",1419289
"257",3963113
"258",455932
"259",218461
"260",156045
"261",1882213
"262",115995
"263",1045061
"264",237936
"265",1749
"266",4174
"267",86955
"268",10437745
"269",502090
"270",13694
"271",601742
"272",389599
"273",9624650
"274",327176
"275",3749073
"276",4328982
"277",1305527
"278",723441
"279",1490803
"280",1734254
"281",831710
"282",615009
"283",87378
"284",817262
"285",401106
"286",5739831
"287",867504
"288",1432232
"289",4919010
"290",1189886
"291",349531
"292",3209098
"293",1111187
"294",3168047
"295",2625375
"296",5364521
"297",4997417
"298",2314836
"299",506745
"300",1759
"301",759341
"302",2845624
"303",976277
"304",1991266
"305",186663
"306",2414091
"307",1221801
"308",917612
"309",52507
"310",901950
"311",30798
"312",2306648
"313",919351
"314",1213834
"315",691134
"316",4180369
"317",1203686
"318",53693
"319",5214309
"320",4597068
"321",1466136
"322",335267
"323",471939
"324",345626
"325",1325097
"326",5606168
"327",329394
"328",1086970
"329",269246
"330",554272
"331",287125
"332",344140
"333",100147
"334",6579
"335",587002
"336",27108
"337",71266
"338",3739213
"339",605754
"340",3395430
"341",3058888
"342",1585828
"343",549873
"344",2295219
"345",411365
"346",3651792
"347",759005
"348",410984
"349",363005
"350",1793136
"351",325936
"352",114316
"353",2361088
"354",851530
"355",158242
"356",345824
"357",331261
"358",763780
"359",7895778
"360",13491
"361",640565
"362",552539
"363",-163977
"364",5462293
"365",169526
"366",-4698
"367",104383
"368",689010
"369",615337
"370",3039503
"371",320288
"372",259973
"373",1509522
"374",3937002
"375",5966217
"376",3119768
"377",1072462
"378",6187474
"379",54656
"380",995399
"381",2025929
"382",256990
"383",61626
"384",294648
"385",-1486
"386",978272
"387",37886
"388",2977314
"389",350985
"390",23590
"391",657709
"392",190850
"393",53606
"394",809817
"395",352165
"396",891847
"397",380252
"398",648405
"399",1173264
"400",2728145
"401",1744393
"402",130260
"403",7506000
"404",610191
"405",2158780
"406",2829242
"407",550164
"408",2352353
"409",23144336
"410",1044752
"411",30915
"412",146487
"413",1387221
"414",114800
"415",3505887
"416",7019894
"417",6251027
"418",148305
"419",282308
"420",2592489
"421",32976
"422",1166869
"423",1562313
"424",8661
"425",799849
"426",1628222
"427",572208
"428",312619
"429",269651
"430",1586671
"431",1330144
"432",1023514
"433",27599
"434",4265176
"435",433657
"436",372430
"437",202957
"438",3137905
"439",230125
"440",3068325
"441",1688825
"442",1311743
"443",1369150
"444",3304255
"445",1254248
"446",795073
"447",1550671
"448",2019717
"449",5203656
"450",1845826
"451",2060023
"452",1092202
"453",8414298
"454",57506
"455",343368
"456",565077
"457",365881
"458",2025444
"459",371456
"460",79879
"461",490212
"462",1006533
"463",951
"464",1441388
"465",2878175
"466",2016958
"467",473361
"468",124339
"469",543034
"470",263940
"471",1365000
"472",727741
"473",273398
"474",946478
"475",250640
"476",894519
"477",1194795
"478",1952521
"479",400154
"480",64956
"481",330969
"482",1312151
"483",5210400
"484",2598962
"485",3933120
"486",75721
"487",1592164
"488",1238987
"489",1329886
"490",14179495
"491",42910
"492",44433
"493",1143383
"494",1191659
"495",2021322
"496",1547501
"497",248600
"498",269315
"499",24352
"500",5995582
"501",308384
"502",1281419
"503",480520
"504",488328
"505",126
"506",183409
"507",10786849
"508",3517061
"509",4368863
"510",123697
"511",157511
"512",735559
"513",786515
"514",4957183
"515",248610
"516",122429
"517",1213754
"518",1023616
"519",565478
"520",96296
"521",81949
"522",476607
"523",6374080
"524",89741
"525",5236893
"526",2199309
"527",2269194
"528",420694
"529",1820536
"530",132498
"531",451610
"532",111628
"533",3776279
"534",6575592
"535",6020882
"536",7656383
"537",9976311
"538",289633
"539",4059897
"540",2406230
"541",845294
"542",344872
"543",6363451
"544",28286
"545",411268
"546",6688939
"547",1235064
"548",2377837
"549",336549
"550",3272081
"551",913231
"552",1880293
"553",1153199
"554",7313092
"555",599431
"556",759153
"557",216702
"558",1104991
"559",11888965
"560",637232
"561",36934
"562",1819709
"563",15022352
"564",420702
"565",3644355
"566",304241
"567",1868452
"568",2154046
"569",73917
"570",2209132
"571",290744
"572",9492449
"573",8047646
"574",169799
"575",759992
"576",1969008
"577",156618
"578",647165
"579",3494725
"580",1694901
"581",1265467
"582",1177762
"583",2168489
"584",998562
"585",690189
"586",1991509
"587",304663
"588",404682
"589",83665
"590",1317042
"591",800641
"592",586767
"593",4498535
"594",925863
"595",61962
"596",5198969
"597",27849
"598",1075261
"599",123352
"600",3352045
"601",12435358
"602",2089820
"603",482512
"604",5549199
"605",1013551
"606",3336934
"607",922191
"608",3690404
"609",895996
"610",25546
"611",1719097
"612",250222
"613",1720947
"614",2163849
"615",28462
"616",921277
"617",130718
"618",479344
"619",49023
"620",-37013
"621",98693
"622",107202
"623",472739
"624",33994
"625",10744
"626",152288
"627",-152937
"628",126323
"629",340330
"630",297386
"631",5064356
"632",873879
"633",1109111
"634",966112
"635",441492
"636",54268
"637",2768466
"638",637075
"639",2209039
"640",2866244
"641",3372026
"642",5170201
"643",4341733
"644",4630329
"645",627271
"646",1903857
"647",850145
"648",181607
"649",367408
"650",1949015
"651",105
"652",314893
"653",1220562
"654",140080
"655",2841493
"656",312395
"657",105072
"658",2239150
"659",3994693
"660",51839
"661",2114522
"662",3913723
"663",2122709
"664",79521
"665",23917
"666",1675938
"667",68105
"668",209361
"669",1272658
"670",206642
"671",168417
"672",611480
"673",1127569
"674",360408
"675",9973
"676",463944
"677",175703
"678",102118
"679",35084
"680",262398
"681",12792
"682",16005
"683",1896477
"684",220518
"685",945691
"686",380727
"687",39177
"688",4047329
"689",-24842
"690",58530
"691",758002
"692",273755
"693",796238
"694",32731
"695",165823
"696",70226
"697",267353
"698",497794
"699",151286
"700",89837
"701",1679567
"702",74037
"703",5870151
"704",471393
"705",4884272
"706",17276174
"707",498869
"708",4187110
"709",97074
"710",2695223
"711",2255648
"712",3868845
"713",7150278
"714",8480186
"715",140391
"716",642339
"717",1164167
"718",207589
"719",1733123
"720",566343
"721",194416
"722",58812
"723",660741
"724",54054
"725",2096249
"726",1459444
"727",193415
"728",66786
"729",227405
"730",794546
"731",8178619
"732",24751
"733",1308466
"734",96734
"735",7500987
"736",394745
"737",626226
"738",271745
"739",8879565
"740",5549364
"741",5384472
"742",1425695
"743",121002
"744",153459
"745",668870
"746",1384793
"747",7018769
"748",121397
"749",1028745
"750",41579
"751",-93684
"752",508069
"753",244788
"754",2672746
"755",633610
"756",415589
"757",1490874
"758",9363919
"759",4772086
"760",1322986
"761",995102
"762",1640480
"763",1031186
"764",1935800
"765",234848
"766",294018
"767",56835
"768",2280098
"769",157462
"770",2689483
"771",56285
"772",712333
"773",1453673
"774",3436497
"775",2052846
"776",154248
"777",65848
"778",62055
"779",492010
"780",87614
"781",174911
"782",81322
"783",725943
"784",8830376
"785",9906109
"786",82806
"787",1039485
"788",1035610
"789",5589906
"790",3150136
"791",307885
"792",85039
"793",783676
"794",593880
"795",2570995
"796",6516883
"797",125094
"798",805323
"799",4220455
"800",27588
"801",76390
"802",4279996
"803",925122
"804",42746
"805",716997
"806",264541
"807",53225
"808",42658
"809",457036
"810",47265
"811",67044
"812",287865
"813",698238
"814",1934183
"815",4019401
"816",360955
"817",165233
"818",385956
"819",3749871
"820",8444224
"821",130275
"822",575645
"823",1687032
"824",4901675
"825",951305
"826",219102
"827",211766
"828",4884593
"829",491701
"830",1533923
"831",531114
"832",458267
"833",543751
"834",2512352
"835",-25
"836",1153192
"837",6468682
"838",877194
"839",4609552
"840",1233075
"841",4431955
"842",-32900
"843",91159
"844",4661797
"845",1607453
"846",2503268
"847",1355350
"848",4657715
"849",442286
"850",1748982
"851",1456815
"852",131069
"853",626709
"854",179460
"855",3488237
"856",2197055
"857",117910
"858",4136495
"859",3502857
"860",1231658
"861",479001
"862",4104984
"863",4624313
"864",211653
"865",6091965
"866",1801728
"867",5075055
"868",969703
"869",256502
"870",1030070
"871",93692
"872",4245518
"873",656009
"874",1105605
"875",4729452
"876",5339284
"877",4611671
"878",110786
"879",694107
"880",-82
"881",100501
"882",3855783
"883",184393
"884",88235
"885",1224150
"886",3538804
"887",355750
"888",1644718
"889",587239
"890",477651
"891",13259133
"892",3106792
"893",329848
"894",2335992
"895",345338
"896",81539
"897",227250
"898",1183045
"899",408038
"900",8016443
"901",9039104
"902",87780
"903",996960
"904",99793
"905",948791
"906",181002
"907",3940913
"908",122090
"909",708460
"910",1061898
"911",8347529
"912",4210706
"913",1625970
"914",5915403
"915",46211
"916",6034704
"917",1084601
"918",144187
"919",434567
"920",579287
"921",168436
"922",1383535
"923",1034515
"924",1410901
"925",29311245
"926",2408751
"927",1335067
"928",1326972
"929",395366
"930",3149878
"931",3253590
"932",2018289
"933",123320
"934",46618
"935",687935
"936",519469
"937",1983490
"938",1274378
"939",2230278
"940",960105
"941",88858
"942",410796
"943",395205
"944",3185985
"945",2287876
"946",835841
"947",331736
"948",675770
"949",208716
"950",3184344
"951",4174059
"952",690044
"953",101895
"954",2511414
"955",503326
"956",1069664
"957",193341
"958",6476490
"959",103158
"960",917047
"961",568763
"962",15925
"963",450829
"964",877282
"965",423851
"966",47245
"967",268840
"968",10603
"969",27636
"970",380138
"971",359472
"972",940633
"973",483098
"974",401201
"975",49237
"976",393694
"977",196604
"978",66507
"979",-239
"980",1430019
"981",487209
"982",1656678
"983",72612
"984",327340
"985",674013
"986",282432
"987",1038494
"988",921677
"989",558143
"990",91091
"991",603155
"992",1627270
"993",306760
"994",101507
"995",1772775
"996",5529443
"997",1863345
"998",407108
"999",963446
"1000",1529588
"1001",1134600
"1002",2805650
"1003",1461596
"1004",258311
"1005",4395059
"1006",3150474
"1007",10547530
"1008",3099603
"1009",1554943
"1010",171164
"1011",10589864
"1012",6549337
"1013",188500
"1014",802622
"1015",108901
"1016",1457532
"1017",244185
"1018",53520
"1019",2229202
"1020",243273
"1021",81449
"1022",154215
"1023",297034
"1024",5925497
"1025",328917
"1026",1438199
"1027",1152261
"1028",2805373
"1029",87226
"1030",247870
"1031",301731
"1032",6654799
"1033",1807286
"1034",996993
"1035",10066
"1036",3083055
"1037",1221327
"1038",281977
"1039",84138
"1040",666660
"1041",31983
"1042",466068
"1043",732993
"1044",108971
"1045",42239
"1046",5601656
"1047",2815109
"1048",851436
"1049",313149
"1050",3999371
"1051",930614
"1052",485703
"1053",214892
"1054",2887491
"1055",855414
"1056",1760169
"1057",705431
"1058",3349579
"1059",25582
"1060",2147633
"1061",944154
"1062",83731
"1063",28172
"1064",83
"1065",317129
"1066",158141
"1067",1424084
"1068",458725
"1069",3781453
"1070",196103
"1071",801987
"1072",458874
"1073",390006
"1074",353005
"1075",315643
"1076",1242186
"1077",139298
"1078",2475027
"1079",3225866
"1080",317508
"1081",-57
"1082",1260353
"1083",3272702
"1084",4757368
"1085",238152
"1086",5357168
"1087",1193560
"1088",1330667
"1089",765988
"1090",6893728
"1091",185625
"1092",2746244
"1093",82909
"1094",911403
"1095",9590954
"1096",169640
"1097",100883
"1098",222440
"1099",707325
"1100",630290
"1101",593184
"1102",567610
"1103",903500
"1104",781377
"1105",280379
"1106",1678303
"1107",31037
"1108",31756
"1109",793761
"1110",5799
"1111",739070
"1112",45665
"1113",129168
"1114",397019
"1115",1531241
"1116",283327
"1117",305345
"1118",2583783
"1119",1123273
"1120",1655727
"1121",94893
"1122",2158991
"1123",1544550
"1124",4840749
"1125",168605
"1126",20045
"1127",718189
"1128",367950
"1129",1340682
"1130",5403804
"1131",6922904
"1132",1402391
"1133",8828171
"1134",834516
"1135",62248
"1136",794
"1137",951995
"1138",676049
"1139",7111
"1140",86745
"1141",2785118
"1142",781566
"1143",250366
"1144",136618
"1145",566646
"1146",1095484
"1147",151385
"1148",962267
"1149",3320428
"1150",55056
"1151",383451
"1152",4568619
"1153",260114
"1154",3603279
"1155",17256
"1156",363139
"1157",777122
"1158",2485094
"1159",343745
"1160",1767920
"1161",22369
"1162",1972
"1163",185367
"1164",54983
"1165",46311
"1166",75520
"1167",4011
"1168",17434
"1169",848198
"1170",122027
"1171",1581576
"1172",2696994
"1173",117143
"1174",634333
"1175",1283722
"1176",3512520
"1177",1083938
"1178",1543799
"1179",106713
"1180",256152
"1181",3165891
"1182",1743221
"1183",277318
"1184",2011393
"1185",2289948
"1186",997209
"1187",11108580
"1188",624910
"1189",678566
"1190",11091
"1191",1087483
"1192",469423
"1193",946164
"1194",140147
"1195",38212
"1196",1243948
"1197",639926
"1198",161146
"1199",107904
"1200",1772768
"1201",88973
"1202",1093895
"1203",1373474
"1204",13573
"1205",347041
"1206",48452
"1207",151313
"1208",161774
"1209",155965
"1210",267853
"1211",605892
"1212",1150592
"1213",4901499
"1214",683106
"1215",1418988
"1216",58111
"1217",2017821
"1218",278458
"1219",14833
"1220",724540
"1221",158892
"1222",1970651
"1223",3591443
"1224",1891953
"1225",11154799
"1226",5707448
"1227",264
"1228",170730
"1229",1391384
"1230",1691364
"1231",3277494
"1232",895537
"1233",5602066
"1234",1003871
"1235",252826
"1236",2245013
"1237",945210
"1238",59202
"1239",4842499
"1240",2205304
"1241",68910
"1242",49586
"1243",190929
"1244",298622
"1245",901360
"1246",1359941
"1247",267626
"1248",256054
"1249",-986
"1250",-42198
"1251",870812
"1252",95634
"1253",1105129
"1254",1389650
"1255",2465110
"1256",2079021
"1257",1402413
"1258",1085446
"1259",606020
"1260",2485538
"1261",2418022
"1262",7082212
"1263",92376
"1264",1226583
"1265",4159465
"1266",607
"1267",170320
"1268",1116757
"1269",198214
"1270",69836
"1271",130191
"1272",874718
"1273",59468
"1274",19987937
"1275",2769021
"1276",2346042
"1277",5901676
"1278",10691658
"1279",116459
"1280",3426316
"1281",338253
"1282",9164615
"1283",1997328
"1284",2886401
"1285",410644
"1286",207006
"1287",507921
"1288",1295411
"1289",767133
"1290",748443
"1291",21441
"1292",45036
"1293",8490
"1294",67408
"1295",2326
"1296",491620
"1297",4526182
"1298",1254138
"1299",32446
"1300",214890
"1301",775205
"1302",1317670
"1303",123897
"1304",421569
"1305",2321778
"1306",6946821
"1307",4439565
"1308",139940
"1309",429472
"1310",90592
"1311",1443677
"1312",967517
"1313",1413815
"1314",330795
"1315",220979
"1316",705956
"1317",4433216
"1318",1498
"1319",2615681
"1320",798508
"1321",4345422
"1322",1089087
"1323",438941
"1324",2609720
"1325",1029638
"1326",409227
"1327",1152685
"1328",1765486
"1329",3717500
"1330",6616443
"1331",472113
"1332",1841769
"1333",1707861
"1334",581890
"1335",1170192
"1336",682769
"1337",1768056
"1338",1436183
"1339",994755
"1340",1264997
"1341",1665555
"1342",131313
"1343",177678
"1344",589677
"1345",505500
"1346",531200
"1347",508712
"1348",30565
"1349",217281
"1350",162456
"1351",119240
"1352",18737
"1353",53223
"1354",46433
"1355",206141
"1356",871706
"1357",927732
"1358",1813112
"1359",102816
"1360",1780100
"1361",263279
"1362",5501159
"1363",261313
"1364",197111
"1365",274320
"1366",50804
"1367",892183
"1368",55888
"1369",46679
"1370",26857
"1371",1005937
"1372",815602
"1373",47809
"1374",642247
"1375",3005979
"1376",3035504
"1377",108597
"1378",-9270
"1379",3438719
"1380",103312
"1381",344190
"1382",386915
"1383",641881
"1384",402697
"1385",367309
"1386",3945213
"1387",49885
"1388",133957
"1389",2133337
"1390",1184524
"1391",620771
"1392",1777103
"1393",2933139
"1394",1602447
"1395",179049
"1396",269105
"1397",4046382
"1398",1522196
"1399",640950
"1400",1090002
"1401",679732
"1402",373834
"1403",991293
"1404",439402
"1405",3919437
"1406",220805
"1407",191833
"1408",269038
"1409",112176
"1410",419061
"1411",192922
"1412",112502
"1413",2397946
"1414",4932693
"1415",1165479
"1416",826219
"1417",833718
"1418",23379
"1419",148693
"1420",451610
"1421",1067812
"1422",143239
"1423",18726
"1424",1053585
"1425",107394
"1426",162601
"1427",925091
"1428",207863
"1429",60727
"1430",4490934
"1431",-16792
"1432",640223
"1433",345668
"1434",967024
"1435",197469
"1436",808214
"1437",1944049
"1438",272440
"1439",538307
"1440",2731355
"1441",665659
"1442",475145
"1443",9663
"1444",551067
"1445",458532
"1446",521677
"1447",76774
"1448",295187
"1449",1597342
"1450",4995587
"1451",477867
"1452",997387
"1453",144047
"1454",71923
"1455",12523
"1456",26477
"1457",582922
"1458",242343
"1459",66538
"1460",18092
"1461",15406418
"1462",529826
"1463",3851913
"1464",3742568
"1465",854761
"1466",163536
"1467",398397
"1468",102606
"1469",759071
"1470",8593132
"1471",181882
"1472",38690
"1473",203009
"1474",33152
"1475",472741
"1476",267237
"1477",906517
"1478",1071160
"1479",633930
"1480",813567
"1481",2202344
"1482",315106
"1483",46074
"1484",668223
"1485",71247
"1486",1634549
"1487",897008
"1488",373176
"1489",940020
"1490",455738
"1491",3112173
"1492",641217
"1493",1553761
"1494",874896
"1495",288758
"1496",133876
"1497",557983
"1498",202526
"1499",26530
"1500",28845
"1501",17993
"1502",405953
"1503",49966
"1504",430831
"1505",101000
"1506",306721
"1507",761595
"1508",193397
"1509",586209
"1510",1240184
"1511",-1149
"1512",19299
"1513",10723
"1514",599591
"1515",132210
"1516",393262
"1517",181408
"1518",107231
"1519",55100
"1520",1215653
"1521",521461
"1522",41945
"1523",18742
"1524",236428
"1525",14816
"1526",462
"1527",64514
"1528",198917
"1529",45107
"1530",208349
"1531",121257
"1532",99080
"1533",495661
"1534",55830
"1535",666609
"1536",5031226
"1537",236907
"1538",223023
"1539",651247
"1540",72709
"1541",51531
"1542",729521
"1543",121551
"1544",381105
"1545",641540
"1546",701180
"1547",108145
"1548",191795
"1549",36366
"1550",397026
"1551",746524
"1552",91407
"1553",6314558
"1554",686042
"1555",315082
"1556",11597
"1557",7468
"1558",207058
"1559",568718
"1560",976068
"1561",49175
"1562",178886
"1563",639479
"1564",3573750
"1565",3290996
"1566",999271
"1567",291703
"1568",1528544
"1569",153216
"1570",737071
"1571",32106
"1572",25681
"1573",106768
"1574",33775
"1575",208876
"1576",546080
"1577",225558
"1578",182742
"1579",472956
"1580",333561
"1581",47858
"1582",1060222
"1583",726352
"1584",673952
"1585",211825
"1586",84757
"1587",10299
"1588",1342562
"1589",768384
"1590",633018
"1591",335077
"1592",1845571
"1593",1862369
"1594",577347
"1595",2146209
"1596",350325
"1597",802406
"1598",502487
"1599",336839
"1600",177713
"1601",3016056
"1602",1224564
"1603",659962
"1604",772826
"1605",1501715
"1606",477313
"1607",2979132
"1608",2199790
"1609",683043
"1610",118601
"1611",78691
"1612",360472
"1613",54139
"1614",280957
"1615",1886587
"1616",65240
"1617",169545
"1618",1676555
"1619",69379
"1620",782267
"1621",500454
"1622",157327
"1623",19433
"1624",160195
"1625",19384
"1626",17279
"1627",393310
"1628",280488
"1629",2578980
"1630",677739
"1631",2283720
"1632",566189
"1633",478729
"1634",2796188
"1635",706462
"1636",1842600
"1637",12891201
"1638",5927155
"1639",2420077
"1640",7063362
"1641",5019573
"1642",3076673
"1643",4091395
"1644",516291
"1645",1637700
"1646",2211000
"1647",2918775
"1648",528332
"1649",142913
"1650",649797
"1651",2481304
"1652",7829961
"1653",2520883
"1654",1935602
"1655",17569
"1656",441486
"1657",113975
"1658",450473
"1659",32873
"1660",335308
"1661",187162
"1662",8184
"1663",414462
"1664",1580260
"1665",824
"1666",978501
"1667",106150
"1668",1860629
"1669",1294305
"1670",443792
"1671",91874
"1672",855258
"1673",311453
"1674",106097
"1675",42077
"1676",109879
"1677",299574
"1678",848252
"1679",727277
"1680",191033
"1681",202627
"1682",24111
"1683",59913
"1684",11516
"1685",136511
"1686",225836
"1687",184066
"1688",790046
"1689",427109
"1690",281076
"1691",686234
"1692",462416
"1693",389950
"1694",392102
"1695",617546
"1696",411309
"1697",68863
"1698",396596
"1699",187812
"1700",607516
"1701",19382
"1702",505133
"1703",1244197
"1704",11521018
"1705",621212
"1706",161100
"1707",1071535
"1708",440180
"1709",633819
"1710",164330
"1711",268835
"1712",206345
"1713",147290
"1714",249476
"1715",1389721
"1716",219495
"1717",691398
"1718",64441
"1719",23795
"1720",44464
"1721",947059
"1722",856882
"1723",510
"1724",834425
"1725",105469
"1726",1198031
"1727",23255
"1728",1189185
"1729",558213
"1730",61646
"1731",31400
"1732",237802
"1733",164508
"1734",436783
"1735",73244
"1736",151114
"1737",113745
"1738",49542
"1739",669693
"1740",189666
"1741",21514
"1742",511771
"1743",578156
"1744",41929
"1745",322760
"1746",9946
"1747",144219
"1748",35310
"1749",95163
"1750",808143
"1751",1792818
"1752",653333
"1753",272470
"1754",212837
"1755",23272
"1756",579839
"1757",241969
"1758",180258
"1759",815457
"1760",2025368
"1761",425787
"1762",451007
"1763",164323
"1764",822485
"1765",120494
"1766",1152578
"1767",1143263
"1768",71262
"1769",158922
"1770",764441
"1771",1182445
"1772",4360956
"1773",203462
"1774",3040323
"1775",4156711
"1776",517560
"1777",3258027
"1778",1290283
"1779",312441
"1780",7004309
"1781",1420051
"1782",36013
"1783",332701
"1784",484882
"1785",960899
"1786",662043
"1787",1001063
"1788",110421
"1789",72615
"1790",1045968
"1791",82415
"1792",279583
"1793",509853
"1794",-393
"1795",254010
"1796",2743095
"1797",2893288
"1798",468865
"1799",220453
"1800",761762
"1801",700417
"1802",25020
"1803",2557047
"1804",596827
"1805",3451106
"1806",597940
"1807",2141337
"1808",874460
"1809",365394
"1810",677586
"1811",574366
"1812",904286
"1813",2446819
"1814",416315
"1815",124119
"1816",1032660
"1817",256856
"1818",2934832
"1819",176020
"1820",9016361
"1821",6479068
"1822",543591
"1823",597162
"1824",4790702
"1825",1916138
"1826",1063096
"1827",918129
"1828",345322
"1829",523606
"1830",478241
"1831",1780183
"1832",1803084
"1833",347149
"1834",459337
"1835",381034
"1836",761817
"1837",1588146
"1838",245585
"1839",335952
"1840",14742
"1841",787060
"1842",1950546
"1843",2644763
"1844",220633
"1845",391765
"1846",523769
"1847",32251
"1848",26599
"1849",314431
"1850",1533157
"1851",2321989
"1852",1092976
"1853",1168507
"1854",169062
"1855",53643
"1856",17017
"1857",124073
"1858",372430
"1859",10956
"1860",23903
"1861",40209
"1862",605543
"1863",62372
"1864",526685
"1865",965714
"1866",108978
"1867",47905
"1868",379585
"1869",366179
"1870",407170
"1871",1715276
"1872",1422064
"1873",4082262
"1874",443808
"1875",1034
"1876",1573
"1877",1082
"1878",1553
"1879",1374015
"1880",826792
"1881",6026069
"1882",993160
"1883",229265
"1884",12467
"1885",2553695
"1886",150886
"1887",1896214
"1888",423264
"1889",304454
"1890",1158282
"1891",2971238
"1892",1798729
"1893",1788338
"1894",771861
"1895",3914722
"1896",1140954
"1897",7746194
"1898",3287060
"1899",2030783
"1900",2430318
"1901",4379204
"1902",16991911
"1903",529574
"1904",319899
"1905",954511
"1906",848737
"1907",816104
"1908",981146
"1909",2753924
"1910",1309989
"1911",1834276
"1912",20092277
"1913",218964
"1914",1655690
"1915",496846
"1916",4362988
"1917",4335006
"1918",6558245
"1919",119989
"1920",280404
"1921",551165
"1922",3131196
"1923",227156
"1924",5357315
"1925",110920
"1926",2273263
"1927",1316265
"1928",251152
"1929",523359
"1930",235134
"1931",1179674
"1932",409065
"1933",58843
"1934",3243946
"1935",7959672
"1936",2515873
"1937",2157645
"1938",1509468
"1939",105783
"1940",40700
"1941",288216
