"","distances"
"1",498699
"2",367397
"3",202368
"4",48405
"5",19556
"6",6623
"7",38424
"8",96274
"9",100164
"10",721157
"11",-41293
"12",51144
"13",645818
"14",421483
"15",13507
"16",2634142
"17",71701
"18",114107
"19",2532851
"20",650776
"21",455185
"22",1254336
"23",114446
"24",9385
"25",121250
"26",216516
"27",55863
"28",2873101
"29",280635
"30",38516
"31",1409
"32",1042590
"33",1817260
"34",348758
"35",1222263
"36",1942618
"37",552866
"38",600597
"39",1549685
"40",68497
"41",117259
"42",75003
"43",821983
"44",94023
"45",478815
"46",595520
"47",110760
"48",654066
"49",2245579
"50",731188
"51",70665
"52",526381
"53",118292
"54",116419
"55",2055848
"56",75819
"57",666817
"58",61647
"59",274869
"60",1028138
"61",52042
"62",264762
"63",9918
"64",18337
"65",813374
"66",166495
"67",1005597
"68",88724
"69",236294
"70",1010022
"71",646502
"72",64920
"73",926336
"74",43322
"75",426899
"76",22968
"77",124931
"78",707962
"79",550613
"80",61704
"81",4595593
"82",1433649
"83",130964
"84",197544
"85",1615045
"86",2562
"87",4070522
"88",2958079
"89",1262095
"90",1239508
"91",5721
"92",145060
"93",188507
"94",1766251
"95",615481
"96",2208957
"97",56484
"98",5284496
"99",1992049
"100",8974
"101",705901
"102",5412253
"103",401328
"104",51816
"105",69227
"106",2012699
"107",157983
"108",2092242
"109",384785
"110",394771
"111",1324155
"112",1775050
"113",587553
"114",6158179
"115",103542
"116",95167
"117",505600
"118",7561022
"119",400960
"120",233566
"121",85528
"122",163277
"123",1765054
"124",946805
"125",60062
"126",1273923
"127",23991
"128",604979
"129",34047
"130",1259604
"131",1793431
"132",26957635
"133",728560
"134",1330681
"135",-10018
"136",2627551
"137",1326359
"138",132055
"139",357699
"140",219351
"141",1540209
"142",78011
"143",44802
"144",117982
"145",6141
"146",208608
"147",502807
"148",92018
"149",8943
"150",146780
"151",68104
"152",683984
"153",330558
"154",39614
"155",15783
"156",374234
"157",1413022
"158",646421
"159",984989
"160",433449
"161",774686
"162",71659
"163",99862
"164",1415362
"165",2818044
"166",62497
"167",-224
"168",1182427
"169",301475
"170",398119
"171",1651809
"172",219438
"173",637862
"174",109282
"175",1630770
"176",739648
"177",9816147
"178",3526199
"179",5895300
"180",5322616
"181",731090
"182",2377296
"183",292809
"184",359904
"185",1077575
"186",894323
"187",746620
"188",665514
"189",246085
"190",1864185
"191",1973105
"192",175541
"193",470687
"194",1609241
"195",630319
"196",2551566
"197",2724428
"198",5506775
"199",234740
"200",54756
"201",1545669
"202",549469
"203",1119325
"204",426899
"205",1137708
"206",1665068
"207",91566
"208",1612753
"209",1389574
"210",1831506
"211",267020
"212",437701
"213",5290440
"214",5582862
"215",2910642
"216",5300963
"217",168237
"218",469845
"219",346811
"220",108433
"221",666264
"222",370088
"223",5370585
"224",3780743
"225",3618139
"226",415471
"227",19032
"228",1970902
"229",305516
"230",29984
"231",82715
"232",38449
"233",56913
"234",10708
"235",362030
"236",-98146
"237",3526159
"238",4832410
"239",1328408
"240",604111
"241",611715
"242",3451569
"243",290462
"244",2297662
"245",8901139
"246",446072
"247",5900715
"248",1986797
"249",1419289
"250",1000815
"251",2821881
"252",843734
"253",692167
"254",458777
"255",1546652
"256",575895
"257",53167
"258",402193
"259",68970
"260",63967
"261",300633
"262",9530164
"263",511048
"264",536253
"265",508569
"266",57198
"267",1240987
"268",1054904
"269",6336272
"270",1099082
"271",593722
"272",212826
"273",561081
"274",944472
"275",1773345
"276",4620327
"277",644937
"278",2483637
"279",1734254
"280",6463
"281",791356
"282",615009
"283",87378
"284",875934
"285",8447995
"286",4919010
"287",1189886
"288",2264207
"289",1539625
"290",2352579
"291",4047180
"292",5364521
"293",6937897
"294",826744
"295",475601
"296",5018447
"297",2223804
"298",936595
"299",3417403
"300",3612183
"301",1016796
"302",1178759
"303",691134
"304",5243913
"305",719727
"306",312335
"307",19059
"308",3375371
"309",9033620
"310",5812044
"311",525627
"312",329394
"313",2660862
"314",918469
"315",3876209
"316",605754
"317",970077
"318",496704
"319",7637578
"320",2176541
"321",10333
"322",345330
"323",619612
"324",252047
"325",2880730
"326",1396456
"327",3504438
"328",418736
"329",1740657
"330",314075
"331",460907
"332",853177
"333",174973
"334",5514543
"335",226608
"336",91091
"337",2937162
"338",26064
"339",3653867
"340",159127
"341",521034
"342",503781
"343",68188
"344",-4698
"345",281922
"346",1234892
"347",812251
"348",815498
"349",1304429
"350",107895
"351",1199825
"352",452352
"353",66568
"354",5446843
"355",3426130
"356",4173470
"357",607565
"358",376167
"359",169121
"360",4661758
"361",27847
"362",240639
"363",554498
"364",74847
"365",4162263
"366",-1486
"367",914356
"368",2720220
"369",171831
"370",621748
"371",10206
"372",154794
"373",62868
"374",329124
"375",7414
"376",68172
"377",190850
"378",446607
"379",473786
"380",54412
"381",1190053
"382",302759
"383",247411
"384",15161
"385",112993
"386",40752
"387",70315
"388",1323940
"389",22834
"390",1573727
"391",1129594
"392",585110
"393",263594
"394",860786
"395",130260
"396",5270789
"397",2130157
"398",-9319
"399",497044
"400",5738067
"401",134871
"402",20993717
"403",5701596
"404",146487
"405",38180
"406",307933
"407",11783543
"408",1086339
"409",5203911
"410",148305
"411",2938877
"412",356772
"413",488472
"414",2079100
"415",976689
"416",916111
"417",316965
"418",632299
"419",45047
"420",312619
"421",153478
"422",114667
"423",1586671
"424",111747
"425",1151463
"426",5383893
"427",231830
"428",600272
"429",3591941
"430",5734102
"431",248333
"432",134742
"433",7318085
"434",1550671
"435",2019717
"436",9468681
"437",1329
"438",8091183
"439",478562
"440",1645126
"441",2025444
"442",690382
"443",109151
"444",117023
"445",28577
"446",1006533
"447",823678
"448",205166
"449",782532
"450",2259340
"451",59449
"452",2016958
"453",29051
"454",674983
"455",438322
"456",1724632
"457",594932
"458",124409
"459",199395
"460",46024
"461",479967
"462",98070
"463",139348
"464",31410
"465",397138
"466",121677
"467",642567
"468",888658
"469",528452
"470",734069
"471",2391879
"472",64956
"473",1255430
"474",7180986
"475",780519
"476",4376142
"477",5823530
"478",12772668
"479",228156
"480",832071
"481",1191659
"482",5478678
"483",3781467
"484",1912497
"485",1788926
"486",488328
"487",126
"488",14598088
"489",4368863
"490",123697
"491",157511
"492",1550921
"493",4421511
"494",38537
"495",479565
"496",248610
"497",5307509
"498",9552842
"499",2903919
"500",1281887
"501",33389
"502",2813731
"503",-1211
"504",6281482
"505",1008412
"506",11554472
"507",2288889
"508",124573
"509",1053390
"510",10549128
"511",5357187
"512",4949095
"513",1413047
"514",6363451
"515",493361
"516",4651706
"517",2016362
"518",2717973
"519",5964870
"520",156797
"521",10104542
"522",746512
"523",100032
"524",565669
"525",759443
"526",12903434
"527",16321965
"528",310264
"529",420702
"530",2311297
"531",1172416
"532",724798
"533",1490373
"534",700459
"535",1050033
"536",2815619
"537",9184710
"538",1651555
"539",2463218
"540",1997363
"541",810153
"542",759992
"543",6680511
"544",120855
"545",1555017
"546",3673464
"547",2074619
"548",690189
"549",739972
"550",1512240
"551",1329734
"552",220228
"553",800641
"554",586767
"555",12140474
"556",2074390
"557",1122963
"558",482708
"559",10483321
"560",1082502
"561",3920715
"562",5549199
"563",1013551
"564",317833
"565",4640864
"566",2586308
"567",793391
"568",74437
"569",1576301
"570",109578
"571",250222
"572",461905
"573",22598
"574",1104251
"575",69027
"576",1612446
"577",1579841
"578",130718
"579",546209
"580",119762
"581",134048
"582",668180
"583",-99992
"584",2037
"585",6764880
"586",2158244
"587",271425
"588",154423
"589",2881024
"590",637075
"591",4280616
"592",12209603
"593",1376652
"594",6044
"595",174671
"596",443127
"597",271620
"598",1515086
"599",708625
"600",46464
"601",606127
"602",220009
"603",27818
"604",5985
"605",227499
"606",520649
"607",1399993
"608",252040
"609",392831
"610",2537512
"611",6034781
"612",1534732
"613",1871176
"614",148465
"615",51839
"616",8377536
"617",1881000
"618",117997
"619",1659165
"620",552800
"621",281847
"622",268741
"623",348833
"624",106407
"625",145121
"626",61813
"627",73404
"628",170620
"629",784933
"630",231351
"631",84863
"632",1167660
"633",679188
"634",220518
"635",945691
"636",476998
"637",367674
"638",88182
"639",1604142
"640",1957756
"641",584002
"642",44090
"643",131047
"644",1007318
"645",15510
"646",74809
"647",111493
"648",44122
"649",280218
"650",67121
"651",613144
"652",129635
"653",1430401
"654",140388
"655",985817
"656",4734860
"657",4516646
"658",16207976
"659",1936274
"660",41536
"661",7667412
"662",2255648
"663",3868845
"664",10130110
"665",5527849
"666",140391
"667",2086874
"668",1780596
"669",947852
"670",1244770
"671",5686817
"672",7617420
"673",654703
"674",5593722
"675",3332149
"676",3300475
"677",5072614
"678",331654
"679",76488
"680",2777302
"681",2453539
"682",3252263
"683",1403925
"684",3598856
"685",468194
"686",121002
"687",906173
"688",1373660
"689",5725121
"690",364926
"691",372669
"692",41579
"693",-93684
"694",1572690
"695",2381019
"696",406316
"697",418914
"698",178334
"699",247562
"700",309944
"701",4146566
"702",5476501
"703",209836
"704",5952587
"705",178744
"706",1206987
"707",4237118
"708",1088856
"709",56835
"710",2438031
"711",7004346
"712",2967102
"713",826457
"714",68552
"715",290739
"716",271995
"717",87614
"718",174911
"719",10288979
"720",10439424
"721",669204
"722",346106
"723",5639846
"724",731585
"725",1188955
"726",1001365
"727",-18
"728",307885
"729",1232980
"730",2729504
"731",1267167
"732",7939923
"733",1732832
"734",203537
"735",5415785
"736",716997
"737",181810
"738",42379
"739",19306
"740",631583
"741",34494
"742",20409
"743",1061724
"744",1688801
"745",367525
"746",781468
"747",3682923
"748",8003418
"749",1550755
"750",309893
"751",2594496
"752",130275
"753",6049346
"754",148694
"755",883118
"756",146239
"757",119248
"758",828758
"759",894608
"760",640721
"761",1924851
"762",1491330
"763",2811577
"764",971577
"765",895375
"766",23066
"767",727453
"768",7041104
"769",325380
"770",56849
"771",617359
"772",447113
"773",283701
"774",415644
"775",288943
"776",177662
"777",5072598
"778",1658129
"779",382515
"780",5970251
"781",5009973
"782",1296015
"783",-37767
"784",6629080
"785",1862340
"786",473381
"787",787758
"788",384220
"789",3430080
"790",179460
"791",1344830
"792",-8829
"793",1521633
"794",2826499
"795",90072
"796",4184085
"797",331637
"798",3363886
"799",527945
"800",244802
"801",16010998
"802",7061874
"803",790914
"804",1337871
"805",5543067
"806",355790
"807",281916
"808",3911895
"809",6501880
"810",1196662
"811",3279327
"812",5342741
"813",3840079
"814",222
"815",273004
"816",2099010
"817",985794
"818",5825730
"819",28092
"820",10850431
"821",3323054
"822",1183045
"823",8432565
"824",9039104
"825",403510
"826",891315
"827",13324
"828",89175
"829",18283
"830",206973
"831",101865
"832",66844
"833",7888
"834",260633
"835",48455
"836",1862753
"837",375574
"838",1847085
"839",205400
"840",564586
"841",158459
"842",6908882
"843",2842796
"844",1844900
"845",8198191
"846",5811589
"847",740908
"848",258601
"849",114147
"850",287310
"851",389952
"852",585041
"853",70824
"854",1685662
"855",316813
"856",106711
"857",506274
"858",25419087
"859",8189419
"860",3080407
"861",3149878
"862",5506605
"863",46618
"864",3516612
"865",4588725
"866",167918
"867",76529
"868",425953
"869",71633
"870",110869
"871",1273109
"872",1552359
"873",978323
"874",1269431
"875",145634
"876",684677
"877",331736
"878",120174
"879",821237
"880",2683600
"881",606271
"882",4174059
"883",424722
"884",142475
"885",101895
"886",1724254
"887",1438050
"888",1210747
"889",6257279
"890",179967
"891",1086993
"892",467046
"893",15925
"894",10225
"895",1845658
"896",47245
"897",268840
"898",2930754
"899",574061
"900",66286
"901",196604
"902",66507
"903",-239
"904",459938
"905",176813
"906",754831
"907",55369
"908",420667
"909",54789
"910",501085
"911",513089
"912",658373
"913",11816
"914",5126
"915",2645368
"916",315285
"917",288809
"918",126893
"919",79636
"920",37208
"921",233837
"922",85315
"923",158817
"924",28473
"925",1814559
"926",17323
"927",657537
"928",1908830
"929",4377344
"930",2682676
"931",198269
"932",609477
"933",3955719
"934",2805650
"935",8084265
"936",1566808
"937",9893490
"938",550680
"939",1588532
"940",3445146
"941",642928
"942",490792
"943",11987
"944",728819
"945",7452563
"946",1499177
"947",6005862
"948",1024843
"949",4337778
"950",462599
"951",88805
"952",7073
"953",223032
"954",4947672
"955",4822912
"956",2282011
"957",436803
"958",87226
"959",1837524
"960",387074
"961",2457341
"962",969437
"963",608390
"964",3653786
"965",10066
"966",138306
"967",27884
"968",1720436
"969",178953
"970",81949
"971",119443
"972",959539
"973",591367
"974",193055
"975",368763
"976",81661
"977",78496
"978",165747
"979",70398
"980",126024
"981",494727
"982",147735
"983",379813
"984",42239
"985",6305949
"986",1984021
"987",851436
"988",700206
"989",3989164
"990",385518
"991",485703
"992",214892
"993",6960751
"994",2567508
"995",25582
"996",1716123
"997",104556
"998",204705
"999",106946
"1000",92464
"1001",9149
"1002",7270
"1003",892579
"1004",551406
"1005",82288
"1006",204450
"1007",387122
"1008",172522
"1009",475305
"1010",1421183
"1011",1078370
"1012",77162
"1013",1286850
"1014",104231
"1015",1111599
"1016",145539
"1017",776156
"1018",1534026
"1019",134685
"1020",4253988
"1021",320849
"1022",1260353
"1023",61549
"1024",3189679
"1025",5211219
"1026",4278006
"1027",569713
"1028",2417464
"1029",515324
"1030",10316818
"1031",513166
"1032",813007
"1033",200814
"1034",9590954
"1035",88671
"1036",124672
"1037",50929
"1038",136944
"1039",52056
"1040",707325
"1041",1135236
"1042",253
"1043",1488579
"1044",19405
"1045",60533
"1046",67784
"1047",292371
"1048",778222
"1049",899508
"1050",322076
"1051",28525
"1052",183461
"1053",21398
"1054",3852
"1055",77667
"1056",22139
"1057",976220
"1058",102009
"1059",58357
"1060",31726
"1061",79654
"1062",159928
"1063",28086
"1064",27622
"1065",129168
"1066",1055
"1067",12547
"1068",80090
"1069",101523
"1070",33269
"1071",82955
"1072",723430
"1073",46943
"1074",25421
"1075",23643
"1076",37225
"1077",74946
"1078",18997
"1079",15384
"1080",378648
"1081",874560
"1082",108295
"1083",2265753
"1084",412641
"1085",295047
"1086",2749029
"1087",1426030
"1088",1515279
"1089",135078
"1090",7229619
"1091",784561
"1092",1620956
"1093",1793728
"1094",4972619
"1095",8674645
"1096",3338347
"1097",4216449
"1098",36984
"1099",3422
"1100",51502
"1101",141215
"1102",794
"1103",2037496
"1104",2359596
"1105",55352
"1106",1446091
"1107",4309558
"1108",669389
"1109",1084602
"1110",349335
"1111",4956384
"1112",260114
"1113",88814
"1114",777122
"1115",1252759
"1116",1228822
"1117",343745
"1118",1839610
"1119",18489
"1120",155050
"1121",33641
"1122",15906
"1123",46311
"1124",13734
"1125",38677
"1126",23006
"1127",217860
"1128",1695322
"1129",706580
"1130",1040677
"1131",1750898
"1132",163534
"1133",1954604
"1134",1078851
"1135",5622829
"1136",3463093
"1137",4392506
"1138",1597464
"1139",80040
"1140",950026
"1141",9336195
"1142",93568
"1143",5246370
"1144",362845
"1145",542054
"1146",851220
"1147",467313
"1148",3037206
"1149",118777
"1150",72999
"1151",292071
"1152",573457
"1153",1332719
"1154",9280
"1155",13573
"1156",60641
"1157",282440
"1158",48452
"1159",11891
"1160",49766
"1161",221537
"1162",41979
"1163",583259
"1164",459020
"1165",8394998
"1166",1138513
"1167",328387
"1168",945433
"1169",936663
"1170",631832
"1171",1254479
"1172",3608254
"1173",1933713
"1174",2579512
"1175",11202353
"1176",1259776
"1177",1634487
"1178",256038
"1179",480682
"1180",5556864
"1181",2084435
"1182",1332099
"1183",4337017
"1184",252826
"1185",118698
"1186",240993
"1187",1092392
"1188",525825
"1189",1003565
"1190",5190901
"1191",563464
"1192",1038240
"1193",277190
"1194",504546
"1195",221189
"1196",101733
"1197",282129
"1198",134861
"1199",917024
"1200",1831
"1201",452062
"1202",91377
"1203",156905
"1204",7738250
"1205",94914
"1206",26753
"1207",3181
"1208",357912
"1209",183721
"1210",685500
"1211",1792975
"1212",3557530
"1213",1731605
"1214",520911
"1215",4424210
"1216",1591657
"1217",1276753
"1218",2009605
"1219",2023198
"1220",4036509
"1221",105444
"1222",1161901
"1223",2222872
"1224",234595
"1225",204304
"1226",202967
"1227",1201853
"1228",1358184
"1229",20083953
"1230",2864236
"1231",18714181
"1232",3546305
"1233",338253
"1234",207905
"1235",10998407
"1236",128203
"1237",2686007
"1238",1460183
"1239",240610
"1240",223527
"1241",416146
"1242",409096
"1243",420124
"1244",6128169
"1245",4361894
"1246",92279
"1247",260738
"1248",489254
"1249",2793547
"1250",10645110
"1251",565298
"1252",158637
"1253",1944073
"1254",245077
"1255",2405790
"1256",416288
"1257",186828
"1258",4084136
"1259",2714261
"1260",1018244
"1261",4170974
"1262",106127
"1263",968048
"1264",2698705
"1265",413216
"1266",949926
"1267",505805
"1268",119104
"1269",473160
"1270",1765486
"1271",3717500
"1272",10894745
"1273",2964311
"1274",4323159
"1275",703254
"1276",781359
"1277",875410
"1278",367952
"1279",249959
"1280",832386
"1281",531200
"1282",508712
"1283",578028
"1284",74815
"1285",46433
"1286",173793
"1287",27678
"1288",5776964
"1289",2641782
"1290",44841
"1291",6136811
"1292",458397
"1293",197111
"1294",274320
"1295",492544
"1296",230
"1297",575242
"1298",46679
"1299",2162685
"1300",642247
"1301",2732304
"1302",3651111
"1303",3664251
"1304",1557275
"1305",1571276
"1306",704409
"1307",2505994
"1308",877349
"1309",49885
"1310",2052697
"1311",446558
"1312",1408740
"1313",287514
"1314",3046116
"1315",1287262
"1316",309703
"1317",1435195
"1318",269105
"1319",374934
"1320",1060513
"1321",2188988
"1322",638538
"1323",3857229
"1324",306668
"1325",991293
"1326",439402
"1327",663855
"1328",3127930
"1329",191833
"1330",406429
"1331",619678
"1332",112502
"1333",366349
"1334",2016731
"1335",6111312
"1336",28339
"1337",23379
"1338",90827
"1339",57024
"1340",101802
"1341",179882
"1342",91530
"1343",3403
"1344",36053
"1345",7152
"1346",693054
"1347",48788
"1348",101868
"1349",28275
"1350",191735
"1351",99
"1352",81956
"1353",114761
"1354",43700
"1355",7469
"1356",665374
"1357",11057
"1358",15020
"1359",246036
"1360",925091
"1361",780106
"1362",-3075
"1363",3750297
"1364",31638
"1365",127134
"1366",1406782
"1367",1253152
"1368",2982096
"1369",1336335
"1370",3260426
"1371",9663
"1372",-1776
"1373",1013701
"1374",521677
"1375",432216
"1376",313715
"1377",726303
"1378",314272
"1379",59007
"1380",45036
"1381",1241930
"1382",96063
"1383",3354477
"1384",303237
"1385",579392
"1386",411331
"1387",128585
"1388",79542
"1389",28728
"1390",144047
"1391",188627
"1392",171388
"1393",6861
"1394",72450
"1395",211147
"1396",336744
"1397",19240095
"1398",2320992
"1399",372542
"1400",2202940
"1401",25952
"1402",138376
"1403",63606
"1404",501941
"1405",187694
"1406",552018
"1407",273462
"1408",8528300
"1409",219585
"1410",268069
"1411",37181
"1412",116157
"1413",55801
"1414",78153
"1415",45647
"1416",906517
"1417",46111
"1418",745258
"1419",484380
"1420",137639
"1421",1358223
"1422",2202344
"1423",565079
"1424",536571
"1425",71188
"1426",2139887
"1427",119306
"1428",1385239
"1429",202169
"1430",1114684
"1431",1637617
"1432",1349788
"1433",13880
"1434",20629
"1435",767221
"1436",513834
"1437",1325863
"1438",80028
"1439",133433
"1440",111171
"1441",103498
"1442",153870
"1443",347020
"1444",707822
"1445",312936
"1446",1522014
"1447",-1149
"1448",19299
"1449",611167
"1450",132210
"1451",130739
"1452",91807
"1453",147149
"1454",18931
"1455",128786
"1456",107231
"1457",55100
"1458",1286387
"1459",441478
"1460",9755
"1461",11694
"1462",21727
"1463",18742
"1464",77264
"1465",291228
"1466",153183
"1467",993673
"1468",1731882
"1469",4518544
"1470",236907
"1471",875227
"1472",142059
"1473",851707
"1474",496178
"1475",136865
"1476",12512
"1477",1022547
"1478",67777
"1479",48533
"1480",1544330
"1481",91407
"1482",7020362
"1483",315082
"1484",923254
"1485",839112
"1486",81568
"1487",892542
"1488",77681
"1489",2979449
"1490",3860116
"1491",482515
"1492",216695
"1493",250566
"1494",130689
"1495",46451
"1496",47121
"1497",1582772
"1498",45891
"1499",91732
"1500",388426
"1501",24653
"1502",213998
"1503",61344
"1504",106768
"1505",801623
"1506",412817
"1507",472956
"1508",419188
"1509",57577
"1510",40897
"1511",76757
"1512",1479
"1513",403633
"1514",1582
"1515",697686
"1516",8521
"1517",17380
"1518",64424
"1519",337660
"1520",121867
"1521",15858
"1522",55997
"1523",161947
"1524",1280975
"1525",183979
"1526",32098
"1527",305557
"1528",1065273
"1529",5576224
"1530",2793112
"1531",122577
"1532",182122
"1533",20679
"1534",2483337
"1535",194716
"1536",-13967
"1537",77447
"1538",209130
"1539",346966
"1540",469514
"1541",1327060
"1542",259695
"1543",888686
"1544",123578
"1545",724483
"1546",2876174
"1547",1066212
"1548",125877
"1549",1306654
"1550",39504
"1551",17602
"1552",118601
"1553",78691
"1554",609999
"1555",159229
"1556",8364
"1557",591256
"1558",9066
"1559",1325949
"1560",266841
"1561",248934
"1562",1387695
"1563",142497
"1564",576430
"1565",693840
"1566",114835
"1567",34419
"1568",19384
"1569",31393
"1570",92724
"1571",12959
"1572",678105
"1573",78238
"1574",3325682
"1575",6315650
"1576",2368923
"1577",1349346
"1578",7886339
"1579",1798665
"1580",2484446
"1581",8402073
"1582",359214
"1583",681838
"1584",150158
"1585",5774650
"1586",12270087
"1587",516291
"1588",3521739
"1589",42429
"1590",108123
"1591",4402710
"1592",5251205
"1593",10353987
"1594",17569
"1595",441486
"1596",113975
"1597",339989
"1598",32873
"1599",152678
"1600",141659
"1601",266991
"1602",95686
"1603",858614
"1604",25034
"1605",56133
"1606",690466
"1607",469316
"1608",432901
"1609",20320
"1610",106150
"1611",1008051
"1612",210380
"1613",468427
"1614",1454982
"1615",38867
"1616",12240
"1617",262816
"1618",46347
"1619",818984
"1620",130851
"1621",213386
"1622",296612
"1623",109879
"1624",104546
"1625",101515
"1626",78714
"1627",227880
"1628",-340
"1629",152042
"1630",330779
"1631",146893
"1632",570124
"1633",510411
"1634",129421
"1635",24152
"1636",252990
"1637",11818
"1638",11517
"1639",143341
"1640",623391
"1641",373461
"1642",174314
"1643",157353
"1644",663457
"1645",20840
"1646",945019
"1647",168437
"1648",21394
"1649",504915
"1650",156258
"1651",265689
"1652",34306
"1653",349854
"1654",209127
"1655",26244
"1656",230314
"1657",119461
"1658",494612
"1659",64015
"1660",193235
"1661",1111130
"1662",7022984
"1663",4787128
"1664",1840900
"1665",569255
"1666",72237
"1667",397629
"1668",83001
"1669",120457
"1670",116625
"1671",132682
"1672",58948
"1673",66714
"1674",390935
"1675",1061733
"1676",888439
"1677",178467
"1678",46550
"1679",15404
"1680",397457
"1681",90835
"1682",44464
"1683",44920
"1684",430672
"1685",484800
"1686",222532
"1687",545988
"1688",602409
"1689",201101
"1690",105469
"1691",1096185
"1692",38105
"1693",-3673
"1694",288399
"1695",327344
"1696",504013
"1697",69148
"1698",175599
"1699",-142355
"1700",328342
"1701",165500
"1702",65728
"1703",32858
"1704",20317
"1705",47564
"1706",627528
"1707",227343
"1708",439031
"1709",27215
"1710",92440
"1711",261254
"1712",21514
"1713",661087
"1714",238949
"1715",131147
"1716",31418
"1717",411799
"1718",298790
"1719",17144
"1720",161706
"1721",451193
"1722",764091
"1723",236799
"1724",204880
"1725",597531
"1726",140384
"1727",452213
"1728",443371
"1729",162621
"1730",522459
"1731",929851
"1732",87370
"1733",286263
"1734",22661
"1735",103803
"1736",485396
"1737",272376
"1738",40153
"1739",67501
"1740",27853
"1741",694028
"1742",80387
"1743",113318
"1744",122106
"1745",241136
"1746",499483
"1747",62861
"1748",682297
"1749",2478550
"1750",245063
"1751",764441
"1752",5577364
"1753",203462
"1754",7463874
"1755",145114
"1756",169544
"1757",297286
"1758",1221049
"1759",4929270
"1760",7116527
"1761",110406
"1762",108048
"1763",234819
"1764",881252
"1765",19035
"1766",706176
"1767",416567
"1768",131547
"1769",257036
"1770",110421
"1771",392145
"1772",763550
"1773",82415
"1774",885764
"1775",254010
"1776",526946
"1777",2138725
"1778",2893288
"1779",1190040
"1780",384787
"1781",508643
"1782",2488905
"1783",9553
"1784",535985
"1785",367246
"1786",678935
"1787",6765716
"1788",1313931
"1789",3111413
"1790",49438
"1791",11742
"1792",19804
"1793",416315
"1794",124119
"1795",639127
"1796",30769
"1797",11212
"1798",7524
"1799",149891
"1800",16736
"1801",3448288
"1802",3501044
"1803",737104
"1804",543591
"1805",597162
"1806",2750431
"1807",1648411
"1808",2614374
"1809",1000162
"1810",179652
"1811",664924
"1812",523606
"1813",478241
"1814",102272
"1815",714016
"1816",245687
"1817",393
"1818",64732
"1819",194662
"1820",33987
"1821",105320
"1822",12879
"1823",1021603
"1824",131098
"1825",140186
"1826",439442
"1827",169874
"1828",196884
"1829",74035
"1830",33058
"1831",30
"1832",1078377
"1833",618712
"1834",1446608
"1835",66060
"1836",654979
"1837",27113
"1838",2062787
"1839",968070
"1840",993057
"1841",467412
"1842",582630
"1843",301122
"1844",11864
"1845",3759
"1846",473166
"1847",534196
"1848",-7420
"1849",135281
"1850",36428
"1851",85429
"1852",274553
"1853",3840755
"1854",1408078
"1855",263244
"1856",337022
"1857",260036
"1858",49094
"1859",40209
"1860",246406
"1861",2175600
"1862",228191
"1863",560641
"1864",493693
"1865",161444
"1866",1178125
"1867",162425
"1868",2111342
"1869",404554
"1870",3197950
"1871",221835
"1872",323970
"1873",4104
"1874",36281
"1875",1241
"1876",393
"1877",1082
"1878",852
"1879",356
"1880",2537
"1881",1388397
"1882",765754
"1883",1101565
"1884",7397693
"1885",1852030
"1886",1896214
"1887",312961
"1888",290566
"1889",1184279
"1890",5096054
"1891",9102842
"1892",4497316
"1893",2887763
"1894",776233
"1895",5637455
"1896",79878
"1897",177741
"1898",506401
"1899",377098
"1900",272121
"1901",48939
"1902",19910325
"1903",1952763
"1904",140738
"1905",277243
"1906",642096
"1907",1666884
"1908",981146
"1909",2753924
"1910",1309989
"1911",1834276
"1912",20092277
"1913",218964
"1914",981167
"1915",165002
"1916",329686
"1917",4938361
"1918",1563134
"1919",11452
"1920",8958827
"1921",417009
"1922",717348
"1923",3339138
"1924",5117185
"1925",313560
"1926",199601
"1927",1857378
"1928",2693623
"1929",235134
"1930",1179674
"1931",409065
"1932",16048879
"1933",818370
"1934",232649
"1935",75277
"1936",359217
"1937",19715
"1938",46169
"1939",9527
"1940",40700
"1941",215170
"1942",58099
"1943",-960
