"","distances"
"1",145029
"2",188902
"3",216736
"4",48405
"5",19556
"6",93729
"7",50000
"8",683946
"9",136864
"10",-41293
"11",1137100
"12",13507
"13",2960597
"14",3114419
"15",1201997
"16",19385
"17",574599
"18",114446
"19",132102
"20",554396
"21",1082467
"22",2022785
"23",1409
"24",491304
"25",241016
"26",-218069
"27",204265
"28",559000
"29",1173556
"30",1500
"31",355640
"32",267679
"33",823935
"34",256441
"35",1641515
"36",179682
"37",162523
"38",103500
"39",1344964
"40",568970
"41",-296
"42",498849
"43",821983
"44",222910
"45",1186620
"46",886403
"47",3090537
"48",69727
"49",602810
"50",116419
"51",203093
"52",1419642
"53",324823
"54",157574
"55",803972
"56",142885
"57",1163354
"58",279028
"59",59560
"60",1677096
"61",400288
"62",88724
"63",59566
"64",159402
"65",2270926
"66",145887
"67",566011
"68",781528
"69",156758
"70",804459
"71",716120
"72",968645
"73",916533
"74",3104971
"75",609855
"76",342423
"77",5727527
"78",80696
"79",2080932
"80",3007999
"81",727594
"82",891824
"83",251033
"84",2514299
"85",108643
"86",7424890
"87",8974
"88",5921133
"89",1730083
"90",189881
"91",466103
"92",215341
"93",1935087
"94",76381
"95",2061834
"96",1775050
"97",6759367
"98",261624
"99",8409230
"100",99029
"101",540102
"102",278191
"103",127348
"104",2333626
"105",1929321
"106",3352325
"107",953416
"108",658855
"109",26369426
"110",1013641
"111",2969633
"112",304971
"113",346525
"114",86227
"115",221472
"116",2446639
"117",8873
"118",231944
"119",855918
"120",145924
"121",63759
"122",27015
"123",573632
"124",123897
"125",537968
"126",24995
"127",96166
"128",13308
"129",48715
"130",3518736
"131",737732
"132",6252627
"133",2070239
"134",92448
"135",3419029
"136",7705841
"137",21098
"138",1575502
"139",419052
"140",784262
"141",752995
"142",760001
"143",120703
"144",296098
"145",11222220
"146",2120235
"147",957348
"148",292809
"149",427215
"150",525276
"151",535269
"152",1048267
"153",275644
"154",416860
"155",574734
"156",4696290
"157",2315886
"158",2551566
"159",5164952
"160",1839210
"161",559307
"162",863132
"163",54756
"164",1408503
"165",100333
"166",1729208
"167",1735351
"168",1143828
"169",122822
"170",4791452
"171",331915
"172",8126509
"173",383188
"174",1994041
"175",255314
"176",1649684
"177",5034201
"178",1158901
"179",108433
"180",7608976
"181",77605
"182",5023601
"183",358973
"184",415471
"185",1402389
"186",897084
"187",29984
"188",229677
"189",280326
"190",226101
"191",53547
"192",4529660
"193",4895371
"194",366314
"195",229902
"196",124921
"197",298748
"198",2983214
"199",466575
"200",177993
"201",357959
"202",760777
"203",1284237
"204",2142680
"205",5254400
"206",1427853
"207",2831545
"208",7058326
"209",2851534
"210",1642212
"211",1350502
"212",2142148
"213",53167
"214",189048
"215",275775
"216",40651
"217",159342
"218",150128
"219",10791816
"220",10894316
"221",118115
"222",4354
"223",582254
"224",222436
"225",49453
"226",1660613
"227",901825
"228",589961
"229",4810380
"230",2299752
"231",3223582
"232",253695
"233",457641
"234",14634903
"235",312557
"236",75369
"237",3640490
"238",3603250
"239",2970565
"240",5364521
"241",3688443
"242",3599830
"243",159245
"244",1759
"245",6600982
"246",1520216
"247",2357175
"248",2459173
"249",3103177
"250",1484168
"251",5996281
"252",719727
"253",341457
"254",4316813
"255",4597068
"256",725909
"257",1188154
"258",6955375
"259",461988
"260",2494884
"261",2250444
"262",27108
"263",331522
"264",3504906
"265",1951829
"266",1662672
"267",16556
"268",3058888
"269",3714788
"270",122243
"271",10333
"272",89443
"273",210871
"274",34842
"275",157105
"276",321004
"277",3842163
"278",1566691
"279",2429707
"280",2765970
"281",460907
"282",376849
"283",139237
"284",331261
"285",174973
"286",5794372
"287",91091
"288",2189320
"289",782131
"290",198320
"291",160441
"292",642858
"293",26064
"294",3927562
"295",767956
"296",31842
"297",152531
"298",54024
"299",104383
"300",157229
"301",1270324
"302",2631226
"303",716803
"304",1935
"305",259973
"306",1509522
"307",3937002
"308",9274961
"309",607565
"310",376167
"311",3607605
"312",107558
"313",981400
"314",240639
"315",2652580
"316",1340518
"317",330526
"318",294648
"319",3186152
"320",477212
"321",171831
"322",621748
"323",37747
"324",131643
"325",352573
"326",7414
"327",104065
"328",10498
"329",276580
"330",133662
"331",14653
"332",232334
"333",107271
"334",70427
"335",6350
"336",11708
"337",170997
"338",156946
"339",380252
"340",344463
"341",4209783
"342",1479310
"343",5727763
"344",512201
"345",2310307
"346",5360615
"347",550164
"348",5528041
"349",9339709
"350",10156341
"351",910105
"352",827523
"353",251044
"354",3505887
"355",7019894
"356",561473
"357",5613098
"358",556954
"359",2002661
"360",904924
"361",93117
"362",717633
"363",3104263
"364",533874
"365",1529148
"366",269651
"367",1586671
"368",1303981
"369",2512
"370",1633432
"371",3686511
"372",231830
"373",203072
"374",926804
"375",1263813
"376",1468274
"377",1392972
"378",2143620
"379",4157156
"380",1777397
"381",696490
"382",2204960
"383",1691722
"384",662227
"385",11249232
"386",241716
"387",1329
"388",8091183
"389",1757701
"390",2869703
"391",250768
"392",324255
"393",28577
"394",177627
"395",193188
"396",700532
"397",3458117
"398",2003773
"399",1398145
"400",2739901
"401",123400
"402",435717
"403",1358752
"404",85388
"405",34966
"406",519211
"407",642567
"408",17609
"409",672559
"410",174185
"411",28749
"412",675
"413",219351
"414",734069
"415",2021637
"416",1662045
"417",196258
"418",77802
"419",1574558
"420",3288335
"421",1855453
"422",4807094
"423",75721
"424",1592164
"425",2290063
"426",253771
"427",1578586
"428",12797482
"429",832071
"430",1191659
"431",5478678
"432",5189437
"433",2152211
"434",742954
"435",10786849
"436",8569053
"437",2627827
"438",3457929
"439",38537
"440",388253
"441",3088841
"442",2131330
"443",768134
"444",10440712
"445",467654
"446",1281887
"447",33389
"448",210539
"449",2045992
"450",761783
"451",3238710
"452",2596783
"453",6149153
"454",578858
"455",159274
"456",2272415
"457",17846256
"458",18047420
"459",7105783
"460",4561902
"461",4191978
"462",10870857
"463",130475
"464",673367
"465",221571
"466",315434
"467",417537
"468",5189030
"469",25774585
"470",4272680
"471",39815
"472",1596430
"473",11720303
"474",1941418
"475",4115556
"476",1997363
"477",5143808
"478",416936
"479",8443791
"480",2311289
"481",2255031
"482",284905
"483",1726373
"484",220228
"485",8194891
"486",3068671
"487",2118907
"488",3029602
"489",12583269
"490",420800
"491",3677205
"492",137836
"493",32702
"494",2424560
"495",49227
"496",1215140
"497",2824767
"498",7628448
"499",2887903
"500",553076
"501",1208201
"502",3458552
"503",561157
"504",98693
"505",7810
"506",124326
"507",408611
"508",83300
"509",447761
"510",659008
"511",5064356
"512",873879
"513",902594
"514",137614
"515",448494
"516",304487
"517",200772
"518",441492
"519",54268
"520",3587113
"521",2518741
"522",155422
"523",1415961
"524",799060
"525",12259457
"526",689919
"527",443127
"528",271620
"529",2564721
"530",484671
"531",220009
"532",54093
"533",147187
"534",45559
"535",520649
"536",960286
"537",205128
"538",4152
"539",665906
"540",1552637
"541",505945
"542",72818
"543",1987406
"544",14841206
"545",6152760
"546",23917
"547",42688
"548",45088
"549",619014
"550",211027
"551",1542781
"552",631640
"553",253776
"554",168417
"555",222488
"556",214227
"557",119215
"558",11912
"559",440653
"560",379711
"561",106407
"562",16606
"563",36504
"564",116925
"565",1920
"566",213272
"567",25188
"568",495787
"569",335795
"570",198883
"571",101684
"572",101719
"573",313661
"574",1684461
"575",945691
"576",476998
"577",367674
"578",88182
"579",3573023
"580",584002
"581",1227611
"582",192079
"583",44122
"584",248039
"585",880969
"586",3027363
"587",4734860
"588",5416188
"589",15301714
"590",1990458
"591",255454
"592",4523807
"593",1897279
"594",790322
"595",2255648
"596",1657042
"597",206427
"598",11912586
"599",111007
"600",7920985
"601",1188249
"602",466291
"603",1166059
"604",493245
"605",346815
"606",197325
"607",5472740
"608",396433
"609",3080046
"610",4446416
"611",1356680
"612",96734
"613",4114575
"614",2260909
"615",1387979
"616",758851
"617",7052395
"618",596917
"619",2777302
"620",2453539
"621",1147293
"622",262230
"623",1578971
"624",1403925
"625",2265361
"626",1325657
"627",1046
"628",1080846
"629",1373660
"630",5045667
"631",4192526
"632",291383
"633",100551
"634",677533
"635",304634
"636",2219888
"637",732752
"638",29039
"639",292070
"640",178334
"641",428453
"642",79707
"643",1407102
"644",15065266
"645",479119
"646",870019
"647",4158
"648",1640480
"649",3533148
"650",3773825
"651",1476303
"652",2482651
"653",153033
"654",937809
"655",2096970
"656",2052846
"657",68552
"658",35179
"659",65848
"660",62055
"661",24302
"662",75818
"663",230840
"664",301242
"665",1026884
"666",18578951
"667",164354
"668",82806
"669",157128
"670",866423
"671",669204
"672",272158
"673",36622
"674",5589906
"675",42664
"676",641754
"677",1269573
"678",1001365
"679",1206516
"680",337427
"681",6315706
"682",3712394
"683",4019241
"684",46064
"685",1462267
"686",727715
"687",3437190
"688",817805
"689",294822
"690",558201
"691",47265
"692",34494
"693",20409
"694",3300
"695",451666
"696",36728
"697",132783
"698",8102
"699",238425
"700",78402
"701",591714
"702",353067
"703",270200
"704",2157889
"705",11847755
"706",480548
"707",309893
"708",3680265
"709",5284754
"710",1220917
"711",19045
"712",457020
"713",19175
"714",391003
"715",3641443
"716",1491330
"717",1578584
"718",1681841
"719",97715
"720",892760
"721",496118
"722",23066
"723",2454764
"724",5904786
"725",134051
"726",253658
"727",603742
"728",26515
"729",193233
"730",51420
"731",83909
"732",350458
"733",9301
"734",94328
"735",63803
"736",5290497
"737",56493
"738",565874
"739",268790
"740",382515
"741",10026857
"742",56161
"743",-96675
"744",1838938
"745",51858
"746",8484549
"747",435947
"748",32874
"749",386571
"750",250785
"751",89504
"752",1961565
"753",2209214
"754",1213618
"755",-8829
"756",1521633
"757",7125940
"758",331637
"759",49829
"760",152646
"761",2835862
"762",267690
"763",527945
"764",244802
"765",23951282
"766",43651
"767",7165850
"768",5885100
"769",717756
"770",754098
"771",4088659
"772",4308707
"773",110786
"774",694107
"775",-82
"776",250086
"777",2317226
"778",2777238
"779",5641232
"780",413516
"781",504771
"782",5825730
"783",28092
"784",43648
"785",11920325
"786",1578567
"787",527058
"788",647033
"789",955745
"790",7246602
"791",2031308
"792",8506112
"793",324473
"794",119696
"795",149084
"796",89175
"797",228368
"798",101865
"799",21599
"800",366840
"801",1492369
"802",375574
"803",2149510
"804",743108
"805",636594
"806",8104017
"807",470151
"808",245726
"809",1844900
"810",14130814
"811",90316
"812",999022
"813",114147
"814",21331
"815",92862
"816",47993
"817",13128
"818",42893
"819",247484
"820",749791
"821",1383535
"822",64517
"823",316813
"824",4111342
"825",21688238
"826",7864904
"827",1335067
"828",1918150
"829",2030088
"830",4162142
"831",2979246
"832",2470158
"833",3700412
"834",873496
"835",58331
"836",88858
"837",76529
"838",139123
"839",58758
"840",59982
"841",71633
"842",110869
"843",4180034
"844",1269431
"845",145634
"846",684677
"847",331736
"848",120174
"849",10947523
"850",454711
"851",2296426
"852",193341
"853",6257279
"854",179967
"855",1666946
"856",1352265
"857",423851
"858",446909
"859",380138
"860",893288
"861",899801
"862",25279
"863",62801
"864",215285
"865",213691
"866",664266
"867",82647
"868",663998
"869",754831
"870",55369
"871",420667
"872",54789
"873",164779
"874",328839
"875",513089
"876",349085
"877",307900
"878",134697
"879",3233433
"880",216385
"881",62531
"882",48579
"883",222357
"884",195701
"885",1627270
"886",180404
"887",195022
"888",53733
"889",166747
"890",1496318
"891",4341656
"892",-4636
"893",1121280
"894",1754286
"895",42950
"896",407108
"897",963446
"898",1529588
"899",5901970
"900",4733670
"901",2068623
"902",11456741
"903",27675
"904",1514519
"905",4733755
"906",8429138
"907",9528731
"908",46503
"909",412784
"910",217465
"911",26530
"912",108901
"913",1869114
"914",2614352
"915",111584
"916",32528
"917",103752
"918",4157453
"919",2017315
"920",7580701
"921",1184685
"922",2857492
"923",969437
"924",608390
"925",699932
"926",3048393
"927",124319
"928",89332
"929",544618
"930",1163575
"931",254968
"932",140175
"933",185179
"934",515415
"935",74326
"936",510751
"937",814347
"938",1172488
"939",2718120
"940",3333304
"941",132853
"942",59261
"943",3902470
"944",3146447
"945",464014
"946",816553
"947",2143392
"948",28287
"949",1015589
"950",697390
"951",521567
"952",5402137
"953",1789827
"954",28172
"955",162368
"956",262117
"957",-11287
"958",62192
"959",21691
"960",23090
"961",550068
"962",1145639
"963",199727
"964",161870
"965",172522
"966",475305
"967",1421183
"968",1078370
"969",881768
"970",458874
"971",17382
"972",-19
"973",222813
"974",1710391
"975",1534026
"976",1317329
"977",3690464
"978",184515
"979",1216243
"980",8789791
"981",4881002
"982",394313
"983",219065
"984",1690723
"985",8442433
"986",185625
"987",1990501
"988",513166
"989",574156
"990",10064014
"991",88671
"992",71077
"993",325663
"994",1893910
"995",1556119
"996",145804
"997",368673
"998",468027
"999",36979
"1000",88435
"1001",76178
"1002",20112
"1003",1153765
"1004",232727
"1005",31037
"1006",31756
"1007",408827
"1008",172097
"1009",440719
"1010",71557
"1011",58357
"1012",114892
"1013",50911
"1014",54946
"1015",85639
"1016",16520
"1017",159094
"1018",278642
"1019",101523
"1020",139245
"1021",117104
"1022",-493
"1023",272723
"1024",59784
"1025",640606
"1026",261714
"1027",454567
"1028",108295
"1029",2703069
"1030",85637
"1031",202791
"1032",515624
"1033",20627
"1034",1649692
"1035",1088385
"1036",775803
"1037",104499
"1038",396194
"1039",463236
"1040",604942
"1041",4738640
"1042",71646
"1043",168605
"1044",66302
"1045",1134520
"1046",82453
"1047",7220082
"1048",8429266
"1049",851387
"1050",778487
"1051",2342696
"1052",906213
"1053",3171178
"1054",2125801
"1055",91501
"1056",184023
"1057",7111
"1058",86745
"1059",2333967
"1060",70414
"1061",1446091
"1062",425172
"1063",292738
"1064",17418
"1065",3541588
"1066",764379
"1067",881161
"1068",104448
"1069",5373
"1070",5137416
"1071",1367643
"1072",1140437
"1073",41331
"1074",2826830
"1075",1789954
"1076",105296
"1077",155050
"1078",135244
"1079",13734
"1080",38677
"1081",23006
"1082",948405
"1083",701071
"1084",18712
"1085",130801
"1086",335768
"1087",912817
"1088",258463
"1089",246180
"1090",87931
"1091",1302637
"1092",634333
"1093",6184106
"1094",2904274
"1095",4247718
"1096",277318
"1097",2174881
"1098",844229
"1099",377859
"1100",1574409
"1101",5901172
"1102",3174415
"1103",3584786
"1104",11091
"1105",366069
"1106",706736
"1107",726907
"1108",719580
"1109",187112
"1110",636378
"1111",412882
"1112",92177
"1113",639926
"1114",2082079
"1115",42998
"1116",55318
"1117",10409
"1118",172869
"1119",35656
"1120",227355
"1121",503195
"1122",667885
"1123",850687
"1124",319393
"1125",1063478
"1126",29130
"1127",137918
"1128",106892
"1129",26742
"1130",36969
"1131",1053445
"1132",4901499
"1133",2364984
"1134",1014659
"1135",328387
"1136",607037
"1137",278458
"1138",798448
"1139",663205
"1140",1254479
"1141",3608254
"1142",1933713
"1143",11154799
"1144",1733328
"1145",2457983
"1146",1634259
"1147",3342351
"1148",5035020
"1149",961356
"1150",214552
"1151",1741053
"1152",2129429
"1153",2175259
"1154",1758890
"1155",962306
"1156",1545430
"1157",2098661
"1158",1267759
"1159",324000
"1160",128192
"1161",317689
"1162",535827
"1163",101733
"1164",487239
"1165",917024
"1166",620428
"1167",91377
"1168",1425081
"1169",6048704
"1170",150183
"1171",3181
"1172",492114
"1173",81544
"1174",-6671
"1175",881203
"1176",5192557
"1177",1731605
"1178",2318511
"1179",288594
"1180",274364
"1181",1254151
"1182",325116
"1183",2123552
"1184",291443
"1185",3077810
"1186",52099
"1187",5548374
"1188",49170
"1189",1161901
"1190",2222872
"1191",234595
"1192",607
"1193",453565
"1194",783958
"1195",329957
"1196",130191
"1197",874718
"1198",1796908
"1199",18286434
"1200",2769021
"1201",70995
"1202",2035611
"1203",1336295
"1204",15167574
"1205",981945
"1206",3148726
"1207",7455048
"1208",1683076
"1209",2586155
"1210",2278367
"1211",88526
"1212",612952
"1213",104414
"1214",228639
"1215",1381831
"1216",139380
"1217",29681
"1218",172728
"1219",146008
"1220",319
"1221",401801
"1222",132551
"1223",64109
"1224",218170
"1225",2012139
"1226",2978725
"1227",367225
"1228",273736
"1229",4375110
"1230",133603
"1231",489254
"1232",8882514
"1233",4439565
"1234",28931
"1235",39889
"1236",429472
"1237",90592
"1238",-28617
"1239",86695
"1240",144141
"1241",1543855
"1242",340845
"1243",1413815
"1244",330795
"1245",353865
"1246",537704
"1247",186828
"1248",1614056
"1249",364286
"1250",780701
"1251",626569
"1252",565609
"1253",1498
"1254",2702856
"1255",737460
"1256",4313157
"1257",254628
"1258",3816301
"1259",31224
"1260",1165229
"1261",708486
"1262",66987
"1263",522447
"1264",296910
"1265",779198
"1266",3163
"1267",271851
"1268",11348491
"1269",3225018
"1270",836271
"1271",1379077
"1272",955975
"1273",374287
"1274",3946297
"1275",703254
"1276",254355
"1277",1360934
"1278",643236
"1279",201803
"1280",624900
"1281",401664
"1282",23142
"1283",508712
"1284",30565
"1285",217281
"1286",162456
"1287",119240
"1288",74815
"1289",4311251
"1290",1195529
"1291",3212267
"1292",641686
"1293",5469882
"1294",2756
"1295",54112
"1296",170827
"1297",9304
"1298",750197
"1299",190848
"1300",230
"1301",435652
"1302",218724
"1303",2563
"1304",621044
"1305",32036
"1306",261872
"1307",749714
"1308",174564
"1309",760734
"1310",64316
"1311",2518632
"1312",3544494
"1313",78043
"1314",167810
"1315",115914
"1316",4101131
"1317",641881
"1318",402697
"1319",-359697
"1320",693134
"1321",704409
"1322",2505994
"1323",1986432
"1324",303261
"1325",367269
"1326",1625538
"1327",1407857
"1328",1841680
"1329",2143005
"1330",1900672
"1331",269105
"1332",137318
"1333",190702
"1334",113873
"1335",626410
"1336",397536
"1337",2061406
"1338",2488122
"1339",49168
"1340",1653493
"1341",1797971
"1342",863757
"1343",3859431
"1344",619678
"1345",112502
"1346",427937
"1347",1946096
"1348",6111312
"1349",1413999
"1350",572493
"1351",709671
"1352",352705
"1353",14713
"1354",154508
"1355",65175
"1356",7833
"1357",42313
"1358",7152
"1359",610594
"1360",70270
"1361",48788
"1362",101868
"1363",28275
"1364",2890
"1365",265757
"1366",114761
"1367",43700
"1368",414063
"1369",328373
"1370",204430
"1371",423653
"1372",728157
"1373",4277067
"1374",127134
"1375",2426082
"1376",3197300
"1377",141693
"1378",48233
"1379",240126
"1380",851448
"1381",22630
"1382",2066735
"1383",993029
"1384",1739890
"1385",76774
"1386",350165
"1387",1376008
"1388",1015698
"1389",37346
"1390",4123175
"1391",107879
"1392",366924
"1393",300107
"1394",218
"1395",42465
"1396",250369
"1397",227260
"1398",117297
"1399",135246
"1400",27395
"1401",92217
"1402",460174
"1403",66538
"1404",18092
"1405",19215628
"1406",2320992
"1407",2060550
"1408",1110785
"1409",38876
"1410",21726
"1411",787726
"1412",180860
"1413",8925372
"1414",467974
"1415",59442
"1416",142151
"1417",44479
"1418",37181
"1419",98131
"1420",5376
"1421",55801
"1422",21505
"1423",2128577
"1424",160152
"1425",2609437
"1426",729523
"1427",204486
"1428",228014
"1429",175001
"1430",71247
"1431",1634549
"1432",3898470
"1433",741556
"1434",2514178
"1435",265951
"1436",769316
"1437",815700
"1438",513834
"1439",512603
"1440",845850
"1441",-54040
"1442",346950
"1443",103498
"1444",153870
"1445",160334
"1446",50073
"1447",101000
"1448",1584171
"1449",259953
"1450",49801
"1451",1186138
"1452",-1149
"1453",19299
"1454",202223
"1455",774883
"1456",129051
"1457",69931
"1458",478
"1459",284655
"1460",33829
"1461",53409
"1462",1521603
"1463",375195
"1464",43430
"1465",103954
"1466",14816
"1467",9173
"1468",56457
"1469",482704
"1470",317699
"1471",6871503
"1472",412965
"1473",1383660
"1474",588801
"1475",70997
"1476",163457
"1477",343422
"1478",655292
"1479",5249
"1480",517062
"1481",1306329
"1482",7231467
"1483",109423
"1484",11597
"1485",25555
"1486",154292
"1487",121750
"1488",547081
"1489",779023
"1490",-21520
"1491",183721
"1492",758737
"1493",77681
"1494",6827
"1495",874406
"1496",2035388
"1497",399859
"1498",4216512
"1499",31355
"1500",250566
"1501",130689
"1502",46451
"1503",47121
"1504",1904663
"1505",264312
"1506",-12827
"1507",24653
"1508",213998
"1509",32106
"1510",151822
"1511",1040048
"1512",182742
"1513",823227
"1514",202010
"1515",118755
"1516",129579
"1517",374760
"1518",67344
"1519",916052
"1520",211126
"1521",184096
"1522",15858
"1523",184834
"1524",1251176
"1525",41576
"1526",679832
"1527",21583
"1528",32659
"1529",166225
"1530",346330
"1531",421212
"1532",3708564
"1533",2687611
"1534",33716
"1535",1898196
"1536",228530
"1537",20679
"1538",2483337
"1539",254637
"1540",297156
"1541",2171817
"1542",259695
"1543",1289124
"1544",265903
"1545",3690557
"1546",1749311
"1547",248448
"1548",35321
"1549",78691
"1550",249687
"1551",102106
"1552",312031
"1553",80431
"1554",20877
"1555",286983
"1556",161657
"1557",1232441
"1558",247943
"1559",18563
"1560",248934
"1561",1150046
"1562",134144
"1563",10368
"1564",98328
"1565",576430
"1566",294254
"1567",200723
"1568",157327
"1569",138437
"1570",84968
"1571",122977
"1572",43990
"1573",26193
"1574",208367
"1575",131174
"1576",87022
"1577",3325682
"1578",2283720
"1579",4018047
"1580",3766639
"1581",292899
"1582",8036953
"1583",1790245
"1584",1880643
"1585",5927155
"1586",3177845
"1587",839199
"1588",5774650
"1589",2592343
"1590",779099
"1591",835885
"1592",7981349
"1593",3903092
"1594",4136866
"1595",3180955
"1596",902444
"1597",11552305
"1598",17569
"1599",618599
"1600",277421
"1601",84176
"1602",194391
"1603",307145
"1604",118538
"1605",252609
"1606",145025
"1607",231942
"1608",642832
"1609",458638
"1610",824
"1611",28747
"1612",595021
"1613",262395
"1614",14465
"1615",1084788
"1616",54375
"1617",210380
"1618",757247
"1619",67337
"1620",782478
"1621",342079
"1622",292258
"1623",111952
"1624",22585
"1625",701363
"1626",457867
"1627",469121
"1628",101515
"1629",119198
"1630",172402
"1631",152042
"1632",511196
"1633",128483
"1634",419145
"1635",36844
"1636",299674
"1637",24111
"1638",59913
"1639",129421
"1640",24152
"1641",536953
"1642",514718
"1643",359891
"1644",117739
"1645",501773
"1646",87435
"1647",1046360
"1648",53555
"1649",10905
"1650",870961
"1651",631830
"1652",86557
"1653",159879
"1654",119461
"1655",421501
"1656",142880
"1657",193235
"1658",136267
"1659",93673
"1660",9416
"1661",1198869
"1662",6624530
"1663",6634412
"1664",122078
"1665",82377
"1666",365579
"1667",354111
"1668",228806
"1669",2916
"1670",133134
"1671",211407
"1672",99256
"1673",206345
"1674",307616
"1675",678824
"1676",6020
"1677",1024292
"1678",304446
"1679",430903
"1680",23795
"1681",398510
"1682",594430
"1683",21536
"1684",174173
"1685",33607
"1686",493154
"1687",510
"1688",518988
"1689",471357
"1690",1047528
"1691",38105
"1692",-3673
"1693",23255
"1694",26221
"1695",471010
"1696",878731
"1697",8332
"1698",362961
"1699",131686
"1700",623616
"1701",104576
"1702",36819
"1703",113745
"1704",560687
"1705",225492
"1706",42245
"1707",358387
"1708",794698
"1709",118541
"1710",10784
"1711",295272
"1712",188628
"1713",17144
"1714",1869
"1715",137004
"1716",-3774
"1717",2330750
"1718",520409
"1719",1315921
"1720",10254
"1721",339683
"1722",753375
"1723",223721
"1724",22661
"1725",103803
"1726",39092
"1727",1587524
"1728",24916
"1729",336826
"1730",39190
"1731",52354
"1732",47099
"1733",215666
"1734",425664
"1735",116720
"1736",1463201
"1737",541225
"1738",339482
"1739",123541
"1740",494373
"1741",104526
"1742",121188
"1743",2752082
"1744",2288483
"1745",1156442
"1746",7267598
"1747",319303
"1748",66371
"1749",19259
"1750",4548390
"1751",312441
"1752",1589862
"1753",7116527
"1754",19219
"1755",252532
"1756",105106
"1757",129078
"1758",881252
"1759",768273
"1760",502955
"1761",263890
"1762",533870
"1763",1111886
"1764",627496
"1765",620662
"1766",189779
"1767",1989095
"1768",235479
"1769",2091101
"1770",1011639
"1771",415459
"1772",7439
"1773",389747
"1774",467121
"1775",88813
"1776",276097
"1777",2786310
"1778",49317
"1779",452039
"1780",127232
"1781",678935
"1782",713838
"1783",1798431
"1784",3781500
"1785",1241920
"1786",301682
"1787",3148662
"1788",49438
"1789",11742
"1790",437523
"1791",124119
"1792",324310
"1793",297809
"1794",30769
"1795",11212
"1796",125356
"1797",118147
"1798",16736
"1799",9222800
"1800",4273007
"1801",751041
"1802",340873
"1803",552619
"1804",72623
"1805",2840178
"1806",687078
"1807",4595113
"1808",1000162
"1809",179652
"1810",306896
"1811",872862
"1812",593675
"1813",1258463
"1814",370138
"1815",1021603
"1816",131098
"1817",820150
"1818",196884
"1819",121439
"1820",30
"1821",394381
"1822",666971
"1823",1958079
"1824",463903
"1825",81707
"1826",76367
"1827",277779
"1828",25152
"1829",1475319
"1830",1907536
"1831",463429
"1832",8412
"1833",582630
"1834",337945
"1835",480448
"1836",66464
"1837",143336
"1838",302281
"1839",-7420
"1840",325875
"1841",3690792
"1842",471921
"1843",86833
"1844",858308
"1845",5113
"1846",290977
"1847",156066
"1848",290880
"1849",90712
"1850",27402
"1851",85001
"1852",165356
"1853",159925
"1854",23903
"1855",302305
"1856",990907
"1857",34783
"1858",819221
"1859",335960
"1860",536609
"1861",9297
"1862",439144
"1863",1340459
"1864",1153310
"1865",4772498
"1866",221835
"1867",1381
"1868",73
"1869",18721
"1870",1378707
"1871",826792
"1872",1101565
"1873",6731702
"1874",1957701
"1875",888022
"1876",1138806
"1877",766503
"1878",998018
"1879",955530
"1880",4079236
"1881",1788338
"1882",17728708
"1883",3821566
"1884",676583
"1885",76362
"1886",546461
"1887",18108
"1888",631037
"1889",455976
"1890",451772
"1891",2992
"1892",57157
"1893",27984
"1894",74094
"1895",48939
"1896",3798565
"1897",145213
"1898",871473
"1899",1359097
"1900",970467
"1901",12342471
"1902",1952763
"1903",140738
"1904",954511
"1905",52216
"1906",1370985
"1907",-123853
"1908",3617082
"1909",-139656
"1910",1231088
"1911",1834276
"1912",20119740
"1913",81659
"1914",981167
"1915",165002
"1916",177245
"1917",150852
"1918",411458
"1919",142765
"1920",8981884
"1921",6558245
"1922",119989
"1923",4009478
"1924",227156
"1925",5117185
"1926",2610463
"1927",1316265
"1928",783671
"1929",723411
"1930",630710
"1931",584449
"1932",13090831
"1933",344039
"1934",3014777
"1935",682604
"1936",76758
"1937",9527
