"","distances"
"1",370455
"2",316774
"3",262706
"4",59433
"5",489066
"6",136864
"7",1465560
"8",2106037
"9",163076
"10",71701
"11",114107
"12",1252367
"13",1590922
"14",345128
"15",455185
"16",29575
"17",654633
"18",374511
"19",574245
"20",1188151
"21",1779518
"22",1135230
"23",-83884
"24",129120
"25",1817260
"26",394299
"27",14423
"28",267679
"29",369723
"30",2026115
"31",284869
"32",105349
"33",71231
"34",162523
"35",600597
"36",1549685
"37",-112
"38",779549
"39",49336
"40",411714
"41",129379
"42",91054
"43",356276
"44",864685
"45",645638
"46",1598458
"47",1487645
"48",24874
"49",102665
"50",2986410
"51",81883
"52",597629
"53",274869
"54",2373761
"55",166495
"56",1005597
"57",404566
"58",1010022
"59",646502
"60",64920
"61",37600
"62",327156
"63",451466
"64",743527
"65",14227
"66",15818
"67",20777
"68",186955
"69",1236359
"70",278935
"71",58316
"72",304504
"73",165539
"74",101577
"75",4198340
"76",928040
"77",68568
"78",964027
"79",631171
"80",210435
"81",179088
"82",6527293
"83",1477068
"84",814745
"85",727594
"86",150955
"87",158804
"88",251033
"89",1044374
"90",2619233
"91",4676539
"92",1301415
"93",560194
"94",8974
"95",705901
"96",4911698
"97",4005
"98",77181
"99",565776
"100",5302790
"101",1506572
"102",1654155
"103",587553
"104",1094489
"105",5916678
"106",2527727
"107",3477145
"108",1066400
"109",1282630
"110",241128
"111",169204
"112",940196
"113",47257
"114",466967
"115",6822
"116",24416
"117",63706
"118",2097120
"119",57433
"120",414908
"121",71688
"122",2389881
"123",27779812
"124",575324
"125",1534493
"126",632627
"127",1929796
"128",337055
"129",217784
"130",138616
"131",33052
"132",160306
"133",86227
"134",86304
"135",94954
"136",132055
"137",357699
"138",219351
"139",38116
"140",1486692
"141",238110
"142",375147
"143",210545
"144",513888
"145",25409
"146",16785
"147",145924
"148",33381
"149",306559
"150",333864
"151",330558
"152",65647
"153",223889
"154",147808
"155",48715
"156",2118118
"157",725777
"158",333216
"159",199681
"160",41634
"161",618268
"162",127134
"163",7897
"164",90626
"165",607852
"166",766848
"167",2818044
"168",2147592
"169",2514
"170",1785601
"171",84926
"172",768461
"173",4271370
"174",3701722
"175",1991313
"176",2071846
"177",1645132
"178",1337102
"179",6200034
"180",4397525
"181",495074
"182",862761
"183",1575717
"184",805092
"185",131390
"186",359904
"187",12158
"188",49108
"189",157588
"190",772414
"191",828434
"192",6604
"193",327610
"194",872050
"195",20490
"196",139681
"197",361348
"198",38817
"199",1275094
"200",396154
"201",1973105
"202",4165285
"203",292594
"204",1230261
"205",2724428
"206",4664787
"207",77537
"208",173805
"209",448353
"210",65287
"211",2567149
"212",740994
"213",1735351
"214",1143828
"215",122822
"216",354174
"217",1709418
"218",3231673
"219",760220
"220",8574407
"221",469845
"222",346811
"223",108433
"224",65862
"225",4501267
"226",1898645
"227",3230312
"228",545088
"229",3618139
"230",415471
"231",19032
"232",940371
"233",1563850
"234",1510130
"235",3885599
"236",3568874
"237",147289
"238",1727993
"239",972925
"240",2151428
"241",1009778
"242",76498
"243",171964
"244",1406961
"245",105677
"246",229713
"247",1163574
"248",5947120
"249",1427853
"250",446072
"251",5547049
"252",340724
"253",4579309
"254",2821881
"255",524635
"256",178142
"257",815913
"258",323483
"259",1546652
"260",945541
"261",143589
"262",137290
"263",300633
"264",9530164
"265",511048
"266",255569
"267",245033
"268",13694
"269",508569
"270",461236
"271",1124221
"272",7328414
"273",1666811
"274",249672
"275",2305593
"276",55384
"277",1849105
"278",282985
"279",5979136
"280",2648719
"281",752218
"282",875934
"283",331552
"284",5739831
"285",306607
"286",553557
"287",6361220
"288",1004352
"289",7241078
"290",-39478
"291",308390
"292",108750
"293",7915475
"294",6937897
"295",498927
"296",506745
"297",9669006
"298",1221801
"299",10695559
"300",2740501
"301",-53
"302",1882683
"303",2030328
"304",1283581
"305",5076269
"306",435965
"307",2608990
"308",4985749
"309",461988
"310",4771089
"311",396580
"312",3345060
"313",2625
"314",112304
"315",1448148
"316",8863265
"317",1460853
"318",122243
"319",118170
"320",241022
"321",12371
"322",458749
"323",75360
"324",28930
"325",86627
"326",169140
"327",2848804
"328",490866
"329",4126752
"330",2564466
"331",1382434
"332",3091877
"333",3361840
"334",408327
"335",2078522
"336",13491
"337",299349
"338",84626
"339",241192
"340",4034426
"341",1157056
"342",31842
"343",97561
"344",68188
"345",104476
"346",157229
"347",1270324
"348",1708374
"349",896152
"350",321504
"351",320288
"352",923792
"353",14347362
"354",958314
"355",159108
"356",758030
"357",-6809
"358",291535
"359",3611285
"360",268426
"361",341575
"362",240639
"363",554498
"364",2086378
"365",1719171
"366",294648
"367",-1486
"368",1490095
"369",1144576
"370",121285
"371",376797
"372",946891
"373",314582
"374",168951
"375",404512
"376",7414
"377",68172
"378",245885
"379",138014
"380",157054
"381",232334
"382",107271
"383",1789564
"384",467835
"385",169901
"386",617817
"387",4348814
"388",135611
"389",102935
"390",130260
"391",5270789
"392",7096
"393",2354787
"394",497044
"395",14478489
"396",17876314
"397",30915
"398",248918
"399",208191
"400",1132512
"401",10117988
"402",539146
"403",34748
"404",998855
"405",5597727
"406",6025930
"407",1051582
"408",333439
"409",1688730
"410",46517
"411",1807395
"412",103766
"413",345186
"414",1289324
"415",2512
"416",939556
"417",69663
"418",460038
"419",3686511
"420",231830
"421",203072
"422",372430
"423",202957
"424",1263813
"425",2138370
"426",3068325
"427",2446605
"428",248333
"429",290830
"430",160246
"431",3666275
"432",1853504
"433",2922126
"434",186533
"435",1781377
"436",514635
"437",4667520
"438",6792777
"439",6684871
"440",3563628
"441",331533
"442",31518
"443",1256454
"444",138010
"445",951
"446",616571
"447",1359140
"448",1201487
"449",631424
"450",2674378
"451",1087098
"452",65175
"453",201033
"454",51344
"455",85647
"456",1273104
"457",727741
"458",-22229
"459",252614
"460",859259
"461",934103
"462",1209203
"463",106563
"464",219351
"465",3407769
"466",932192
"467",277308
"468",2899619
"469",8823495
"470",1724510
"471",2290063
"472",12473737
"473",1200220
"474",9209576
"475",750763
"476",7528804
"477",183409
"478",281471
"479",10489925
"480",3517061
"481",2297306
"482",2434784
"483",123501
"484",1079267
"485",823552
"486",3506192
"487",831128
"488",2705093
"489",878710
"490",1061362
"491",5743315
"492",89741
"493",3102936
"494",758777
"495",116955
"496",1042314
"497",467654
"498",3796992
"499",89261
"500",208546
"501",-1211
"502",2738013
"503",45671
"504",44723
"505",126388
"506",2850607
"507",5643043
"508",859584
"509",760091
"510",2814804
"511",2431687
"512",2387929
"513",66111
"514",11625841
"515",516541
"516",7231657
"517",3998460
"518",1949102
"519",4364239
"520",493361
"521",4651706
"522",2016362
"523",7865460
"524",154523
"525",3900541
"526",8058157
"527",34945
"528",527945
"529",417537
"530",6335182
"531",6712738
"532",1858031
"533",15914575
"534",1382099
"535",1942902
"536",247406
"537",304241
"538",2683341
"539",1050033
"540",2043905
"541",9900548
"542",2821799
"543",1146408
"544",4360598
"545",759992
"546",3128679
"547",416936
"548",3034145
"549",83242
"550",1718798
"551",2430719
"552",3210408
"553",2261825
"554",-124259
"555",479830
"556",2285377
"557",800641
"558",586767
"559",9768173
"560",1215827
"561",1100348
"562",1175887
"563",2592814
"564",11257260
"565",857823
"566",2089820
"567",3234843
"568",49227
"569",4262961
"570",3159578
"571",680589
"572",385337
"573",4108666
"574",-872
"575",25546
"576",417973
"577",55525
"578",1239665
"579",721938
"580",3451071
"581",953564
"582",130718
"583",546209
"584",119762
"585",595362
"586",274362
"587",2037
"588",20247
"589",340330
"590",2145118
"591",1301085
"592",1555442
"593",314512
"594",552149
"595",1049361
"596",395
"597",1465744
"598",3699671
"599",2209039
"600",2014540
"601",655027
"602",12352456
"603",504206
"604",3556926
"605",864115
"606",1701275
"607",205128
"608",252040
"609",325284
"610",8591
"611",141025
"612",682807
"613",1552637
"614",581969
"615",734186
"616",854839
"617",39181
"618",256981
"619",314893
"620",1405784
"621",2841493
"622",452169
"623",625322
"624",1281162
"625",331008
"626",3994693
"627",51839
"628",8136522
"629",382593
"630",344080
"631",189864
"632",2408831
"633",253776
"634",727227
"635",49994
"636",11912
"637",440653
"638",379711
"639",106407
"640",229264
"641",103644
"642",106813
"643",62513
"644",463944
"645",144380
"646",23620
"647",2367924
"648",943665
"649",1121182
"650",88182
"651",2292376
"652",1779101
"653",364859
"654",64182
"655",746005
"656",192079
"657",44122
"658",70226
"659",118569
"660",663024
"661",126639
"662",8492199
"663",4282963
"664",117087
"665",718727
"666",32163
"667",17276174
"668",5193021
"669",1897279
"670",3016391
"671",59398
"672",2094276
"673",942819
"674",962808
"675",9128014
"676",5665449
"677",2352784
"678",297246
"679",2431785
"680",893641
"681",242937
"682",4647895
"683",-168282
"684",181467
"685",47867
"686",9431989
"687",1308466
"688",4952446
"689",321242
"690",2225613
"691",180476
"692",844505
"693",6415602
"694",412730
"695",4801
"696",5935105
"697",4902443
"698",2265361
"699",898736
"700",468194
"701",2485240
"702",4053226
"703",1807452
"704",642903
"705",1028745
"706",104462
"707",725015
"708",756532
"709",2542372
"710",681409
"711",47336
"712",29039
"713",216505
"714",167879
"715",349896
"716",9603337
"717",3713333
"718",3462726
"719",870019
"720",5225910
"721",434238
"722",2280098
"723",157462
"724",961132
"725",4021866
"726",4686186
"727",826457
"728",68552
"729",177950
"730",492010
"731",87614
"732",174911
"733",81322
"734",725943
"735",9443574
"736",9232341
"737",1161584
"738",116235
"739",535209
"740",6230298
"741",731585
"742",2281676
"743",1198712
"744",337427
"745",2729504
"746",1267167
"747",5389770
"748",328761
"749",4019241
"750",203537
"751",1085105
"752",4178275
"753",42746
"754",716997
"755",264541
"756",19306
"757",88937
"758",89658
"759",335546
"760",47265
"761",14870
"762",39403
"763",31903
"764",1543672
"765",149148
"766",642955
"767",3715718
"768",5299443
"769",4329294
"770",154852
"771",11422738
"772",4599830
"773",1101814
"774",388372
"775",13739
"776",2181561
"777",1023639
"778",323003
"779",202004
"780",306968
"781",496118
"782",956120
"783",47528
"784",1641346
"785",5745921
"786",56849
"787",175754
"788",377244
"789",376437
"790",243552
"791",51420
"792",83909
"793",25452
"794",262115
"795",50243
"796",162234
"797",63803
"798",4421537
"799",856673
"800",1738081
"801",9744772
"802",348460
"803",-96675
"804",1075392
"805",3223082
"806",341229
"807",1296890
"808",480880
"809",3507655
"810",175299
"811",435947
"812",439191
"813",1274705
"814",2155004
"815",626709
"816",322549
"817",3357025
"818",10088189
"819",219709
"820",871429
"821",10080530
"822",969714
"823",4709366
"824",4432219
"825",3523004
"826",1337871
"827",6366214
"828",803670
"829",3108900
"830",2474840
"831",373184
"832",45741
"833",4583223
"834",4143575
"835",-82
"836",2755970
"837",5297153
"838",273004
"839",1012803
"840",1083383
"841",2177892
"842",10837598
"843",3613836
"844",2874448
"845",81539
"846",947304
"847",506854
"848",8014441
"849",8014224
"850",1822174
"851",700101
"852",181346
"853",105856
"854",18283
"855",321164
"856",66844
"857",74846
"858",319132
"859",1404281
"860",8517839
"861",2599203
"862",319485
"863",3272655
"864",4284928
"865",5225530
"866",1224142
"867",18336
"868",477780
"869",154975
"870",941308
"871",94391
"872",2731153
"873",24918406
"874",4898912
"875",3814580
"876",894564
"877",1918150
"878",1251434
"879",777767
"880",875602
"881",5637990
"882",294841
"883",1205856
"884",1983490
"885",4565965
"886",859280
"887",1406129
"888",1668647
"889",1342846
"890",750539
"891",5023468
"892",4873735
"893",928653
"894",2511414
"895",1341891
"896",509274
"897",1555431
"898",4453330
"899",179967
"900",638064
"901",978937
"902",2317942
"903",71855
"904",380138
"905",1748689
"906",84466
"907",62801
"908",254852
"909",178225
"910",381675
"911",361616
"912",-239
"913",1430019
"914",370730
"915",1796875
"916",72612
"917",132074
"918",192607
"919",109926
"920",175449
"921",659785
"922",1921318
"923",36889
"924",288809
"925",79877
"926",173056
"927",91091
"928",107078
"929",47068
"930",365480
"931",1086620
"932",95425
"933",1562388
"934",8202798
"935",264009
"936",609477
"937",963446
"938",514308
"939",815935
"940",6050273
"941",4733670
"942",2709359
"943",4381
"944",10496306
"945",1588532
"946",373288
"947",2999915
"948",1162014
"949",8298855
"950",956543
"951",425582
"952",3260565
"953",5038806
"954",525821
"955",830664
"956",271445
"957",50203
"958",2437384
"959",246196
"960",120752
"961",260209
"962",32403
"963",7073
"964",29750
"965",183395
"966",4947672
"967",603650
"968",123741
"969",4060528
"970",2897241
"971",410009
"972",325232
"973",1051963
"974",2857492
"975",728010
"976",179318
"977",147364
"978",382060
"979",292229
"980",3480080
"981",138306
"982",27884
"983",739764
"984",1212559
"985",-3682
"986",119443
"987",32274
"988",291636
"989",515415
"990",1077875
"991",177494
"992",78496
"993",353486
"994",10841629
"995",1090837
"996",4129884
"997",107035
"998",485703
"999",4028388
"1000",2965142
"1001",454544
"1002",5074592
"1003",68775
"1004",67899
"1005",63252
"1006",40344
"1007",440926
"1008",55355
"1009",17049
"1010",802789
"1011",19926
"1012",443483
"1013",-17065
"1014",738512
"1015",161870
"1016",687788
"1017",291687
"1018",1269861
"1019",492430
"1020",1222483
"1021",293029
"1022",2302818
"1023",249569
"1024",1482319
"1025",1918782
"1026",4103830
"1027",61549
"1028",82867
"1029",412314
"1030",1187263
"1031",6982178
"1032",4036925
"1033",1039615
"1034",157741
"1035",707357
"1036",277140
"1037",519937
"1038",192037
"1039",1379789
"1040",7215354
"1041",1029286
"1042",1445108
"1043",645177
"1044",134242
"1045",208125
"1046",9764331
"1047",100883
"1048",222440
"1049",1388964
"1050",500505
"1051",253
"1052",567610
"1053",59801
"1054",1321877
"1055",152577
"1056",158458
"1057",458559
"1058",170903
"1059",786410
"1060",322076
"1061",28525
"1062",183461
"1063",21398
"1064",39144
"1065",31756
"1066",485426
"1067",300551
"1068",97456
"1069",623684
"1070",16520
"1071",27622
"1072",129168
"1073",1055
"1074",221580
"1075",33269
"1076",585642
"1077",8323
"1078",165850
"1079",1397
"1080",114323
"1081",18997
"1082",396024
"1083",283327
"1084",305345
"1085",59432
"1086",1262561
"1087",191014
"1088",991609
"1089",1123273
"1090",3982933
"1091",1397557
"1092",135078
"1093",4738640
"1094",71646
"1095",2361560
"1096",718189
"1097",367950
"1098",84934
"1099",969834
"1100",12349866
"1101",921074
"1102",395274
"1103",580303
"1104",4446927
"1105",3732809
"1106",231545
"1107",220450
"1108",36984
"1109",219529
"1110",11350
"1111",1666
"1112",794
"1113",951995
"1114",3459858
"1115",100884
"1116",781566
"1117",398117
"1118",225820
"1119",659249
"1120",770335
"1121",151385
"1122",2165739
"1123",2139648
"1124",4858217
"1125",65312
"1126",14751
"1127",194549
"1128",3902881
"1129",188606
"1130",1425701
"1131",2750120
"1132",89047
"1133",2271010
"1134",137227
"1135",224184
"1136",578405
"1137",615129
"1138",130801
"1139",706580
"1140",3067505
"1141",144889
"1142",196443
"1143",1283722
"1144",194155
"1145",16648
"1146",22029
"1147",3237336
"1148",2944493
"1149",106713
"1150",256152
"1151",103645
"1152",17689347
"1153",2132358
"1154",-147637
"1155",5637451
"1156",136261
"1157",1200513
"1158",210672
"1159",183876
"1160",270836
"1161",55331
"1162",1948974
"1163",1016113
"1164",6043
"1165",144925
"1166",19759
"1167",2218892
"1168",13573
"1169",60641
"1170",13554
"1171",394841
"1172",13308
"1173",9450
"1174",205593
"1175",41979
"1176",348378
"1177",393
"1178",616964
"1179",60600
"1180",75819
"1181",8370175
"1182",1014659
"1183",328387
"1184",1021328
"1185",992872
"1186",10969316
"1187",8623204
"1188",5622868
"1189",564258
"1190",53547
"1191",895734
"1192",1531767
"1193",95780
"1194",45258
"1195",3277494
"1196",58036
"1197",1646229
"1198",525084
"1199",40539
"1200",214552
"1201",3326344
"1202",453705
"1203",162
"1204",1626049
"1205",1382562
"1206",4885314
"1207",964114
"1208",2302064
"1209",49586
"1210",904101
"1211",798941
"1212",985509
"1213",8688437
"1214",3181
"1215",357912
"1216",6208780
"1217",1385414
"1218",1085446
"1219",606020
"1220",582339
"1221",514437
"1222",16352
"1223",702869
"1224",1591657
"1225",95630
"1226",2878560
"1227",171040
"1228",1207238
"1229",3068423
"1230",1446107
"1231",49170
"1232",1161901
"1233",2222872
"1234",489528
"1235",1116757
"1236",3416584
"1237",6968543
"1238",14097370
"1239",70995
"1240",2035611
"1241",20167033
"1242",338253
"1243",3712424
"1244",7464277
"1245",128203
"1246",2416813
"1247",165187
"1248",324134
"1249",220831
"1250",53770
"1251",1661800
"1252",352254
"1253",123161
"1254",304746
"1255",526214
"1256",36595
"1257",67408
"1258",2326
"1259",5258443
"1260",1254138
"1261",3664336
"1262",123897
"1263",133603
"1264",2444799
"1265",6946821
"1266",4371634
"1267",57875
"1268",779357
"1269",1371735
"1270",245077
"1271",446588
"1272",2332442
"1273",353865
"1274",-21038
"1275",3727496
"1276",780410
"1277",4640065
"1278",4832512
"1279",88051
"1280",438941
"1281",3590195
"1282",530050
"1283",384785
"1284",618680
"1285",102776
"1286",1101000
"1287",3163
"1288",4128743
"1289",6691518
"1290",11459
"1291",1402543
"1292",848063
"1293",64365
"1294",2295546
"1295",1379077
"1296",357021
"1297",568384
"1298",1234101
"1299",2991742
"1300",703254
"1301",254355
"1302",476738
"1303",875410
"1304",131313
"1305",452962
"1306",201803
"1307",1081261
"1308",508712
"1309",98666
"1310",162057
"1311",162456
"1312",291639
"1313",184463
"1314",2735451
"1315",789822
"1316",151094
"1317",153521
"1318",287613
"1319",1361660
"1320",26518
"1321",20876
"1322",7694614
"1323",267642
"1324",9304
"1325",423361
"1326",50804
"1327",27358
"1328",74112
"1329",244499
"1330",1565480
"1331",1051968
"1332",47809
"1333",3415754
"1334",229789
"1335",2801862
"1336",100178
"1337",186440
"1338",335477
"1339",48792
"1340",158280
"1341",4509287
"1342",68198
"1343",402697
"1344",-359697
"1345",693134
"1346",704409
"1347",3385091
"1348",49885
"1349",133957
"1350",1885632
"1351",230975
"1352",208350
"1353",598144
"1354",7146
"1355",2748819
"1356",2833401
"1357",67920
"1358",1183538
"1359",2269725
"1360",2041526
"1361",429840
"1362",383686
"1363",3092204
"1364",679732
"1365",16458
"1366",306668
"1367",1461520
"1368",1033620
"1369",3718497
"1370",891605
"1371",427937
"1372",1946096
"1373",4932693
"1374",3321581
"1375",132120
"1376",48252
"1377",101802
"1378",179882
"1379",97535
"1380",7970
"1381",14752
"1382",62373
"1383",704947
"1384",18231
"1385",217627
"1386",183251
"1387",81956
"1388",114761
"1389",26400
"1390",37170
"1391",88648
"1392",278222
"1393",215424
"1394",324867
"1395",406202
"1396",473816
"1397",183178
"1398",469277
"1399",3993840
"1400",1406782
"1401",163088
"1402",1890448
"1403",442299
"1404",1270763
"1405",141693
"1406",307545
"1407",936397
"1408",2023931
"1409",1153300
"1410",9663
"1411",-1776
"1412",1560516
"1413",432216
"1414",1597342
"1415",1323029
"1416",96063
"1417",3413712
"1418",245302
"1419",228568
"1420",366924
"1421",937632
"1422",252028
"1423",92217
"1424",54106
"1425",149646
"1426",242343
"1427",88588
"1428",11511
"1429",199804
"1430",14944148
"1431",464869
"1432",2849338
"1433",1184502
"1434",1407901
"1435",2060550
"1436",854761
"1437",191938
"1438",38876
"1439",21726
"1440",45909
"1441",90742
"1442",47759
"1443",102606
"1444",557711
"1445",478134
"1446",8396731
"1447",5333
"1448",252351
"1449",13467
"1450",14421
"1451",39183
"1452",142151
"1453",44479
"1454",453265
"1455",347416
"1456",1032302
"1457",804531
"1458",307120
"1459",137639
"1460",595323
"1461",235518
"1462",505543
"1463",2526963
"1464",776173
"1465",71247
"1466",71188
"1467",4949263
"1468",202169
"1469",2733
"1470",53517
"1471",927428
"1472",2649758
"1473",248757
"1474",798325
"1475",1918372
"1476",202526
"1477",26530
"1478",28845
"1479",17993
"1480",279117
"1481",103498
"1482",221295
"1483",321596
"1484",54498
"1485",82397
"1486",1200206
"1487",111882
"1488",525809
"1489",49801
"1490",1276315
"1491",202223
"1492",374368
"1493",132210
"1494",257109
"1495",133794
"1496",10622
"1497",18931
"1498",90596
"1499",20064
"1500",882773
"1501",631020
"1502",247373
"1503",251377
"1504",299921
"1505",56457
"1506",198917
"1507",45107
"1508",208349
"1509",121257
"1510",99080
"1511",90955
"1512",248150
"1513",944897
"1514",4011937
"1515",1011855
"1516",3393072
"1517",655292
"1518",117192
"1519",36755
"1520",1489539
"1521",235116
"1522",6055281
"1523",897147
"1524",161613
"1525",7468
"1526",111483
"1527",212454
"1528",547081
"1529",839112
"1530",81568
"1531",49175
"1532",758737
"1533",465228
"1534",577887
"1535",2629689
"1536",3825422
"1537",2361394
"1538",153216
"1539",514796
"1540",123465
"1541",81453
"1542",32106
"1543",151822
"1544",247337
"1545",546080
"1546",21811
"1547",358635
"1548",908854
"1549",302546
"1550",15992
"1551",344047
"1552",1582
"1553",496193
"1554",800775
"1555",26200
"1556",890008
"1557",630116
"1558",180824
"1559",768384
"1560",2904102
"1561",3730029
"1562",947163
"1563",128092
"1564",424301
"1565",-299
"1566",517345
"1567",749585
"1568",46222
"1569",521252
"1570",3153153
"1571",98728
"1572",214873
"1573",3871374
"1574",399509
"1575",4044560
"1576",99920
"1577",125877
"1578",682121
"1579",656850
"1580",240413
"1581",174786
"1582",376282
"1583",19097
"1584",175604
"1585",20877
"1586",24829
"1587",256057
"1588",184690
"1589",1392626
"1590",26953
"1591",131142
"1592",1418055
"1593",144360
"1594",784
"1595",69379
"1596",1019376
"1597",588378
"1598",57488
"1599",117711
"1600",11029
"1601",697843
"1602",2134354
"1603",677739
"1604",1639474
"1605",635564
"1606",566189
"1607",478729
"1608",1491623
"1609",3689562
"1610",614048
"1611",8525845
"1612",464638
"1613",1300942
"1614",67119
"1615",329888
"1616",1880643
"1617",5927155
"1618",2420077
"1619",1237600
"1620",9667053
"1621",136993
"1622",10468875
"1623",2211000
"1624",4136866
"1625",69062
"1626",5251205
"1627",1620141
"1628",4842649
"1629",1585384
"1630",2246990
"1631",17569
"1632",47316
"1633",411808
"1634",202179
"1635",118538
"1636",252609
"1637",348609
"1638",503284
"1639",181831
"1640",491519
"1641",463616
"1642",324403
"1643",80359
"1644",14465
"1645",1176210
"1646",210380
"1647",757247
"1648",863416
"1649",75117
"1650",182360
"1651",443792
"1652",52977
"1653",22585
"1654",855258
"1655",213386
"1656",296612
"1657",188121
"1658",14897
"1659",561485
"1660",64235
"1661",541197
"1662",610666
"1663",621796
"1664",137067
"1665",130654
"1666",190416
"1667",56059
"1668",131507
"1669",606219
"1670",698678
"1671",304992
"1672",58542
"1673",360050
"1674",389950
"1675",247033
"1676",10905
"1677",409061
"1678",206020
"1679",47274
"1680",168894
"1681",273540
"1682",119934
"1683",57141
"1684",139016
"1685",170047
"1686",21194
"1687",133996
"1688",396569
"1689",49627
"1690",478395
"1691",129513
"1692",93673
"1693",843638
"1694",359024
"1695",12148614
"1696",1451789
"1697",71679
"1698",183125
"1699",533171
"1700",27080
"1701",196435
"1702",12698
"1703",164330
"1704",2298268
"1705",116437
"1706",192777
"1707",691398
"1708",138040
"1709",697959
"1710",6633
"1711",214147
"1712",856882
"1713",265060
"1714",571524
"1715",76893
"1716",22063
"1717",22738
"1718",1179793
"1719",292755
"1720",696921
"1721",90300
"1722",341507
"1723",328342
"1724",80011
"1725",46854
"1726",179618
"1727",524159
"1728",187412
"1729",164090
"1730",49542
"1731",439031
"1732",153078
"1733",123928
"1734",75295
"1735",78797
"1736",305351
"1737",1329998
"1738",143936
"1739",155302
"1740",91214
"1741",1336034
"1742",79667
"1743",2049932
"1744",606473
"1745",10254
"1746",339683
"1747",143894
"1748",6361
"1749",642442
"1750",118937
"1751",22661
"1752",599798
"1753",318045
"1754",762620
"1755",24916
"1756",26940
"1757",627661
"1758",373217
"1759",203946
"1760",822485
"1761",281326
"1762",2295185
"1763",973902
"1764",291308
"1765",12814971
"1766",517560
"1767",4083762
"1768",460178
"1769",312441
"1770",1589862
"1771",5384393
"1772",1878407
"1773",484882
"1774",825278
"1775",830005
"1776",19584
"1777",416567
"1778",131547
"1779",257036
"1780",1438715
"1781",248690
"1782",497054
"1783",475238
"1784",11225
"1785",511378
"1786",2138725
"1787",2893288
"1788",129673
"1789",981471
"1790",384787
"1791",3064484
"1792",256701
"1793",452039
"1794",127232
"1795",151527
"1796",7281285
"1797",1413096
"1798",30334
"1799",904286
"1800",2203498
"1801",125471
"1802",406816
"1803",162707
"1804",639127
"1805",30769
"1806",165245
"1807",2934832
"1808",7972709
"1809",1228230
"1810",4273007
"1811",1703896
"1812",1246882
"1813",1541640
"1814",166347
"1815",496657
"1816",4158831
"1817",55161
"1818",267109
"1819",320207
"1820",14423
"1821",156835
"1822",596602
"1823",698171
"1824",993050
"1825",1432770
"1826",69989
"1827",153193
"1828",105320
"1829",12879
"1830",51968
"1831",1100589
"1832",820150
"1833",196884
"1834",74035
"1835",573552
"1836",1319689
"1837",1515277
"1838",127773
"1839",279296
"1840",228582
"1841",671460
"1842",357486
"1843",2958449
"1844",463429
"1845",8412
"1846",179705
"1847",391765
"1848",337945
"1849",-1259
"1850",185926
"1851",861410
"1852",5295042
"1853",735159
"1854",169062
"1855",53643
"1856",337022
"1857",722520
"1858",990907
"1859",488727
"1860",444500
"1861",108978
"1862",47905
"1863",241325
"1864",254965
"1865",686378
"1866",1178125
"1867",482041
"1868",254260
"1869",5037441
"1870",42055
"1871",221835
"1872",323970
"1873",5249
"1874",1256663
"1875",75771
"1876",10415
"1877",765754
"1878",106543
"1879",7358333
"1880",300832
"1881",277647
"1882",1668277
"1883",150886
"1884",4822822
"1885",4079236
"1886",16011747
"1887",223726
"1888",2664185
"1889",3911795
"1890",2244978
"1891",168852
"1892",849801
"1893",507912
"1894",4005605
"1895",1112208
"1896",81759
"1897",697615
"1898",323306
"1899",1240039
"1900",-82
"1901",290879
"1902",11671655
"1903",1797171
"1904",615118
"1905",642096
"1906",2774254
"1907",117353
"1908",12398743
"1909",12939963
"1910",939330
"1911",1151160
"1912",177245
"1913",150852
"1914",390205
"1915",-986
"1916",56331
"1917",4463835
"1918",1563134
"1919",5335448
"1920",3836329
"1921",119989
"1922",280404
"1923",717348
"1924",2979487
"1925",642847
"1926",4576032
"1927",187418
"1928",334161
"1929",2037137
"1930",1316265
"1931",1046471
"1932",1179674
"1933",2358249
"1934",8829456
"1935",5635353
"1936",89173
"1937",634109
"1938",21765
"1939",300905
