"","distances"
"1",367397
"2",159344
"3",18973
"4",99283
"5",38424
"6",24027
"7",139627
"8",23143
"9",59433
"10",628525
"11",-41293
"12",51144
"13",1211205
"14",227140
"15",2378840
"16",239777
"17",1252367
"18",1049602
"19",640548
"20",97587
"21",1083116
"22",59302
"23",374511
"24",324396
"25",3706798
"26",70273
"27",1209374
"28",1817260
"29",409545
"30",856785
"31",546613
"32",1329982
"33",284869
"34",105349
"35",71231
"36",162523
"37",600597
"38",767879
"39",728589
"40",498849
"41",407923
"42",40176
"43",516053
"44",114723
"45",312493
"46",43316
"47",445159
"48",114652
"49",136585
"50",103034
"51",6484
"52",87549
"53",900549
"54",2920420
"55",43230
"56",1139010
"57",2592368
"58",61647
"59",274869
"60",1329365
"61",8430
"62",97355
"63",18337
"64",813374
"65",166495
"66",1005597
"67",942948
"68",483128
"69",394404
"70",311002
"71",392661
"72",27525
"73",705883
"74",373727
"75",198798
"76",15818
"77",608715
"78",5663201
"79",675015
"80",628280
"81",1355218
"82",667193
"83",48360
"84",1831533
"85",8327853
"86",1580740
"87",74445
"88",9813342
"89",7413548
"90",4606495
"91",1678216
"92",1980326
"93",1024359
"94",1094489
"95",5799427
"96",93625
"97",6030591
"98",1994850
"99",407477
"100",870044
"101",10167
"102",539243
"103",1947768
"104",937735
"105",799268
"106",52585
"107",861268
"108",794792
"109",2532004
"110",507740
"111",26079862
"112",24055
"113",25484
"114",1253907
"115",748771
"116",1929796
"117",337055
"118",217784
"119",138616
"120",33052
"121",216060
"122",160995
"123",10237
"124",78419
"125",132055
"126",108566
"127",220951
"128",83699
"129",1760558
"130",157368
"131",1203181
"132",146780
"133",28813
"134",35224
"135",33381
"136",359243
"137",375056
"138",18219
"139",159964
"140",39614
"141",298577
"142",127592
"143",13308
"144",153725
"145",2066874
"146",725777
"147",1370233
"148",38248
"149",99862
"150",607852
"151",371412
"152",3312155
"153",1602885
"154",290778
"155",2514
"156",1195491
"157",481664
"158",2475922
"159",2566703
"160",4858617
"161",305286
"162",2319641
"163",643829
"164",15219855
"165",2646292
"166",399275
"167",1977309
"168",1215592
"169",1806503
"170",2809566
"171",45687
"172",375234
"173",4034471
"174",4009104
"175",2342140
"176",2289749
"177",77537
"178",173805
"179",561600
"180",1652315
"181",231818
"182",1418670
"183",5023661
"184",805597
"185",700944
"186",2164956
"187",2782061
"188",7206523
"189",244140
"190",408091
"191",1027991
"192",103360
"193",3358161
"194",3254063
"195",317275
"196",7426520
"197",989869
"198",4026564
"199",320729
"200",18009
"201",713291
"202",1379709
"203",118510
"204",110386
"205",205586
"206",305516
"207",29984
"208",82715
"209",137251
"210",32679
"211",179158
"212",142705
"213",861734
"214",1852470
"215",2126430
"216",2955240
"217",2388485
"218",138347
"219",3787032
"220",3852155
"221",7227171
"222",1376606
"223",596620
"224",5012680
"225",203543
"226",326219
"227",6800041
"228",625181
"229",442780
"230",1548310
"231",1947091
"232",157801
"233",894988
"234",211093
"235",1749
"236",4174
"237",211806
"238",150128
"239",9530164
"240",854996
"241",245033
"242",13694
"243",87562
"244",500501
"245",601545
"246",592857
"247",1054904
"248",110286
"249",86043
"250",194617
"251",5944047
"252",1099082
"253",494908
"254",901669
"255",868717
"256",1773345
"257",1574188
"258",158429
"259",496903
"260",2018083
"261",164431
"262",1471566
"263",1899649
"264",1236834
"265",6463
"266",129718
"267",652334
"268",1122481
"269",493498
"270",6014435
"271",101269
"272",306607
"273",553557
"274",7942003
"275",2037430
"276",1152266
"277",19736799
"278",5034375
"279",3757318
"280",9494175
"281",4654582
"282",1635626
"283",39114
"284",11950
"285",1191392
"286",53693
"287",493458
"288",6459355
"289",4092404
"290",521348
"291",7690196
"292",40263
"293",2956309
"294",649661
"295",2649037
"296",3801009
"297",2418376
"298",99268
"299",5527083
"300",549873
"301",1460853
"302",136939
"303",379440
"304",458749
"305",75360
"306",28930
"307",86627
"308",138925
"309",2880730
"310",1817750
"311",2923066
"312",4374589
"313",763780
"314",476323
"315",1285138
"316",3641669
"317",167494
"318",2078522
"319",13491
"320",299349
"321",330375
"322",234363
"323",-163977
"324",5045275
"325",344938
"326",31842
"327",97561
"328",51193
"329",10143
"330",104476
"331",157229
"332",7385
"333",2163254
"334",193902
"335",710267
"336",638213
"337",236598
"338",765504
"339",259973
"340",1155011
"341",2788878
"342",12289663
"343",446567
"344",222733
"345",4354885
"346",341575
"347",91272
"348",74779
"349",1844995
"350",48369
"351",2415495
"352",61626
"353",1057088
"354",432828
"355",118470
"356",37886
"357",1067557
"358",1432658
"359",82199
"360",727339
"361",-8460
"362",148882
"363",154794
"364",133621
"365",167642
"366",85753
"367",41597
"368",190850
"369",53606
"370",138014
"371",628344
"372",50418
"373",53781
"374",970117
"375",302759
"376",67720
"377",197871
"378",236365
"379",169901
"380",1147848
"381",1604139
"382",2672008
"383",256994
"384",58257
"385",5508189
"386",2109600
"387",5383540
"388",24831982
"389",3211905
"390",8475169
"391",2597873
"392",866759
"393",34748
"394",561473
"395",6006914
"396",282308
"397",861071
"398",1372795
"399",238452
"400",194371
"401",428015
"402",1505139
"403",697371
"404",486158
"405",293378
"406",552038
"407",533874
"408",316965
"409",77107
"410",335298
"411",223774
"412",312619
"413",1184223
"414",194091
"415",280021
"416",111747
"417",6658029
"418",172699
"419",203072
"420",372430
"421",202957
"422",3137905
"423",230125
"424",6194484
"425",1073921
"426",136444
"427",73119
"428",4655434
"429",17550
"430",1019130
"431",1686134
"432",1781377
"433",9197673
"434",268034
"435",2544846
"436",8272491
"437",2025444
"438",61968
"439",491156
"440",343703
"441",822028
"442",194506
"443",1282723
"444",2144
"445",2844971
"446",59449
"447",4280235
"448",85647
"449",1963917
"450",71101
"451",199395
"452",46024
"453",479967
"454",315752
"455",85388
"456",1654
"457",88049
"458",228087
"459",140881
"460",547778
"461",1020290
"462",2786396
"463",930543
"464",44703
"465",17182
"466",199362
"467",7731
"468",3025150
"469",366855
"470",935740
"471",4796920
"472",6024931
"473",1238987
"474",902028
"475",13986540
"476",100991
"477",392411
"478",7856089
"479",450423
"480",3953529
"481",33711
"482",3248817
"483",965191
"484",575862
"485",13676718
"486",380850
"487",3172672
"488",1146264
"489",1871558
"490",823552
"491",4345164
"492",3628352
"493",977026
"494",6863953
"495",4719888
"496",2834256
"497",3311428
"498",1503068
"499",705519
"500",4187697
"501",8440700
"502",1011381
"503",4897109
"504",11825035
"505",4905276
"506",2872112
"507",3998460
"508",6948111
"509",10889237
"510",336549
"511",3040229
"512",4261118
"513",7402082
"514",540270
"515",808351
"516",114204
"517",3207
"518",352446
"519",605494
"520",274409
"521",944479
"522",844392
"523",3031940
"524",24519364
"525",7776109
"526",1550734
"527",73917
"528",2209132
"529",11174751
"530",1169461
"531",2680788
"532",2697449
"533",169799
"534",3222760
"535",2445046
"536",1742168
"537",2989280
"538",1177762
"539",1121771
"540",5349887
"541",-30913
"542",10308607
"543",3173438
"544",2052139
"545",1476094
"546",3623675
"547",10166796
"548",434202
"549",3385036
"550",398104
"551",3234843
"552",4412377
"553",4538082
"554",174737
"555",3635258
"556",25546
"557",2006473
"558",461905
"559",22598
"560",1104251
"561",3277769
"562",156711
"563",616606
"564",343937
"565",11425
"566",443356
"567",376391
"568",372694
"569",2145118
"570",4213221
"571",902594
"572",1746129
"573",54268
"574",2768466
"575",3175056
"576",155422
"577",1415961
"578",799060
"579",12893186
"580",2688259
"581",527611
"582",46464
"583",393908
"584",252127
"585",31347
"586",143143
"587",96453
"588",520649
"589",790626
"590",144418
"591",205128
"592",252040
"593",392831
"594",869112
"595",116216
"596",546000
"597",1143412
"598",98530
"599",105
"600",314893
"601",1405784
"602",2841493
"603",2882982
"604",3778061
"605",8963917
"606",69548
"607",545674
"608",977762
"609",31687
"610",1764507
"611",124613
"612",222488
"613",290559
"614",20644
"615",255032
"616",8064
"617",592649
"618",99469
"619",26177
"620",176315
"621",1920
"622",276362
"623",478674
"624",144380
"625",183712
"626",190833
"627",67571
"628",12792
"629",16005
"630",101719
"631",2739203
"632",209977
"633",380727
"634",553956
"635",1604142
"636",1918438
"637",638924
"638",26240
"639",954340
"640",307933
"641",111493
"642",44122
"643",197882
"644",27093
"645",3146
"646",-23597
"647",89837
"648",613144
"649",129635
"650",2099154
"651",10302296
"652",144984
"653",756241
"654",15301714
"655",71707
"656",88315
"657",1728439
"658",3617149
"659",3416766
"660",3078756
"661",3761417
"662",15962266
"663",2638325
"664",1274909
"665",655900
"666",3789697
"667",1782468
"668",171619
"669",655315
"670",134414
"671",396433
"672",4472469
"673",2493589
"674",1986632
"675",5379178
"676",4087799
"677",1489594
"678",5028610
"679",4801
"680",331654
"681",336635
"682",5245830
"683",431817
"684",3047398
"685",2269560
"686",3716147
"687",742436
"688",126801
"689",473515
"690",244788
"691",988
"692",389753
"693",2110813
"694",681409
"695",47336
"696",259376
"697",44360
"698",95694
"699",530787
"700",185408
"701",4146566
"702",5689775
"703",3252668
"704",2964423
"705",97728
"706",178744
"707",1206987
"708",2342241
"709",422631
"710",1332236
"711",3563431
"712",157462
"713",3569773
"714",1659155
"715",5472794
"716",102588
"717",271995
"718",87614
"719",5479504
"720",4960347
"721",577309
"722",9821562
"723",116235
"724",901615
"725",6353675
"726",58482
"727",63836
"728",1123846
"729",258804
"730",727156
"731",315689
"732",1489433
"733",2570995
"734",6516883
"735",125094
"736",805323
"737",3465015
"738",365514
"739",1520315
"740",727715
"741",2446895
"742",1141090
"743",1002480
"744",42379
"745",126692
"746",408184
"747",112797
"748",14870
"749",29066
"750",3300
"751",31903
"752",95298
"753",426721
"754",350659
"755",1208916
"756",1669520
"757",1363036
"758",11098730
"759",154852
"760",3557217
"761",6722216
"762",883118
"763",165686
"764",916676
"765",553085
"766",1101699
"767",3840181
"768",492949
"769",2766916
"770",543751
"771",1481167
"772",1042060
"773",1591770
"774",217544
"775",5093075
"776",268607
"777",148869
"778",175754
"779",907066
"780",638165
"781",4775487
"782",1137450
"783",218483
"784",8250595
"785",2717357
"786",706188
"787",3223082
"788",341229
"789",5597246
"790",328519
"791",32874
"792",386571
"793",116253
"794",106090
"795",3217743
"796",626709
"797",322549
"798",1090885
"799",10083922
"800",2273296
"801",267690
"802",527945
"803",665001
"804",190869
"805",5831816
"806",14093339
"807",10025369
"808",1479156
"809",380271
"810",3641185
"811",2474840
"812",236905
"813",210202
"814",3347632
"815",227360
"816",5544756
"817",18845
"818",2645189
"819",6434471
"820",1012803
"821",2201886
"822",1207736
"823",10837598
"824",4845191
"825",1856499
"826",1457291
"827",4810018
"828",12812956
"829",622416
"830",206208
"831",150962
"832",317465
"833",18625
"834",267919
"835",164447
"836",311910
"837",119853
"838",1847085
"839",74846
"840",8109763
"841",4756951
"842",4197649
"843",3555292
"844",1268599
"845",5978834
"846",1290011
"847",174579
"848",23405
"849",88482
"850",696631
"851",78796
"852",94391
"853",70824
"854",75956
"855",1607312
"856",316813
"857",613692
"858",144443
"859",33139920
"860",4582009
"861",1897557
"862",5945364
"863",327868
"864",7270288
"865",287548
"866",139123
"867",542748
"868",1273109
"869",1552359
"870",2287876
"871",145634
"872",2311895
"873",10469211
"874",646196
"875",239486
"876",209335
"877",1069664
"878",6813389
"879",482831
"880",383125
"881",2916947
"882",10603
"883",1092691
"884",1209025
"885",389093
"886",574061
"887",66286
"888",135098
"889",147191
"890",-239
"891",663998
"892",1301427
"893",289131
"894",328839
"895",513089
"896",349085
"897",132074
"898",86456
"899",53555
"900",11816
"901",5126
"902",44890
"903",607343
"904",282432
"905",1038494
"906",994602
"907",454368
"908",246921
"909",620836
"910",98628
"911",738287
"912",5206887
"913",293048
"914",1121280
"915",9747208
"916",79903
"917",4328030
"918",3460218
"919",1566808
"920",9684874
"921",917776
"922",69241
"923",2933926
"924",2857223
"925",19361740
"926",1725956
"927",53520
"928",1334827
"929",131467
"930",484184
"931",598734
"932",7073
"933",9886
"934",1614178
"935",2567345
"936",6109895
"937",4668887
"938",2060278
"939",1913437
"940",532194
"941",292229
"942",3363205
"943",114227
"944",970181
"945",949923
"946",718525
"947",99820
"948",198586
"949",409460
"950",793810
"951",42561
"952",221470
"953",334579
"954",292999
"955",624475
"956",204962
"957",379813
"958",6376938
"959",3204587
"960",3999371
"961",819563
"962",107035
"963",485703
"964",3154330
"965",1611041
"966",183897
"967",888964
"968",1383316
"969",2823867
"970",2221337
"971",780529
"972",63252
"973",84437
"974",35817
"975",90231
"976",106946
"977",-11287
"978",62192
"979",55355
"980",17049
"981",363271
"982",470238
"983",168971
"984",190406
"985",250885
"986",204450
"987",965593
"988",713513
"989",1120697
"990",2453546
"991",390006
"992",353005
"993",1785976
"994",6272764
"995",273939
"996",15157
"997",991457
"998",61549
"999",1753430
"1000",10986057
"1001",77851
"1002",1039615
"1003",2573700
"1004",9355603
"1005",958363
"1006",684049
"1007",82909
"1008",533390
"1009",158226
"1010",155696
"1011",38300
"1012",9590954
"1013",291149
"1014",136944
"1015",1507323
"1016",500505
"1017",253
"1018",644880
"1019",500920
"1020",82018
"1021",171599
"1022",87446
"1023",67784
"1024",1030574
"1025",31728
"1026",16971
"1027",54382
"1028",1098635
"1029",274253
"1030",21398
"1031",3852
"1032",31037
"1033",31756
"1034",22139
"1035",445976
"1036",106259
"1037",92935
"1038",71273
"1039",5799
"1040",46746
"1041",37370
"1042",282320
"1043",114892
"1044",50911
"1045",54946
"1046",138455
"1047",90280
"1048",56858
"1049",12547
"1050",10330
"1051",62649
"1052",101523
"1053",139245
"1054",215488
"1055",659951
"1056",74946
"1057",41282
"1058",378648
"1059",283327
"1060",1949129
"1061",991609
"1062",561423
"1063",733819
"1064",1442120
"1065",181709
"1066",3090858
"1067",405360
"1068",22113
"1069",5178878
"1070",168605
"1071",20045
"1072",37677
"1073",2482433
"1074",8052202
"1075",7399612
"1076",778487
"1077",71890
"1078",2401295
"1079",4308310
"1080",294224
"1081",1666
"1082",1044574
"1083",3459858
"1084",100884
"1085",1048621
"1086",74418
"1087",58410
"1088",113032
"1089",432757
"1090",78932
"1091",96089
"1092",914506
"1093",3538648
"1094",1010908
"1095",334255
"1096",844033
"1097",4004812
"1098",14751
"1099",194549
"1100",3902881
"1101",301423
"1102",310354
"1103",3657905
"1104",2029424
"1105",108079
"1106",37289
"1107",79541
"1108",17434
"1109",58047
"1110",788032
"1111",122027
"1112",466834
"1113",96383
"1114",251008
"1115",706580
"1116",327230
"1117",832425
"1118",2026024
"1119",98757
"1120",1503388
"1121",194155
"1122",12476037
"1123",20779180
"1124",51953
"1125",1881704
"1126",973206
"1127",1059386
"1128",845250
"1129",88973
"1130",92379
"1131",193744
"1132",2178137
"1133",9280
"1134",13573
"1135",60641
"1136",132226
"1137",336525
"1138",435825
"1139",211044
"1140",222881
"1141",315063
"1142",107323
"1143",4714
"1144",43136
"1145",14835
"1146",87335
"1147",4643604
"1148",1199808
"1149",683106
"1150",1418988
"1151",5555319
"1152",5619595
"1153",1327195
"1154",11552094
"1155",10901096
"1156",1525124
"1157",3726
"1158",4288274
"1159",837651
"1160",383771
"1161",36550
"1162",252826
"1163",3276686
"1164",9962
"1165",137472
"1166",4671968
"1167",2166290
"1168",124841
"1169",49586
"1170",190929
"1171",298622
"1172",383539
"1173",487239
"1174",225637
"1175",985509
"1176",372256
"1177",256054
"1178",410
"1179",7395057
"1180",969172
"1181",3649500
"1182",274364
"1183",4436376
"1184",818469
"1185",2655366
"1186",1335904
"1187",57087
"1188",3925949
"1189",4343390
"1190",65435
"1191",2849504
"1192",1796908
"1193",6968543
"1194",14097370
"1195",70995
"1196",1675804
"1197",16928788
"1198",4850054
"1199",10741806
"1200",-10634
"1201",2182150
"1202",7210
"1203",77800
"1204",88526
"1205",75938
"1206",860811
"1207",349310
"1208",286768
"1209",1460183
"1210",177253
"1211",56838
"1212",58169
"1213",10425
"1214",103002
"1215",874260
"1216",107787
"1217",80455
"1218",8490
"1219",16660
"1220",162100
"1221",7015082
"1222",3664336
"1223",1195674
"1224",1740274
"1225",11368805
"1226",257862
"1227",30517
"1228",439866
"1229",1371735
"1230",2497869
"1231",330795
"1232",1342941
"1233",1757888
"1234",1076925
"1235",515080
"1236",802318
"1237",2615681
"1238",3940094
"1239",2285053
"1240",438941
"1241",2609720
"1242",509902
"1243",406132
"1244",1039241
"1245",637425
"1246",296910
"1247",13434363
"1248",976709
"1249",1371490
"1250",248586
"1251",581890
"1252",436249
"1253",146130
"1254",2684235
"1255",2483452
"1256",195986
"1257",966774
"1258",1665555
"1259",367952
"1260",1220260
"1261",1378252
"1262",162456
"1263",119240
"1264",185584
"1265",32111
"1266",38567
"1267",34152
"1268",27678
"1269",93694
"1270",132842
"1271",83005
"1272",20876
"1273",1121120
"1274",44841
"1275",5486409
"1276",656891
"1277",2756
"1278",119449
"1279",71542
"1280",9304
"1281",750197
"1282",1774586
"1283",32036
"1284",1603593
"1285",3289885
"1286",3292176
"1287",3438719
"1288",103312
"1289",1632877
"1290",587442
"1291",1452151
"1292",5343971
"1293",165119
"1294",514566
"1295",598144
"1296",204415
"1297",2035373
"1298",3294370
"1299",2172978
"1300",374934
"1301",1060513
"1302",1125144
"1303",1852733
"1304",1996715
"1305",11066
"1306",1653493
"1307",45448
"1308",641158
"1309",580568
"1310",439402
"1311",6213464
"1312",7006605
"1313",1165479
"1314",1747489
"1315",23379
"1316",90827
"1317",8226
"1318",48252
"1319",14181
"1320",83558
"1321",14713
"1322",154508
"1323",91530
"1324",3403
"1325",36053
"1326",62373
"1327",563526
"1328",70270
"1329",345857
"1330",143239
"1331",260922
"1332",26400
"1333",37170
"1334",179611
"1335",474698
"1336",11057
"1337",5299
"1338",477
"1339",70407
"1340",162601
"1341",406202
"1342",580954
"1343",238509
"1344",39001
"1345",6712
"1346",186581
"1347",-3075
"1348",3682576
"1349",1730774
"1350",163088
"1351",778371
"1352",197469
"1353",808214
"1354",2029664
"1355",3521165
"1356",8951
"1357",812168
"1358",56127
"1359",149898
"1360",1711051
"1361",1923529
"1362",45036
"1363",1354289
"1364",53620
"1365",3295880
"1366",96368
"1367",245302
"1368",959698
"1369",47193
"1370",36639
"1371",72457
"1372",79542
"1373",265389
"1374",51936
"1375",12523
"1376",77820
"1377",46919
"1378",112438
"1379",333013
"1380",624917
"1381",14944148
"1382",194860
"1383",3382190
"1384",1184502
"1385",2054560
"1386",772350
"1387",455215
"1388",1110785
"1389",111287
"1390",139199
"1391",165016
"1392",143482
"1393",24394
"1394",9902482
"1395",44479
"1396",163682
"1397",363705
"1398",205669
"1399",46401
"1400",532658
"1401",234960
"1402",3581
"1403",1128759
"1404",757824
"1405",68998
"1406",235723
"1407",3070841
"1408",453356
"1409",268691
"1410",71188
"1411",3937200
"1412",1435133
"1413",2760485
"1414",325550
"1415",415626
"1416",1174932
"1417",393185
"1418",367916
"1419",1857743
"1420",290423
"1421",346950
"1422",51090
"1423",426778
"1424",54011
"1425",384106
"1426",306721
"1427",241781
"1428",513260
"1429",128049
"1430",61416
"1431",44785
"1432",1891241
"1433",1126476
"1434",279745
"1435",20064
"1436",882773
"1437",1110601
"1438",11694
"1439",129787
"1440",43430
"1441",134530
"1442",103958
"1443",153183
"1444",45107
"1445",445393
"1446",1527359
"1447",5105260
"1448",444977
"1449",188985
"1450",551670
"1451",631789
"1452",299248
"1453",381105
"1454",70997
"1455",136865
"1456",56394
"1457",1009499
"1458",67777
"1459",562492
"1460",804338
"1461",91407
"1462",113141
"1463",6820239
"1464",318700
"1465",111483
"1466",2147430
"1467",178886
"1468",554325
"1469",465228
"1470",577887
"1471",2464496
"1472",89462
"1473",37855
"1474",16697
"1475",3825422
"1476",175454
"1477",582678
"1478",1229607
"1479",290151
"1480",43691
"1481",182566
"1482",431078
"1483",240399
"1484",151822
"1485",33775
"1486",122651
"1487",1038134
"1488",472956
"1489",419188
"1490",57577
"1491",2101068
"1492",662045
"1493",1280975
"1494",718830
"1495",32659
"1496",166225
"1497",2732520
"1498",1862369
"1499",577347
"1500",993557
"1501",171012
"1502",739894
"1503",128092
"1504",249639
"1505",856307
"1506",350278
"1507",434849
"1508",521252
"1509",3153153
"1510",1024300
"1511",4227734
"1512",3401103
"1513",1233498
"1514",165354
"1515",217178
"1516",72670
"1517",151166
"1518",17602
"1519",62967
"1520",35321
"1521",78691
"1522",6608
"1523",226550
"1524",142377
"1525",119163
"1526",53926
"1527",807419
"1528",9066
"1529",2307896
"1530",261984
"1531",144360
"1532",784
"1533",890985
"1534",107778
"1535",137694
"1536",200723
"1537",179510
"1538",160195
"1539",19384
"1540",31393
"1541",92724
"1542",2196696
"1543",677739
"1544",2863792
"1545",5865929
"1546",614048
"1547",1212371
"1548",7308373
"1549",1894121
"1550",2353368
"1551",363693
"1552",8593657
"1553",153624
"1554",504995
"1555",10125046
"1556",979070
"1557",3076673
"1558",701469
"1559",5609087
"1560",978702
"1561",5719894
"1562",547442
"1563",5811379
"1564",5233305
"1565",1585384
"1566",3148516
"1567",551688
"1568",152678
"1569",141659
"1570",37411
"1571",625965
"1572",145025
"1573",67476
"1574",42044
"1575",632970
"1576",214769
"1577",648849
"1578",138614
"1579",134723
"1580",109628
"1581",220100
"1582",106150
"1583",1008051
"1584",210380
"1585",559771
"1586",194032
"1587",959149
"1588",44672
"1589",150407
"1590",55340
"1591",3468
"1592",364848
"1593",52977
"1594",1230606
"1595",189361
"1596",265335
"1597",101515
"1598",78714
"1599",170105
"1600",424992
"1601",441150
"1602",106476
"1603",45224
"1604",1108835
"1605",18564
"1606",225836
"1607",184066
"1608",790046
"1609",194351
"1610",359891
"1611",535341
"1612",304992
"1613",684077
"1614",1353054
"1615",338588
"1616",68863
"1617",252793
"1618",187070
"1619",174603
"1620",175032
"1621",137887
"1622",444565
"1623",3487
"1624",1020140
"1625",54252
"1626",2593457
"1627",10129011
"1628",882590
"1629",530186
"1630",76457
"1631",430649
"1632",234703
"1633",180839
"1634",63353
"1635",20746
"1636",58948
"1637",395349
"1638",652919
"1639",152908
"1640",274685
"1641",551713
"1642",116437
"1643",192777
"1644",178467
"1645",12724
"1646",69767
"1647",502311
"1648",44464
"1649",44920
"1650",294125
"1651",124591
"1652",240767
"1653",572299
"1654",545988
"1655",254798
"1656",123903
"1657",110953
"1658",36432
"1659",201101
"1660",105469
"1661",22738
"1662",1149374
"1663",328665
"1664",293451
"1665",169382
"1666",578764
"1667",162712
"1668",31400
"1669",80011
"1670",22615
"1671",199883
"1672",524159
"1673",424474
"1674",624152
"1675",686424
"1676",98837
"1677",297397
"1678",65254
"1679",194100
"1680",41929
"1681",152511
"1682",295272
"1683",34057
"1684",35310
"1685",33684
"1686",51110
"1687",32256
"1688",137004
"1689",8289
"1690",433478
"1691",24962
"1692",140168
"1693",586253
"1694",236799
"1695",43603
"1696",377360
"1697",100958
"1698",164332
"1699",157255
"1700",623457
"1701",370835
"1702",110829
"1703",606473
"1704",10254
"1705",34765
"1706",865858
"1707",381694
"1708",22661
"1709",103803
"1710",18772
"1711",16461
"1712",434205
"1713",272376
"1714",196092
"1715",35500
"1716",1714617
"1717",164323
"1718",120494
"1719",299913
"1720",1569638
"1721",428406
"1722",71262
"1723",158922
"1724",205049
"1725",1501319
"1726",4537097
"1727",3280100
"1728",3441221
"1729",653295
"1730",145114
"1731",169544
"1732",1519873
"1733",355897
"1734",1868517
"1735",460178
"1736",1913184
"1737",5384393
"1738",1787220
"1739",87137
"1740",2181398
"1741",331188
"1742",187395
"1743",131547
"1744",257036
"1745",110421
"1746",254258
"1747",1561734
"1748",379411
"1749",803092
"1750",189779
"1751",2138725
"1752",2140256
"1753",1011639
"1754",257205
"1755",156136
"1756",336108
"1757",12772
"1758",360189
"1759",29083
"1760",173350
"1761",467871
"1762",25020
"1763",7471500
"1764",3420340
"1765",677586
"1766",574366
"1767",90999
"1768",828727
"1769",1859658
"1770",1318945
"1771",125356
"1772",118147
"1773",223225
"1774",3396867
"1775",2099038
"1776",313338
"1777",1219240
"1778",58217
"1779",543591
"1780",597162
"1781",1454799
"1782",57323
"1783",2024173
"1784",1098487
"1785",2865862
"1786",56186
"1787",75640
"1788",383290
"1789",179652
"1790",306896
"1791",345322
"1792",1029172
"1793",102272
"1794",714016
"1795",245687
"1796",22725
"1797",426849
"1798",105320
"1799",1404703
"1800",140186
"1801",13835
"1802",304009
"1803",20578
"1804",169874
"1805",124023
"1806",31030
"1807",74035
"1808",33058
"1809",486130
"1810",920382
"1811",365890
"1812",61540
"1813",316442
"1814",22216
"1815",71346
"1816",945671
"1817",83411
"1818",342131
"1819",366393
"1820",1873897
"1821",178109
"1822",2014348
"1823",679633
"1824",63418
"1825",750651
"1826",11864
"1827",185067
"1828",274941
"1829",219950
"1830",809765
"1831",429979
"1832",4074935
"1833",673066
"1834",649483
"1835",688713
"1836",121879
"1837",605543
"1838",62372
"1839",1306403
"1840",444500
"1841",216747
"1842",99049
"1843",855481
"1844",202024
"1845",262348
"1846",42778
"1847",812027
"1848",482041
"1849",254260
"1850",1678707
"1851",3064461
"1852",284513
"1853",345255
"1854",252801
"1855",4104
"1856",826792
"1857",6026069
"1858",993160
"1859",229265
"1860",12467
"1861",207650
"1862",277647
"1863",4112210
"1864",290566
"1865",1344543
"1866",1486630
"1867",317200
"1868",2817936
"1869",2563252
"1870",12898892
"1871",3830471
"1872",2224237
"1873",179967
"1874",605373
"1875",1245956
"1876",76362
"1877",546461
"1878",259066
"1879",78154
"1880",79878
"1881",177741
"1882",455976
"1883",38706
"1884",377098
"1885",125583
"1886",229568
"1887",926945
"1888",1391521
"1889",1676458
"1890",1009281
"1891",697615
"1892",323306
"1893",1329096
"1894",13294263
"1895",542132
"1896",615118
"1897",546262
"1898",169170
"1899",1370985
"1900",1203677
"1901",436231
"1902",24544733
"1903",233893
"1904",715036
"1905",2291130
"1906",3002022
"1907",3205638
"1908",9688753
"1909",381988
"1910",9594565
"1911",199601
"1912",17886346
"1913",4778221
"1914",818370
"1915",89173
"1916",134719
"1917",75277
"1918",381258
"1919",16520
"1920",50790
"1921",40700
"1922",478408
