"","distances"
"1",494804
"2",148087
"3",188902
"4",966
"5",297045
"6",6623
"7",64216
"8",16374
"9",50000
"10",100164
"11",1459519
"12",3397655
"13",70663
"14",19561
"15",2532851
"16",457689
"17",574066
"18",646474
"19",537137
"20",324396
"21",554396
"22",2999769
"23",178820
"24",306379
"25",387819
"26",-218069
"27",2101193
"28",1500
"29",340394
"30",14423
"31",267679
"32",527629
"33",286343
"34",1631085
"35",284869
"36",750151
"37",82245
"38",430046
"39",793096
"40",757591
"41",117259
"42",75003
"43",239912
"44",153633
"45",411714
"46",94023
"47",1309159
"48",95977
"49",783461
"50",112581
"51",2038812
"52",837622
"53",714086
"54",507960
"55",1479192
"56",290261
"57",666817
"58",361786
"59",1102379
"60",96483
"61",150978
"62",9918
"63",1633232
"64",521428
"65",15506
"66",42520
"67",2449456
"68",37600
"69",538924
"70",135379
"71",350821
"72",426899
"73",1042960
"74",550613
"75",61704
"76",6319299
"77",228863
"78",3943075
"79",108005
"80",2165167
"81",973504
"82",2381425
"83",2032828
"84",353711
"85",615481
"86",46842
"87",1335278
"88",108643
"89",3880667
"90",2737623
"91",328544
"92",705901
"93",5885528
"94",4432186
"95",384785
"96",394771
"97",56982
"98",3871962
"99",5970166
"100",262896
"101",95167
"102",8409230
"103",99029
"104",37677
"105",102787
"106",85528
"107",565536
"108",1124619
"109",235355
"110",24416
"111",63706
"112",38554
"113",2161176
"114",111422
"115",428929
"116",34047
"117",52585
"118",2279618
"119",756032
"120",1718781
"121",1652528
"122",24360659
"123",122197
"124",1194338
"125",-10018
"126",3630497
"127",289959
"128",24318
"129",431928
"130",1898224
"131",103306
"132",8873
"133",6141
"134",31047
"135",176144
"136",307571
"137",414151
"138",44125
"139",528261
"140",718991
"141",3541310
"142",545349
"143",689408
"144",40965
"145",136244
"146",607852
"147",3377063
"148",185506
"149",165735
"150",3938013
"151",768461
"152",1630770
"153",739648
"154",1803476
"155",2982711
"156",687197
"157",1991313
"158",4344774
"159",994323
"160",6636557
"161",8223372
"162",131390
"163",359904
"164",1077575
"165",123374
"166",694198
"167",202565
"168",70417
"169",189295
"170",631146
"171",4597136
"172",651864
"173",706507
"174",850204
"175",1455888
"176",292594
"177",1230261
"178",2724428
"179",729225
"180",1573894
"181",1839210
"182",1289882
"183",121493
"184",65287
"185",1652315
"186",231818
"187",587667
"188",1113181
"189",102719
"190",1061410
"191",75562
"192",3391910
"193",2677159
"194",665365
"195",437701
"196",7135362
"197",1868010
"198",167995
"199",311784
"200",1389102
"201",45642
"202",1933981
"203",1039036
"204",248053
"205",355774
"206",7039870
"207",1535027
"208",4127354
"209",740159
"210",1379709
"211",574621
"212",305516
"213",116618
"214",1605878
"215",322473
"216",2091495
"217",4341381
"218",613269
"219",112146
"220",1078687
"221",604111
"222",124921
"223",298748
"224",2983214
"225",466575
"226",571923
"227",31074
"228",2220312
"229",1206195
"230",-115
"231",7328785
"232",914776
"233",4755419
"234",8250781
"235",686408
"236",860621
"237",114739
"238",323483
"239",489216
"240",407379
"241",1108133
"242",137290
"243",120880
"244",9739670
"245",511048
"246",547182
"247",494116
"248",2549487
"249",6336272
"250",375675
"251",1066468
"252",118115
"253",4354
"254",25805
"255",212826
"256",618678
"257",1660613
"258",55384
"259",4895244
"260",164431
"261",7325
"262",395686
"263",907326
"264",1490803
"265",398700
"266",1236834
"267",831710
"268",615009
"269",87378
"270",305794
"271",493498
"272",7030668
"273",6361220
"274",1189886
"275",2468822
"276",1346966
"277",2352579
"278",682295
"279",308390
"280",12144585
"281",2753494
"282",826744
"283",475601
"284",7085358
"285",3688647
"286",2121463
"287",241342
"288",2079861
"289",1016796
"290",7800928
"291",1823016
"292",2030328
"293",1147821
"294",5191664
"295",964648
"296",162902
"297",20858
"298",7512155
"299",369611
"300",1086970
"301",269246
"302",1531689
"303",755754
"304",5890663
"305",1662672
"306",16556
"307",5086326
"308",646556
"309",174910
"310",260801
"311",1973480
"312",535582
"313",35804
"314",28930
"315",4670504
"316",410984
"317",2923066
"318",622114
"319",2855845
"320",682706
"321",763780
"322",295042
"323",5211280
"324",88764
"325",2078522
"326",1300391
"327",642858
"328",-163977
"329",175778
"330",3927562
"331",399069
"332",344938
"333",258400
"334",153656
"335",2240689
"336",940101
"337",1699728
"338",1012242
"339",452352
"340",15594551
"341",614461
"342",3385449
"343",507017
"344",279615
"345",27847
"346",91272
"347",74779
"348",554498
"349",1368750
"350",704505
"351",2857203
"352",372482
"353",2158361
"354",285979
"355",1231397
"356",-8460
"357",453222
"358",181861
"359",68172
"360",190850
"361",195889
"362",133662
"363",274962
"364",107271
"365",87975
"366",11708
"367",53781
"368",40493
"369",1306017
"370",271106
"371",211842
"372",70315
"373",169901
"374",125073
"375",961398
"376",1604139
"377",1129594
"378",585110
"379",263594
"380",739403
"381",102935
"382",58257
"383",61757
"384",5270789
"385",88789
"386",1688134
"387",2666614
"388",89582
"389",3206694
"390",8627785
"391",14855027
"392",3211905
"393",146487
"394",5041658
"395",1750930
"396",5267597
"397",998855
"398",5203911
"399",148305
"400",2349049
"401",524512
"402",32976
"403",296823
"404",488472
"405",1996886
"406",1051582
"407",2070967
"408",568126
"409",31289
"410",1238756
"411",280021
"412",11433
"413",1289324
"414",4159241
"415",1222969
"416",45194
"417",172699
"418",203072
"419",372430
"420",3458699
"421",1082592
"422",3891285
"423",984586
"424",1380667
"425",237133
"426",2442124
"427",853781
"428",3984523
"429",186533
"430",1781377
"431",7114050
"432",2351793
"433",706666
"434",8414298
"435",9109
"436",400027
"437",2978165
"438",331533
"439",463921
"440",117023
"441",215606
"442",443547
"443",138010
"444",951
"445",616571
"446",568248
"447",2878175
"448",2674378
"449",322964
"450",1306273
"451",1757402
"452",1201841
"453",35582
"454",88049
"455",1089575
"456",759441
"457",174185
"458",28749
"459",3159986
"460",400154
"461",64956
"462",6858858
"463",4213476
"464",2231384
"465",18838026
"466",7508614
"467",1458575
"468",6439172
"469",965191
"470",48233
"471",8854984
"472",1798253
"473",8569053
"474",157511
"475",123501
"476",263905
"477",1700337
"478",3457929
"479",434634
"480",360370
"481",122429
"482",1213754
"483",2370219
"484",1201037
"485",17413
"486",5340459
"487",8411208
"488",2269194
"489",420694
"490",37572
"491",1726050
"492",4370377
"493",814037
"494",4829846
"495",89094
"496",2985757
"497",3445902
"498",2288889
"499",5308582
"500",6057557
"501",1940549
"502",1950220
"503",289633
"504",2200141
"505",1678748
"506",8062404
"507",2387412
"508",535816
"509",4600565
"510",4871461
"511",1741415
"512",4191978
"513",3097390
"514",6074391
"515",2691452
"516",30076
"517",314722
"518",157843
"519",5674064
"520",7947752
"521",1601253
"522",2855893
"523",3911227
"524",6548772
"525",310264
"526",3987481
"527",96473
"528",574645
"529",1490373
"530",4900378
"531",7062669
"532",4461238
"533",1494021
"534",1482307
"535",7679711
"536",3034145
"537",2989280
"538",495666
"539",581675
"540",59808
"541",1772968
"542",161986
"543",1708489
"544",1376995
"545",755273
"546",404682
"547",112085
"548",1095565
"549",800641
"550",586767
"551",4498535
"552",925863
"553",5236968
"554",1250621
"555",1816470
"556",1606348
"557",220194
"558",18134506
"559",2712823
"560",1013551
"561",317833
"562",4323381
"563",3162321
"564",793391
"565",2578488
"566",432375
"567",179288
"568",243075
"569",1998901
"570",1128244
"571",105814
"572",164364
"573",490760
"574",-37013
"575",98693
"576",7810
"577",97480
"578",546218
"579",113639
"580",6061454
"581",873879
"582",902594
"583",137614
"584",448494
"585",136815
"586",378292
"587",271425
"588",3092617
"589",637075
"590",2464807
"591",49813
"592",2433338
"593",327605
"594",1446966
"595",10425019
"596",379752
"597",103667
"598",468230
"599",271620
"600",2848501
"601",141798
"602",276648
"603",73844
"604",63502
"605",2059637
"606",227282
"607",392831
"608",141025
"609",682807
"610",1592364
"611",72818
"612",635924
"613",1348722
"614",5461976
"615",2558889
"616",331008
"617",1534732
"618",1871176
"619",42563
"620",612149
"621",7859322
"622",263121
"623",106493
"624",1597156
"625",248873
"626",1488018
"627",727227
"628",49994
"629",11912
"630",190353
"631",232083
"632",28041
"633",460261
"634",310319
"635",132443
"636",25188
"637",14674
"638",1019652
"639",67571
"640",12792
"641",16005
"642",2155655
"643",699668
"644",209977
"645",380727
"646",425008
"647",1709326
"648",1276397
"649",446162
"650",-24842
"651",680373
"652",954340
"653",144169
"654",73054
"655",498303
"656",69594
"657",771865
"658",1430401
"659",607527
"660",773470
"661",9419269
"662",853321
"663",13972792
"664",1058435
"665",1782623
"666",6676245
"667",1611889
"668",1482160
"669",1657042
"670",1346076
"671",400915
"672",230229
"673",9605199
"674",5846192
"675",642339
"676",1541965
"677",2141630
"678",1480328
"679",2096249
"680",2280492
"681",794546
"682",5176933
"683",211897
"684",2147035
"685",479083
"686",24751
"687",1460099
"688",7824141
"689",758851
"690",532713
"691",1489594
"692",712915
"693",4662542
"694",1929690
"695",3843400
"696",1147293
"697",1019797
"698",332718
"699",3792441
"700",1325657
"701",130313
"702",906173
"703",1373660
"704",4053226
"705",1011104
"706",661150
"707",1466
"708",41579
"709",-56052
"710",473515
"711",244788
"712",988
"713",389753
"714",2110813
"715",111594
"716",939512
"717",95694
"718",45654
"719",428453
"720",79707
"721",843181
"722",416354
"723",9696489
"724",5739629
"725",4477073
"726",1676186
"727",37115
"728",3773825
"729",4021866
"730",153033
"731",4285290
"732",1206641
"733",424085
"734",31521
"735",167227
"736",10480087
"737",577309
"738",10024194
"739",6785807
"740",641754
"741",58482
"742",1188955
"743",1491499
"744",1127580
"745",153657
"746",9397580
"747",3163134
"748",2091519
"749",1085105
"750",3187980
"751",1845675
"752",294822
"753",140695
"754",37381
"755",286694
"756",172750
"757",3300
"758",403478
"759",46596
"760",36728
"761",1121867
"762",629033
"763",154827
"764",25573
"765",1822428
"766",2063478
"767",541168
"768",4444921
"769",4610142
"770",953929
"771",2795853
"772",2451624
"773",3595624
"774",148694
"775",1551281
"776",661035
"777",211766
"778",298468
"779",2584325
"780",1025774
"781",387124
"782",4435989
"783",496118
"784",8306801
"785",97775
"786",56849
"787",582758
"788",470838
"789",225603
"790",51420
"791",709051
"792",5571274
"793",4431955
"794",4247541
"795",-96675
"796",1838938
"797",51858
"798",3620354
"799",4842281
"800",59838
"801",62971
"802",183282
"803",32874
"804",15883
"805",71002
"806",576818
"807",89504
"808",1455317
"809",500162
"810",951259
"811",131069
"812",832601
"813",3032754
"814",375550
"815",2310981
"816",4761870
"817",2992715
"818",267690
"819",527945
"820",369482
"821",281481
"822",4347447
"823",1724342
"824",2895835
"825",211653
"826",3761729
"827",2329751
"828",1801728
"829",2699186
"830",2373816
"831",900736
"832",352225
"833",6858049
"834",355790
"835",663187
"836",5451061
"837",1131696
"838",3420454
"839",227360
"840",893698
"841",3279327
"842",110786
"843",130720
"844",696075
"845",34388
"846",18845
"847",2645189
"848",1097198
"849",44226
"850",4047352
"851",222
"852",273004
"853",1012803
"854",1034873
"855",13894
"856",413516
"857",1696869
"858",465612
"859",10369231
"860",6453032
"861",78452
"862",81539
"863",227250
"864",647033
"865",8980272
"866",4558083
"867",2620456
"868",1415236
"869",689912
"870",206208
"871",111481
"872",10035
"873",317465
"874",40534
"875",246524
"876",31943
"877",19426
"878",66844
"879",271920
"880",48455
"881",44301
"882",242347
"883",500842
"884",636594
"885",2351076
"886",3912766
"887",1788940
"888",470151
"889",115344
"890",2113129
"891",1433306
"892",-2159
"893",13083760
"894",515440
"895",620800
"896",49480
"897",18336
"898",477780
"899",1199720
"900",70824
"901",35159
"902",1632234
"903",316813
"904",106711
"905",734084
"906",30496274
"907",5706405
"908",2148930
"909",6286053
"910",254705
"911",3744903
"912",5216058
"913",59982
"914",318158
"915",3185985
"916",845877
"917",31878
"918",614334
"919",98502
"920",93098
"921",835841
"922",331736
"923",120174
"924",956215
"925",2530916
"926",606271
"927",2523015
"928",2308594
"929",1578456
"930",454711
"931",2296426
"932",193341
"933",6476490
"934",30184
"935",1511713
"936",1352265
"937",793266
"938",71855
"939",959642
"940",353624
"941",561796
"942",364661
"943",493817
"944",407536
"945",1079750
"946",754831
"947",55369
"948",420667
"949",54789
"950",164779
"951",1360080
"952",206074
"953",164829
"954",20154
"955",44890
"956",236490
"957",1821766
"958",319594
"959",503342
"960",767856
"961",102703
"962",158817
"963",1862513
"964",531181
"965",913824
"966",5206887
"967",3006543
"968",198269
"969",2475432
"970",943491
"971",4413867
"972",1859966
"973",3470214
"974",2583166
"975",1125693
"976",4381
"977",9684874
"978",144233
"979",6620431
"980",278741
"981",97685
"982",8201469
"983",4796468
"984",4274815
"985",493008
"986",217465
"987",4018
"988",20218
"989",108901
"990",1531974
"991",1647551
"992",131467
"993",65940
"994",365097
"995",120752
"996",330308
"997",29750
"998",1586032
"999",2567345
"1000",1039490
"1001",730332
"1002",328917
"1003",1438199
"1004",4517696
"1005",1774434
"1006",51575
"1007",3186800
"1008",1012488
"1009",3881751
"1010",124319
"1011",89332
"1012",1787926
"1013",-3682
"1014",393960
"1015",340738
"1016",409460
"1017",74326
"1018",1084045
"1019",238746
"1020",447977
"1021",466068
"1022",7561
"1023",431082
"1024",355595
"1025",2306204
"1026",3479863
"1027",59261
"1028",3124782
"1029",73954
"1030",3872047
"1031",819563
"1032",538070
"1033",295682
"1034",2012430
"1035",1015589
"1036",1453017
"1037",183897
"1038",1588327
"1039",234963
"1040",2567508
"1041",1789827
"1042",372320
"1043",1040748
"1044",180057
"1045",471642
"1046",23090
"1047",17049
"1048",711558
"1049",133226
"1050",232646
"1051",410568
"1052",2194794
"1053",1055298
"1054",1546769
"1055",458874
"1056",104231
"1057",222813
"1058",866030
"1059",1222463
"1060",1292383
"1061",4253988
"1062",594845
"1063",15157
"1064",1251049
"1065",324378
"1066",1187263
"1067",1416151
"1068",5211219
"1069",601475
"1070",5524642
"1071",1330667
"1072",7781663
"1073",14403
"1074",185625
"1075",1029286
"1076",404065
"1077",1236740
"1078",82909
"1079",701220
"1080",155696
"1081",9827939
"1082",2285876
"1083",1986755
"1084",76275
"1085",231922
"1086",574906
"1087",66604
"1088",1353184
"1089",29995
"1090",31037
"1091",442207
"1092",58054
"1093",176649
"1094",30363
"1095",613024
"1096",50911
"1097",145494
"1098",177137
"1099",187986
"1100",10330
"1101",331281
"1102",491922
"1103",92690
"1104",270966
"1105",682679
"1106",454567
"1107",1457802
"1108",991609
"1109",770833
"1110",337036
"1111",1818775
"1112",247183
"1113",242020
"1114",1426030
"1115",1036366
"1116",529416
"1117",4981665
"1118",71646
"1119",5007185
"1120",1793728
"1121",3548697
"1122",1400764
"1123",1157448
"1124",4180079
"1125",2056746
"1126",5449632
"1127",2946542
"1128",512341
"1129",185599
"1130",1895253
"1131",2434885
"1132",811
"1133",55352
"1134",2240502
"1135",5281896
"1136",104448
"1137",206911
"1138",4858217
"1139",65312
"1140",1225667
"1141",78155
"1142",499753
"1143",65559
"1144",584679
"1145",3657905
"1146",215588
"1147",1520745
"1148",10670
"1149",85876
"1150",81589
"1151",176806
"1152",37289
"1153",38677
"1154",165731
"1155",66184
"1156",961635
"1157",465449
"1158",130801
"1159",706580
"1160",753900
"1161",278494
"1162",1632094
"1163",2427512
"1164",4600505
"1165",2076600
"1166",506054
"1167",2459796
"1168",830995
"1169",978618
"1170",277318
"1171",2011393
"1172",9265633
"1173",3404648
"1174",3403547
"1175",11091
"1176",366069
"1177",706736
"1178",1451796
"1179",379553
"1180",1982763
"1181",218183
"1182",1936339
"1183",227355
"1184",1997578
"1185",374612
"1186",157792
"1187",9450
"1188",25261
"1189",108412
"1190",158468
"1191",409575
"1192",141264
"1193",18827
"1194",179175
"1195",152113
"1196",1089608
"1197",5301815
"1198",1719490
"1199",1517570
"1200",607037
"1201",354353
"1202",992872
"1203",419790
"1204",1254479
"1205",3608254
"1206",142
"1207",58173
"1208",1813005
"1209",2579512
"1210",8429882
"1211",2770977
"1212",9422456
"1213",3116535
"1214",214552
"1215",3851950
"1216",22964
"1217",305029
"1218",1121563
"1219",700546
"1220",970704
"1221",199938
"1222",222327
"1223",2562247
"1224",761204
"1225",964114
"1226",845469
"1227",1139265
"1228",124841
"1229",246127
"1230",535827
"1231",499203
"1232",427592
"1233",507806
"1234",424502
"1235",102385
"1236",235964
"1237",1565895
"1238",4500082
"1239",1784180
"1240",3181
"1241",492114
"1242",81544
"1243",69984
"1244",5192557
"1245",846071
"1246",13636
"1247",272221
"1248",1038700
"1249",2521011
"1250",1770859
"1251",1591657
"1252",1963614
"1253",1139441
"1254",171040
"1255",52099
"1256",3421853
"1257",5189004
"1258",285831
"1259",466901
"1260",1201853
"1261",9112216
"1262",12153871
"1263",298778
"1264",608547
"1265",1530163
"1266",70995
"1267",1184785
"1268",17385666
"1269",3426316
"1270",1633839
"1271",8065715
"1272",1433405
"1273",2180775
"1274",77800
"1275",655453
"1276",393411
"1277",1053530
"1278",303937
"1279",437218
"1280",195345
"1281",401801
"1282",140275
"1283",45036
"1284",91500
"1285",500532
"1286",1392796
"1287",2978725
"1288",367225
"1289",825973
"1290",1477423
"1291",1177781
"1292",508785
"1293",2444799
"1294",857854
"1295",10645110
"1296",39889
"1297",340509
"1298",13978
"1299",391854
"1300",41039
"1301",1870224
"1302",1775429
"1303",705963
"1304",537704
"1305",186828
"1306",1757888
"1307",206353
"1308",856218
"1309",668921
"1310",3297952
"1311",798508
"1312",23261
"1313",528822
"1314",2578188
"1315",2285053
"1316",438941
"1317",2609720
"1318",31224
"1319",1165229
"1320",587466
"1321",175608
"1322",1970753
"1323",217734
"1324",3798343
"1325",7330220
"1326",864861
"1327",848063
"1328",900395
"1329",2079294
"1330",211018
"1331",198171
"1332",955975
"1333",4323159
"1334",703254
"1335",2309869
"1336",201803
"1337",327930
"1338",21179
"1339",33890
"1340",74839
"1341",454708
"1342",508712
"1343",450403
"1344",291639
"1345",5959873
"1346",871706
"1347",1195529
"1348",1657698
"1349",1468859
"1350",38726
"1351",641686
"1352",1919365
"1353",3338422
"1354",2756
"1355",261313
"1356",9304
"1357",600930
"1358",74112
"1359",1139958
"1360",621044
"1361",32036
"1362",1016529
"1363",25773
"1364",3470953
"1365",229789
"1366",3183779
"1367",-9270
"1368",3639740
"1369",1557275
"1370",68198
"1371",1314448
"1372",4178599
"1373",842589
"1374",1500565
"1375",1611326
"1376",5164335
"1377",1361835
"1378",35131
"1379",269105
"1380",374934
"1381",1060513
"1382",117327
"1383",1754915
"1384",429840
"1385",273115
"1386",22925
"1387",949266
"1388",1077242
"1389",1035990
"1390",679732
"1391",16458
"1392",306668
"1393",239210
"1394",580568
"1395",1150435
"1396",3722040
"1397",577899
"1398",786385
"1399",46722
"1400",1946096
"1401",6070212
"1402",835996
"1403",58939
"1404",148693
"1405",380340
"1406",7833
"1407",3403
"1408",36053
"1409",7152
"1410",610594
"1411",70270
"1412",48788
"1413",101868
"1414",28275
"1415",20096
"1416",143239
"1417",104139
"1418",146329
"1419",190683
"1420",16197
"1421",496560
"1422",256412
"1423",423653
"1424",363217
"1425",207863
"1426",113120
"1427",418896
"1428",3693005
"1429",3036202
"1430",808214
"1431",97603
"1432",1797440
"1433",48233
"1434",240126
"1435",213339
"1436",2774159
"1437",505388
"1438",475145
"1439",1193075
"1440",233371
"1441",416602
"1442",639902
"1443",1342553
"1444",5793275
"1445",352358
"1446",128585
"1447",99994
"1448",246650
"1449",51936
"1450",92893
"1451",46919
"1452",72660
"1453",27395
"1454",207657
"1455",117961
"1456",21911
"1457",336744
"1458",255620
"1459",15084623
"1460",52967
"1461",529826
"1462",2611964
"1463",179396
"1464",904187
"1465",1407901
"1466",2060550
"1467",1082383
"1468",41145
"1469",23708
"1470",328787
"1471",102606
"1472",231447
"1473",512219
"1474",8593132
"1475",106168
"1476",5333
"1477",252351
"1478",238595
"1479",269410
"1480",55801
"1481",78153
"1482",395648
"1483",532658
"1484",891208
"1485",484380
"1486",2259320
"1487",729523
"1488",561306
"1489",175001
"1490",71247
"1491",2232244
"1492",2617799
"1493",296546
"1494",2587473
"1495",656684
"1496",615492
"1497",1707791
"1498",288758
"1499",253097
"1500",350153
"1501",434101
"1502",111171
"1503",51090
"1504",787212
"1505",306721
"1506",1548047
"1507",1240184
"1508",-1149
"1509",19299
"1510",1330038
"1511",118828
"1512",265878
"1513",17225
"1514",1264633
"1515",475769
"1516",288951
"1517",30288
"1518",56457
"1519",28303
"1520",674014
"1521",7119014
"1522",987792
"1523",631789
"1524",1108995
"1525",209745
"1526",869768
"1527",325268
"1528",31001
"1529",2138
"1530",719807
"1531",235116
"1532",6761085
"1533",47747
"1534",318700
"1535",111483
"1536",44183
"1537",121750
"1538",1630442
"1539",-21520
"1540",447237
"1541",639479
"1542",141409
"1543",2727120
"1544",565052
"1545",3673781
"1546",1762
"1547",216695
"1548",250566
"1549",1885079
"1550",289891
"1551",414814
"1552",7987
"1553",443525
"1554",1001587
"1555",837290
"1556",769848
"1557",239226
"1558",1582
"1559",758656
"1560",549153
"1561",362824
"1562",1342562
"1563",183979
"1564",32098
"1565",305557
"1566",255705
"1567",187854
"1568",207176
"1569",335077
"1570",1845571
"1571",3730029
"1572",1169335
"1573",249639
"1574",203585
"1575",63814
"1576",170323
"1577",360820
"1578",284701
"1579",92630
"1580",364218
"1581",3096196
"1582",123130
"1583",209130
"1584",16408
"1585",1372237
"1586",110552
"1587",259695
"1588",1013193
"1589",4223218
"1590",241672
"1591",565891
"1592",799328
"1593",88691
"1594",496580
"1595",160036
"1596",194058
"1597",192549
"1598",441533
"1599",9066
"1600",499120
"1601",856182
"1602",313971
"1603",995835
"1604",144360
"1605",183851
"1606",738098
"1607",180076
"1608",442037
"1609",36722
"1610",114835
"1611",57488
"1612",31393
"1613",76290
"1614",11029
"1615",12959
"1616",263554
"1617",280488
"1618",4667494
"1619",565884
"1620",1776183
"1621",284519
"1622",10800693
"1623",67119
"1624",329888
"1625",10357680
"1626",1080239
"1627",5975920
"1628",2592343
"1629",779099
"1630",136993
"1631",674891
"1632",187243
"1633",3817471
"1634",3369796
"1635",2211990
"1636",2019786
"1637",108123
"1638",16208628
"1639",1585384
"1640",3148516
"1641",1258711
"1642",67476
"1643",1340199
"1644",428558
"1645",134723
"1646",1404395
"1647",54375
"1648",1091818
"1649",1046477
"1650",12240
"1651",262816
"1652",150849
"1653",701363
"1654",130851
"1655",213386
"1656",82646
"1657",469121
"1658",230611
"1659",105444
"1660",40154
"1661",98444
"1662",64235
"1663",330779
"1664",285636
"1665",419145
"1666",191033
"1667",690629
"1668",70904
"1669",810890
"1670",156905
"1671",99973
"1672",88584
"1673",901216
"1674",238397
"1675",945019
"1676",168437
"1677",53555
"1678",90914
"1679",231766
"1680",857391
"1681",313106
"1682",283253
"1683",2833
"1684",904677
"1685",241681
"1686",89463
"1687",-2241
"1688",1124773
"1689",2679145
"1690",9863064
"1691",654843
"1692",206388
"1693",71679
"1694",183125
"1695",76457
"1696",474167
"1697",202332
"1698",133134
"1699",279757
"1700",-31655
"1701",271921
"1702",387669
"1703",372361
"1704",424293
"1705",983262
"1706",46550
"1707",428491
"1708",726780
"1709",375303
"1710",725123
"1711",510
"1712",518988
"1713",471357
"1714",1115614
"1715",648256
"1716",857882
"1717",201397
"1718",100230
"1719",237802
"1720",114381
"1721",524159
"1722",233950
"1723",688143
"1724",92440
"1725",261254
"1726",21514
"1727",263157
"1728",334956
"1729",162269
"1730",65254
"1731",194100
"1732",41929
"1733",152511
"1734",376592
"1735",128824
"1736",167941
"1737",802538
"1738",378156
"1739",203478
"1740",14815
"1741",204880
"1742",398824
"1743",50260
"1744",49388
"1745",129649
"1746",1131
"1747",43995
"1748",680811
"1749",416091
"1750",579839
"1751",241969
"1752",602208
"1753",99908
"1754",46198
"1755",391478
"1756",1037380
"1757",648726
"1758",80387
"1759",113318
"1760",122106
"1761",52354
"1762",47099
"1763",53712
"1764",538624
"1765",62861
"1766",8407
"1767",142274
"1768",3124130
"1769",1432707
"1770",1641038
"1771",5110443
"1772",2396379
"1773",3603981
"1774",498147
"1775",1897
"1776",1892309
"1777",2649694
"1778",1589862
"1779",77906
"1780",5295007
"1781",1238631
"1782",1174887
"1783",825278
"1784",124900
"1785",1260991
"1786",624610
"1787",1045968
"1788",425211
"1789",509853
"1790",-393
"1791",254010
"1792",11225
"1793",511378
"1794",2320243
"1795",2844133
"1796",468865
"1797",164041
"1798",7439
"1799",389747
"1800",579453
"1801",276097
"1802",2613261
"1803",2499554
"1804",1798431
"1805",597940
"1806",2141337
"1807",874460
"1808",108409
"1809",239059
"1810",677586
"1811",200152
"1812",160192
"1813",70016
"1814",941535
"1815",2291625
"1816",11742
"1817",905473
"1818",691342
"1819",6785613
"1820",930517
"1821",72623
"1822",2840178
"1823",6706808
"1824",698171
"1825",2416650
"1826",663463
"1827",1404703
"1828",491508
"1829",20578
"1830",299423
"1831",417868
"1832",277407
"1833",2848
"1834",456081
"1835",847458
"1836",740189
"1837",1125796
"1838",137763
"1839",342750
"1840",972026
"1841",2822254
"1842",8412
"1843",179705
"1844",934140
"1845",125582
"1846",79290
"1847",782163
"1848",257759
"1849",3740362
"1850",471921
"1851",1509431
"1852",431689
"1853",85001
"1854",165356
"1855",198063
"1856",661442
"1857",62372
"1858",852459
"1859",414246
"1860",372488
"1861",60588
"1862",328792
"1863",855481
"1864",9339
"1865",582321
"1866",1149184
"1867",1832577
"1868",3542889
"1869",299231
"1870",284718
"1871",36281
"1872",2075
"1873",258
"1874",852
"1875",9714942
"1876",229265
"1877",2646877
"1878",3962205
"1879",3279999
"1880",1697792
"1881",1897749
"1882",771861
"1883",6425000
"1884",10609335
"1885",3171365
"1886",259066
"1887",78154
"1888",79878
"1889",1302217
"1890",57157
"1891",27984
"1892",134297
"1893",22528
"1894",2467663
"1895",1785864
"1896",753672
"1897",2283754
"1898",-82
"1899",13427204
"1900",685166
"1901",140738
"1902",954511
"1903",52216
"1904",1373356
"1905",757980
"1906",2754007
"1907",1231088
"1908",1834276
"1909",21470614
"1910",722045
"1911",-986
"1912",3062841
"1913",267427
"1914",4174956
"1915",1362074
"1916",6558245
"1917",11556
"1918",4131463
"1919",227156
"1920",5483457
"1921",199601
"1922",1857378
"1923",127081
"1924",2550086
"1925",451688
"1926",176556
"1927",379560
"1928",691484
"1929",1832643
"1930",868966
"1931",11602563
"1932",1982175
"1933",313907
"1934",381258
"1935",16520
"1936",21765
"1937",284963
"1938",248291
