"","distances"
"1",332756
"2",241043
"3",141699
"4",42925
"5",119904
"6",606925
"7",2470343
"8",1798190
"9",19561
"10",1074459
"11",1458000
"12",1127255
"13",606379
"14",19385
"15",537137
"16",18695
"17",288531
"18",216516
"19",55863
"20",1082467
"21",1665753
"22",193778
"23",70273
"24",38516
"25",1034042
"26",37887
"27",2197369
"28",52198
"29",267679
"30",2458849
"31",284869
"32",179682
"33",856905
"34",714119
"35",796877
"36",68497
"37",117259
"38",324958
"39",153633
"40",594611
"41",114723
"42",312493
"43",43316
"44",17820
"45",539179
"46",136585
"47",103034
"48",654066
"49",116470
"50",1391691
"51",638798
"52",1303510
"53",71641
"54",118292
"55",2386037
"56",218206
"57",746005
"58",1163354
"59",177644
"60",150978
"61",62201
"62",813374
"63",166495
"64",526180
"65",463443
"66",183778
"67",757630
"68",1407092
"69",226160
"70",64920
"71",502395
"72",688870
"73",13205
"74",373727
"75",88094
"76",40715
"77",34937
"78",664317
"79",688351
"80",310007
"81",614733
"82",53294
"83",3852617
"84",1063166
"85",130964
"86",197544
"87",1615045
"88",210435
"89",179088
"90",3565675
"91",2958079
"92",2292117
"93",140171
"94",181045
"95",1767187
"96",991797
"97",2208957
"98",56484
"99",3795550
"100",2323013
"101",713913
"102",8974
"103",7785338
"104",189881
"105",307160
"106",425303
"107",2238481
"108",394771
"109",846372
"110",409109
"111",1427114
"112",420262
"113",3100905
"114",230556
"115",3170464
"116",948349
"117",93625
"118",-210
"119",2466547
"120",4554502
"121",791433
"122",69650
"123",37677
"124",102787
"125",258130
"126",59096
"127",169204
"128",431856
"129",10167
"130",463246
"131",531118
"132",322177
"133",628165
"134",60062
"135",1078059
"136",1004838
"137",52585
"138",1712331
"139",2532004
"140",26530181
"141",115940
"142",24055
"143",25484
"144",194815
"145",943744
"146",-6436
"147",-10018
"148",632627
"149",1929796
"150",646207
"151",66487
"152",472842
"153",164356
"154",163153
"155",308571
"156",129218
"157",1540209
"158",78011
"159",157368
"160",8873
"161",69325
"162",250077
"163",847413
"164",237866
"165",718991
"166",448922
"167",2233043
"168",1233531
"169",-128
"170",41634
"171",401482
"172",800292
"173",304538
"174",766848
"175",2588100
"176",185506
"177",1194714
"178",19384
"179",244349
"180",1912019
"181",26903
"182",128180
"183",92448
"184",767424
"185",109282
"186",1630770
"187",1419814
"188",4856265
"189",960201
"190",1047712
"191",1575502
"192",419052
"193",326624
"194",2713406
"195",296098
"196",10824321
"197",2251906
"198",1226344
"199",1577520
"200",65806
"201",138086
"202",1093785
"203",205379
"204",1103360
"205",677368
"206",430790
"207",142376
"208",396154
"209",1973105
"210",22954
"211",151619
"212",375234
"213",1788922
"214",884782
"215",10522181
"216",4062805
"217",319495
"218",5508593
"219",700944
"220",2164956
"221",5390986
"222",2409421
"223",2647828
"224",3434372
"225",76083
"226",5117100
"227",789205
"228",346811
"229",108433
"230",248053
"231",21077
"232",269773
"233",-1719
"234",3794709
"235",3012998
"236",77605
"237",193107
"238",4824537
"239",406760
"240",2333726
"241",658692
"242",81906
"243",85332
"244",204331
"245",3058931
"246",5534207
"247",841374
"248",1673648
"249",4911059
"250",2903270
"251",880638
"252",5881251
"253",34094
"254",4391451
"255",2684294
"256",7346122
"257",625181
"258",940590
"259",1204109
"260",2326525
"261",739080
"262",176271
"263",39395
"264",368571
"265",10077734
"266",255569
"267",245033
"268",13694
"269",1857168
"270",1224481
"271",86043
"272",79214
"273",114843
"274",8273005
"275",222436
"276",49453
"277",1401623
"278",248988
"279",55384
"280",864878
"281",20070
"282",913924
"283",71527
"284",338130
"285",2244491
"286",3456723
"287",241850
"288",1082599
"289",791356
"290",88263
"291",485402
"292",339427
"293",6582331
"294",306607
"295",553557
"296",6361220
"297",1189886
"298",349531
"299",6733688
"300",808782
"301",21296032
"302",408731
"303",2223804
"304",1300572
"305",3145919
"306",3612183
"307",1052321
"308",6038589
"309",39114
"310",11950
"311",3240730
"312",17528279
"313",18332
"314",3034700
"315",532322
"316",1029493
"317",27108
"318",3811151
"319",1602983
"320",2418376
"321",99268
"322",5527083
"323",2299074
"324",672460
"325",469138
"326",5221303
"327",1793136
"328",2923087
"329",1024381
"330",345824
"331",3091877
"332",3641669
"333",91091
"334",3061238
"335",5478261
"336",54024
"337",1125884
"338",292513
"339",812251
"340",1738350
"341",553111
"342",1199825
"343",-35860
"344",15342903
"345",159108
"346",851843
"347",3955855
"348",981400
"349",1151201
"350",897142
"351",74732
"352",2171870
"353",1041367
"354",382928
"355",432828
"356",54554
"357",563675
"358",2154733
"359",877352
"360",112479
"361",168951
"362",62868
"363",58233
"364",181861
"365",174239
"366",406038
"367",139098
"368",443315
"369",50418
"370",1036900
"371",380252
"372",3409165
"373",2065737
"374",595703
"375",5727763
"376",2130157
"377",5983709
"378",26335567
"379",855282
"380",1777263
"381",3789962
"382",3245798
"383",2437714
"384",866759
"385",34748
"386",561473
"387",7340714
"388",1677020
"389",32976
"390",296823
"391",2735034
"392",1976176
"393",1021703
"394",45047
"395",46517
"396",443231
"397",796273
"398",730016
"399",10138
"400",11433
"401",2459117
"402",460038
"403",2461859
"404",1508627
"405",600272
"406",1584607
"407",1834961
"408",6102135
"409",134742
"410",7318085
"411",270297
"412",390660
"413",1288635
"414",1781377
"415",9197673
"416",268034
"417",9709555
"418",2978165
"419",519493
"420",1598464
"421",616571
"422",419543
"423",3433
"424",580583
"425",2584652
"426",2016958
"427",29051
"428",483916
"429",809561
"430",2490257
"431",479967
"432",1654
"433",88049
"434",177038
"435",23041
"436",262954
"437",453146
"438",932776
"439",174185
"440",106563
"441",3396131
"442",44703
"443",218723
"444",932192
"445",196258
"446",1709751
"447",3495719
"448",11178394
"449",1596233
"450",10698590
"451",1510418
"452",687255
"453",2430417
"454",5478678
"455",615155
"456",3144394
"457",1362009
"458",2946583
"459",13973642
"460",380850
"461",1526735
"462",472405
"463",360446
"464",2323902
"465",123501
"466",263905
"467",786515
"468",4957183
"469",248610
"470",1384696
"471",1946875
"472",1811138
"473",768134
"474",8306755
"475",644996
"476",35136
"477",3277743
"478",-32248
"479",2822449
"480",-25466
"481",6922123
"482",4896298
"483",369820
"484",616108
"485",2272415
"486",5911324
"487",40128
"488",13321692
"489",1950220
"490",1874102
"491",628448
"492",1678748
"493",2406230
"494",3382711
"495",28945
"496",9764063
"497",5676172
"498",14663896
"499",377419
"500",130475
"501",673367
"502",329312
"503",357315
"504",605494
"505",1221868
"506",3881681
"507",38621
"508",2789152
"509",4139722
"510",637232
"511",1858031
"512",14576692
"513",845325
"514",2740104
"515",1680359
"516",188425
"517",1490373
"518",39151
"519",259426
"520",1550734
"521",3468209
"522",8398234
"523",1651555
"524",567869
"525",591275
"526",731441
"527",1948910
"528",3845902
"529",6629761
"530",1854425
"531",1748623
"532",581675
"533",59808
"534",1044029
"535",714921
"536",3485468
"537",376082
"538",939580
"539",6663433
"540",6170205
"541",2257617
"542",665134
"543",155799
"544",123352
"545",3623675
"546",7824559
"547",3432266
"548",6873496
"549",2712823
"550",4701053
"551",5112953
"552",179595
"553",1676600
"554",109578
"555",772258
"556",409256
"557",628981
"558",2401672
"559",872272
"560",875319
"561",98693
"562",7810
"563",97480
"564",510140
"565",149827
"566",83630
"567",3958820
"568",101210
"569",3263639
"570",645463
"571",136815
"572",707857
"573",265861
"574",3587113
"575",2518741
"576",1581634
"577",655027
"578",420604
"579",8216255
"580",1615451
"581",2072425
"582",379752
"583",935595
"584",1515086
"585",708625
"586",46464
"587",393908
"588",420300
"589",54093
"590",29539
"591",596829
"592",75437
"593",87053
"594",520296
"595",205128
"596",68602
"597",502218
"598",8591
"599",477570
"600",358198
"601",505945
"602",858200
"603",854839
"604",6227747
"605",2231763
"606",6343
"607",3994693
"608",8416801
"609",457836
"610",270740
"611",2785177
"612",1760
"613",39806
"614",158785
"615",582807
"616",89865
"617",46597
"618",216634
"619",204321
"620",413366
"621",232942
"622",153145
"623",195533
"624",371920
"625",252741
"626",183712
"627",410049
"628",313661
"629",955040
"630",1383136
"631",727346
"632",2370037
"633",1843953
"634",617163
"635",954340
"636",307933
"637",111493
"638",357315
"639",573751
"640",126639
"641",1163189
"642",1265870
"643",5657804
"644",448062
"645",3959748
"646",19190
"647",117087
"648",756241
"649",5249945
"650",10050191
"651",2447791
"652",2947935
"653",1057447
"654",2127456
"655",115452
"656",790322
"657",665707
"658",5289784
"659",49337
"660",230229
"661",9451446
"662",74860
"663",5665449
"664",140391
"665",2464672
"666",83220
"667",1274909
"668",1430851
"669",413490
"670",242937
"671",2363423
"672",1782468
"673",843440
"674",3653639
"675",4446416
"676",1356680
"677",7939923
"678",844505
"679",6228
"680",1295987
"681",6092936
"682",2640936
"683",2242181
"684",431817
"685",1440996
"686",1578971
"687",1403925
"688",3598856
"689",468194
"690",524658
"691",396948
"692",-19601
"693",212780
"694",6206221
"695",3427822
"696",22947
"697",1444062
"698",76224
"699",2609567
"700",220277
"701",29039
"702",292070
"703",95694
"704",530787
"705",185408
"706",9819361
"707",152882
"708",34372
"709",59327
"710",6121221
"711",870019
"712",4158
"713",2342241
"714",2924593
"715",153824
"716",56835
"717",573677
"718",1647403
"719",5624351
"720",1202004
"721",4269643
"722",844437
"723",38566
"724",19914340
"725",866423
"726",116235
"727",111641
"728",7406
"729",467591
"730",36622
"731",5639846
"732",641754
"733",144454
"734",1624793
"735",122304
"736",160238
"737",315689
"738",889076
"739",593880
"740",9397580
"741",984531
"742",2156728
"743",1973618
"744",5578354
"745",42746
"746",12412
"747",523058
"748",156667
"749",328741
"750",645257
"751",44709
"752",348184
"753",36728
"754",1121867
"755",198487
"756",794693
"757",3520405
"758",261816
"759",5004059
"760",4329294
"761",154852
"762",953929
"763",10157501
"764",115044
"765",265889
"766",1054942
"767",211766
"768",7667209
"769",2082679
"770",542292
"771",2016186
"772",417011
"773",217544
"774",5093075
"775",202026
"776",41002
"777",148869
"778",1082708
"779",91980
"780",119137
"781",511876
"782",94328
"783",278215
"784",3922861
"785",856673
"786",56493
"787",7784660
"788",457271
"789",7403772
"790",1076305
"791",4337103
"792",398894
"793",32874
"794",89634
"795",291294
"796",822580
"797",439233
"798",1060242
"799",2209214
"800",2675097
"801",680283
"802",2310981
"803",90072
"804",4095645
"805",84170
"806",418234
"807",152646
"808",548068
"809",3164284
"810",244802
"811",-771
"812",4972204
"813",1389456
"814",4793817
"815",127673
"816",4578714
"817",4633121
"818",2426700
"819",7526450
"820",423636
"821",724334
"822",5881375
"823",1131696
"824",8071054
"825",110786
"826",694107
"827",-82
"828",34388
"829",913903
"830",2822686
"831",1543940
"832",2384983
"833",222
"834",1035667
"835",1338624
"836",958674
"837",15638
"838",3282238
"839",2664464
"840",43648
"841",6950339
"842",6014469
"843",523377
"844",1457291
"845",69396
"846",4465181
"847",3610344
"848",1220080
"849",6319006
"850",1415236
"851",951715
"852",150962
"853",256257
"854",57851
"855",40534
"856",206973
"857",101865
"858",51014
"859",5844
"860",1862753
"861",2616292
"862",127611
"863",1646547
"864",2212347
"865",3823184
"866",1900781
"867",3213092
"868",6765439
"869",7363324
"870",188220
"871",535498
"872",3588746
"873",243504
"874",613692
"875",25419087
"876",9333295
"877",1810627
"878",1370276
"879",5184097
"880",2147393
"881",353992
"882",3384836
"883",3677652
"884",1189322
"885",2056436
"886",1552359
"887",100562
"888",1342846
"889",615059
"890",93098
"891",145634
"892",8061181
"893",1601987
"894",64408
"895",255521
"896",142475
"897",1578456
"898",454711
"899",1183832
"900",10993114
"901",423851
"902",446909
"903",380138
"904",1480297
"905",433916
"906",254852
"907",178225
"908",1395561
"909",59897
"910",2768863
"911",349085
"912",132074
"913",184269
"914",5126
"915",664270
"916",1773821
"917",454675
"918",338889
"919",353451
"920",146218
"921",382409
"922",17323
"923",531181
"924",6156744
"925",3006543
"926",2739810
"927",943491
"928",12524639
"929",1566808
"930",5248026
"931",6853299
"932",1581894
"933",3469743
"934",2180790
"935",5951016
"936",1499177
"937",3260565
"938",6641835
"939",651837
"940",830529
"941",478176
"942",894295
"943",561507
"944",257882
"945",3661503
"946",2614653
"947",6905621
"948",520810
"949",3917885
"950",1631356
"951",62595
"952",3717523
"953",34443
"954",214610
"955",60687
"956",89332
"957",1787926
"958",-3682
"959",393960
"960",59937
"961",39059
"962",1450839
"963",42561
"964",308256
"965",297524
"966",237493
"967",653134
"968",7051546
"969",2311946
"970",851436
"971",389955
"972",647512
"973",4129884
"974",107035
"975",485703
"976",214892
"977",2012430
"978",1730990
"979",3195159
"980",2823867
"981",2221337
"982",28172
"983",324814
"984",158141
"985",518038
"986",127727
"987",269721
"988",88398
"989",287432
"990",250885
"991",204450
"992",387122
"993",1431933
"994",1873188
"995",196103
"996",1286850
"997",17382
"998",-19
"999",222813
"1000",686365
"1001",3961872
"1002",890660
"1003",2248626
"1004",317508
"1005",273939
"1006",15157
"1007",1216243
"1008",519278
"1009",109104
"1010",242087
"1011",6175250
"1012",6257710
"1013",157741
"1014",1018101
"1015",519937
"1016",192037
"1017",293844
"1018",216838
"1019",8150258
"1020",-26908
"1021",1005177
"1022",895812
"1023",26421
"1024",477602
"1025",789023
"1026",-2058
"1027",155696
"1028",9827939
"1029",32969
"1030",190213
"1031",921486
"1032",1462528
"1033",102787
"1034",212664
"1035",380180
"1036",115709
"1037",82018
"1038",664785
"1039",152577
"1040",468027
"1041",55487
"1042",31728
"1043",919893
"1044",222045
"1045",274253
"1046",111917
"1047",793761
"1048",97456
"1049",282320
"1050",31726
"1051",201951
"1052",138455
"1053",148802
"1054",499704
"1055",-493
"1056",504231
"1057",226623
"1058",41282
"1059",409086
"1060",261714
"1061",551490
"1062",2426145
"1063",412641
"1064",826075
"1065",470824
"1066",1031701
"1067",347243
"1068",1911410
"1069",918644
"1070",405360
"1071",169106
"1072",8372711
"1073",-7231
"1074",1338201
"1075",5403804
"1076",1400764
"1077",7818146
"1078",851387
"1079",3147753
"1080",992248
"1081",2831024
"1082",599830
"1083",219529
"1084",11350
"1085",1666
"1086",794
"1087",1325012
"1088",91501
"1089",184023
"1090",7111
"1091",86745
"1092",2333967
"1093",811
"1094",55352
"1095",735282
"1096",354798
"1097",113860
"1098",58410
"1099",574231
"1100",96264
"1101",71094
"1102",111760
"1103",3334154
"1104",1808363
"1105",318723
"1106",914307
"1107",292305
"1108",2459221
"1109",1253527
"1110",194549
"1111",941485
"1112",1916673
"1113",66019
"1114",188606
"1115",17256
"1116",174842
"1117",88814
"1118",777122
"1119",3279
"1120",1122601
"1121",1493848
"1122",1833857
"1123",160715
"1124",81589
"1125",221534
"1126",38677
"1127",23006
"1128",948405
"1129",122027
"1130",466834
"1131",1107084
"1132",327230
"1133",17253
"1134",92274
"1135",240174
"1136",425254
"1137",1505931
"1138",518432
"1139",64668
"1140",22717
"1141",1503388
"1142",194155
"1143",16648
"1144",6722767
"1145",4398080
"1146",1284203
"1147",12429062
"1148",586353
"1149",4657247
"1150",11091
"1151",3072565
"1152",891845
"1153",146298
"1154",2112063
"1155",762410
"1156",136880
"1157",60992
"1158",158459
"1159",881283
"1160",1360836
"1161",224398
"1162",7115
"1163",221140
"1164",299996
"1165",155965
"1166",267853
"1167",372072
"1168",151148
"1169",92916
"1170",1143793
"1171",3682230
"1172",1199808
"1173",580455
"1174",2818154
"1175",328387
"1176",977113
"1177",1095688
"1178",1970651
"1179",7740576
"1180",10010594
"1181",114081
"1182",3693083
"1183",67225
"1184",1566981
"1185",264
"1186",170730
"1187",3083796
"1188",5170570
"1189",124607
"1190",4573708
"1191",908018
"1192",36550
"1193",401069
"1194",3059056
"1195",222327
"1196",6809666
"1197",224952
"1198",49586
"1199",504546
"1200",696250
"1201",2188844
"1202",6147020
"1203",788167
"1204",569612
"1205",150183
"1206",687807
"1207",157507
"1208",2604194
"1209",4554735
"1210",289220
"1211",7321883
"1212",1963614
"1213",1139441
"1214",4175442
"1215",92376
"1216",1226583
"1217",55130
"1218",49170
"1219",4053107
"1220",607
"1221",170320
"1222",189631
"1223",-129832
"1224",4420223
"1225",18613661
"1226",2447677
"1227",1495216
"1228",1984774
"1229",18736085
"1230",338253
"1231",207905
"1232",138906
"1233",525009
"1234",8065715
"1235",1294568
"1236",386460
"1237",1791157
"1238",410073
"1239",75938
"1240",305716
"1241",17036
"1242",2289428
"1243",352254
"1244",1022023
"1245",8490
"1246",5344025
"1247",701901
"1248",419635
"1249",618604
"1250",2962118
"1251",123897
"1252",893809
"1253",152612
"1254",1740274
"1255",11636723
"1256",30517
"1257",233883
"1258",2447285
"1259",2332442
"1260",972401
"1261",1963136
"1262",364286
"1263",780701
"1264",2072166
"1265",217070
"1266",1887786
"1267",3853916
"1268",1187373
"1269",254628
"1270",3905286
"1271",413216
"1272",513056
"1273",204634
"1274",179582
"1275",528047
"1276",119104
"1277",473160
"1278",296910
"1279",9951719
"1280",5102754
"1281",326771
"1282",1404244
"1283",861202
"1284",531132
"1285",557885
"1286",1072205
"1287",2679860
"1288",209645
"1289",703254
"1290",1797946
"1291",792680
"1292",327930
"1293",190729
"1294",1057930
"1295",325115
"1296",73934
"1297",402408
"1298",76238
"1299",34152
"1300",27678
"1301",93694
"1302",216473
"1303",7828926
"1304",443027
"1305",1361660
"1306",26518
"1307",20876
"1308",1121120
"1309",44841
"1310",749834
"1311",4618518
"1312",455929
"1313",162234
"1314",125778
"1315",71542
"1316",197111
"1317",274320
"1318",221748
"1319",43788
"1320",244499
"1321",435652
"1322",55888
"1323",46679
"1324",566900
"1325",1997828
"1326",34243
"1327",419597
"1328",2518632
"1329",1244579
"1330",753172
"1331",231169
"1332",58857
"1333",1269128
"1334",630547
"1335",2741323
"1336",203036
"1337",1632877
"1338",2126030
"1339",2486214
"1340",877349
"1341",2122843
"1342",2979217
"1343",612111
"1344",352136
"1345",640010
"1346",2143005
"1347",1287015
"1348",964366
"1349",190702
"1350",3140690
"1351",53774
"1352",749109
"1353",2051370
"1354",1720085
"1355",373834
"1356",991293
"1357",277749
"1358",863757
"1359",3338101
"1360",1072769
"1361",112502
"1362",366349
"1363",970237
"1364",727754
"1365",4932693
"1366",1997751
"1367",550854
"1368",256440
"1369",709671
"1370",284920
"1371",14713
"1372",154508
"1373",1206277
"1374",409277
"1375",66465
"1376",275375
"1377",362824
"1378",11057
"1379",5299
"1380",688128
"1381",580954
"1382",307440
"1383",4044752
"1384",140334
"1385",2434541
"1386",197469
"1387",808214
"1388",2184242
"1389",373464
"1390",936397
"1391",2066735
"1392",505388
"1393",776596
"1394",1013701
"1395",1027654
"1396",453348
"1397",1185436
"1398",1229018
"1399",3517042
"1400",434788
"1401",96152
"1402",309082
"1403",359080
"1404",89211
"1405",430902
"1406",88270
"1407",127559
"1408",112438
"1409",6861
"1410",72450
"1411",211147
"1412",242343
"1413",88588
"1414",11511
"1415",199804
"1416",15172394
"1417",3382190
"1418",1184502
"1419",2054560
"1420",772350
"1421",455215
"1422",854761
"1423",25952
"1424",138376
"1425",38876
"1426",21726
"1427",256832
"1428",244411
"1429",1054605
"1430",8208606
"1431",181882
"1432",288612
"1433",454715
"1434",5376
"1435",217540
"1436",45647
"1437",84187
"1438",205669
"1439",46401
"1440",820345
"1441",112118
"1442",804531
"1443",1288830
"1444",160220
"1445",2671223
"1446",305760
"1447",46074
"1448",453356
"1449",4317790
"1450",1405784
"1451",2733
"1452",3772626
"1453",1646061
"1454",513834
"1455",66575
"1456",544465
"1457",350153
"1458",290423
"1459",61788
"1460",65600
"1461",290415
"1462",221295
"1463",203227
"1464",101000
"1465",54498
"1466",193397
"1467",657887
"1468",1228956
"1469",32493
"1470",829170
"1471",294353
"1472",34236
"1473",10622
"1474",18931
"1475",431989
"1476",1590144
"1477",186835
"1478",164454
"1479",43430
"1480",127769
"1481",462
"1482",64514
"1483",719748
"1484",90955
"1485",248150
"1486",55830
"1487",1453594
"1488",1266206
"1489",3789108
"1490",188985
"1491",439105
"1492",142059
"1493",729521
"1494",121551
"1495",381105
"1496",298421
"1497",209745
"1498",820353
"1499",48533
"1500",1849347
"1501",6761085
"1502",199698
"1503",161613
"1504",3058
"1505",182373
"1506",674167
"1507",-285480
"1508",1123541
"1509",1112242
"1510",141409
"1511",674536
"1512",1411346
"1513",621884
"1514",399859
"1515",89462
"1516",64525
"1517",3825422
"1518",175454
"1519",503692
"1520",47121
"1521",1229607
"1522",987255
"1523",40917
"1524",17567
"1525",420442
"1526",1001587
"1527",1099904
"1528",129765
"1529",189596
"1530",1171247
"1531",395536
"1532",648270
"1533",110634
"1534",90451
"1535",529770
"1536",695245
"1537",236411
"1538",32098
"1539",344555
"1540",32659
"1541",359436
"1542",6457618
"1543",1204101
"1544",-70591
"1545",203585
"1546",463444
"1547",4695
"1548",350278
"1549",98847
"1550",50791
"1551",228530
"1552",177713
"1553",2343276
"1554",194716
"1555",342839
"1556",16408
"1557",3995881
"1558",3698289
"1559",1066212
"1560",125877
"1561",877085
"1562",68366
"1563",141423
"1564",181390
"1565",192420
"1566",89998
"1567",586862
"1568",99674
"1569",264616
"1570",256057
"1571",1622900
"1572",26953
"1573",448412
"1574",1150046
"1575",784
"1576",1409358
"1577",298514
"1578",34419
"1579",19384
"1580",17279
"1581",107422
"1582",63728
"1583",26193
"1584",208367
"1585",346047
"1586",1858835
"1587",3845509
"1588",2146422
"1589",1274620
"1590",565884
"1591",113722
"1592",2577898
"1593",292899
"1594",7396791
"1595",1902586
"1596",11912062
"1597",662356
"1598",9506469
"1599",17636670
"1600",4084099
"1601",1156708
"1602",1115860
"1603",9434053
"1604",618599
"1605",60623
"1606",415927
"1607",396269
"1608",208275
"1609",31774
"1610",391610
"1611",238136
"1612",42044
"1613",632970
"1614",70831
"1615",93941
"1616",417602
"1617",224936
"1618",305077
"1619",109628
"1620",142568
"1621",64709
"1622",106150
"1623",916629
"1624",54375
"1625",782881
"1626",63778
"1627",201997
"1628",21188
"1629",772371
"1630",44672
"1631",224017
"1632",575578
"1633",1020112
"1634",576372
"1635",101515
"1636",486748
"1637",649939
"1638",635883
"1639",499953
"1640",500139
"1641",614149
"1642",715106
"1643",76469
"1644",535341
"1645",1209829
"1646",312093
"1647",409061
"1648",338632
"1649",437552
"1650",332631
"1651",368146
"1652",456258
"1653",151476
"1654",371807
"1655",1780548
"1656",1791145
"1657",9714270
"1658",230442
"1659",161100
"1660",882590
"1661",614338
"1662",49308
"1663",372896
"1664",244485
"1665",238092
"1666",20746
"1667",455933
"1668",44410
"1669",42484
"1670",514726
"1671",510433
"1672",513392
"1673",11547
"1674",104042
"1675",192777
"1676",93232
"1677",45518
"1678",12724
"1679",33056
"1680",533345
"1681",633204
"1682",100806
"1683",250666
"1684",968728
"1685",741571
"1686",1342549
"1687",354795
"1688",599087
"1689",320281
"1690",8332
"1691",-142355
"1692",201397
"1693",61646
"1694",193065
"1695",81061
"1696",249927
"1697",387264
"1698",73244
"1699",278385
"1700",49542
"1701",168828
"1702",303506
"1703",225492
"1704",42245
"1705",688715
"1706",283830
"1707",153141
"1708",10310
"1709",20332
"1710",520676
"1711",35310
"1712",33684
"1713",51110
"1714",192093
"1715",8289
"1716",433478
"1717",24962
"1718",140168
"1719",833816
"1720",438398
"1721",222141
"1722",129649
"1723",1131
"1724",512086
"1725",176231
"1726",1056672
"1727",443908
"1728",6361
"1729",203889
"1730",148636
"1731",241510
"1732",118937
"1733",158399
"1734",1037380
"1735",568902
"1736",375260
"1737",441059
"1738",229324
"1739",31217
"1740",164323
"1741",1140517
"1742",1671030
"1743",579916
"1744",452244
"1745",2518590
"1746",3620729
"1747",3888766
"1748",2888491
"1749",457019
"1750",-12001
"1751",78685
"1752",343371
"1753",2668963
"1754",1414409
"1755",776727
"1756",7004309
"1757",1238631
"1758",464500
"1759",110406
"1760",1476293
"1761",1017780
"1762",614059
"1763",214340
"1764",3236
"1765",1218938
"1766",279583
"1767",379411
"1768",182037
"1769",254010
"1770",2743095
"1771",2893288
"1772",249859
"1773",415459
"1774",510671
"1775",1076291
"1776",2237423
"1777",9553
"1778",839376
"1779",127232
"1780",151527
"1781",1316719
"1782",3306010
"1783",1294249
"1784",999070
"1785",979789
"1786",388617
"1787",114275
"1788",3199540
"1789",90903
"1790",549599
"1791",3745289
"1792",7748874
"1793",5755985
"1794",313338
"1795",266385
"1796",931451
"1797",543591
"1798",597162
"1799",3540407
"1800",1098487
"1801",2018746
"1802",267109
"1803",492355
"1804",696110
"1805",664924
"1806",29313
"1807",346173
"1808",2028065
"1809",22725
"1810",344829
"1811",194662
"1812",33987
"1813",105320
"1814",1131258
"1815",131924
"1816",734849
"1817",1899561
"1818",513086
"1819",316442
"1820",22216
"1821",71346
"1822",945671
"1823",14742
"1824",1796406
"1825",2958449
"1826",52133
"1827",1462232
"1828",65148
"1829",68583
"1830",59860
"1831",463534
"1832",965066
"1833",3422758
"1834",2096148
"1835",329326
"1836",188727
"1837",206598
"1838",722520
"1839",1770625
"1840",612103
"1841",47905
"1842",499740
"1843",686378
"1844",1395660
"1845",273039
"1846",254260
"1847",1057574
"1848",3635528
"1849",284513
"1850",605110
"1851",141
"1852",1790
"1853",1375748
"1854",10415
"1855",765754
"1856",106543
"1857",7068117
"1858",229265
"1859",12467
"1860",2553695
"1861",42861
"1862",84728
"1863",2368364
"1864",176657
"1865",1344543
"1866",1486630
"1867",218187
"1868",94812
"1869",-130170
"1870",2846927
"1871",55149
"1872",1788338
"1873",6867133
"1874",-31458
"1875",10361461
"1876",452394
"1877",3451097
"1878",544310
"1879",676583
"1880",76362
"1881",606513
"1882",355235
"1883",79878
"1884",799376
"1885",427656
"1886",18885
"1887",314668
"1888",926945
"1889",3180186
"1890",14326741
"1891",2275189
"1892",542132
"1893",132904
"1894",179657
"1895",1028348
"1896",2478355
"1897",584099
"1898",2524553
"1899",13106904
"1900",9205582
"1901",2386863
"1902",543211
"1903",3064104
"1904",3205638
"1905",9216326
"1906",119989
"1907",280404
"1908",159574
"1909",111796
"1910",116271
"1911",9070484
"1912",313560
"1913",2093504
"1914",1459802
"1915",1976175
"1916",2640668
"1917",8724164
"1918",104650
"1919",4778221
"1920",186680
"1921",725299
"1922",134719
"1923",466015
"1924",16520
"1925",50790
"1926",40700
"1927",231112
"1928",14781
