"","x"
"ENSG00000145428",0.209740705172177
"ENSG00000130830",0.20901984965215
"ENSG00000273350",0.20802103879027
"ENSG00000161048",0.205515717700388
"ENSG00000223991",0.205018688606174
"ENSG00000140519",0.204414877476728
"ENSG00000114520",0.203715424285045
"ENSG00000158864",0.203606903018324
"ENSG00000138777",0.202618765946395
"ENSG00000090104",0.202483034132317
"ENSG00000101265",0.197305175785978
"ENSG00000135776",0.196259753099046
"ENSG00000075618",0.195575797678076
"ENSG00000179921",0.19504058451093
"ENSG00000255198",0.192894113316924
"ENSG00000260528",0.192730661696179
"ENSG00000197747",0.191669279490677
"ENSG00000162390",0.19043771043771
"ENSG00000164125",0.186002372479241
"ENSG00000148926",0.182714817715595
"ENSG00000111843",0.18234251413844
"ENSG00000118620",0.18202626641651
"ENSG00000106605",0.18154213067645
"ENSG00000135336",0.181276101653651
"ENSG00000109113",0.181044957472661
"ENSG00000091986",0.180608330630473
"ENSG00000084676",0.179596093724725
"ENSG00000104889",0.178476153039832
"ENSG00000168961",0.177880813414651
"ENSG00000110844",0.177789742899448
"ENSG00000166377",0.177207008075937
"ENSG00000178952",0.177023619888989
"ENSG00000104972",0.176898646795582
"ENSG00000064607",0.176400411743821
"ENSG00000140450",0.175748915911305
"ENSG00000111404",0.175175644028103
"ENSG00000103569",0.174719776888741
"ENSG00000038945",0.174640645023494
"ENSG00000237017",0.174446590402615
"ENSG00000168575",0.173534241982652
"ENSG00000248144",0.173178120922812
"ENSG00000134871",0.171663069897148
"ENSG00000183889",0.171519814196545
"ENSG00000250959",0.170713525026624
"ENSG00000122483",0.170577658264757
"ENSG00000118640",0.169638504609163
"ENSG00000101695",0.167694338669475
"ENSG00000071282",0.166952943281446
"ENSG00000010256",0.164312194843854
"ENSG00000132740",0.164131440858287
"ENSG00000119632",0.16371424584903
"ENSG00000147536",0.163603473227207
"ENSG00000100077",0.162859663124291
"ENSG00000116030",0.162288381360501
"ENSG00000184924",0.162101071792108
"ENSG00000213614",0.158704133369051
"ENSG00000133083",0.158646934460888
"ENSG00000031081",0.158280492020399
"ENSG00000197847",0.15518855656697
"ENSG00000012779",0.151448117193644
"ENSG00000141519",0.149959711731793
"ENSG00000254681",0.147837126933694
"ENSG00000266258",0.146428375637301
"ENSG00000154553",0.144457399103139
"ENSG00000163191",0.144231061924454
"ENSG00000139168",0.143650973441893
"ENSG00000115590",0.143325884023558
"ENSG00000167720",0.143208367610765
"ENSG00000134330",0.140343347714803
"ENSG00000162367",0.139744511419565
"ENSG00000162063",0.137507391104395
"ENSG00000130818",0.137230660543977
"ENSG00000136824",0.132815031638185
"ENSG00000148795",0.132177600399102
"ENSG00000187446",0.131208354866649
"ENSG00000179630",0.130144528064998
"ENSG00000175920",0.129839128178516
"ENSG00000183615",0.127139321691241
"ENSG00000137275",0.126683205500101
"ENSG00000182858",0.125543649904328
"ENSG00000115380",0.120318465425012
"ENSG00000187951",0.115622590916709
"ENSG00000079435",0.109486607142857
"ENSG00000250588",0.100782328578003
"ENSG00000171444",0.0985293379226041
"ENSG00000142512",0.0976294163304242
"ENSG00000259108",0.09527065420128
"ENSG00000077809",0.0924365461592123
"ENSG00000256594",0.0908779576587796
"ENSG00000108798",0.0901448170310575
"ENSG00000164687",0.0897700857864031
"ENSG00000134809",0.0894481947249208
"ENSG00000164061",0.086568285387167
"ENSG00000164010",0.0794663698452494
"ENSG00000077713",0.0710970484995303
"ENSG00000108821",0.0705436257428655
"ENSG00000131981",0.0696091204642077
"ENSG00000164266",0.0662331878666163
"ENSG00000165953",0.0657534246575342
"ENSG00000133216",0.0371937297243753
