"","x"
"ENSG00000171766",0.584891980337053
"ENSG00000180747",0.584858232324308
"ENSG00000167617",0.5841631104789
"ENSG00000135587",0.58363227587575
"ENSG00000242252",0.582810162397682
"ENSG00000221988",0.582580357201605
"ENSG00000074657",0.581955323409389
"ENSG00000066735",0.58145659063196
"ENSG00000168016",0.581432291972546
"ENSG00000162614",0.581411729258962
"ENSG00000106608",0.581024391067955
"ENSG00000106245",0.579873014609531
"ENSG00000213240",0.578372146034502
"ENSG00000272356",0.578310949672609
"ENSG00000161249",0.577593126261597
"ENSG00000160285",0.576929500302164
"ENSG00000228389",0.576337538060026
"ENSG00000100227",0.575153511672861
"ENSG00000101236",0.574875765822517
"ENSG00000171161",0.572164810164617
"ENSG00000081237",0.571446286115819
"ENSG00000087157",0.571042741781732
"ENSG00000114388",0.570303349992401
"ENSG00000260549",0.569029090468427
"ENSG00000174516",0.568942428591551
"ENSG00000178031",0.567898842797133
"ENSG00000227063",0.567045191823857
"ENSG00000100342",0.566160299054221
"ENSG00000142920",0.565422992510804
"ENSG00000129071",0.564508107002087
"ENSG00000270307",0.564026044492675
"ENSG00000204291",0.563069502277775
"ENSG00000112029",0.562635464942114
"ENSG00000241343",0.562180296225733
"ENSG00000106100",0.561666747077081
"ENSG00000187838",0.560980103168755
"ENSG00000132275",0.557814553000937
"ENSG00000236199",0.55728813559322
"ENSG00000167323",0.557271194568689
"ENSG00000160932",0.555231674281603
"ENSG00000169641",0.551158235993714
"ENSG00000077616",0.550844748296978
"ENSG00000262903",0.55047696550477
"ENSG00000092295",0.549676660787772
"ENSG00000258199",0.548694200635399
"ENSG00000263069",0.546031746031746
"ENSG00000106688",0.545562632696391
"ENSG00000245970",0.545137661025511
"ENSG00000224888",0.543654657578708
"ENSG00000177337",0.542506050380066
"ENSG00000114857",0.542419209946055
"ENSG00000164054",0.542324175254471
"ENSG00000177606",0.542001215096796
"ENSG00000133561",0.541307064697288
"ENSG00000204344",0.540877088305489
"ENSG00000109220",0.540409992761558
"ENSG00000163376",0.540287542958035
"ENSG00000011304",0.536994437252988
"ENSG00000204524",0.533578180808502
"ENSG00000151292",0.53227332108942
"ENSG00000113742",0.530892451165051
"ENSG00000118407",0.529565814799352
"ENSG00000198804",0.521399310722967
"ENSG00000066379",0.519472459270753
"ENSG00000168309",0.517560235249952
"ENSG00000133121",0.516086098829607
"ENSG00000198561",0.51096172696114
"ENSG00000163882",0.510876731922019
"ENSG00000007080",0.510553024249694
"ENSG00000105072",0.508754287486657
"ENSG00000116151",0.506410256410256
"ENSG00000112782",0.504581950929501
"ENSG00000134817",0.502293041772145
"ENSG00000113658",0.499676198657576
"ENSG00000198858",0.499518728638018
"ENSG00000133687",0.498081306338994
"ENSG00000197265",0.494977624150747
"ENSG00000113734",0.49351496941862
"ENSG00000141576",0.490824209776274
"ENSG00000116670",0.486736390921301
"ENSG00000142089",0.480243697133815
"ENSG00000124243",0.479888394943063
"ENSG00000168961",0.4736
"ENSG00000131196",0.473014990805318
"ENSG00000269896",0.472556894243641
"ENSG00000137575",0.471176107980961
"ENSG00000183793",0.466914529471255
"ENSG00000187608",0.454349270481396
"ENSG00000173727",0.448275862068966
"ENSG00000143751",0.44793379139794
"ENSG00000127124",0.445704342256066
"ENSG00000269399",0.435732953195533
"ENSG00000035403",0.430064370400478
"ENSG00000168575",0.416000852061716
"ENSG00000233276",0.41364368839202
"ENSG00000254681",0.395507377939161
"ENSG00000168427",0.38748446673887
"ENSG00000105559",0.377983271207694
"ENSG00000170445",0.341325749131514
"ENSG00000254184",0.305982753300745
