"","query.number","significant","p.value","term.size","query.size","overlap.size","precision","recall","term.id","domain","subgraph.number","term.name","relative.depth","intersection"
"1",1,TRUE,5.13e-05,13871,96,85,0.885,0.006,"GO:0005622","CC",1,"intracellular",1,"ENSMUSG00000002028,ENSMUSG00000004880,ENSMUSG00000006527,ENSMUSG00000007038,ENSMUSG00000009145,ENSMUSG00000010290,ENSMUSG00000015133,ENSMUSG00000017837,ENSMUSG00000019139,ENSMUSG00000020063,ENSMUSG00000020134,ENSMUSG00000020546,ENSMUSG00000020572,ENSMUSG00000020823,ENSMUSG00000020941,ENSMUSG00000020988,ENSMUSG00000021279,ENSMUSG00000021431,ENSMUSG00000021504,ENSMUSG00000021699,ENSMUSG00000022364,ENSMUSG00000023830,ENSMUSG00000024277,ENSMUSG00000024491,ENSMUSG00000024654,ENSMUSG00000024942,ENSMUSG00000025217,ENSMUSG00000025255,ENSMUSG00000025423,ENSMUSG00000025979,ENSMUSG00000026192,ENSMUSG00000026504,ENSMUSG00000028191,ENSMUSG00000029313,ENSMUSG00000030087,ENSMUSG00000030231,ENSMUSG00000030815,ENSMUSG00000030850,ENSMUSG00000030872,ENSMUSG00000031530,ENSMUSG00000031787,ENSMUSG00000032193,ENSMUSG00000032578,ENSMUSG00000033308,ENSMUSG00000033411,ENSMUSG00000033752,ENSMUSG00000033985,ENSMUSG00000034610,ENSMUSG00000034640,ENSMUSG00000035024,ENSMUSG00000035069,ENSMUSG00000035569,ENSMUSG00000036959,ENSMUSG00000037278,ENSMUSG00000038002,ENSMUSG00000038949,ENSMUSG00000040435,ENSMUSG00000040681,ENSMUSG00000041685,ENSMUSG00000041939,ENSMUSG00000041958,ENSMUSG00000041977,ENSMUSG00000042572,ENSMUSG00000042594,ENSMUSG00000042744,ENSMUSG00000043940,ENSMUSG00000044447,ENSMUSG00000045103,ENSMUSG00000045294,ENSMUSG00000046982,ENSMUSG00000048285,ENSMUSG00000050627,ENSMUSG00000051351,ENSMUSG00000055024,ENSMUSG00000055632,ENSMUSG00000057400,ENSMUSG00000060862,ENSMUSG00000061536,ENSMUSG00000063382,ENSMUSG00000068966,ENSMUSG00000071177,ENSMUSG00000071350,ENSMUSG00000072849,ENSMUSG00000090175,ENSMUSG00000091144"
"2",1,TRUE,1.23e-05,13275,96,84,0.875,0.006,"GO:0044424","CC",1,"intracellular part",2,"ENSMUSG00000002028,ENSMUSG00000004880,ENSMUSG00000006527,ENSMUSG00000007038,ENSMUSG00000009145,ENSMUSG00000010290,ENSMUSG00000015133,ENSMUSG00000017837,ENSMUSG00000019139,ENSMUSG00000020063,ENSMUSG00000020134,ENSMUSG00000020546,ENSMUSG00000020572,ENSMUSG00000020823,ENSMUSG00000020941,ENSMUSG00000020988,ENSMUSG00000021279,ENSMUSG00000021431,ENSMUSG00000021504,ENSMUSG00000021699,ENSMUSG00000022364,ENSMUSG00000023830,ENSMUSG00000024277,ENSMUSG00000024491,ENSMUSG00000024654,ENSMUSG00000024942,ENSMUSG00000025217,ENSMUSG00000025255,ENSMUSG00000025423,ENSMUSG00000025979,ENSMUSG00000026192,ENSMUSG00000026504,ENSMUSG00000028191,ENSMUSG00000029313,ENSMUSG00000030087,ENSMUSG00000030231,ENSMUSG00000030815,ENSMUSG00000030850,ENSMUSG00000030872,ENSMUSG00000031530,ENSMUSG00000031787,ENSMUSG00000032193,ENSMUSG00000032578,ENSMUSG00000033308,ENSMUSG00000033411,ENSMUSG00000033752,ENSMUSG00000033985,ENSMUSG00000034610,ENSMUSG00000034640,ENSMUSG00000035024,ENSMUSG00000035069,ENSMUSG00000035569,ENSMUSG00000036959,ENSMUSG00000037278,ENSMUSG00000038002,ENSMUSG00000038949,ENSMUSG00000040435,ENSMUSG00000040681,ENSMUSG00000041685,ENSMUSG00000041939,ENSMUSG00000041958,ENSMUSG00000041977,ENSMUSG00000042572,ENSMUSG00000042744,ENSMUSG00000043940,ENSMUSG00000044447,ENSMUSG00000045103,ENSMUSG00000045294,ENSMUSG00000046982,ENSMUSG00000048285,ENSMUSG00000050627,ENSMUSG00000051351,ENSMUSG00000055024,ENSMUSG00000055632,ENSMUSG00000057400,ENSMUSG00000060862,ENSMUSG00000061536,ENSMUSG00000063382,ENSMUSG00000068966,ENSMUSG00000071177,ENSMUSG00000071350,ENSMUSG00000072849,ENSMUSG00000090175,ENSMUSG00000091144"
"3",1,TRUE,0.0211,11660,96,72,0.75,0.006,"GO:0043229","CC",1,"intracellular organelle",1,"ENSMUSG00000002028,ENSMUSG00000004880,ENSMUSG00000006527,ENSMUSG00000007038,ENSMUSG00000009145,ENSMUSG00000015133,ENSMUSG00000020063,ENSMUSG00000020134,ENSMUSG00000020546,ENSMUSG00000020572,ENSMUSG00000020823,ENSMUSG00000020941,ENSMUSG00000020988,ENSMUSG00000021279,ENSMUSG00000021431,ENSMUSG00000021504,ENSMUSG00000021699,ENSMUSG00000022364,ENSMUSG00000023830,ENSMUSG00000024277,ENSMUSG00000024491,ENSMUSG00000024942,ENSMUSG00000025217,ENSMUSG00000025255,ENSMUSG00000025423,ENSMUSG00000025979,ENSMUSG00000026192,ENSMUSG00000026504,ENSMUSG00000028191,ENSMUSG00000029313,ENSMUSG00000030087,ENSMUSG00000030231,ENSMUSG00000030850,ENSMUSG00000030872,ENSMUSG00000031530,ENSMUSG00000031787,ENSMUSG00000032193,ENSMUSG00000033411,ENSMUSG00000033752,ENSMUSG00000033985,ENSMUSG00000034610,ENSMUSG00000034640,ENSMUSG00000035024,ENSMUSG00000035069,ENSMUSG00000035569,ENSMUSG00000036959,ENSMUSG00000037278,ENSMUSG00000038002,ENSMUSG00000038949,ENSMUSG00000040435,ENSMUSG00000040681,ENSMUSG00000041685,ENSMUSG00000041939,ENSMUSG00000041958,ENSMUSG00000042572,ENSMUSG00000043940,ENSMUSG00000045103,ENSMUSG00000045294,ENSMUSG00000046982,ENSMUSG00000048285,ENSMUSG00000051351,ENSMUSG00000055024,ENSMUSG00000057400,ENSMUSG00000060862,ENSMUSG00000061536,ENSMUSG00000063382,ENSMUSG00000068966,ENSMUSG00000071177,ENSMUSG00000071350,ENSMUSG00000072849,ENSMUSG00000090175,ENSMUSG00000091144"
"4",1,TRUE,0.0396,13657,96,79,0.823,0.006,"GO:0005488","MF",2,"binding",1,"ENSMUSG00000001436,ENSMUSG00000002028,ENSMUSG00000004880,ENSMUSG00000006527,ENSMUSG00000007038,ENSMUSG00000009145,ENSMUSG00000015133,ENSMUSG00000017837,ENSMUSG00000020063,ENSMUSG00000020134,ENSMUSG00000020546,ENSMUSG00000020572,ENSMUSG00000020823,ENSMUSG00000020941,ENSMUSG00000021271,ENSMUSG00000021279,ENSMUSG00000021431,ENSMUSG00000021504,ENSMUSG00000021699,ENSMUSG00000023830,ENSMUSG00000024277,ENSMUSG00000024491,ENSMUSG00000024942,ENSMUSG00000025217,ENSMUSG00000025255,ENSMUSG00000025423,ENSMUSG00000025584,ENSMUSG00000025979,ENSMUSG00000026192,ENSMUSG00000026504,ENSMUSG00000028191,ENSMUSG00000030087,ENSMUSG00000030231,ENSMUSG00000030313,ENSMUSG00000030815,ENSMUSG00000030850,ENSMUSG00000030872,ENSMUSG00000031787,ENSMUSG00000032193,ENSMUSG00000032578,ENSMUSG00000033308,ENSMUSG00000033752,ENSMUSG00000033985,ENSMUSG00000034610,ENSMUSG00000034640,ENSMUSG00000035024,ENSMUSG00000035069,ENSMUSG00000036103,ENSMUSG00000038002,ENSMUSG00000038188,ENSMUSG00000038437,ENSMUSG00000038949,ENSMUSG00000040435,ENSMUSG00000040681,ENSMUSG00000040855,ENSMUSG00000041685,ENSMUSG00000041939,ENSMUSG00000041977,ENSMUSG00000042572,ENSMUSG00000042594,ENSMUSG00000043940,ENSMUSG00000044447,ENSMUSG00000045103,ENSMUSG00000046982,ENSMUSG00000048285,ENSMUSG00000050627,ENSMUSG00000051351,ENSMUSG00000055024,ENSMUSG00000055632,ENSMUSG00000060862,ENSMUSG00000061536,ENSMUSG00000063382,ENSMUSG00000068966,ENSMUSG00000071177,ENSMUSG00000071350,ENSMUSG00000072849,ENSMUSG00000090175,ENSMUSG00000091144,ENSMUSG00000092021"
