"","query.number","significant","p.value","term.size","query.size","overlap.size","precision","recall","term.id","domain","subgraph.number","term.name","relative.depth","intersection"
"1",1,TRUE,0.0337,5675,92,43,0.467,0.008,"GO:1901576","BP",6,"organic substance biosynthetic process",1,"ENSMUSG00000000303,ENSMUSG00000000489,ENSMUSG00000001741,ENSMUSG00000003762,ENSMUSG00000004359,ENSMUSG00000015568,ENSMUSG00000017146,ENSMUSG00000018796,ENSMUSG00000019850,ENSMUSG00000020182,ENSMUSG00000020573,ENSMUSG00000020778,ENSMUSG00000020857,ENSMUSG00000021250,ENSMUSG00000023044,ENSMUSG00000023947,ENSMUSG00000024143,ENSMUSG00000024659,ENSMUSG00000025083,ENSMUSG00000027111,ENSMUSG00000030278,ENSMUSG00000031278,ENSMUSG00000031608,ENSMUSG00000038092,ENSMUSG00000038718,ENSMUSG00000039081,ENSMUSG00000039697,ENSMUSG00000040152,ENSMUSG00000040552,ENSMUSG00000045394,ENSMUSG00000046876,ENSMUSG00000055612,ENSMUSG00000057722,ENSMUSG00000061099,ENSMUSG00000062861,ENSMUSG00000066613,ENSMUSG00000068130,ENSMUSG00000068959,ENSMUSG00000070348,ENSMUSG00000073436,ENSMUSG00000078870,ENSMUSG00000079363,ENSMUSG00000092416"
"2",1,TRUE,0.0417,2759,92,27,0.293,0.01,"GO:0070887","BP",5,"cellular response to chemical stimulus",1,"ENSMUSG00000000303,ENSMUSG00000000489,ENSMUSG00000001741,ENSMUSG00000017146,ENSMUSG00000018796,ENSMUSG00000019850,ENSMUSG00000020182,ENSMUSG00000020573,ENSMUSG00000021250,ENSMUSG00000023043,ENSMUSG00000023044,ENSMUSG00000024143,ENSMUSG00000024659,ENSMUSG00000027082,ENSMUSG00000027111,ENSMUSG00000030168,ENSMUSG00000030968,ENSMUSG00000032802,ENSMUSG00000039697,ENSMUSG00000040152,ENSMUSG00000040552,ENSMUSG00000042834,ENSMUSG00000047798,ENSMUSG00000049382,ENSMUSG00000057722,ENSMUSG00000070348,ENSMUSG00000079363"
"3",1,TRUE,0.012,222,92,8,0.087,0.036,"GO:0097191","BP",1,"extrinsic apoptotic signaling pathway",1,"ENSMUSG00000017146,ENSMUSG00000019850,ENSMUSG00000023043,ENSMUSG00000023905,ENSMUSG00000027111,ENSMUSG00000040152,ENSMUSG00000046432,ENSMUSG00000049382"
"4",1,TRUE,0.018,22,47,3,0.064,0.136,"KEGG:00360","keg",3,"Phenylalanine metabolism",1,"ENSMUSG00000020182,ENSMUSG00000024694,ENSMUSG00000071633"
"5",1,TRUE,0.0084,85,47,5,0.106,0.059,"KEGG:03320","keg",2,"PPAR signaling pathway",1,"ENSMUSG00000015568,ENSMUSG00000018796,ENSMUSG00000031278,ENSMUSG00000050445,ENSMUSG00000063929"
"6",1,TRUE,0.00354,71,47,5,0.106,0.07,"KEGG:04920","keg",4,"Adipocytokine signaling pathway",1,"ENSMUSG00000018796,ENSMUSG00000023947,ENSMUSG00000030168,ENSMUSG00000031278,ENSMUSG00000057722"
