"","query.number","significant","p.value","term.size","query.size","overlap.size","precision","recall","term.id","domain","subgraph.number","term.name","relative.depth","intersection"
"1",1,TRUE,0.0374,34,97,4,0.041,0.118,"GO:0051452","BP",1,"intracellular pH reduction",1,"ENSMUSG00000024121,ENSMUSG00000033379,ENSMUSG00000042111,ENSMUSG00000051232"
"2",1,TRUE,0.0041,20,97,4,0.041,0.2,"GO:0007035","BP",1,"vacuolar acidification",2,"ENSMUSG00000024121,ENSMUSG00000033379,ENSMUSG00000042111,ENSMUSG00000051232"
"3",1,TRUE,0.0446,12,97,3,0.031,0.25,"GO:0035751","BP",1,"regulation of lysosomal lumen pH",1,"ENSMUSG00000024121,ENSMUSG00000042111,ENSMUSG00000051232"
"4",1,TRUE,0.0115,8,97,3,0.031,0.375,"GO:0007042","BP",1,"lysosomal lumen acidification",2,"ENSMUSG00000024121,ENSMUSG00000042111,ENSMUSG00000051232"
"5",1,TRUE,0.0222,13871,97,81,0.835,0.006,"GO:0005622","CC",3,"intracellular",1,"ENSMUSG00000000247,ENSMUSG00000001348,ENSMUSG00000002768,ENSMUSG00000002812,ENSMUSG00000003644,ENSMUSG00000004264,ENSMUSG00000005813,ENSMUSG00000006288,ENSMUSG00000006335,ENSMUSG00000008690,ENSMUSG00000011658,ENSMUSG00000014791,ENSMUSG00000015337,ENSMUSG00000017667,ENSMUSG00000019843,ENSMUSG00000021087,ENSMUSG00000021810,ENSMUSG00000021917,ENSMUSG00000022075,ENSMUSG00000022962,ENSMUSG00000023057,ENSMUSG00000024121,ENSMUSG00000024208,ENSMUSG00000024462,ENSMUSG00000024758,ENSMUSG00000026483,ENSMUSG00000026822,ENSMUSG00000026895,ENSMUSG00000027200,ENSMUSG00000027261,ENSMUSG00000027889,ENSMUSG00000028163,ENSMUSG00000028553,ENSMUSG00000029319,ENSMUSG00000029363,ENSMUSG00000029456,ENSMUSG00000029474,ENSMUSG00000029536,ENSMUSG00000030486,ENSMUSG00000031379,ENSMUSG00000031828,ENSMUSG00000031948,ENSMUSG00000032067,ENSMUSG00000032180,ENSMUSG00000032298,ENSMUSG00000032754,ENSMUSG00000032812,ENSMUSG00000033379,ENSMUSG00000034032,ENSMUSG00000034083,ENSMUSG00000034998,ENSMUSG00000035104,ENSMUSG00000035561,ENSMUSG00000037275,ENSMUSG00000037617,ENSMUSG00000039001,ENSMUSG00000039069,ENSMUSG00000040209,ENSMUSG00000040669,ENSMUSG00000041688,ENSMUSG00000041926,ENSMUSG00000042050,ENSMUSG00000042111,ENSMUSG00000042284,ENSMUSG00000042447,ENSMUSG00000044231,ENSMUSG00000045176,ENSMUSG00000050973,ENSMUSG00000051232,ENSMUSG00000051469,ENSMUSG00000053644,ENSMUSG00000055943,ENSMUSG00000056124,ENSMUSG00000056917,ENSMUSG00000056973,ENSMUSG00000060743,ENSMUSG00000061665,ENSMUSG00000065990,ENSMUSG00000071359,ENSMUSG00000071477,ENSMUSG00000074129"
"6",1,TRUE,0.0124,26,97,4,0.041,0.154,"GO:0033176","CC",2,"proton-transporting V-type ATPase complex",1,"ENSMUSG00000024121,ENSMUSG00000033379,ENSMUSG00000042111,ENSMUSG00000051232"
"7",1,TRUE,0.00329,19,97,4,0.041,0.211,"GO:0016471","CC",2,"vacuolar proton-transporting V-type ATPase complex",2,"ENSMUSG00000024121,ENSMUSG00000033379,ENSMUSG00000042111,ENSMUSG00000051232"
