"","x"
"ENSG00000101443",5.61391223155929
"ENSG00000204610",4.41579341863464
"ENSG00000139899",3.93618379661405
"ENSG00000189334",3.72644857852733
"ENSG00000170962",3.68698358800226
"ENSG00000187583",3.52876914599038
"ENSG00000006327",3.51223402205995
"ENSG00000120217",3.32417468402188
"ENSG00000244480",3.30108896650914
"ENSG00000165997",3.18406006245737
"ENSG00000196792",3.11841734446906
"ENSG00000006555",3.10676062073022
"ENSG00000196388",3.08154606219122
"ENSG00000180089",3.00513402998637
"ENSG00000145623",2.96752632443974
"ENSG00000135048",2.93953172938848
"ENSG00000143669",2.92579466523205
"ENSG00000106443",2.92560717735409
"ENSG00000183569",2.91711991711992
"ENSG00000062524",2.91289639155915
"ENSG00000260179",2.8959504784453
"ENSG00000128965",2.86676618243965
"ENSG00000107175",2.84363841949545
"ENSG00000170099",2.82926412959083
"ENSG00000074842",2.81286924403075
"ENSG00000146054",2.77945583263199
"ENSG00000132432",2.77681034019305
"ENSG00000164683",2.77186955100262
"ENSG00000101109",2.75780853881983
"ENSG00000189067",2.75011113543993
"ENSG00000142677",2.72336034046302
"ENSG00000167799",2.7210036774928
"ENSG00000166478",2.71672513341214
"ENSG00000196954",2.69493953478713
"ENSG00000085831",2.69192975419699
"ENSG00000197930",2.69099431344057
"ENSG00000242265",2.68467909456021
"ENSG00000166197",2.66912968051135
"ENSG00000148690",2.66739551069645
"ENSG00000121940",2.65854950260738
"ENSG00000139154",2.65843132559332
"ENSG00000120254",2.65130799340883
"ENSG00000148835",2.65098182668787
"ENSG00000157551",2.6440998138343
"ENSG00000156463",2.62100234896565
"ENSG00000129993",2.61901501259079
"ENSG00000259758",2.61090802541543
"ENSG00000133639",2.6074493917421
"ENSG00000166401",2.60489162166107
"ENSG00000128694",2.60149893215757
"ENSG00000264112",2.59969091480721
"ENSG00000096746",2.59809145775826
"ENSG00000272947",2.59512837393022
"ENSG00000260917",2.57963806513588
"ENSG00000144040",2.5787448829685
"ENSG00000182326",2.57419743844912
"ENSG00000117226",2.55042466293253
"ENSG00000115170",2.54727464136612
"ENSG00000264235",2.54071956807767
"ENSG00000181852",2.53322147624623
"ENSG00000110244",2.52854883428956
"ENSG00000266236",2.52006482481865
"ENSG00000129315",2.51532404458064
"ENSG00000187984",2.51029512697323
"ENSG00000105373",2.5089245756093
"ENSG00000185101",2.50809958336335
"ENSG00000172456",2.50799575683646
"ENSG00000159753",2.49829680905449
"ENSG00000260259",2.49799580072533
"ENSG00000013375",2.49173322346259
"ENSG00000048405",2.49152036840986
"ENSG00000185619",2.48710796581555
"ENSG00000185275",2.4844064102805
"ENSG00000254093",2.4797806079762
"ENSG00000175463",2.47862768667695
"ENSG00000167881",2.46090535995091
"ENSG00000143793",2.44948826211789
"ENSG00000167779",2.44527615760225
"ENSG00000161653",2.44458808272685
"ENSG00000119699",2.44047897802496
"ENSG00000173653",2.43831270691631
"ENSG00000175054",2.43274053820942
"ENSG00000151838",2.42023460410557
"ENSG00000229164",2.41114838536978
"ENSG00000068650",2.39947351405324
"ENSG00000179715",2.39357794291505
"ENSG00000164631",2.39312985860317
"ENSG00000145349",2.38898417602277
"ENSG00000151364",2.38340913480956
"ENSG00000119729",2.38165027421669
"ENSG00000156172",2.37680756395996
"ENSG00000260018",2.37240599958907
"ENSG00000239388",2.37096774193548
"ENSG00000136950",2.36706634691569
"ENSG00000022976",2.36031635988001
"ENSG00000126870",2.35501023600235
"ENSG00000142856",2.34740907028741
"ENSG00000140836",2.34120892396635
"ENSG00000204220",2.33613234244914
"ENSG00000163710",2.33501379389815
