"","x"
"ENSG00000101443",5.58869701726845
"ENSG00000166923",4.03917460492264
"ENSG00000196814",3.86034646512772
"ENSG00000164023",3.83564010953534
"ENSG00000095932",3.8203658938013
"ENSG00000148690",3.42209583392578
"ENSG00000204610",3.38741656270811
"ENSG00000139899",3.3281479458042
"ENSG00000137077",3.15780127606174
"ENSG00000075426",3.08183928621381
"ENSG00000165997",3.0652836599026
"ENSG00000211898",2.9855033557047
"ENSG00000261012",2.9810787518887
"ENSG00000266208",2.97108350192025
"ENSG00000197930",2.92668339036183
"ENSG00000239388",2.87016317016317
"ENSG00000111653",2.86439914767923
"ENSG00000142677",2.85849449905505
"ENSG00000242689",2.84419049536851
"ENSG00000157551",2.83517150879401
"ENSG00000073169",2.81648172912121
"ENSG00000128602",2.79802763437388
"ENSG00000260456",2.78815603947987
"ENSG00000164631",2.78559071189799
"ENSG00000148835",2.75414390510379
"ENSG00000178795",2.7460924655282
"ENSG00000100324",2.74003599240636
"ENSG00000187145",2.73408506247
"ENSG00000143224",2.71495000176672
"ENSG00000260917",2.69989408606123
"ENSG00000251143",2.68741258741259
"ENSG00000232573",2.65297621964903
"ENSG00000260179",2.64419195483416
"ENSG00000170949",2.63958573783138
"ENSG00000172348",2.63116168482356
"ENSG00000107821",2.62537634408602
"ENSG00000136560",2.62094078070496
"ENSG00000244480",2.61936959007023
"ENSG00000140285",2.6137017224308
"ENSG00000167635",2.60936597285521
"ENSG00000151151",2.60392392533937
"ENSG00000129993",2.5982800336183
"ENSG00000083544",2.58869507888973
"ENSG00000138030",2.57476177274846
"ENSG00000164463",2.57036878470918
"ENSG00000135048",2.56121558079752
"ENSG00000148655",2.55592419649928
"ENSG00000237036",2.54602167591858
"ENSG00000166197",2.5450710627056
"ENSG00000170962",2.5444568868981
"ENSG00000101413",2.54362274532243
"ENSG00000133639",2.54181333710293
"ENSG00000166295",2.54030947544193
"ENSG00000183977",2.53468531468531
"ENSG00000237188",2.53122550666219
"ENSG00000196388",2.53022349272349
"ENSG00000227039",2.53013985586044
"ENSG00000243660",2.52936193880684
"ENSG00000177606",2.52901907975166
"ENSG00000070269",2.52743133155504
"ENSG00000176371",2.52635493528843
"ENSG00000128694",2.51913865348198
"ENSG00000164828",2.51713314080605
"ENSG00000272947",2.51373626373626
"ENSG00000154822",2.50839029372584
"ENSG00000115718",2.50467395287635
"ENSG00000196954",2.4961179968365
"ENSG00000143614",2.49261151596502
"ENSG00000185275",2.47550836531617
"ENSG00000204220",2.46456151004285
"ENSG00000076555",2.45293426944095
"ENSG00000115170",2.44811136813538
"ENSG00000135956",2.44776669639819
"ENSG00000163138",2.44556170046366
"ENSG00000175463",2.44528141578249
"ENSG00000189334",2.44351735562416
"ENSG00000239382",2.43884925558313
"ENSG00000259758",2.43798177482779
"ENSG00000073756",2.43508615131506
"ENSG00000248487",2.43294329432943
"ENSG00000114473",2.43269627825719
"ENSG00000123560",2.43237891737892
"ENSG00000178573",2.40960426630938
"ENSG00000171453",2.40769825673534
"ENSG00000102934",2.40186253835166
"ENSG00000131061",2.39480174725012
"ENSG00000127989",2.38219278716472
"ENSG00000085831",2.38084686184153
"ENSG00000165240",2.38006317354143
"ENSG00000100079",2.37547380156076
"ENSG00000172466",2.37490378745717
"ENSG00000138640",2.37464235145116
"ENSG00000107175",2.37262349376365
"ENSG00000119699",2.36603713978083
"ENSG00000120217",2.35609756097561
"ENSG00000119771",2.3520937231413
"ENSG00000100461",2.35167241183048
"ENSG00000103091",2.34894617635709
"ENSG00000143669",2.34883165444474
"ENSG00000104164",2.34614327888288
