"","x"
"ENSG00000136827",0.646190105815466
"ENSG00000113532",0.645946597510796
"ENSG00000117586",0.645858486456591
"ENSG00000160862",0.645210131084708
"ENSG00000272645",0.644949124391217
"ENSG00000159307",0.644740174209796
"ENSG00000114480",0.644403801389108
"ENSG00000171490",0.644198324983421
"ENSG00000101199",0.643796862923829
"ENSG00000157224",0.643738665582401
"ENSG00000198742",0.643476367205518
"ENSG00000204439",0.643384624396142
"ENSG00000183431",0.642544883209765
"ENSG00000196372",0.641751090293556
"ENSG00000159884",0.64104323671987
"ENSG00000110921",0.640897755108959
"ENSG00000180573",0.64082871638694
"ENSG00000109736",0.640569528352229
"ENSG00000133816",0.640510479175067
"ENSG00000169689",0.639121777765933
"ENSG00000126861",0.638839377643221
"ENSG00000179562",0.638673050436658
"ENSG00000170291",0.637409807713734
"ENSG00000240771",0.636422303334003
"ENSG00000197956",0.636326309903288
"ENSG00000131171",0.636080304220962
"ENSG00000129244",0.63594147576269
"ENSG00000162777",0.635661890165703
"ENSG00000163349",0.63532543073144
"ENSG00000105697",0.635303129685884
"ENSG00000168884",0.634181257176202
"ENSG00000150961",0.634124361361416
"ENSG00000197265",0.632341908992406
"ENSG00000185745",0.632146615880354
"ENSG00000003509",0.631840278595253
"ENSG00000167862",0.629262248149166
"ENSG00000092964",0.628537283323565
"ENSG00000170776",0.627823169568836
"ENSG00000138650",0.627021294123792
"ENSG00000132256",0.627013312801624
"ENSG00000115457",0.626802273867217
"ENSG00000100097",0.626691530580339
"ENSG00000037637",0.623698119978886
"ENSG00000100564",0.622842047333364
"ENSG00000184640",0.622546562345711
"ENSG00000114745",0.622094220692911
"ENSG00000086712",0.620835292256313
"ENSG00000176390",0.620768761019272
"ENSG00000242689",0.620406965741848
"ENSG00000185650",0.620285009666217
"ENSG00000134871",0.620034864613087
"ENSG00000138363",0.619662850489135
"ENSG00000147099",0.619343594009396
"ENSG00000173511",0.618887472015061
"ENSG00000235565",0.618806434872859
"ENSG00000159348",0.617666664097746
"ENSG00000033011",0.61671695137635
"ENSG00000160796",0.615904796850057
"ENSG00000149548",0.615653248065058
"ENSG00000249626",0.612423849331766
"ENSG00000144331",0.611131839295903
"ENSG00000101158",0.608913598813027
"ENSG00000233276",0.608714772165706
"ENSG00000137463",0.607087550689646
"ENSG00000158623",0.606732670102219
"ENSG00000106366",0.606447972245193
"ENSG00000262903",0.604478102922362
"ENSG00000167333",0.604035017006239
"ENSG00000079435",0.602983118321825
"ENSG00000013374",0.602719744795553
"ENSG00000271976",0.600878193502172
"ENSG00000269867",0.597207308754335
"ENSG00000131459",0.595963015162631
"ENSG00000076928",0.594364551765254
"ENSG00000089335",0.590665004728095
"ENSG00000170619",0.590555488977236
"ENSG00000060971",0.589349673464706
"ENSG00000221963",0.588534527221196
"ENSG00000111653",0.58470044966958
"ENSG00000150776",0.582481276604376
"ENSG00000237036",0.581837461587669
"ENSG00000162745",0.578948146955703
"ENSG00000226920",0.578303632308194
"ENSG00000165775",0.576444837663779
"ENSG00000270504",0.57335131393031
"ENSG00000133639",0.57066516868529
"ENSG00000271975",0.570395478344218
"ENSG00000011083",0.568167325987307
"ENSG00000136888",0.560578161300408
"ENSG00000228506",0.55947657937034
"ENSG00000182851",0.559218244737372
"ENSG00000040608",0.558838114213801
"ENSG00000155754",0.556013811650563
"ENSG00000123609",0.551632343286669
"ENSG00000179715",0.549983348219624
"ENSG00000137628",0.547719305729148
"ENSG00000168268",0.542788702806217
"ENSG00000137824",0.521193719781284
"ENSG00000104327",0.442710750483485
"ENSG00000187608",0.417408149120739
