"","x"
"ENSG00000135823",0.619962004076965
"ENSG00000111266",0.619470833653169
"ENSG00000109736",0.618341452222622
"ENSG00000221963",0.61816710716081
"ENSG00000113205",0.617656857549078
"ENSG00000049089",0.617136270357025
"ENSG00000151292",0.616168581248846
"ENSG00000127920",0.615548984868334
"ENSG00000140285",0.614889905581116
"ENSG00000246859",0.614644490849
"ENSG00000229152",0.614302394301862
"ENSG00000135480",0.613210409861003
"ENSG00000135362",0.612903269827025
"ENSG00000106546",0.612428298875636
"ENSG00000258559",0.611283115248825
"ENSG00000165030",0.610686752024605
"ENSG00000120913",0.609585302761192
"ENSG00000237036",0.609392301345126
"ENSG00000144152",0.608692648866084
"ENSG00000163145",0.606064077595084
"ENSG00000176692",0.605666194105794
"ENSG00000171791",0.604693157802154
"ENSG00000163882",0.604334510400588
"ENSG00000119147",0.602930632949903
"ENSG00000118495",0.601212374040996
"ENSG00000231607",0.600592533217816
"ENSG00000119714",0.594383483500646
"ENSG00000131023",0.592860144567124
"ENSG00000272091",0.589604111827046
"ENSG00000101384",0.588707186749391
"ENSG00000108821",0.586118880048726
"ENSG00000152684",0.584305067256814
"ENSG00000162654",0.583924334162323
"ENSG00000140678",0.5833184622823
"ENSG00000171502",0.58287939279925
"ENSG00000158747",0.58287552658283
"ENSG00000129204",0.582482562623761
"ENSG00000187609",0.582141687719166
"ENSG00000116833",0.582013515023797
"ENSG00000273149",0.581451345232219
"ENSG00000073756",0.58135868386565
"ENSG00000134152",0.580498092903562
"ENSG00000110169",0.578540916277683
"ENSG00000185386",0.578238748627839
"ENSG00000152049",0.577427584001753
"ENSG00000160326",0.576749016068075
"ENSG00000144645",0.571790268875428
"ENSG00000163040",0.570971236962661
"ENSG00000092969",0.569922071226571
"ENSG00000081277",0.569795747598774
"ENSG00000185215",0.566357380191528
"ENSG00000044524",0.564301029688324
"ENSG00000229119",0.561000915800764
"ENSG00000261452",0.559917722199776
"ENSG00000165233",0.559813214379129
"ENSG00000137501",0.558373456862623
"ENSG00000100342",0.552634892762668
"ENSG00000204291",0.55248064652959
"ENSG00000197930",0.551221615687078
"ENSG00000164879",0.550756024436276
"ENSG00000163638",0.550326756952825
"ENSG00000198342",0.550041793251296
"ENSG00000121898",0.548725286524334
"ENSG00000075618",0.547492124405562
"ENSG00000137507",0.546773353075275
"ENSG00000156966",0.545483829803664
"ENSG00000154127",0.541405337348598
"ENSG00000160991",0.540596500972797
"ENSG00000180747",0.538799010388869
"ENSG00000198821",0.537533477960999
"ENSG00000170745",0.533296923561146
"ENSG00000148154",0.531446643739704
"ENSG00000240409",0.528610362809275
"ENSG00000139626",0.52356342913313
"ENSG00000143333",0.510880301225146
"ENSG00000132967",0.510746997824994
"ENSG00000175463",0.508744415486395
"ENSG00000101443",0.501910238828422
"ENSG00000071282",0.499897235400651
"ENSG00000197714",0.497721967188149
"ENSG00000065534",0.481165808756685
"ENSG00000137077",0.462266211088278
"ENSG00000159753",0.455733341540151
"ENSG00000163739",0.450223504595585
"ENSG00000205502",0.438411822970232
"ENSG00000125735",0.437468998601076
"ENSG00000159399",0.432231393205208
"ENSG00000149573",0.431486306168039
"ENSG00000092295",0.431428977654504
"ENSG00000135426",0.425861280951321
"ENSG00000115085",0.415543726408694
"ENSG00000009790",0.413406955923851
"ENSG00000165997",0.383910538750398
"ENSG00000163661",0.372662062503088
"ENSG00000141527",0.366735010901454
"ENSG00000162998",0.326908325102496
"ENSG00000247982",0.276402404650459
"ENSG00000103888",0.253954274006221
"ENSG00000262902",0.237207800393168
"ENSG00000007908",0.23096342152199
