"","x"
"ENSG00000181409",11.7608623610457
"ENSG00000100842",6.64845430421257
"ENSG00000132470",6.01301357793156
"ENSG00000157778",5.99197336697065
"ENSG00000083828",5.7905808148506
"ENSG00000151376",5.60148931850712
"ENSG00000197847",5.45295088080648
"ENSG00000108591",5.38426105300227
"ENSG00000187838",5.28348205758675
"ENSG00000130204",5.2164554451671
"ENSG00000170801",5.1066425543892
"ENSG00000254901",5.10059599748803
"ENSG00000260917",4.95007609208413
"ENSG00000168028",4.84479032022804
"ENSG00000174775",4.84138976060331
"ENSG00000167291",4.74135167106387
"ENSG00000172081",4.72273686166765
"ENSG00000130165",4.70502428892124
"ENSG00000161016",4.67467668413153
"ENSG00000056661",4.66393857138028
"ENSG00000197956",4.65831722452983
"ENSG00000184194",4.61845301735179
"ENSG00000102030",4.52828702613598
"ENSG00000134874",4.52190283352171
"ENSG00000100034",4.51104991500443
"ENSG00000174705",4.45192130042607
"ENSG00000224032",4.44527422493842
"ENSG00000164086",4.43096511751523
"ENSG00000196422",4.42065367542858
"ENSG00000198818",4.35897086719755
"ENSG00000110031",4.35627650612325
"ENSG00000160917",4.32837613268863
"ENSG00000143110",4.29267154737348
"ENSG00000160796",4.29104755428084
"ENSG00000142541",4.23394773399333
"ENSG00000077312",4.22770808334665
"ENSG00000104976",4.17690695040916
"ENSG00000214706",4.17230922308591
"ENSG00000053372",4.14270640622275
"ENSG00000177030",4.1317697099732
"ENSG00000079277",4.13014081380786
"ENSG00000148303",4.12206207758265
"ENSG00000184207",4.11430843614119
"ENSG00000090971",4.07753028841756
"ENSG00000256340",4.07675782313612
"ENSG00000163563",4.07552746791094
"ENSG00000174516",4.06353968277676
"ENSG00000087303",4.0581893240711
"ENSG00000148288",4.03895420458819
"ENSG00000105640",4.03382006514773
"ENSG00000135046",4.02184538658533
"ENSG00000138111",4.02067001851156
"ENSG00000161526",4.0040690784775
"ENSG00000130313",3.99521905777501
"ENSG00000162545",3.99059644916594
"ENSG00000187889",3.98888718901916
"ENSG00000006025",3.95423004591544
"ENSG00000240771",3.9429462194862
"ENSG00000232724",3.93011294084082
"ENSG00000261373",3.92046117966712
"ENSG00000151062",3.91887795119539
"ENSG00000090316",3.91483048292348
"ENSG00000169239",3.90308986927994
"ENSG00000107833",3.89577688430481
"ENSG00000141756",3.89504128210161
"ENSG00000071564",3.89047571734445
"ENSG00000168268",3.8835915052461
"ENSG00000126005",3.86907603221491
"ENSG00000083845",3.85936935993526
"ENSG00000169100",3.85908445006997
"ENSG00000136243",3.8375898160746
"ENSG00000126217",3.82850057984995
"ENSG00000141140",3.81466443975974
"ENSG00000070814",3.81120430722626
"ENSG00000213901",3.80999649982456
"ENSG00000156983",3.80278399361521
"ENSG00000107611",3.78221012730758
"ENSG00000264112",3.75608729177158
"ENSG00000006194",3.75390862884103
"ENSG00000172375",3.74856547990842
"ENSG00000197375",3.72025996331865
"ENSG00000229841",3.70338569220664
"ENSG00000173465",3.70187742638332
"ENSG00000133246",3.69970286199394
"ENSG00000171858",3.69265847668709
"ENSG00000187678",3.69175173106568
"ENSG00000185049",3.6902463446185
"ENSG00000039523",3.68770505164339
"ENSG00000032389",3.68051016897306
"ENSG00000176953",3.67962118654037
"ENSG00000049089",3.67014853774609
"ENSG00000161714",3.66924097848806
"ENSG00000165915",3.66864173726198
"ENSG00000130948",3.6678036547676
"ENSG00000212283",3.64534790048489
"ENSG00000133466",3.64524042293953
"ENSG00000169087",3.63301190494472
"ENSG00000164107",3.62959967635701
"ENSG00000135414",3.62281422283626
"ENSG00000131469",3.61970374618539
