"","x"
"ENSG00000160791",0.100155598876827
"ENSG00000162894",0.0994719625853793
"ENSG00000155368",0.0994517919866469
"ENSG00000172888",0.0989530849037976
"ENSG00000172349",0.0981503821085097
"ENSG00000005893",0.0977002296045989
"ENSG00000225630",0.0956680529269657
"ENSG00000125356",0.0951029235787827
"ENSG00000135426",0.0934144203374973
"ENSG00000154529",0.0933700863278328
"ENSG00000182368",0.0928684669103678
"ENSG00000158164",0.091995841995842
"ENSG00000229645",0.0917818794631719
"ENSG00000138829",0.0915202485536747
"ENSG00000138674",0.0905256334029783
"ENSG00000100385",0.0902776588940022
"ENSG00000099974",0.0896240601503759
"ENSG00000105329",0.0895275489747716
"ENSG00000197582",0.089196703654535
"ENSG00000168421",0.0883759522285087
"ENSG00000117155",0.0876755283467505
"ENSG00000100897",0.0865666312600856
"ENSG00000112667",0.0861638154724246
"ENSG00000247596",0.0857576555665622
"ENSG00000247774",0.0850825242444904
"ENSG00000180233",0.0840663793344349
"ENSG00000131779",0.0836652736058509
"ENSG00000133216",0.0831461874726981
"ENSG00000111726",0.082884097140625
"ENSG00000166507",0.0827192440718897
"ENSG00000168077",0.0817610452631297
"ENSG00000187013",0.0815031861629495
"ENSG00000248810",0.0812785682096182
"ENSG00000162745",0.0806890107457215
"ENSG00000159239",0.0803817132002219
"ENSG00000175164",0.079200594004455
"ENSG00000121316",0.0787327628956588
"ENSG00000003402",0.0773077404848368
"ENSG00000116016",0.0768412015173805
"ENSG00000110723",0.0766600830672759
"ENSG00000138297",0.0751850864373334
"ENSG00000185823",0.0747366328761678
"ENSG00000170745",0.0746544781804331
"ENSG00000149451",0.0745866819747417
"ENSG00000213699",0.0744918889072317
"ENSG00000198839",0.0729067188894969
"ENSG00000188342",0.0727785381015127
"ENSG00000136868",0.0721915418142111
"ENSG00000253755",0.071885143720303
"ENSG00000241962",0.071585557299843
"ENSG00000232533",0.0712418447189651
"ENSG00000197872",0.0695801411636427
"ENSG00000166923",0.0688561790199908
"ENSG00000168758",0.0681684845601628
"ENSG00000173200",0.067618522429631
"ENSG00000109944",0.0673002266709517
"ENSG00000143252",0.0672020773015469
"ENSG00000009724",0.0658196047618802
"ENSG00000187446",0.0657669633945581
"ENSG00000154822",0.065120680955463
"ENSG00000100399",0.064357952804168
"ENSG00000185811",0.0643250625297304
"ENSG00000007923",0.0636770823718322
"ENSG00000106948",0.0626318636786723
"ENSG00000172081",0.0597736669019971
"ENSG00000103257",0.0592362018588398
"ENSG00000151834",0.0575674559742039
"ENSG00000219507",0.0572842998585573
"ENSG00000104805",0.0565750832997187
"ENSG00000131459",0.0556325709871736
"ENSG00000262468",0.0545373703120971
"ENSG00000101474",0.0542361394410801
"ENSG00000238121",0.0519271085308821
"ENSG00000180573",0.0500326095512851
"ENSG00000135750",0.0498826980437964
"ENSG00000180921",0.0465915259336612
"ENSG00000140564",0.042053220156759
"ENSG00000119514",0.0405439309548899
"ENSG00000137841",0.0401802788265944
"ENSG00000109572",0.0393130029075664
"ENSG00000198821",0.0373627637796669
"ENSG00000115266",0.0363774156877605
"ENSG00000068028",0.0311528808302039
"ENSG00000133519",0.0288535587633572
"ENSG00000211892",0.0274899820570858
"ENSG00000160460",0.026291197591646
"ENSG00000110448",0.0252832610427547
"ENSG00000272065",0.0249602122015915
"ENSG00000267855",0.024938203827821
"ENSG00000152583",0.0210851134740995
"ENSG00000264198",0.0184983177648214
"ENSG00000163431",0.0136224355914798
"ENSG00000164086",0.0135966954619044
"ENSG00000143198",0.00977277383677859
"ENSG00000156738",0.00465637152861823
"ENSG00000234225",0
"ENSG00000231943",0
"ENSG00000186777",0
"ENSG00000255748",0
"ENSG00000237836",0
