"","distances"
"1",494804
"2",148087
"3",15078
"4",141692
"5",202368
"6",17746
"7",29102
"8",19556
"9",6623
"10",64216
"11",257483
"12",32110
"13",175952
"14",177957
"15",136864
"16",138357
"17",1309807
"18",2580663
"19",3208965
"20",1201997
"21",59302
"22",374511
"23",150311
"24",3769421
"25",388725
"26",173207
"27",114982
"28",241016
"29",-218069
"30",769598
"31",1206407
"32",1595753
"33",187651
"34",1329982
"35",284869
"36",750151
"37",82245
"38",1130512
"39",889818
"40",117259
"41",75003
"42",239912
"43",84198
"44",463396
"45",94023
"46",1438705
"47",551124
"48",-618
"49",112581
"50",2038812
"51",731188
"52",174953
"53",521682
"54",38004
"55",507960
"56",1479192
"57",197672
"58",75819
"59",901676
"60",1163354
"61",279028
"62",8430
"63",1077
"64",891141
"65",764330
"66",38703
"67",469684
"68",15506
"69",757630
"70",483128
"71",1938562
"72",805290
"73",539200
"74",919155
"75",278935
"76",406725
"77",283046
"78",5029443
"79",172980
"80",1714915
"81",2562
"82",356093
"83",1779665
"84",108005
"85",3042314
"86",257622
"87",988966
"88",1239508
"89",181045
"90",1301238
"91",251033
"92",991797
"93",2208957
"94",3880667
"95",1179919
"96",2862221
"97",5412253
"98",565776
"99",1656021
"100",2610324
"101",384785
"102",567350
"103",1266445
"104",96024
"105",8324320
"106",948349
"107",2657817
"108",3477145
"109",2046043
"110",276698
"111",47068
"112",67698
"113",426289
"114",884630
"115",466967
"116",322177
"117",755502
"118",1771952
"119",258319
"120",3082800
"121",3467124
"122",23423836
"123",575324
"124",115940
"125",2316708
"126",2391213
"127",643496
"128",163153
"129",2235662
"130",8873
"131",6141
"132",31047
"133",588621
"134",667179
"135",22100
"136",272194
"137",333864
"138",160609
"139",226970
"140",4032713
"141",737732
"142",543550
"143",255049
"144",3803677
"145",944892
"146",19384
"147",2419388
"148",388962
"149",637862
"150",2630288
"151",3649989
"152",1560174
"153",1308445
"154",634172
"155",21098
"156",2225116
"157",1877786
"158",7694921
"159",4444668
"160",3507756
"161",496148
"162",2313866
"163",189295
"164",205379
"165",400409
"166",20490
"167",385990
"168",157131
"169",4014259
"170",375234
"171",2745551
"172",9643041
"173",210759
"174",103411
"175",77537
"176",749885
"177",223096
"178",459229
"179",831857
"180",238931
"181",288322
"182",1113181
"183",102719
"184",1137708
"185",1665068
"186",91566
"187",1467040
"188",805597
"189",232421
"190",1223171
"191",10287
"192",331915
"193",267020
"194",437701
"195",4248998
"196",599732
"197",1579974
"198",124293
"199",1868010
"200",167995
"201",1801824
"202",1149578
"203",76083
"204",3278825
"205",45642
"206",2924645
"207",108433
"208",248053
"209",293483
"210",-1719
"211",6825835
"212",77605
"213",5023601
"214",320729
"215",442339
"216",271428
"217",574616
"218",294575
"219",267540
"220",503730
"221",67849
"222",191174
"223",293778
"224",1185981
"225",322473
"226",1943494
"227",1831
"228",4955015
"229",147289
"230",1041477
"231",366314
"232",138347
"233",5947
"234",124921
"235",298748
"236",318003
"237",3275455
"238",1655340
"239",1601326
"240",5881251
"241",34094
"242",6896241
"243",1022769
"244",4579309
"245",4326721
"246",144311
"247",3017770
"248",310996
"249",17663
"250",159342
"251",11001322
"252",2992790
"253",8009967
"254",4354
"255",582254
"256",222436
"257",1477378
"258",248988
"259",55384
"260",130552
"261",684884
"262",1484039
"263",2244491
"264",7325
"265",395686
"266",2892483
"267",2726162
"268",253695
"269",87378
"270",30029
"271",211369
"272",7015340
"273",7612223
"274",312557
"275",2340205
"276",1539625
"277",2352579
"278",597644
"279",-39478
"280",12489775
"281",2753494
"282",826744
"283",1301346
"284",2956482
"285",8855912
"286",168068
"287",30798
"288",45971
"289",2079861
"290",1052321
"291",4347440
"292",3625330
"293",341457
"294",925520
"295",2030328
"296",2667628
"297",4807168
"298",20858
"299",178068
"300",901629
"301",928083
"302",4637295
"303",461988
"304",80480
"305",3562405
"306",1458501
"307",3504906
"308",450919
"309",1473758
"310",1413242
"311",22123
"312",6086482
"313",2265889
"314",12371
"315",492521
"316",329296
"317",2773455
"318",105864
"319",4170369
"320",1180191
"321",4697041
"322",1479769
"323",3727499
"324",12361
"325",30339
"326",647268
"327",2407171
"328",94986
"329",1339910
"330",3927562
"331",981769
"332",2532038
"333",43978
"334",2378234
"335",140817
"336",1549733
"337",6801066
"338",3426130
"339",5200725
"340",222733
"341",291106
"342",54874
"343",3108464
"344",39945
"345",458947
"346",341575
"347",91272
"348",74779
"349",554498
"350",1201321
"351",74732
"352",2171870
"353",256990
"354",1420478
"355",85396
"356",44557
"357",54554
"358",2008206
"359",184042
"360",75884
"361",371308
"362",743705
"363",102391
"364",345094
"365",81682
"366",167642
"367",7414
"368",13683
"369",147664
"370",276580
"371",133662
"372",14653
"373",232334
"374",168711
"375",6971
"376",34949
"377",11708
"378",170997
"379",587228
"380",247411
"381",15161
"382",524955
"383",4740
"384",431367
"385",45261
"386",1646732
"387",799984
"388",263594
"389",739403
"390",167419
"391",4725955
"392",281478
"393",2994854
"394",2002731
"395",-1892
"396",3668869
"397",5735326
"398",1721884
"399",6387582
"400",938795
"401",7135054
"402",3642764
"403",38180
"404",307933
"405",7840716
"406",3284164
"407",1655022
"408",8073117
"409",1051862
"410",174646
"411",2781128
"412",470218
"413",916111
"414",316965
"415",1327100
"416",1362658
"417",615069
"418",1289324
"419",4159241
"420",1222969
"421",2826012
"422",1468274
"423",237096
"424",1082592
"425",6359616
"426",136444
"427",2531825
"428",2591997
"429",2925912
"430",-1523
"431",2300759
"432",8689578
"433",290519
"434",2448500
"435",6636474
"436",4052677
"437",463921
"438",117023
"439",113101
"440",300321
"441",1523259
"442",448643
"443",895856
"444",5051088
"445",1484511
"446",1159698
"447",607698
"448",513869
"449",19561
"450",479967
"451",60992
"452",35582
"453",41499
"454",71764
"455",198307
"456",31410
"457",-8253
"458",177038
"459",23041
"460",262954
"461",531277
"462",265225
"463",199926
"464",3644529
"465",1662045
"466",277308
"467",1946343
"468",935740
"469",2138973
"470",1374951
"471",2559153
"472",59687
"473",5733165
"474",2672348
"475",102327
"476",12797482
"477",4195953
"478",1799620
"479",518493
"480",4567258
"481",4320667
"482",5854
"483",8883948
"484",1798253
"485",8569053
"486",286585
"487",6035408
"488",506177
"489",5136567
"490",17413
"491",13682985
"492",2813731
"493",145613
"494",1609874
"495",1394018
"496",414385
"497",2945794
"498",67292
"499",4271691
"500",333125
"501",89094
"502",616108
"503",503583
"504",1757366
"505",1011381
"506",4897109
"507",124573
"508",1053390
"509",10149523
"510",436415
"511",103102
"512",4712206
"513",628448
"514",7771490
"515",1974213
"516",1467120
"517",1343059
"518",2660501
"519",1159926
"520",2016362
"521",2717973
"522",4813121
"523",2896182
"524",7334076
"525",1110169
"526",554728
"527",734234
"528",415116
"529",357315
"530",157843
"531",417537
"532",4786464
"533",293459
"534",38621
"535",1102111
"536",6835763
"537",4601166
"538",3911227
"539",6548772
"540",2657032
"541",2090304
"542",724798
"543",39815
"544",3262905
"545",9909924
"546",1941418
"547",2503714
"548",200264
"549",1146408
"550",1997363
"551",3984137
"552",1527659
"553",2983395
"554",3638067
"555",648710
"556",1044029
"557",714921
"558",2848445
"559",518535
"560",151
"561",2085806
"562",6517098
"563",5146539
"564",2052139
"565",1250621
"566",123352
"567",1585390
"568",55342
"569",1877978
"570",12118833
"571",2089820
"572",3234843
"573",49227
"574",1215140
"575",2824767
"576",3159578
"577",5112953
"578",680385
"579",75949
"580",2107326
"581",409256
"582",732931
"583",1998901
"584",1433956
"585",423895
"586",506109
"587",40203
"588",443356
"589",187585
"590",44557
"591",-99992
"592",2037
"593",2539104
"594",4213221
"595",902594
"596",645463
"597",136815
"598",707857
"599",3092617
"600",3121122
"601",49813
"602",155422
"603",1415961
"604",1183095
"605",1446966
"606",10425019
"607",379752
"608",103667
"609",748996
"610",83628
"611",1233561
"612",708625
"613",180706
"614",272452
"615",141798
"616",51836
"617",983
"618",142701
"619",63502
"620",1386650
"621",1266710
"622",202313
"623",615519
"624",17206
"625",237001
"626",72818
"627",116216
"628",9986645
"629",1955806
"630",1871176
"631",42563
"632",612149
"633",6159742
"634",205702
"635",1756111
"636",45088
"637",830421
"638",764339
"639",248873
"640",503268
"641",631640
"642",653421
"643",319889
"644",46597
"645",190353
"646",232083
"647",28041
"648",460261
"649",26177
"650",267647
"651",132443
"652",25188
"653",999001
"654",227162
"655",561104
"656",1972187
"657",52220
"658",4158796
"659",2157016
"660",194268
"661",15510
"662",448146
"663",125720
"664",2265167
"665",607527
"666",773470
"667",5350685
"668",2438991
"669",1467318
"670",117087
"671",718727
"672",13972792
"673",860072
"674",160177
"675",6405576
"676",2222403
"677",115452
"678",790322
"679",358944
"680",149952
"681",66332
"682",3061952
"683",206427
"684",77731
"685",942819
"686",132238
"687",524418
"688",106806
"689",8974261
"690",74860
"691",111007
"692",8472436
"693",682562
"694",1125347
"695",1097928
"696",30461
"697",757260
"698",4189049
"699",1280366
"700",396433
"701",3080046
"702",1137172
"703",269598
"704",2147035
"705",6271888
"706",3655303
"707",758851
"708",267196
"709",6549728
"710",107424
"711",450290
"712",1963047
"713",404303
"714",2242181
"715",173092
"716",1147293
"717",1019797
"718",332718
"719",20880
"720",4978266
"721",368156
"722",6691859
"723",1011104
"724",364926
"725",291383
"726",1735516
"727",2381019
"728",753672
"729",250519
"730",247562
"731",105827
"732",79707
"733",843181
"734",416354
"735",2879064
"736",6621131
"737",5165257
"738",3913
"739",1372257
"740",3136380
"741",-421
"742",751314
"743",-48882
"744",513076
"745",392660
"746",527926
"747",2792829
"748",4227348
"749",5244327
"750",212453
"751",75818
"752",230840
"753",301242
"754",10480087
"755",9360646
"756",157128
"757",1914482
"758",5920814
"759",641754
"760",1269573
"761",7048609
"762",4901883
"763",433773
"764",2243043
"765",258121
"766",1178606
"767",606300
"768",2127794
"769",4176793
"770",675537
"771",89658
"772",286694
"773",150537
"774",72155
"775",184383
"776",107957
"777",46596
"778",36728
"779",1739069
"780",25624
"781",119244
"782",270200
"783",230184
"784",845931
"785",894791
"786",465600
"787",2317310
"788",4887417
"789",4013322
"790",3043565
"791",36989
"792",3963984
"793",2416807
"794",148694
"795",756714
"796",115044
"797",165686
"798",457020
"799",2139772
"800",4229697
"801",2811577
"802",1494753
"803",542292
"804",5191074
"805",276916
"806",268607
"807",35634
"808",102479
"809",417469
"810",103792
"811",5489
"812",476985
"813",638165
"814",23793
"815",33075
"816",197263
"817",5290497
"818",56493
"819",1658129
"820",151749
"821",10532732
"822",56161
"823",980730
"824",751509
"825",2385712
"826",1458315
"827",4842281
"828",59838
"829",62971
"830",183282
"831",68503
"832",653463
"833",89504
"834",1455317
"835",500162
"836",5153664
"837",375550
"838",2197055
"839",11328
"840",4194491
"841",84170
"842",331637
"843",3363886
"844",527945
"845",244802
"846",294748
"847",6074279
"848",2895835
"849",8779592
"850",189130
"851",1513434
"852",176810
"853",3275174
"854",7716176
"855",4194811
"856",1880352
"857",4847171
"858",4609568
"859",898321
"860",913903
"861",2710025
"862",1611605
"863",1429946
"864",952642
"865",222
"866",2375432
"867",985794
"868",1175544
"869",465612
"870",2968020
"871",239593
"872",13350177
"873",67804
"874",527058
"875",647033
"876",13934
"877",10300377
"878",3331751
"879",4160638
"880",336014
"881",542355
"882",342176
"883",337850
"884",27225
"885",31943
"886",19426
"887",21599
"888",21256
"889",5844
"890",203062
"891",84625
"892",2242450
"893",2018956
"894",319132
"895",322320
"896",158459
"897",636594
"898",2351076
"899",3912766
"900",1788940
"901",470151
"902",115344
"903",87133
"904",1517419
"905",1433306
"906",-2159
"907",13083760
"908",1171135
"909",49480
"910",752201
"911",1182023
"912",68623
"913",2025703
"914",30345613
"915",6681005
"916",2148930
"917",10075687
"918",4904551
"919",139123
"920",207525
"921",71633
"922",3435293
"923",723051
"924",31878
"925",447227
"926",95442
"927",98502
"928",366345
"929",1080121
"930",5167189
"931",1756778
"932",1682958
"933",10348
"934",2357864
"935",318922
"936",97186
"937",9777944
"938",445151
"939",513213
"940",10225
"941",2330294
"942",1493458
"943",899801
"944",94534
"945",254852
"946",538595
"947",1972803
"948",584565
"949",1532326
"950",409678
"951",293417
"952",2151174
"953",99309
"954",617285
"955",79877
"956",42095
"957",79636
"958",193694
"959",138134
"960",158817
"961",28473
"962",843586
"963",1861056
"964",7090839
"965",198269
"966",2475432
"967",424763
"968",2969921
"969",7006125
"970",2583166
"971",1125693
"972",5066698
"973",160704
"974",4429786
"975",498256
"976",2235842
"977",169382
"978",3782588
"979",195105
"980",55900
"981",11987
"982",57389
"983",605812
"984",7375022
"985",4899287
"986",4274815
"987",722490
"988",1403741
"989",2234393
"990",65940
"991",118139
"992",123560
"993",254524
"994",297001
"995",7073
"996",29750
"997",4157453
"998",8405711
"999",983060
"1000",1774434
"1001",51575
"1002",2391826
"1003",728010
"1004",179318
"1005",834480
"1006",3684624
"1007",60687
"1008",89332
"1009",1787926
"1010",169337
"1011",140175
"1012",819349
"1013",29546
"1014",1177401
"1015",19718
"1016",39856
"1017",165747
"1018",70398
"1019",174801
"1020",186942
"1021",77616
"1022",488309
"1023",2693902
"1024",3333304
"1025",132853
"1026",59261
"1027",3201588
"1028",256881
"1029",136741
"1030",4129884
"1031",538070
"1032",295682
"1033",1795763
"1034",903348
"1035",140013
"1036",1792968
"1037",2298756
"1038",4704486
"1039",1200613
"1040",262117
"1041",60505
"1042",21691
"1043",9149
"1044",31307
"1045",530104
"1046",108664
"1047",1740077
"1048",475305
"1049",291687
"1050",204976
"1051",1055298
"1052",656456
"1053",1415624
"1054",-19
"1055",1291264
"1056",1280773
"1057",447945
"1058",472003
"1059",1918782
"1060",2713224
"1061",143743
"1062",15157
"1063",1216243
"1064",23143
"1065",324378
"1066",8189539
"1067",21801
"1068",601475
"1069",2842799
"1070",352930
"1071",1259126
"1072",578568
"1073",9584389
"1074",1390970
"1075",404065
"1076",480997
"1077",513166
"1078",645177
"1079",158226
"1080",155696
"1081",9881534
"1082",190213
"1083",2012269
"1084",1045058
"1085",659342
"1086",211489
"1087",326729
"1088",493685
"1089",74767
"1090",1098635
"1091",27940
"1092",227944
"1093",135680
"1094",369377
"1095",58054
"1096",106259
"1097",53470
"1098",336709
"1099",239606
"1100",57600
"1101",50911
"1102",54946
"1103",109310
"1104",365659
"1105",10330
"1106",62649
"1107",145802
"1108",82955
"1109",117104
"1110",-493
"1111",272723
"1112",8323
"1113",219941
"1114",119289
"1115",1273912
"1116",108295
"1117",1119927
"1118",4624766
"1119",1370755
"1120",54795
"1121",513916
"1122",463236
"1123",5546633
"1124",3253657
"1125",365208
"1126",14591257
"1127",1049629
"1128",1985527
"1129",974070
"1130",1213422
"1131",186455
"1132",939685
"1133",3188457
"1134",2475
"1135",1916631
"1136",4668958
"1137",511896
"1138",8649
"1139",220395
"1140",995974
"1141",2165739
"1142",814714
"1143",68933
"1144",998171
"1145",1208586
"1146",6351642
"1147",720976
"1148",2074361
"1149",1775536
"1150",139154
"1151",37289
"1152",1294423
"1153",19264
"1154",439036
"1155",130801
"1156",1470845
"1157",167468
"1158",337737
"1159",3590931
"1160",7680652
"1161",80529
"1162",2313677
"1163",4392506
"1164",844229
"1165",377859
"1166",277432
"1167",1088103
"1168",5901172
"1169",1785012
"1170",1009427
"1171",93568
"1172",3269950
"1173",2055529
"1174",136261
"1175",542054
"1176",379553
"1177",457318
"1178",412882
"1179",92177
"1180",1107771
"1181",1864413
"1182",84475
"1183",202086
"1184",503195
"1185",1922042
"1186",15874
"1187",13308
"1188",41205
"1189",638679
"1190",49197
"1191",141264
"1192",375245
"1193",4031
"1194",164021
"1195",87335
"1196",5862873
"1197",580455
"1198",2818154
"1199",328387
"1200",2577588
"1201",1254479
"1202",18362
"1203",3570933
"1204",99933
"1205",840161
"1206",4232711
"1207",8771034
"1208",2427688
"1209",1259776
"1210",1634487
"1211",6350871
"1212",2084435
"1213",124607
"1214",466421
"1215",40539
"1216",214552
"1217",1741053
"1218",1142305
"1219",657204
"1220",1849
"1221",28569
"1222",1451454
"1223",700546
"1224",970704
"1225",459685
"1226",2562247
"1227",2098661
"1228",563464
"1229",2074640
"1230",414444
"1231",14510
"1232",972355
"1233",93423
"1234",1831
"1235",562303
"1236",211486
"1237",5846435
"1238",1728911
"1239",26753
"1240",3181
"1241",357912
"1242",38565
"1243",81544
"1244",-6671
"1245",685500
"1246",4021629
"1247",403584
"1248",106264
"1249",31611
"1250",865089
"1251",272221
"1252",516439
"1253",3708520
"1254",287305
"1255",2164268
"1256",1146202
"1257",807532
"1258",1139441
"1259",617551
"1260",1090912
"1261",205795
"1262",57087
"1263",4195787
"1264",1161901
"1265",2222872
"1266",234595
"1267",500885
"1268",1431886
"1269",22133725
"1270",1625378
"1271",1184785
"1272",1984774
"1273",8266138
"1274",7881930
"1275",3801608
"1276",525009
"1277",523339
"1278",294312
"1279",396592
"1280",3700138
"1281",6326214
"1282",77800
"1283",1105620
"1284",393411
"1285",1381831
"1286",206111
"1287",328086
"1288",319
"1289",502764
"1290",60859
"1291",30265
"1292",25440
"1293",40752
"1294",162100
"1295",2012139
"1296",3961369
"1297",273736
"1298",4511951
"1299",489254
"1300",13304498
"1301",602333
"1302",407215
"1303",144141
"1304",1543855
"1305",79294
"1306",3326146
"1307",186828
"1308",1983361
"1309",780701
"1310",39197
"1311",515080
"1312",76619
"1313",672364
"1314",2702856
"1315",124944
"1316",239066
"1317",271780
"1318",2702048
"1319",1450594
"1320",106127
"1321",3701403
"1322",413216
"1323",406132
"1324",325457
"1325",587466
"1326",1858444
"1327",315082
"1328",148196
"1329",63709
"1330",3798343
"1331",7330220
"1332",1715363
"1333",900395
"1334",1931026
"1335",146130
"1336",340415
"1337",1451052
"1338",5002275
"1339",248856
"1340",1645467
"1341",392866
"1342",387571
"1343",153290
"1344",790663
"1345",2148792
"1346",-85734
"1347",1104490
"1348",2180715
"1349",1355791
"1350",287613
"1351",2641782
"1352",101498
"1353",168972
"1354",87741
"1355",263279
"1356",1919365
"1357",3137460
"1358",251196
"1359",843351
"1360",290871
"1361",230
"1362",885963
"1363",665933
"1364",82326
"1365",191241
"1366",1784080
"1367",2518632
"1368",927551
"1369",2292050
"1370",100178
"1371",363520
"1372",3148663
"1373",678770
"1374",1057099
"1375",645655
"1376",367309
"1377",5054296
"1378",895856
"1379",365773
"1380",140342
"1381",712666
"1382",1640577
"1383",2647129
"1384",1187524
"1385",413180
"1386",821538
"1387",466177
"1388",697576
"1389",56641
"1390",50098
"1391",346659
"1392",534275
"1393",117327
"1394",1754915
"1395",53774
"1396",1726891
"1397",1077242
"1398",153787
"1399",727720
"1400",613140
"1401",45448
"1402",1701815
"1403",4119339
"1404",2212109
"1405",9675911
"1406",265084
"1407",362096
"1408",7833
"1409",14230
"1410",23924
"1411",693054
"1412",48788
"1413",101868
"1414",28275
"1415",2890
"1416",265757
"1417",122510
"1418",21009
"1419",37170
"1420",88648
"1421",16197
"1422",458464
"1423",25581
"1424",256412
"1425",131021
"1426",281501
"1427",728157
"1428",188176
"1429",186581
"1430",3804715
"1431",127134
"1432",5712041
"1433",208152
"1434",3293827
"1435",2140605
"1436",416293
"1437",266067
"1438",487194
"1439",209841
"1440",1128439
"1441",155661
"1442",847326
"1443",37346
"1444",4123175
"1445",516545
"1446",300107
"1447",218
"1448",42465
"1449",36639
"1450",176566
"1451",163437
"1452",188627
"1453",46919
"1454",112438
"1455",6861
"1456",313246
"1457",405275
"1458",199804
"1459",14944148
"1460",464869
"1461",5590884
"1462",372542
"1463",2292978
"1464",178594
"1465",21726
"1466",305289
"1467",102606
"1468",231447
"1469",9315548
"1470",5333
"1471",268927
"1472",348473
"1473",98131
"1474",65497
"1475",21505
"1476",2308529
"1477",1185265
"1478",1392447
"1479",1336316
"1480",2520477
"1481",2617799
"1482",231518
"1483",53517
"1484",3949155
"1485",2273040
"1486",797540
"1487",734652
"1488",100014
"1489",571024
"1490",1006623
"1491",252536
"1492",331631
"1493",1481009
"1494",938497
"1495",69931
"1496",478
"1497",80638
"1498",95710
"1499",171572
"1500",8036
"1501",588747
"1502",631020
"1503",441478
"1504",8561345
"1505",188985
"1506",1201278
"1507",1065113
"1508",303
"1509",209745
"1510",32812
"1511",1638902
"1512",1024824
"1513",-981
"1514",6972961
"1515",173229
"1516",529
"1517",154292
"1518",-1258
"1519",16301
"1520",1630442
"1521",-21520
"1522",1112242
"1523",6827
"1524",88950
"1525",71191
"1526",2630471
"1527",4200793
"1528",178413
"1529",607004
"1530",1773041
"1531",182566
"1532",67441
"1533",315252
"1534",156395
"1535",348247
"1536",93574
"1537",647128
"1538",201465
"1539",102828
"1540",42318
"1541",622643
"1542",340451
"1543",40897
"1544",76757
"1545",1479
"1546",15992
"1547",69993
"1548",239226
"1549",1582
"1550",892314
"1551",333520
"1552",184096
"1553",15858
"1554",1090458
"1555",773232
"1556",305557
"1557",21583
"1558",410438
"1559",92070
"1560",78437
"1561",24331
"1562",267688
"1563",1845571
"1564",3730029
"1565",171012
"1566",867690
"1567",561828
"1568",63814
"1569",224224
"1570",350278
"1571",284701
"1572",92630
"1573",364218
"1574",73964
"1575",2343276
"1576",194716
"1577",342839
"1578",723493
"1579",1383156
"1580",259695
"1581",888686
"1582",123578
"1583",724483
"1584",3401103
"1585",99920
"1586",1633516
"1587",89239
"1588",136786
"1589",142716
"1590",226550
"1591",351633
"1592",99674
"1593",526770
"1594",161657
"1595",9066
"1596",2307896
"1597",416195
"1598",183851
"1599",98328
"1600",813539
"1601",698401
"1602",10095
"1603",73296
"1604",63728
"1605",26193
"1606",3362929
"1607",3689562
"1608",284519
"1609",1023883
"1610",292899
"1611",7396791
"1612",50013
"1613",1798665
"1614",67119
"1615",329888
"1616",2319300
"1617",7193699
"1618",1026106
"1619",839199
"1620",8499617
"1621",779099
"1622",359470
"1623",340084
"1624",11751226
"1625",108123
"1626",4402710
"1627",5251205
"1628",6479810
"1629",1585384
"1630",162682
"1631",277421
"1632",415960
"1633",37411
"1634",112921
"1635",108551
"1636",650545
"1637",552882
"1638",181831
"1639",177068
"1640",506948
"1641",138614
"1642",324403
"1643",2166359
"1644",1384388
"1645",3468
"1646",1196460
"1647",130851
"1648",213386
"1649",947475
"1650",40154
"1651",930009
"1652",955261
"1653",320097
"1654",269107
"1655",56059
"1656",131507
"1657",279083
"1658",88584
"1659",483614
"1660",619639
"1661",1162948
"1662",736831
"1663",47274
"1664",212859
"1665",569956
"1666",26244
"1667",53023
"1668",159879
"1669",133919
"1670",321460
"1671",49627
"1672",29976
"1673",532310
"1674",202193
"1675",-2241
"1676",639978
"1677",54252
"1678",2593457
"1679",481256
"1680",3925689
"1681",1208615
"1682",651101
"1683",3946498
"1684",654843
"1685",485103
"1686",76457
"1687",474167
"1688",341624
"1689",542816
"1690",20793
"1691",108532
"1692",47530
"1693",143504
"1694",182879
"1695",152908
"1696",113873
"1697",6020
"1698",72961
"1699",36264
"1700",86716
"1701",411875
"1702",622652
"1703",10505
"1704",555080
"1705",536298
"1706",131270
"1707",239544
"1708",1390118
"1709",88613
"1710",1716044
"1711",293451
"1712",169382
"1713",575986
"1714",-11103
"1715",301711
"1716",22615
"1717",8759
"1718",65728
"1719",1692592
"1720",36417
"1721",52340
"1722",344566
"1723",402390
"1724",605729
"1725",539872
"1726",137004
"1727",-3774
"1728",452648
"1729",328312
"1730",378156
"1731",203478
"1732",79667
"1733",153495
"1734",120604
"1735",203153
"1736",42573
"1737",50260
"1738",49388
"1739",157255
"1740",43995
"1741",364147
"1742",51201
"1743",59004
"1744",370835
"1745",162621
"1746",1458839
"1747",99908
"1748",304563
"1749",153494
"1750",786164
"1751",67501
"1752",27853
"1753",694028
"1754",32701
"1755",155692
"1756",40022
"1757",17673
"1758",39190
"1759",2450
"1760",42031
"1761",47099
"1762",53712
"1763",412358
"1764",85265
"1765",28168
"1766",62861
"1767",77274
"1768",2050851
"1769",637915
"1770",613180
"1771",1308832
"1772",3942137
"1773",56147
"1774",182937
"1775",1521947
"1776",2396379
"1777",2888491
"1778",803705
"1779",150131
"1780",1904909
"1781",4250437
"1782",77906
"1783",6555523
"1784",464500
"1785",19219
"1786",252532
"1787",1146583
"1788",912021
"1789",401918
"1790",155202
"1791",679363
"1792",1670305
"1793",88196
"1794",834519
"1795",1989095
"1796",235479
"1797",2091101
"1798",1011639
"1799",257205
"1800",1138315
"1801",88813
"1802",3542993
"1803",1081016
"1804",713838
"1805",5622773
"1806",1430385
"1807",1025476
"1808",2203498
"1809",125471
"1810",437523
"1811",458785
"1812",110417
"1813",114925
"1814",30769
"1815",11212
"1816",7524
"1817",248929
"1818",1751
"1819",2044619
"1820",751041
"1821",104
"1822",180881
"1823",146526
"1824",660627
"1825",920306
"1826",1755710
"1827",25915
"1828",979425
"1829",1648411
"1830",2178092
"1831",388835
"1832",1000162
"1833",892454
"1834",1831127
"1835",286763
"1836",64732
"1837",229500
"1838",881469
"1839",1327177
"1840",698767
"1841",10770
"1842",637179
"1843",54485
"1844",451047
"1845",1338868
"1846",117147
"1847",431689
"1848",388429
"1849",637271
"1850",440180
"1851",2410958
"1852",679633
"1853",391765
"1854",301122
"1855",612298
"1856",143336
"1857",212081
"1858",139969
"1859",135281
"1860",36428
"1861",3690792
"1862",2815031
"1863",1063093
"1864",355080
"1865",34783
"1866",1278650
"1867",133079
"1868",291834
"1869",1824515
"1870",742027
"1871",301053
"1872",1142860
"1873",3828575
"1874",1381
"1875",73
"1876",18721
"1877",252801
"1878",43255
"1879",2878590
"1880",3051792
"1881",955530
"1882",3978299
"1883",15686145
"1884",3830471
"1885",3821566
"1886",676583
"1887",948457
"1888",353956
"1889",455976
"1890",38706
"1891",440564
"1892",263898
"1893",2081705
"1894",405906
"1895",1302859
"1896",145213
"1897",210746
"1898",506094
"1899",1125974
"1900",228537
"1901",1059524
"1902",290879
"1903",10524274
"1904",1145950
"1905",1930404
"1906",1899982
"1907",940842
"1908",1447257
"1909",1757967
"1910",15887780
"1911",6579370
"1912",1008014
"1913",1065709
"1914",165002
"1915",743298
"1916",3062841
"1917",725457
"1918",2397380
"1919",11452
"1920",853546
"1921",8053605
"1922",789552
"1923",4064347
"1924",4576032
"1925",2430704
"1926",2161104
"1927",1002713
"1928",176556
"1929",379560
"1930",2640668
"1931",13833632
"1932",725299
"1933",606715
"1934",46169
"1935",780462
