"","distances"
"1",2852
"2",145029
"3",156437
"4",23097
"5",399350
"6",230049
"7",546531
"8",875226
"9",788830
"10",2106037
"11",489531
"12",1339684
"13",1049602
"14",1938045
"15",19385
"16",6654
"17",594957
"18",1841267
"19",1792421
"20",272825
"21",270707
"22",387819
"23",-218069
"24",2134044
"25",355640
"26",698879
"27",94895
"28",356391
"29",187651
"30",1849183
"31",641700
"32",82245
"33",585000
"34",538889
"35",90676
"36",568970
"37",279255
"38",324958
"39",1243569
"40",954178
"41",783461
"42",112581
"43",2920420
"44",43230
"45",17886
"46",235860
"47",672720
"48",41593
"49",1354187
"50",124144
"51",197672
"52",157574
"53",81883
"54",765784
"55",3231595
"56",679637
"57",42520
"58",2112516
"59",469108
"60",424741
"61",1418674
"62",186955
"63",332554
"64",128878
"65",933351
"66",58316
"67",304504
"68",165539
"69",101577
"70",916533
"71",2764063
"72",13803
"73",232063
"74",928040
"75",99887
"76",1001881
"77",429738
"78",210435
"79",179088
"80",1779665
"81",108005
"82",596546
"83",1931759
"84",257622
"85",3340710
"86",438306
"87",74445
"88",991797
"89",10598165
"90",5200950
"91",5105135
"92",1678216
"93",409109
"94",1427114
"95",2392231
"96",1431649
"97",3170464
"98",262896
"99",622538
"100",93625
"101",2527727
"102",3477145
"103",1066400
"104",1049170
"105",340354
"106",426289
"107",300293
"108",556103
"109",223095
"110",226511
"111",109150
"112",38554
"113",2045795
"114",832710
"115",925059
"116",3184822
"117",608146
"118",26267289
"119",25484
"120",45865
"121",4286551
"122",376645
"123",284873
"124",345006
"125",2630386
"126",176144
"127",210545
"128",513888
"129",57455
"130",184430
"131",22100
"132",27015
"133",237866
"134",718991
"135",326109
"136",96166
"137",2102518
"138",150462
"139",725777
"140",333216
"141",903355
"142",82806
"143",7554
"144",485134
"145",1112048
"146",4043693
"147",1040402
"148",1785601
"149",898023
"150",1630770
"151",2566703
"152",3701722
"153",960201
"154",305286
"155",634172
"156",1647009
"157",643829
"158",1699496
"159",139316
"160",417222
"161",120703
"162",296098
"163",5895300
"164",432219
"165",4444668
"166",2251906
"167",1106028
"168",70775
"169",88837
"170",887497
"171",535269
"172",280643
"173",552001
"174",202565
"175",489427
"176",400409
"177",20490
"178",577527
"179",821788
"180",1067638
"181",1879907
"182",556411
"183",2117300
"184",1866201
"185",4009104
"186",729225
"187",1573894
"188",1892896
"189",137075
"190",103411
"191",77537
"192",2481334
"193",348780
"194",4527250
"195",1935303
"196",805597
"197",13449463
"198",15265
"199",1717670
"200",3195926
"201",1812210
"202",9870270
"203",790805
"204",537990
"205",3483231
"206",320729
"207",992555
"208",574616
"209",294575
"210",1027727
"211",381696
"212",21800
"213",728608
"214",334328
"215",46881
"216",86310
"217",1285286
"218",6002318
"219",488526
"220",1911
"221",112146
"222",15438
"223",1228448
"224",260795
"225",229902
"226",611715
"227",4388702
"228",2297422
"229",33295
"230",7830543
"231",565150
"232",596620
"233",259984
"234",1865267
"235",2924893
"236",279985
"237",6800041
"238",1642212
"239",2838816
"240",1072390
"241",48501
"242",176271
"243",4174
"244",40651
"245",11066676
"246",24623
"247",1842715
"248",7888369
"249",1066468
"250",118115
"251",4354
"252",879649
"253",1660613
"254",783256
"255",684884
"256",1058663
"257",338130
"258",2244491
"259",7325
"260",395686
"261",7263051
"262",401106
"263",5596741
"264",413515
"265",7939490
"266",74174
"267",425529
"268",2037430
"269",17645602
"270",3272013
"271",4495940
"272",92942
"273",2705244
"274",5852955
"275",168068
"276",241342
"277",512486
"278",2219425
"279",187833
"280",50469
"281",4347440
"282",1713814
"283",1411740
"284",5459593
"285",4364225
"286",1994819
"287",162902
"288",645128
"289",6880579
"290",80480
"291",2376276
"292",554272
"293",287125
"294",226801
"295",5097976
"296",3706985
"297",16556
"298",3058888
"299",901316
"300",1283055
"301",1595060
"302",10333
"303",89443
"304",210871
"305",222637
"306",287232
"307",25142
"308",163876
"309",3651792
"310",3532918
"311",525392
"312",2763534
"313",1081874
"314",1293746
"315",1909397
"316",5982369
"317",13491
"318",764641
"319",198320
"320",5465965
"321",-11240
"322",1273784
"323",2770030
"324",1922871
"325",1935
"326",259973
"327",1509522
"328",3937002
"329",8314732
"330",1537112
"331",1257667
"332",3266687
"333",458947
"334",1359696
"335",214093
"336",1064571
"337",34642
"338",2404582
"339",1277908
"340",85396
"341",202007
"342",2153915
"343",75884
"344",1231397
"345",-8460
"346",345094
"347",81682
"348",181861
"349",104065
"350",10498
"351",276580
"352",417363
"353",180868
"354",245644
"355",40493
"356",25944
"357",664721
"358",467835
"359",169901
"360",101829
"361",4436868
"362",869865
"363",135611
"364",167419
"365",5589882
"366",70178
"367",1690797
"368",2553467
"369",3291417
"370",9043078
"371",6387582
"372",8448459
"373",1961210
"374",1044752
"375",1913246
"376",114800
"377",3505887
"378",6402110
"379",603431
"380",7053492
"381",2002661
"382",581128
"383",134422
"384",971002
"385",846035
"386",2239321
"387",877840
"388",77107
"389",335298
"390",880574
"391",1279280
"392",103766
"393",345186
"394",1315487
"395",1023514
"396",559234
"397",2461859
"398",1321991
"399",433657
"400",2308454
"401",963467
"402",299691
"403",237096
"404",230125
"405",3068325
"406",2446605
"407",419402
"408",96443
"409",5689710
"410",1906152
"411",335654
"412",1288635
"413",11010892
"414",2834036
"415",6636474
"416",1207199
"417",2829780
"418",179555
"419",1127666
"420",230327
"421",4467631
"422",4013708
"423",1519330
"424",123400
"425",435717
"426",74403
"427",124320
"428",284339
"429",19561
"430",761410
"431",71764
"432",25081
"433",418691
"434",729057
"435",338154
"436",178343
"437",479354
"438",706935
"439",2041299
"440",560301
"441",737584
"442",1312151
"443",77802
"444",1574558
"445",1320131
"446",1931589
"447",84373
"448",1374951
"449",611509
"450",6639506
"451",1238987
"452",902028
"453",13843511
"454",601770
"455",2923264
"456",9336597
"457",4320667
"458",575862
"459",14083844
"460",2297306
"461",3175916
"462",6185531
"463",122429
"464",1213754
"465",2193712
"466",233021
"467",476607
"468",514646
"469",17413
"470",10225094
"471",525309
"472",3184945
"473",2269194
"474",567518
"475",1609874
"476",667109
"477",929793
"478",2850607
"479",181114
"480",5208033
"481",821062
"482",3329853
"483",4897109
"484",11876020
"485",103102
"486",3127737
"487",7545265
"488",6875972
"489",411268
"490",4852043
"491",5228583
"492",3640107
"493",154523
"494",11865792
"495",703791
"496",36312
"497",329312
"498",3207
"499",30076
"500",314722
"501",157843
"502",5594400
"503",38621
"504",1102111
"505",6712738
"506",36934
"507",1819709
"508",15557413
"509",1810906
"510",2090304
"511",96473
"512",304241
"513",417894
"514",1596430
"515",1879666
"516",73917
"517",1816941
"518",684202
"519",9492449
"520",2515782
"521",2680788
"522",6308670
"523",1121208
"524",6035794
"525",1244797
"526",2090747
"527",3518708
"528",664096
"529",542941
"530",-335
"531",6441956
"532",2979242
"533",61962
"534",3068671
"535",2052139
"536",28749
"537",1336484
"538",1670725
"539",1877978
"540",7824559
"541",606449
"542",2102232
"543",1282373
"544",2563087
"545",2785033
"546",49227
"547",1215140
"548",2401789
"549",3336934
"550",922191
"551",982924
"552",3658986
"553",134684
"554",1239665
"555",4035783
"556",252147
"557",872272
"558",20872
"559",251586
"560",423895
"561",521439
"562",437994
"563",31391
"564",48502
"565",17156
"566",113639
"567",44557
"568",797448
"569",3610124
"570",3263639
"571",197364
"572",7450864
"573",588328
"574",2267665
"575",327605
"576",5982208
"577",2233753
"578",2802660
"579",1598729
"580",3387413
"581",1699593
"582",520296
"583",268748
"584",598359
"585",538858
"586",386773
"587",116216
"588",546000
"589",1251273
"590",883146
"591",1220562
"592",3136198
"593",452169
"594",1907670
"595",4933378
"596",1837322
"597",5911746
"598",457836
"599",757081
"600",764339
"601",31687
"602",1386035
"603",253776
"604",396915
"605",372657
"606",440653
"607",491139
"608",4464
"609",69605
"610",52630
"611",297318
"612",62513
"613",463944
"614",144380
"615",23620
"616",157683
"617",153069
"618",15996
"619",59288
"620",143151
"621",313661
"622",1425283
"623",874730
"624",727346
"625",39177
"626",4047329
"627",682562
"628",310977
"629",64182
"630",526616
"631",553614
"632",118569
"633",663024
"634",2002536
"635",74037
"636",57608
"637",35045
"638",6273629
"639",5901
"640",4110524
"641",718727
"642",32163
"643",20905971
"644",1160207
"645",97074
"646",1704056
"647",4905079
"648",2378303
"649",106806
"650",6265640
"651",2808286
"652",10668446
"653",211767
"654",194416
"655",58812
"656",1175064
"657",3843620
"658",193415
"659",-168282
"660",472294
"661",1233252
"662",7781713
"663",1508313
"664",4488785
"665",344682
"666",1487593
"667",1387979
"668",758851
"669",267196
"670",30046
"671",2221175
"672",4161444
"673",107424
"674",4801
"675",2281812
"676",6306931
"677",1749703
"678",2265361
"679",1958618
"680",696990
"681",5213780
"682",331650
"683",656591
"684",1346362
"685",1028745
"686",830261
"687",148141
"688",22947
"689",473515
"690",966872
"691",76224
"692",3357442
"693",1909564
"694",19753
"695",14001677
"696",748614
"697",3913
"698",479119
"699",870019
"700",2831249
"701",167578
"702",814488
"703",-48882
"704",1183657
"705",294859
"706",1469470
"707",1142521
"708",1476303
"709",457578
"710",2082161
"711",937809
"712",4534163
"713",24302
"714",424085
"715",424424
"716",81322
"717",9565948
"718",9740851
"719",164354
"720",82806
"721",157128
"722",1198456
"723",6408882
"724",42664
"725",641754
"726",1908757
"727",1454409
"728",593880
"729",2570995
"730",3276500
"731",2703436
"732",125094
"733",433773
"734",328761
"735",2156728
"736",1178606
"737",606300
"738",76390
"739",1819731
"740",3437190
"741",1199008
"742",53225
"743",42658
"744",408184
"745",172750
"746",44709
"747",95298
"748",172129
"749",105687
"750",181074
"751",238425
"752",676638
"753",198487
"754",119244
"755",4526170
"756",360955
"757",8356684
"758",512494
"759",154852
"760",480548
"761",309893
"762",5556244
"763",1071220
"764",3420342
"765",291156
"766",19045
"767",501000
"768",617187
"769",5139414
"770",491701
"771",1175251
"772",854724
"773",1023639
"774",4343663
"775",5622567
"776",41002
"777",194499
"778",417469
"779",103792
"780",376437
"781",14592
"782",225603
"783",142602
"784",287925
"785",50243
"786",9301
"787",5524510
"788",1963348
"789",6171705
"790",6297138
"791",3076375
"792",1076305
"793",4107956
"794",224160
"795",22785
"796",328519
"797",68503
"798",71002
"799",291294
"800",116253
"801",677885
"802",439233
"803",1060242
"804",951259
"805",131069
"806",2397757
"807",8639066
"808",36580
"809",662788
"810",4115059
"811",281481
"812",190869
"813",5831816
"814",2895835
"815",723270
"816",969714
"817",4150951
"818",4810800
"819",3454037
"820",149091
"821",185185
"822",12841962
"823",1512500
"824",373184
"825",45741
"826",3613921
"827",893698
"828",4313130
"829",34388
"830",18845
"831",884778
"832",2822686
"833",295508
"834",1224150
"835",3897972
"836",607021
"837",1034873
"838",2351615
"839",465612
"840",3089578
"841",43648
"842",11920325
"843",1400578
"844",67804
"845",78452
"846",81539
"847",921279
"848",13934
"849",506854
"850",69396
"851",63201
"852",7246602
"853",276012
"854",8014224
"855",1415236
"856",42988
"857",598193
"858",284497
"859",260623
"860",210292
"861",290170
"862",31943
"863",56694
"864",246705
"865",217172
"866",368170
"867",4112784
"868",44301
"869",242347
"870",14102252
"871",1625970
"872",5915403
"873",5392775
"874",640651
"875",84896
"876",101110
"877",1148750
"878",23405
"879",88482
"880",2410415
"881",4532165
"882",21187557
"883",5022098
"884",1685729
"885",1456396
"886",1335067
"887",1810627
"888",2148930
"889",4162142
"890",2018289
"891",955173
"892",2470158
"893",16886
"894",3677652
"895",1523589
"896",1690465
"897",1148088
"898",1818799
"899",3341211
"900",3184344
"901",4255030
"902",255521
"903",2026846
"904",318922
"905",97186
"906",646196
"907",239486
"908",3141577
"909",4672541
"910",30184
"911",112148
"912",3277131
"913",331688
"914",557406
"915",359472
"916",1278638
"917",25279
"918",62801
"919",254852
"920",538595
"921",112024
"922",63036
"923",147191
"924",1897893
"925",429328
"926",1360080
"927",72612
"928",132074
"929",242114
"930",899002
"931",1038494
"932",873010
"933",370330
"934",55399
"935",173056
"936",91091
"937",107078
"938",180404
"939",195022
"940",255028
"941",1496318
"942",4035358
"943",2946973
"944",1985391
"945",188566
"946",686347
"947",2969921
"948",3057241
"949",4733670
"950",2068623
"951",517264
"952",5254463
"953",4429786
"954",798273
"955",73165
"956",69241
"957",5806512
"958",442652
"959",57389
"960",8201469
"961",875376
"962",8433484
"963",46503
"964",412784
"965",217465
"966",1709897
"967",50203
"968",247512
"969",1334827
"970",131467
"971",748910
"972",9503
"973",61964
"974",111584
"975",32528
"976",103752
"977",1282634
"978",288609
"979",29547
"980",3360011
"981",484710
"982",6555138
"983",2015401
"984",310835
"985",51575
"986",1505610
"987",6397991
"988",415206
"989",89332
"990",544618
"991",1212559
"992",667273
"993",1371931
"994",221470
"995",334579
"996",946428
"997",488309
"998",242297
"999",227379
"1000",6443640
"1001",1904216
"1002",1216330
"1003",73954
"1004",4855484
"1005",3957074
"1006",1453017
"1007",183897
"1008",8583996
"1009",151852
"1010",1059767
"1011",190406
"1012",458725
"1013",1154533
"1014",2388237
"1015",1534565
"1016",285756
"1017",353005
"1018",1339669
"1019",200490
"1020",241798
"1021",469251
"1022",1654647
"1023",3225866
"1024",1971047
"1025",324378
"1026",174302
"1027",7986650
"1028",2982659
"1029",597447
"1030",394313
"1031",219065
"1032",578568
"1033",9537420
"1034",14403
"1035",185625
"1036",1029286
"1037",820126
"1038",137311
"1039",684049
"1040",82909
"1041",462369
"1042",69739
"1043",323291
"1044",11629495
"1045",593184
"1046",567610
"1047",1553870
"1048",158458
"1049",280379
"1050",36979
"1051",126229
"1052",45730
"1053",65203
"1054",983014
"1055",358811
"1056",442207
"1057",58054
"1058",106259
"1059",53470
"1060",30363
"1061",133545
"1062",393960
"1063",140063
"1064",54946
"1065",85639
"1066",1392818
"1067",31315
"1068",37100
"1069",874542
"1070",305345
"1071",1358753
"1072",2368751
"1073",80138
"1074",20627
"1075",374624
"1076",1093966
"1077",94893
"1078",247183
"1079",61625
"1080",1708324
"1081",1469024
"1082",4981665
"1083",3603608
"1084",-7231
"1085",82453
"1086",7220082
"1087",352260
"1088",1390471
"1089",4180079
"1090",921074
"1091",395274
"1092",2472482
"1093",1106065
"1094",1213422
"1095",906213
"1096",2929453
"1097",765351
"1098",58101
"1099",11350
"1100",1089830
"1101",304002
"1102",91501
"1103",382217
"1104",2434885
"1105",426333
"1106",628937
"1107",147406
"1108",190703
"1109",28309
"1110",733606
"1111",69075
"1112",1017726
"1113",1266674
"1114",1021982
"1115",909704
"1116",2214121
"1117",3836371
"1118",1367643
"1119",1916673
"1120",66019
"1121",720578
"1122",618439
"1123",144714
"1124",906512
"1125",3558361
"1126",42853
"1127",10670
"1128",222805
"1129",287459
"1130",37020
"1131",6578
"1132",215487
"1133",439333
"1134",745325
"1135",494140
"1136",334806
"1137",155
"1138",563973
"1139",607806
"1140",1440254
"1141",80809
"1142",366741
"1143",1542565
"1144",57638
"1145",3237336
"1146",1083938
"1147",2076600
"1148",506054
"1149",3394783
"1150",978618
"1151",277318
"1152",3747886
"1153",277432
"1154",1135286
"1155",5919435
"1156",847591
"1157",2205989
"1158",1509849
"1159",1529369
"1160",1971449
"1161",136261
"1162",950147
"1163",717642
"1164",1082329
"1165",348521
"1166",1772768
"1167",88973
"1168",244795
"1169",19759
"1170",2329002
"1171",394841
"1172",51451
"1173",152231
"1174",42222
"1175",402638
"1176",49197
"1177",165699
"1178",118993
"1179",23548
"1180",4031
"1181",121743
"1182",36969
"1183",87335
"1184",5862873
"1185",580455
"1186",55874
"1187",1491312
"1188",3353942
"1189",2074925
"1190",3686024
"1191",58173
"1192",14197323
"1193",2427688
"1194",1423917
"1195",1493262
"1196",264
"1197",1604433
"1198",1691364
"1199",3277494
"1200",2393146
"1201",40539
"1202",3603838
"1203",453705
"1204",162
"1205",22964
"1206",209176
"1207",4817226
"1208",2630481
"1209",3101812
"1210",89178
"1211",28081
"1212",1428331
"1213",427592
"1214",985509
"1215",1925353
"1216",6048704
"1217",824016
"1218",46426
"1219",616280
"1220",69984
"1221",6208780
"1222",2490681
"1223",606020
"1224",288594
"1225",274364
"1226",514437
"1227",287305
"1228",2164268
"1229",-198840
"1230",291443
"1231",687918
"1232",4298465
"1233",57087
"1234",2018952
"1235",92376
"1236",1446107
"1237",4358124
"1238",1429413
"1239",168126
"1240",32091
"1241",2672997
"1242",5955142
"1243",12481098
"1244",608547
"1245",1530163
"1246",1495216
"1247",568431
"1248",17602673
"1249",3649827
"1250",781610
"1251",523339
"1252",294312
"1253",396592
"1254",3700138
"1255",4326475
"1256",1791157
"1257",7210
"1258",77800
"1259",550525
"1260",47173
"1261",207006
"1262",796918
"1263",1255147
"1264",120165
"1265",462806
"1266",152820
"1267",546122
"1268",21441
"1269",11192
"1270",131193
"1271",491620
"1272",1392796
"1273",4296045
"1274",419635
"1275",32446
"1276",214890
"1277",775205
"1278",1597335
"1279",421569
"1280",2321778
"1281",11368805
"1282",691296
"1283",204600
"1284",342194
"1285",908742
"1286",570688
"1287",2428210
"1288",220979
"1289",2852804
"1290",1822230
"1291",76619
"1292",1463270
"1293",2056555
"1294",213936
"1295",23261
"1296",1538327
"1297",2773871
"1298",1089087
"1299",4170710
"1300",204634
"1301",587466
"1302",175608
"1303",522447
"1304",1101000
"1305",3163
"1306",271851
"1307",4058165
"1308",6783747
"1309",450967
"1310",862621
"1311",848063
"1312",900395
"1313",17398
"1314",361907
"1315",836271
"1316",1299589
"1317",531132
"1318",908242
"1319",3438007
"1320",2090850
"1321",1007801
"1322",1542663
"1323",10545
"1324",390509
"1325",637519
"1326",648390
"1327",284256
"1328",27678
"1329",2148792
"1330",1124084
"1331",2791174
"1332",1195529
"1333",3450661
"1334",87741
"1335",2300701
"1336",2938012
"1337",461393
"1338",387905
"1339",451889
"1340",74112
"1341",689647
"1342",218724
"1343",2563
"1344",1059014
"1345",724214
"1346",25773
"1347",3744628
"1348",777247
"1349",2449250
"1350",143299
"1351",115914
"1352",3558230
"1353",386915
"1354",1219338
"1355",-359697
"1356",3977624
"1357",956517
"1358",930498
"1359",57697
"1360",303261
"1361",315444
"1362",23698
"1363",649364
"1364",598144
"1365",204415
"1366",620771
"1367",668861
"1368",1092837
"1369",2833401
"1370",1705924
"1371",603878
"1372",722741
"1373",278322
"1374",241558
"1375",117327
"1376",2278443
"1377",1361468
"1378",135866
"1379",862551
"1380",153787
"1381",727720
"1382",613140
"1383",1797971
"1384",84172
"1385",256858
"1386",3931492
"1387",1178886
"1388",1771488
"1389",5788263
"1390",1997751
"1391",833718
"1392",709671
"1393",348198
"1394",236824
"1395",117141
"1396",563526
"1397",164575
"1398",217627
"1399",156502
"1400",292490
"1401",190683
"1402",61503
"1403",151053
"1404",309415
"1405",107394
"1406",120995
"1407",1053141
"1408",35975
"1409",113120
"1410",4165357
"1411",2750074
"1412",1023418
"1413",2233836
"1414",538307
"1415",3424433
"1416",1622721
"1417",855134
"1418",2020183
"1419",847326
"1420",3901248
"1421",37133
"1422",535802
"1423",366924
"1424",300107
"1425",285266
"1426",246650
"1427",88270
"1428",26477
"1429",135246
"1430",278252
"1431",117961
"1432",21911
"1433",242343
"1434",66538
"1435",15343114
"1436",52967
"1437",223090
"1438",-3026
"1439",2992065
"1440",819395
"1441",3742568
"1442",1125542
"1443",614561
"1444",9518188
"1445",61188
"1446",239270
"1447",39183
"1448",142151
"1449",251384
"1450",170588
"1451",173463
"1452",205669
"1453",1082038
"1454",816673
"1455",1107941
"1456",3331679
"1457",4918962
"1458",997192
"1459",231518
"1460",914568
"1461",2857741
"1462",2909255
"1463",79756
"1464",350153
"1465",236925
"1466",28845
"1467",1136172
"1468",66104
"1469",19633
"1470",1580323
"1471",525809
"1472",49801
"1473",1889953
"1474",621502
"1475",118828
"1476",17050
"1477",171572
"1478",624931
"1479",631020
"1480",236770
"1481",8488
"1482",542416
"1483",462
"1484",6065
"1485",340175
"1486",208349
"1487",221010
"1488",495661
"1489",55830
"1490",2733439
"1491",3979050
"1492",551670
"1493",51531
"1494",547139
"1495",177062
"1496",588801
"1497",298421
"1498",887560
"1499",158670
"1500",191795
"1501",141408
"1502",8075730
"1503",318700
"1504",161795
"1505",121750
"1506",1630442
"1507",115436
"1508",49175
"1509",914745
"1510",271061
"1511",577887
"1512",2464496
"1513",164567
"1514",4047877
"1515",724029
"1516",2094151
"1517",-12827
"1518",40917
"1519",17567
"1520",90083
"1521",321279
"1522",122651
"1523",58164
"1524",784505
"1525",25572
"1526",102828
"1527",42318
"1528",449359
"1529",156574
"1530",172860
"1531",129822
"1532",971354
"1533",96010
"1534",985496
"1535",81630
"1536",402891
"1537",10299
"1538",514026
"1539",630116
"1540",65981
"1541",1272304
"1542",27292
"1543",2349521
"1544",2644621
"1545",993557
"1546",171012
"1547",739894
"1548",389852
"1549",856307
"1550",350278
"1551",284701
"1552",92630
"1553",521252
"1554",3262460
"1555",214873
"1556",591011
"1557",716058
"1558",2343029
"1559",477313
"1560",2979132
"1561",519529
"1562",241672
"1563",565891
"1564",628681
"1565",248448
"1566",142716
"1567",151649
"1568",15970
"1569",102106
"1570",-73
"1571",119163
"1572",31655
"1573",99674
"1574",264616
"1575",1009270
"1576",856182
"1577",1676555
"1578",119086
"1579",863795
"1580",62630
"1581",431053
"1582",14539
"1583",234346
"1584",90988
"1585",77353
"1586",26193
"1587",47293
"1588",148024
"1589",131174
"1590",180882
"1591",402274
"1592",2134354
"1593",2321833
"1594",635564
"1595",566189
"1596",2146422
"1597",3689562
"1598",614048
"1599",8404229
"1600",568559
"1601",1396398
"1602",2792025
"1603",8674811
"1604",9334691
"1605",618515
"1606",95089
"1607",359470
"1608",340084
"1609",187243
"1610",3817471
"1611",6642181
"1612",1002090
"1613",3960973
"1614",142913
"1615",3180955
"1616",902444
"1617",7678128
"1618",1585384
"1619",156532
"1620",60623
"1621",698466
"1622",54004
"1623",37411
"1624",112921
"1625",84961
"1626",673397
"1627",96037
"1628",642832
"1629",491519
"1630",28747
"1631",595021
"1632",46894
"1633",1349468
"1634",1037207
"1635",102126
"1636",676638
"1637",75117
"1638",255970
"1639",5838
"1640",566806
"1641",1020112
"1642",82646
"1643",575537
"1644",119198
"1645",105444
"1646",148121
"1647",720841
"1648",106476
"1649",45224
"1650",428381
"1651",479095
"1652",592516
"1653",56059
"1654",298162
"1655",736409
"1656",373657
"1657",557769
"1658",877733
"1659",10905
"1660",409061
"1661",925507
"1662",326485
"1663",202270
"1664",321460
"1665",571157
"1666",129513
"1667",93673
"1668",9416
"1669",44135
"1670",641151
"1671",725351
"1672",723027
"1673",1163573
"1674",11146445
"1675",167161
"1676",1940
"1677",810823
"1678",27080
"1679",196435
"1680",2916
"1681",133134
"1682",312299
"1683",271921
"1684",44410
"1685",119675
"1686",24693
"1687",353464
"1688",336629
"1689",72961
"1690",551713
"1691",116437
"1692",515096
"1693",430903
"1694",121578
"1695",5851
"1696",294125
"1697",345330
"1698",225269
"1699",1438456
"1700",155960
"1701",2013
"1702",76893
"1703",1273254
"1704",62131
"1705",242082
"1706",206279
"1707",314119
"1708",538516
"1709",8332
"1710",162712
"1711",289606
"1712",114381
"1713",47564
"1714",801337
"1715",501429
"1716",27215
"1717",362818
"1718",413634
"1719",421671
"1720",454702
"1721",10784
"1722",138612
"1723",121073
"1724",188628
"1725",198328
"1726",9744
"1727",28366
"1728",576235
"1729",586253
"1730",258728
"1731",426160
"1732",-21373
"1733",100382
"1734",104861
"1735",157255
"1736",271777
"1737",151055
"1738",162572
"1739",103695
"1740",131945
"1741",264629
"1742",539242
"1743",491815
"1744",6361
"1745",488302
"1746",474340
"1747",1008820
"1748",691694
"1749",108146
"1750",103788
"1751",107029
"1752",139414
"1753",53712
"1754",451007
"1755",34817
"1756",1140517
"1757",990230
"1758",637915
"1759",579916
"1760",18385
"1761",1308832
"1762",879464
"1763",727611
"1764",2288483
"1765",8460355
"1766",168893
"1767",323958
"1768",4560990
"1769",312441
"1770",8264825
"1771",541471
"1772",499653
"1773",984868
"1774",830005
"1775",660787
"1776",675486
"1777",1561734
"1778",379411
"1779",88196
"1780",620662
"1781",2256298
"1782",2333441
"1783",1011639
"1784",415459
"1785",7439
"1786",292604
"1787",540764
"1788",88813
"1789",467871
"1790",668094
"1791",1864662
"1792",49317
"1793",452039
"1794",4253955
"1795",4423201
"1796",160192
"1797",70016
"1798",30334
"1799",904286
"1800",2367658
"1801",1220290
"1802",116625
"1803",30254
"1804",217185
"1805",9222800
"1806",4273007
"1807",1014864
"1808",146526
"1809",660627
"1810",920306
"1811",1668869
"1812",83616
"1813",25915
"1814",687078
"1815",4158831
"1816",790299
"1817",14423
"1818",1098832
"1819",1493862
"1820",1321871
"1821",535672
"1822",2440205
"1823",365890
"1824",1338868
"1825",117147
"1826",342131
"1827",62718
"1828",540644
"1829",25152
"1830",367401
"1831",754583
"1832",1253619
"1833",1678732
"1834",63418
"1835",1025501
"1836",341967
"1837",5160935
"1838",321013
"1839",406527
"1840",1002601
"1841",124465
"1842",27402
"1843",277750
"1844",159925
"1845",1362997
"1846",34783
"1847",414246
"1848",444500
"1849",108978
"1850",159950
"1851",133079
"1852",291834
"1853",9297
"1854",409040
"1855",465262
"1856",1083528
"1857",273039
"1858",665543
"1859",5012964
"1860",73
"1861",18721
"1862",258943
"1863",7075112
"1864",1283376
"1865",12467
"1866",207650
"1867",2878590
"1868",1500653
"1869",75124
"1870",2415673
"1871",2263181
"1872",1697792
"1873",55149
"1874",1788338
"1875",20737413
"1876",605373
"1877",1372883
"1878",606513
"1879",240014
"1880",1193650
"1881",230601
"1882",314668
"1883",2467663
"1884",2446591
"1885",81759
"1886",697615
"1887",323306
"1888",1329096
"1889",13967137
"1890",132904
"1891",474876
"1892",715933
"1893",1370985
"1894",1203677
"1895",436231
"1896",1757967
"1897",13648362
"1898",8853060
"1899",233893
"1900",742499
"1901",2073992
"1902",3434730
"1903",5655680
"1904",6625219
"1905",958729
"1906",3131196
"1907",642847
"1908",4816162
"1909",2407823
"1910",3029440
"1911",176556
"1912",1258421
"1913",1766934
"1914",10715851
"1915",344039
"1916",3112444
"1917",736867
"1918",231112
"1919",14781
