"","distances"
"1",194455
"2",107051
"3",23097
"4",216736
"5",141699
"6",256600
"7",24266
"8",711236
"9",1443470
"10",2106037
"11",489531
"12",19561
"13",4364694
"14",6654
"15",717674
"16",216516
"17",55863
"18",3629108
"19",402456
"20",248485
"21",485665
"22",1173556
"23",409545
"24",267679
"25",369723
"26",94895
"27",546613
"28",2493985
"29",491653
"30",13653
"31",663731
"32",701197
"33",1666807
"34",1316166
"35",783461
"36",112581
"37",2038812
"38",731188
"39",115518
"40",266537
"41",672720
"42",41593
"43",1354187
"44",499167
"45",81883
"46",765784
"47",126497
"48",1227981
"49",99848
"50",1764533
"51",660542
"52",2112516
"53",469108
"54",424741
"55",135379
"56",367834
"57",643225
"58",82891
"59",34937
"60",357161
"61",1066242
"62",58316
"63",614733
"64",3908419
"65",675015
"66",1997413
"67",737108
"68",179088
"69",1779665
"70",3195672
"71",257622
"72",2018988
"73",140171
"74",181045
"75",560369
"76",158804
"77",251033
"78",353711
"79",668058
"80",1335278
"81",4083456
"82",9320600
"83",77181
"84",1651302
"85",546559
"86",425303
"87",1837468
"88",81391
"89",302912
"90",4992212
"91",715489
"92",1431649
"93",3170464
"94",262896
"95",95167
"96",3033537
"97",3477145
"98",1066400
"99",1049170
"100",340354
"101",101881
"102",1206147
"103",223095
"104",235355
"105",24416
"106",63706
"107",38554
"108",1143831
"109",1812466
"110",861268
"111",3184822
"112",41660
"113",26683417
"114",24055
"115",25484
"116",4568527
"117",138616
"118",353827
"119",270315
"120",685149
"121",1726447
"122",625036
"123",32769
"124",395929
"125",27215
"126",57455
"127",184430
"128",22100
"129",272194
"130",1027818
"131",24995
"132",3155207
"133",618043
"134",618268
"135",96440
"136",19091
"137",99862
"138",287807
"139",304538
"140",4832656
"141",1040402
"142",1195491
"143",354674
"144",898023
"145",7985728
"146",960201
"147",2673623
"148",867808
"149",331608
"150",1258659
"151",417222
"152",480842
"153",6331823
"154",4444668
"155",2251906
"156",1341279
"157",244774
"158",587570
"159",489752
"160",123374
"161",138086
"162",1519049
"163",63320
"164",20490
"165",577527
"166",821788
"167",219967
"168",2752173
"169",79644
"170",2581611
"171",1866201
"172",4836713
"173",1573894
"174",1839210
"175",210759
"176",103411
"177",77537
"178",2481334
"179",1015167
"180",1220585
"181",2458245
"182",463164
"183",1467040
"184",805597
"185",13166586
"186",255314
"187",1717670
"188",77605
"189",193107
"190",790805
"191",537990
"192",3483231
"193",1333519
"194",574616
"195",294575
"196",1435976
"197",142705
"198",404361
"199",334328
"200",46881
"201",86310
"202",1285286
"203",1512629
"204",4832410
"205",1911
"206",112146
"207",1265658
"208",766462
"209",659958
"210",2151428
"211",1009778
"212",1195151
"213",1284237
"214",155103
"215",1206195
"216",623590
"217",5857772
"218",565150
"219",6201841
"220",4949322
"221",1710302
"222",1075699
"223",455932
"224",56688
"225",1006464
"226",1045745
"227",115995
"228",753297
"229",520177
"230",39395
"231",17663
"232",159342
"233",150128
"234",9530164
"235",1146609
"236",73109
"237",407328
"238",57198
"239",8873413
"240",375675
"241",1289543
"242",582254
"243",1966948
"244",783256
"245",684884
"246",1058663
"247",338130
"248",2018083
"249",237399
"250",3028700
"251",1823472
"252",1366219
"253",253695
"254",969109
"255",401106
"256",5596741
"257",101269
"258",306607
"259",7939490
"260",609868
"261",1832815
"262",4869515
"263",16094071
"264",498927
"265",4606798
"266",2705244
"267",186663
"268",3688647
"269",917612
"270",625968
"271",168068
"272",241342
"273",512486
"274",7171818
"275",1713814
"276",1191392
"277",53693
"278",5214309
"279",211397
"280",4364225
"281",725909
"282",1150729
"283",20858
"284",530726
"285",1325097
"286",5606168
"287",40263
"288",251003
"289",2543523
"290",211171
"291",1154342
"292",3345060
"293",605754
"294",1473758
"295",1662672
"296",3112996
"297",1585828
"298",549873
"299",1460853
"300",136939
"301",315179
"302",34842
"303",157105
"304",3550284
"305",490866
"306",759005
"307",6896925
"308",516295
"309",1148888
"310",1909397
"311",3361840
"312",1136054
"313",1077768
"314",782131
"315",381475
"316",5465965
"317",-11240
"318",1103734
"319",212471
"320",893350
"321",1220875
"322",1862953
"323",553111
"324",536006
"325",617520
"326",452352
"327",5291225
"328",11113316
"329",3108464
"330",39945
"331",458947
"332",672613
"333",1934952
"334",704505
"335",1340518
"336",1689378
"337",85396
"338",44557
"339",2074824
"340",184042
"341",75884
"342",485937
"343",336929
"344",67874
"345",102391
"346",148882
"347",23590
"348",94176
"349",133621
"350",260200
"351",77490
"352",425843
"353",610388
"354",245644
"355",40493
"356",25944
"357",587228
"358",67720
"359",172060
"360",211842
"361",358905
"362",4436868
"363",1134948
"364",58257
"365",5508189
"366",491644
"367",4325941
"368",-1892
"369",89582
"370",2829242
"371",9043078
"372",6387582
"373",8448459
"374",1961210
"375",1769708
"376",1175091
"377",135525
"378",114800
"379",6728660
"380",3284164
"381",1217640
"382",6415563
"383",2002661
"384",524512
"385",32976
"386",1166869
"387",1562313
"388",8661
"389",411265
"390",887033
"391",877840
"392",77107
"393",335298
"394",2348247
"395",1637734
"396",2512
"397",1101797
"398",460038
"399",2461859
"400",1321991
"401",830857
"402",1584607
"403",1968203
"404",155649
"405",3068325
"406",3067319
"407",2909414
"408",2558344
"409",1356411
"410",534697
"411",335654
"412",1288635
"413",1781377
"414",514635
"415",6577914
"416",3153476
"417",1721556
"418",6636474
"419",1158
"420",1150540
"421",2829780
"422",31518
"423",79879
"424",121980
"425",363906
"426",628052
"427",138010
"428",3665224
"429",5077368
"430",1849298
"431",74403
"432",124320
"433",284339
"434",540723
"435",315752
"436",58
"437",1654
"438",284549
"439",884529
"440",507
"441",17609
"442",178343
"443",479354
"444",207232
"445",3229102
"446",336826
"447",398104
"448",1226826
"449",47979
"450",77802
"451",1946343
"452",2903944
"453",6768895
"454",3134480
"455",902028
"456",13843511
"457",601770
"458",7965687
"459",1421300
"460",3086765
"461",1441681
"462",2946583
"463",281471
"464",7296434
"465",9459925
"466",2563858
"467",263905
"468",786515
"469",5308746
"470",122429
"471",1213754
"472",1023616
"473",741985
"474",81949
"475",1061362
"476",1170990
"477",4497228
"478",5727114
"479",2199309
"480",2269194
"481",208546
"482",145613
"483",1609874
"484",1394018
"485",126388
"486",2596783
"487",1008412
"488",4829846
"489",89094
"490",373904
"491",159274
"492",2272415
"493",1011381
"494",5080594
"495",11676826
"496",103102
"497",835161
"498",2278766
"499",2200141
"500",1678748
"501",3430707
"502",4408816
"503",14323160
"504",3272081
"505",154523
"506",11225366
"507",673842
"508",568807
"509",36312
"510",107835
"511",221571
"512",102211
"513",605494
"514",274409
"515",6057793
"516",6712738
"517",36934
"518",1819709
"519",15022352
"520",63540
"521",1810906
"522",2090304
"523",454394
"524",2157524
"525",1879666
"526",73917
"527",1816941
"528",154183
"529",526204
"530",11704530
"531",3028401
"532",6308670
"533",647165
"534",416936
"535",3034145
"536",120855
"537",2849396
"538",495666
"539",2757391
"540",1235232
"541",444812
"542",1615578
"543",664096
"544",542941
"545",7613912
"546",2035063
"547",5132201
"548",1476094
"549",11544565
"550",2341802
"551",434202
"552",420800
"553",857823
"554",2089820
"555",449438
"556",2785033
"557",49227
"558",1215140
"559",1274629
"560",1013551
"561",3336934
"562",181205
"563",1420889
"564",-121172
"565",3658986
"566",134684
"567",1096869
"568",918990
"569",409256
"570",2787734
"571",1128244
"572",20872
"573",79821
"574",762104
"575",244545
"576",82150
"577",13357
"578",472739
"579",33994
"580",10744
"581",17156
"582",113639
"583",14472
"584",-139065
"585",-99992
"586",126323
"587",659008
"588",1831704
"589",1765865
"590",1309020
"591",1835374
"592",645463
"593",1159008
"594",6125094
"595",2817373
"596",5982208
"597",2233753
"598",2802660
"599",867377
"600",601829
"601",2337778
"602",862713
"603",110128
"604",595000
"605",57622
"606",865017
"607",520296
"608",333198
"609",569765
"610",477570
"611",358198
"612",17206
"613",25403
"614",237001
"615",127201
"616",597533
"617",952288
"618",147042
"619",883146
"620",1220562
"621",3596581
"622",6010868
"623",148465
"624",516524
"625",1837322
"626",5911746
"627",263121
"628",731202
"629",211027
"630",801548
"631",89726
"632",1294671
"633",907401
"634",60535
"635",20644
"636",23179
"637",970403
"638",57822
"639",13234
"640",415520
"641",9973
"642",463944
"643",175703
"644",102118
"645",35084
"646",153069
"647",121907
"648",101719
"649",1008520
"650",679188
"651",874730
"652",3647774
"653",1128750
"654",1003331
"655",64182
"656",526616
"657",268007
"658",150001
"659",44122
"660",70226
"661",118569
"662",59272
"663",67121
"664",2489041
"665",74037
"666",57608
"667",35045
"668",6273629
"669",5901
"670",4110524
"671",718727
"672",17323764
"673",41536
"674",4612909
"675",1823713
"676",115452
"677",1488815
"678",3185409
"679",206427
"680",1097936
"681",962808
"682",6265640
"683",3891558
"684",4215450
"685",140391
"686",642339
"687",1541965
"688",890227
"689",1417299
"690",194416
"691",58812
"692",413490
"693",242937
"694",464499
"695",3843620
"696",215820
"697",1719072
"698",14296607
"699",1487593
"700",1064825
"701",180476
"702",1059271
"703",30046
"704",1174568
"705",1027601
"706",4270005
"707",7375539
"708",262230
"709",730136
"710",1749703
"711",4025777
"712",1046
"713",1024318
"714",5582101
"715",1011104
"716",2607401
"717",291383
"718",148141
"719",22947
"720",473515
"721",663226
"722",3032171
"723",285953
"724",415589
"725",1909564
"726",19753
"727",8529570
"728",1084238
"729",4177737
"730",748614
"731",1520437
"732",2767329
"733",167578
"734",814488
"735",-48882
"736",405775
"737",37115
"738",392660
"739",173450
"740",294859
"741",1469470
"742",-2905
"743",1144955
"744",1996793
"745",211406
"746",1659155
"747",3035601
"748",2255756
"749",131038
"750",450855
"751",31521
"752",448725
"753",725943
"754",4382194
"755",14095724
"756",164354
"757",82806
"758",157128
"759",1198456
"760",6408882
"761",756493
"762",2362294
"763",1198712
"764",593880
"765",6157197
"766",2852957
"767",4292213
"768",566728
"769",6866478
"770",106579
"771",42658
"772",408184
"773",130913
"774",29066
"775",3300
"776",31903
"777",95298
"778",172129
"779",46596
"780",484310
"781",1343179
"782",119244
"783",456985
"784",1953278
"785",2063478
"786",360955
"787",165233
"788",129303
"789",8740660
"790",1385646
"791",5556244
"792",1071220
"793",3420342
"794",310603
"795",501000
"796",951170
"797",4884593
"798",-2392
"799",1699122
"800",207086
"801",3329288
"802",1042060
"803",1591770
"804",5622567
"805",41002
"806",194499
"807",134051
"808",253658
"809",103792
"810",5489
"811",352712
"812",44464
"813",638165
"814",50243
"815",10869804
"816",1838938
"817",2385712
"818",1877146
"819",121923
"820",3878929
"821",224160
"822",22785
"823",328519
"824",68503
"825",367939
"826",2399925
"827",951259
"828",131069
"829",626709
"830",179460
"831",1344830
"832",1513554
"833",2712573
"834",4222329
"835",721868
"836",2835862
"837",1231658
"838",281481
"839",190869
"840",5831816
"841",3700716
"842",969714
"843",4150951
"844",8463336
"845",185185
"846",6375663
"847",878239
"848",6959035
"849",373184
"850",45741
"851",3613921
"852",5342510
"853",250086
"854",556815
"855",2822686
"856",184393
"857",88235
"858",5240551
"859",1644718
"860",587239
"861",477651
"862",2887147
"863",13600818
"864",329848
"865",2335992
"866",67456
"867",67804
"868",78452
"869",1046135
"870",13934
"871",938678
"872",7246602
"873",2031308
"874",8481889
"875",551904
"876",74173
"877",74532
"878",18625
"879",307013
"880",19426
"881",21599
"882",499387
"883",4112784
"884",319132
"885",7646838
"886",2730955
"887",3168772
"888",1625970
"889",5915403
"890",5392775
"891",738555
"892",101110
"893",995502
"894",154975
"895",17610
"896",57970
"897",948166
"898",70824
"899",75956
"900",2577310
"901",3491653
"902",26991754
"903",768966
"904",1456396
"905",1335067
"906",8413290
"907",3857234
"908",6641938
"909",691522
"910",1613418
"911",1148088
"912",337401
"913",845877
"914",519227
"915",9090497
"916",1682958
"917",928653
"918",1860043
"919",646196
"920",239486
"921",209335
"922",1069664
"923",7421269
"924",445151
"925",2930451
"926",2080467
"927",364661
"928",62801
"929",254852
"930",178225
"931",359753
"932",112024
"933",63036
"934",59417
"935",580581
"936",1653328
"937",1793926
"938",242114
"939",2943807
"940",36889
"941",653740
"942",107078
"943",16054
"944",85315
"945",1853586
"946",195022
"947",53733
"948",166747
"949",5568695
"950",2946973
"951",373068
"952",1452904
"953",188566
"954",189795
"955",11741424
"956",2068623
"957",517264
"958",5066698
"959",160704
"960",5292442
"961",73165
"962",69241
"963",1966645
"964",4061863
"965",305509
"966",8135552
"967",45389
"968",875376
"969",6549337
"970",100496
"971",46503
"972",187727
"973",119157
"974",4348940
"975",535885
"976",61964
"977",154215
"978",83888
"979",1310780
"980",2860030
"981",1890633
"982",123741
"983",328917
"984",6521503
"985",28993
"986",50051
"987",410009
"988",1462376
"989",375487
"990",4487487
"991",1755717
"992",1449572
"993",262408
"994",124319
"995",655291
"996",949923
"997",178953
"998",529485
"999",185179
"1000",75029
"1001",501843
"1002",757843
"1003",221470
"1004",177494
"1005",19718
"1006",39856
"1007",237493
"1008",126024
"1009",466068
"1010",488309
"1011",242297
"1012",227379
"1013",6443640
"1014",3124782
"1015",3999371
"1016",464014
"1017",274467
"1018",2706689
"1019",1777406
"1020",521567
"1021",183897
"1022",3070391
"1023",4246299
"1024",230184
"1025",313312
"1026",1214534
"1027",190406
"1028",152394
"1029",290128
"1030",199727
"1031",2738311
"1032",492430
"1033",1222483
"1034",342022
"1035",285756
"1036",353005
"1037",1542876
"1038",241798
"1039",2475027
"1040",5305856
"1041",412314
"1042",8931826
"1043",2982659
"1044",1039615
"1045",219065
"1046",578568
"1047",9584389
"1048",1390970
"1049",820126
"1050",830503
"1051",82909
"1052",866285
"1053",38300
"1054",9764331
"1055",1780930
"1056",500505
"1057",253
"1058",567610
"1059",1119362
"1060",211489
"1061",76275
"1062",57770
"1063",158458
"1064",280379
"1065",55487
"1066",112949
"1067",66604
"1068",19900
"1069",983014
"1070",274253
"1071",65287
"1072",518806
"1073",176649
"1074",114800
"1075",217370
"1076",217181
"1077",79654
"1078",50911
"1079",895635
"1080",639063
"1081",117359
"1082",25421
"1083",167586
"1084",15384
"1085",409086
"1086",261714
"1087",305345
"1088",59432
"1089",1262561
"1090",191014
"1091",2139557
"1092",80138
"1093",20627
"1094",374624
"1095",1093966
"1096",347243
"1097",61625
"1098",637718
"1099",988404
"1100",1469024
"1101",7472644
"1102",784561
"1103",118423
"1104",-7231
"1105",7588449
"1106",352260
"1107",1390471
"1108",4180079
"1109",921074
"1110",395274
"1111",1436802
"1112",778487
"1113",71890
"1114",974070
"1115",1213422
"1116",906213
"1117",3171178
"1118",312311
"1119",262008
"1120",11350
"1121",1666
"1122",1417591
"1123",91501
"1124",184023
"1125",7111
"1126",2886036
"1127",781566
"1128",190703
"1129",28309
"1130",136618
"1131",653370
"1132",245390
"1133",995974
"1134",962267
"1135",1021982
"1136",3541167
"1137",3459362
"1138",402090
"1139",3824502
"1140",3009422
"1141",1493848
"1142",89047
"1143",1699588
"1144",42853
"1145",10670
"1146",22369
"1147",118325
"1148",444904
"1149",6578
"1150",215487
"1151",578405
"1152",1592096
"1153",563973
"1154",258463
"1155",246180
"1156",87931
"1157",2025143
"1158",1542565
"1159",57638
"1160",3237336
"1161",1083938
"1162",1805506
"1163",256152
"1164",506054
"1165",2459796
"1166",830995
"1167",3377587
"1168",1247799
"1169",377859
"1170",566346
"1171",950026
"1172",-19267
"1173",5919435
"1174",847591
"1175",3729878
"1176",1968427
"1177",833031
"1178",747113
"1179",136261
"1180",757706
"1181",3883
"1182",139000
"1183",717642
"1184",216405
"1185",28368
"1186",803015
"1187",161146
"1188",107904
"1189",907852
"1190",762410
"1191",136880
"1192",1740711
"1193",699822
"1194",9280
"1195",105726
"1196",394841
"1197",13308
"1198",168175
"1199",42222
"1200",402638
"1201",603734
"1202",4031
"1203",92916
"1204",26742
"1205",1111742
"1206",4901499
"1207",5784669
"1208",127519
"1209",1862883
"1210",3686024
"1211",58173
"1212",15590993
"1213",3964918
"1214",264
"1215",1604433
"1216",1691364
"1217",3277494
"1218",2393146
"1219",40539
"1220",3603838
"1221",453705
"1222",162
"1223",22964
"1224",305029
"1225",4755814
"1226",2630481
"1227",1882016
"1228",1139265
"1229",28081
"1230",68910
"1231",1272010
"1232",1469029
"1233",710362
"1234",1171397
"1235",5291530
"1236",1348082
"1237",183721
"1238",616280
"1239",69984
"1240",9395157
"1241",288594
"1242",4016715
"1243",95630
"1244",687918
"1245",2180762
"1246",2151757
"1247",2018952
"1248",92376
"1249",1446107
"1250",4103191
"1251",204304
"1252",189631
"1253",1326647
"1254",21502612
"1255",608547
"1256",1625378
"1257",2035611
"1258",17602673
"1259",3801608
"1260",525009
"1261",523339
"1262",294312
"1263",396592
"1264",9848794
"1265",290371
"1266",550525
"1267",324134
"1268",1963244
"1269",352254
"1270",172728
"1271",16238
"1272",730682
"1273",5095
"1274",11192
"1275",68857
"1276",35430
"1277",117408
"1278",378702
"1279",1392796
"1280",4848282
"1281",32446
"1282",214890
"1283",775205
"1284",1317670
"1285",123897
"1286",14220425
"1287",691296
"1288",204600
"1289",86695
"1290",144141
"1291",908742
"1292",2497869
"1293",573077
"1294",2852804
"1295",138813
"1296",1001408
"1297",2297015
"1298",2056555
"1299",213936
"1300",23261
"1301",4313157
"1302",463024
"1303",4592893
"1304",93180
"1305",204634
"1306",587466
"1307",175608
"1308",830755
"1309",779198
"1310",3163
"1311",12591108
"1312",848063
"1313",64365
"1314",824271
"1315",17398
"1316",361907
"1317",836271
"1318",436249
"1319",940690
"1320",1402044
"1321",3438007
"1322",4150141
"1323",247953
"1324",178531
"1325",1301760
"1326",162456
"1327",235561
"1328",53223
"1329",223825
"1330",2148792
"1331",5507052
"1332",2937820
"1333",339892
"1334",87741
"1335",263279
"1336",1919365
"1337",2938012
"1338",461393
"1339",767637
"1340",122588
"1341",43788
"1342",689647
"1343",366609
"1344",665933
"1345",261872
"1346",18599
"1347",724214
"1348",942688
"1349",3583261
"1350",2292050
"1351",100178
"1352",186440
"1353",335477
"1354",2673916
"1355",20919
"1356",678770
"1357",386915
"1358",1219338
"1359",-359697
"1360",679264
"1361",3066116
"1362",877349
"1363",204103
"1364",763433
"1365",907494
"1366",412824
"1367",208350
"1368",598144
"1369",7146
"1370",152100
"1371",2516099
"1372",1445459
"1373",1632522
"1374",821538
"1375",344789
"1376",603878
"1377",254573
"1378",50098
"1379",346659
"1380",690253
"1381",1902377
"1382",118578
"1383",629837
"1384",949266
"1385",135866
"1386",640950
"1387",-5487
"1388",11066
"1389",1035990
"1390",613140
"1391",45448
"1392",1393241
"1393",277749
"1394",367840
"1395",3690357
"1396",1418029
"1397",9889382
"1398",1619598
"1399",101802
"1400",14713
"1401",236824
"1402",117141
"1403",563526
"1404",574097
"1405",268671
"1406",260244
"1407",620217
"1408",1211737
"1409",35975
"1410",113120
"1411",188176
"1412",3933042
"1413",307200
"1414",1630605
"1415",778371
"1416",3197300
"1417",208152
"1418",1193946
"1419",2717009
"1420",636361
"1421",-1776
"1422",1272210
"1423",2282926
"1424",1088214
"1425",3646479
"1426",37133
"1427",303237
"1428",104399
"1429",458703
"1430",359080
"1431",218
"1432",280538
"1433",303181
"1434",12523
"1435",26477
"1436",425881
"1437",398673
"1438",66538
"1439",15202639
"1440",107089
"1441",52967
"1442",223090
"1443",-3026
"1444",2611964
"1445",1184502
"1446",2054560
"1447",1231188
"1448",1082383
"1449",26388
"1450",13415
"1451",23708
"1452",21726
"1453",45909
"1454",577883
"1455",220659
"1456",605702
"1457",8396731
"1458",311110
"1459",39183
"1460",142151
"1461",251384
"1462",5376
"1463",160892
"1464",173463
"1465",205669
"1466",46401
"1467",1009194
"1468",1941722
"1469",3007060
"1470",921899
"1471",4317790
"1472",1405784
"1473",2733
"1474",914568
"1475",2857741
"1476",769316
"1477",20629
"1478",1584387
"1479",425244
"1480",79756
"1481",600364
"1482",28845
"1483",17993
"1484",902598
"1485",100014
"1486",133546
"1487",19633
"1488",815481
"1489",642474
"1490",61416
"1491",312936
"1492",259953
"1493",1343555
"1494",190647
"1495",901253
"1496",279745
"1497",95710
"1498",171572
"1499",53409
"1500",566993
"1501",1092698
"1502",56394
"1503",284449
"1504",9173
"1505",56457
"1506",272577
"1507",208349
"1508",7073271
"1509",1286030
"1510",631789
"1511",177062
"1512",931298
"1513",330374
"1514",533353
"1515",109255
"1516",48533
"1517",1705638
"1518",7231467
"1519",161613
"1520",7468
"1521",529
"1522",103980
"1523",44183
"1524",121750
"1525",1630442
"1526",217589
"1527",1049327
"1528",71191
"1529",577887
"1530",2629689
"1531",4047877
"1532",31355
"1533",548829
"1534",76519
"1535",1447987
"1536",153216
"1537",91732
"1538",337486
"1539",29825
"1540",17567
"1541",90083
"1542",273532
"1543",247337
"1544",580758
"1545",201465
"1546",153782
"1547",449359
"1548",156574
"1549",412639
"1550",76757
"1551",185907
"1552",538420
"1553",96010
"1554",985496
"1555",208164
"1556",340662
"1557",537483
"1558",1514626
"1559",71137
"1560",166225
"1561",261563
"1562",6392840
"1563",739894
"1564",33716
"1565",1214550
"1566",350278
"1567",434849
"1568",521252
"1569",3262460
"1570",214873
"1571",214484
"1572",357276
"1573",716058
"1574",2343029
"1575",265903
"1576",123310
"1577",5326
"1578",4965134
"1579",535310
"1580",181390
"1581",39504
"1582",88691
"1583",131409
"1584",6608
"1585",151649
"1586",15970
"1587",196589
"1588",69407
"1589",53926
"1590",237040
"1591",24829
"1592",1009270
"1593",673479
"1594",1982759
"1595",10368
"1596",738098
"1597",107778
"1598",23516
"1599",286972
"1600",141189
"1601",36722
"1602",210744
"1603",90988
"1604",11029
"1605",63728
"1606",269268
"1607",252187
"1608",402274
"1609",2134354
"1610",2321833
"1611",635564
"1612",566189
"1613",1939832
"1614",204276
"1615",4022451
"1616",288585
"1617",932405
"1618",7396791
"1619",50013
"1620",464638
"1621",1396398
"1622",329888
"1623",7882762
"1624",2420077
"1625",10795181
"1626",351812
"1627",198476
"1628",4504851
"1629",5609087
"1630",978702
"1631",5046154
"1632",142913
"1633",649797
"1634",2481304
"1635",902444
"1636",7678128
"1637",1585384
"1638",3148516
"1639",60623
"1640",698466
"1641",74270
"1642",16298
"1643",112921
"1644",49835
"1645",8184
"1646",14266
"1647",650545
"1648",278641
"1649",25034
"1650",268311
"1651",491519
"1652",685468
"1653",285000
"1654",1051775
"1655",267230
"1656",468427
"1657",286002
"1658",102126
"1659",676638
"1660",75117
"1661",182360
"1662",55340
"1663",3468
"1664",364848
"1665",91874
"1666",1312976
"1667",166381
"1668",104546
"1669",423977
"1670",98444
"1671",274889
"1672",441150
"1673",610666
"1674",299674
"1675",24111
"1676",286782
"1677",509799
"1678",298162
"1679",612686
"1680",781323
"1681",292959
"1682",877733
"1683",420667
"1684",156258
"1685",35705
"1686",47274
"1687",517141
"1688",136979
"1689",326485
"1690",559251
"1691",49627
"1692",29976
"1693",64015
"1694",319827
"1695",270154
"1696",44135
"1697",2157778
"1698",12312904
"1699",167161
"1700",1940
"1701",354109
"1702",72237
"1703",354111
"1704",228806
"1705",2916
"1706",180839
"1707",63353
"1708",496456
"1709",44410
"1710",119675
"1711",408754
"1712",1025882
"1713",585941
"1714",41539
"1715",430903
"1716",71000
"1717",37205
"1718",1266142
"1719",1158149
"1720",88613
"1721",204922
"1722",1047528
"1723",102284
"1724",26221
"1725",201816
"1726",11244
"1727",1103762
"1728",91972
"1729",201397
"1730",100230
"1731",237802
"1732",1005657
"1733",989978
"1734",263157
"1735",4628
"1736",89
"1737",543232
"1738",218392
"1739",118541
"1740",10784
"1741",295272
"1742",397238
"1743",-3774
"1744",47536
"1745",576235
"1746",586253
"1747",258728
"1748",426160
"1749",-21373
"1750",406227
"1751",43995
"1752",211904
"1753",239121
"1754",59004
"1755",103695
"1756",131945
"1757",78848
"1758",762605
"1759",339683
"1760",143894
"1761",401580
"1762",87370
"1763",59917
"1764",391478
"1765",1037380
"1766",608268
"1767",194142
"1768",223654
"1769",194260
"1770",148445
"1771",440702
"1772",77274
"1773",41532
"1774",926906
"1775",402580
"1776",541225
"1777",702715
"1778",513949
"1779",18385
"1780",2199969
"1781",727611
"1782",5110443
"1783",6014988
"1784",168893
"1785",240198
"1786",-154
"1787",1532473
"1788",3011978
"1789",312441
"1790",8264825
"1791",541471
"1792",1485156
"1793",830005
"1794",163332
"1795",488306
"1796",24435
"1797",255914
"1798",254258
"1799",132032
"1800",1111886
"1801",115156
"1802",379411
"1803",182037
"1804",254010
"1805",11225
"1806",6459141
"1807",413528
"1808",61817
"1809",360189
"1810",203579
"1811",1262609
"1812",1691613
"1813",122335
"1814",692259
"1815",6415497
"1816",999070
"1817",979789
"1818",200152
"1819",160192
"1820",1025476
"1821",3332488
"1822",453873
"1823",248929
"1824",7972709
"1825",1228230
"1826",4273007
"1827",1872508
"1828",423442
"1829",484337
"1830",1668869
"1831",83616
"1832",778952
"1833",4996577
"1834",14423
"1835",1098832
"1836",3171773
"1837",426849
"1838",1277210
"1839",131924
"1840",383527
"1841",13835
"1842",396302
"1843",452123
"1844",601347
"1845",2629264
"1846",117147
"1847",342131
"1848",617059
"1849",637271
"1850",754583
"1851",2193085
"1852",463429
"1853",295211
"1854",844193
"1855",177785
"1856",274941
"1857",1041680
"1858",85429
"1859",3267332
"1860",1731624
"1861",673814
"1862",81279
"1863",90712
"1864",399347
"1865",159925
"1866",96688
"1867",605543
"1868",62372
"1869",852459
"1870",891233
"1871",328792
"1872",133079
"1873",254965
"1874",36471
"1875",9297
"1876",409040
"1877",465262
"1878",42778
"1879",1349178
"1880",5702681
"1881",11445
"1882",8514132
"1883",1283376
"1884",300832
"1885",277647
"1886",2589166
"1887",1610956
"1888",176657
"1889",1344543
"1890",2971238
"1891",1697792
"1892",1897749
"1893",6867133
"1894",366221
"1895",4497316
"1896",3237998
"1897",3911795
"1898",1245956
"1899",76362
"1900",546461
"1901",259066
"1902",975591
"1903",38706
"1904",507912
"1905",2699945
"1906",1302859
"1907",145213
"1908",210746
"1909",506094
"1910",81759
"1911",16517477
"1912",132904
"1913",4170550
"1914",436231
"1915",15687684
"1916",8853060
"1917",1008014
"1918",2073992
"1919",3434730
"1920",2883808
"1921",10245093
"1922",3906538
"1923",4816162
"1924",334161
"1925",3369858
"1926",1046471
"1927",928524
"1928",866868
"1929",1766934
"1930",10715851
"1931",3463519
"1932",232649
"1933",493409
"1934",50790
"1935",40700
"1936",231112
"1937",14781
