"","distances"
"1",616036
"2",79980
"3",2289696
"4",2634142
"5",3527722
"6",455185
"7",686391
"8",411973
"9",2008548
"10",5472001
"11",730276
"12",461249
"13",2529013
"14",191189
"15",406566
"16",168607
"17",1278775
"18",-296
"19",498849
"20",338488
"21",646293
"22",114723
"23",2223680
"24",1391691
"25",638798
"26",731188
"27",70665
"28",351316
"29",124334
"30",67841
"31",38004
"32",116419
"33",203093
"34",1544647
"35",372016
"36",81883
"37",530925
"38",61647
"39",142885
"40",1163354
"41",279028
"42",8430
"43",97355
"44",847277
"45",700993
"46",101858
"47",564738
"48",219248
"49",519254
"50",1659190
"51",223026
"52",746648
"53",43322
"54",426899
"55",131861
"56",62817
"57",340183
"58",15350
"59",203518
"60",550613
"61",278935
"62",406725
"63",4236507
"64",232063
"65",928040
"66",1398090
"67",228275
"68",139361
"69",3767468
"70",80696
"71",4656443
"72",2939662
"73",251033
"74",353711
"75",2980803
"76",5284496
"77",1992049
"78",5985489
"79",77181
"80",401328
"81",51816
"82",69227
"83",1656021
"84",2707943
"85",1678216
"86",1980326
"87",420262
"88",1628382
"89",161210
"90",1431649
"91",3358477
"92",906246
"93",-210
"94",2466547
"95",3477145
"96",1924646
"97",257183
"98",264122
"99",67698
"100",24030
"101",235406
"102",431856
"103",1039964
"104",109150
"105",806827
"106",291022
"107",1625835
"108",1306076
"109",1793431
"110",3467124
"111",23769572
"112",590569
"113",24055
"114",25484
"115",1253907
"116",-6436
"117",906554
"118",1668305
"119",337055
"120",304971
"121",66487
"122",643496
"123",412286
"124",83699
"125",1680902
"126",78011
"127",44802
"128",896733
"129",382272
"130",8943
"131",146780
"132",106610
"133",642325
"134",160609
"135",200937
"136",15783
"137",273793
"138",77004
"139",3559887
"140",-128
"141",759134
"142",40965
"143",19091
"144",507168
"145",1062559
"146",2911476
"147",-224
"148",2005111
"149",1457830
"150",1071460
"151",1816743
"152",4413216
"153",1560174
"154",3676782
"155",643829
"156",511252
"157",1080369
"158",1154580
"159",6636557
"160",4444668
"161",5231690
"162",280643
"163",1093785
"164",205379
"165",142918
"166",63320
"167",20490
"168",2540491
"169",1819357
"170",103566
"171",450479
"172",2745551
"173",801925
"174",292594
"175",1230261
"176",7037060
"177",51041
"178",137075
"179",214824
"180",4364337
"181",382855
"182",42618
"183",2953879
"184",2567081
"185",1223171
"186",898251
"187",437701
"188",5290440
"189",1153146
"190",383188
"191",124293
"192",2150887
"193",1510830
"194",857261
"195",3534395
"196",2924645
"197",786684
"198",-1719
"199",6825835
"200",2096401
"201",545088
"202",2935772
"203",783303
"204",963051
"205",578687
"206",289049
"207",112077
"208",301445
"209",10708
"210",215952
"211",21800
"212",728608
"213",432509
"214",2994759
"215",4832410
"216",1911
"217",1210538
"218",104566
"219",260795
"220",1345776
"221",2619783
"222",290462
"223",1655340
"224",7599054
"225",4432621
"226",2503705
"227",375333
"228",279985
"229",2356810
"230",1419289
"231",2851534
"232",1642212
"233",178142
"234",692167
"235",114739
"236",2103181
"237",673805
"238",189048
"239",211093
"240",1749
"241",39395
"242",188818
"243",10287240
"244",359249
"245",248146
"246",500501
"247",2477850
"248",6774174
"249",721814
"250",1150171
"251",222436
"252",1477378
"253",1121804
"254",684884
"255",1484039
"256",2317459
"257",395686
"258",2892483
"259",2726162
"260",390904
"261",7339104
"262",553557
"263",1432232
"264",6499793
"265",5801406
"266",682295
"267",2970565
"268",9447464
"269",3272013
"270",288309
"271",475601
"272",12751650
"273",295234
"274",2306648
"275",704041
"276",285278
"277",1178759
"278",691134
"279",4217226
"280",1026343
"281",719727
"282",341457
"283",3375371
"284",2667628
"285",5116205
"286",345626
"287",455153
"288",928083
"289",4637295
"290",587775
"291",2956309
"292",287125
"293",598122
"294",646538
"295",3970997
"296",3457555
"297",8672726
"298",256939
"299",576785
"300",25375
"301",2848804
"302",490866
"303",759005
"304",2867867
"305",472937
"306",4988838
"307",1909397
"308",3727499
"309",816491
"310",1825610
"311",234363
"312",160441
"313",6832616
"314",51193
"315",10143
"316",-4698
"317",153656
"318",49388
"319",495022
"320",1543699
"321",357597
"322",1119295
"323",553111
"324",1199825
"325",7541361
"326",3426130
"327",864726
"328",3119768
"329",919028
"330",3887813
"331",59488
"332",1312438
"333",554498
"334",1201321
"335",212454
"336",2780174
"337",-1486
"338",603748
"339",239276
"340",100926
"341",2622264
"342",71511
"343",68584
"344",67874
"345",410600
"346",62868
"347",231418
"348",96103
"349",661654
"350",139098
"351",431158
"352",54412
"353",11708
"354",170997
"355",587228
"356",67720
"357",172060
"358",15161
"359",112993
"360",40752
"361",358905
"362",497484
"363",1694575
"364",151770
"365",1623010
"366",4903620
"367",3381386
"368",5738067
"369",15287829
"370",5894187
"371",4450901
"372",1044752
"373",461774
"374",38180
"375",307933
"376",827523
"377",135525
"378",114800
"379",5466808
"380",1260485
"381",3284164
"382",7709659
"383",2592489
"384",32976
"385",443761
"386",1837950
"387",779585
"388",411265
"389",470218
"390",1260077
"391",501541
"392",117622
"393",446340
"394",153478
"395",1534318
"396",345186
"397",97090
"398",1177626
"399",1101797
"400",460038
"401",3785533
"402",433657
"403",2308454
"404",963467
"405",299691
"406",540505
"407",6038396
"408",8883800
"409",186533
"410",2299813
"411",8689578
"412",2834036
"413",7890912
"414",2560215
"415",745911
"416",1098850
"417",1078306
"418",4743277
"419",740725
"420",825380
"421",704849
"422",1849298
"423",121703
"424",419947
"425",641577
"426",210473
"427",484758
"428",23041
"429",262954
"430",375805
"431",740862
"432",416102
"433",3463741
"434",1255430
"435",196258
"436",77802
"437",1574558
"438",366855
"439",2903944
"440",2197297
"441",521120
"442",1521059
"443",6784241
"444",253771
"445",1297345
"446",102327
"447",12433206
"448",42910
"449",44433
"450",156219
"451",4195953
"452",229620
"453",7292776
"454",3835996
"455",43837
"456",9286200
"457",1798253
"458",8395344
"459",1871558
"460",823552
"461",3506192
"462",388253
"463",8807
"464",394417
"465",3880754
"466",10869998
"467",1434475
"468",2736280
"469",2384881
"470",402811
"471",1928577
"472",1432428
"473",414385
"474",2413194
"475",375489
"476",4649878
"477",464175
"478",373904
"479",159274
"480",503583
"481",1757366
"482",5911324
"483",11825035
"484",516541
"485",2799191
"486",1874102
"487",8580946
"488",3443947
"489",1300604
"490",10940378
"491",3408255
"492",2896182
"493",8572777
"494",377419
"495",25836
"496",100032
"497",673367
"498",221571
"499",763085
"500",5109366
"501",7015945
"502",707398
"503",51471
"504",1601253
"505",17369120
"506",907268
"507",2180232
"508",1307358
"509",174642
"510",426079
"511",1050033
"512",69287
"513",11952605
"514",2503714
"515",5906692
"516",759992
"517",1969008
"518",1053616
"519",416936
"520",2983395
"521",172739
"522",655234
"523",2176296
"524",1177762
"525",1850710
"526",161986
"527",2643102
"528",1133049
"529",939580
"530",-335
"531",536561
"532",5566619
"533",855876
"534",2035063
"535",5337679
"536",2908517
"537",10536066
"538",2750532
"539",3414374
"540",3435293
"541",1215140
"542",2401789
"543",317833
"544",3900564
"545",4739354
"546",348422
"547",1234277
"548",281217
"549",31040
"550",461905
"551",22598
"552",409256
"553",732931
"554",1998901
"555",1128244
"556",738057
"557",548285
"558",408611
"559",68792
"560",149827
"561",14472
"562",2037
"563",20247
"564",340330
"565",2145118
"566",4213221
"567",1049361
"568",448494
"569",136815
"570",877924
"571",3699671
"572",2464807
"573",385476
"574",1415961
"575",2637010
"576",6629135
"577",85718
"578",4217279
"579",654829
"580",428944
"581",1233561
"582",708625
"583",46464
"584",110128
"585",272452
"586",420300
"587",27818
"588",248248
"589",627271
"590",350636
"591",144418
"592",205128
"593",623117
"594",538858
"595",425486
"596",1552637
"597",636352
"598",77825
"599",7879925
"600",6010868
"601",42563
"602",147464
"603",6713284
"604",1422352
"605",138493
"606",79521
"607",218632
"608",757081
"609",1542781
"610",963763
"611",396915
"612",214227
"613",89865
"614",893660
"615",21696
"616",104427
"617",36504
"618",52630
"619",61813
"620",1920
"621",69099
"622",1225674
"623",206939
"624",1008520
"625",679188
"626",874730
"627",727346
"628",39177
"629",496622
"630",2891664
"631",485480
"632",680373
"633",131047
"634",811435
"635",144169
"636",49548
"637",65743
"638",32731
"639",111493
"640",296016
"641",3146
"642",67121
"643",613144
"644",1962846
"645",57608
"646",5709293
"647",448062
"648",5901
"649",2372567
"650",1593112
"651",14696870
"652",860072
"653",5566071
"654",968372
"655",159067
"656",1823713
"657",1305126
"658",324065
"659",3499186
"660",942819
"661",132238
"662",246555
"663",7150278
"664",2654533
"665",192318
"666",939221
"667",5164051
"668",1164167
"669",381242
"670",682562
"671",466291
"672",247393
"673",1452504
"674",30461
"675",4940656
"676",-168282
"677",1719072
"678",3080046
"679",4446416
"680",1356680
"681",7939923
"682",758851
"683",52430
"684",6791427
"685",107424
"686",450290
"687",1728903
"688",1027148
"689",2242181
"690",1879056
"691",1612911
"692",4978266
"693",468194
"694",328132
"695",725398
"696",5570968
"697",331650
"698",656591
"699",1198041
"700",508069
"701",3904799
"702",47336
"703",259376
"704",554761
"705",309944
"706",9819361
"707",6399235
"708",120825
"709",368401
"710",995102
"711",1640480
"712",1336317
"713",-421
"714",751314
"715",403344
"716",739272
"717",44359
"718",527926
"719",1469470
"720",-2905
"721",3393796
"722",2082161
"723",1202004
"724",112804
"725",2967102
"726",826457
"727",68552
"728",35179
"729",165541
"730",75818
"731",20331506
"732",82806
"733",157128
"734",866423
"735",245636
"736",208224
"737",272158
"738",36622
"739",5589906
"740",42664
"741",731585
"742",1188955
"743",635465
"744",160238
"745",5959589
"746",4752362
"747",612981
"748",2243043
"749",258121
"750",1178606
"751",365514
"752",85636
"753",76390
"754",1819731
"755",3437190
"756",636855
"757",156667
"758",264541
"759",19306
"760",88937
"761",39530
"762",37381
"763",427044
"764",6853
"765",328117
"766",1968835
"767",25624
"768",119244
"769",532342
"770",32064
"771",781468
"772",2960914
"773",688441
"774",4887417
"775",5244116
"776",6629562
"777",3420342
"778",115044
"779",146239
"780",19045
"781",457020
"782",434851
"783",553085
"784",1101699
"785",7132112
"786",543751
"787",1481167
"788",23066
"789",5191074
"790",276916
"791",202026
"792",41002
"793",340581
"794",253658
"795",138393
"796",476985
"797",864720
"798",278215
"799",3074101
"800",1716758
"801",56493
"802",565874
"803",43523
"804",382515
"805",10026857
"806",929755
"807",394750
"808",3223082
"809",1458315
"810",396917
"811",2396450
"812",1911201
"813",133346
"814",778025
"815",221753
"816",1455317
"817",2365789
"818",1579075
"819",-8829
"820",1521633
"821",2712573
"822",117910
"823",4095645
"824",84170
"825",331637
"826",49829
"827",3883703
"828",665001
"829",4347447
"830",4624313
"831",1816371
"832",4150951
"833",2852879
"834",1513434
"835",2605563
"836",790914
"837",53368
"838",185185
"839",1408674
"840",4961075
"841",355790
"842",281916
"843",3911895
"844",1158743
"845",1512500
"846",4088659
"847",4609568
"848",4830497
"849",4063855
"850",3521055
"851",5825730
"852",239593
"853",10688970
"854",2335992
"855",67456
"856",616303
"857",673058
"858",506854
"859",69396
"860",63201
"861",12691618
"862",4205430
"863",291009
"864",256329
"865",551904
"866",74173
"867",13324
"868",472628
"869",51531
"870",1862753
"871",2663536
"872",50826
"873",98473
"874",322320
"875",3387564
"876",6690831
"877",3309723
"878",1627570
"879",4644753
"880",1268599
"881",5392775
"882",1224142
"883",379774
"884",361022
"885",17610
"886",13128
"887",291496
"888",73520
"889",488582
"890",295156
"891",1260559
"892",151001
"893",375384
"894",506274
"895",25419087
"896",4413541
"897",3383351
"898",3271853
"899",6436418
"900",2147393
"901",46618
"902",7428429
"903",873496
"904",167918
"905",272733
"906",296223
"907",3435293
"908",723051
"909",1614678
"910",2176917
"911",123191
"912",2530916
"913",1378711
"914",1756778
"915",1682958
"916",10348
"917",2729471
"918",97186
"919",919992
"920",361192
"921",7478653
"922",920778
"923",445151
"924",513213
"925",1956789
"926",268840
"927",557406
"928",1480297
"929",334274
"930",143716
"931",179741
"932",213691
"933",381675
"934",99748
"935",212316
"936",-239
"937",459938
"938",176813
"939",754831
"940",1221755
"941",1268306
"942",119669
"943",175449
"944",2349224
"945",266618
"946",36889
"947",288809
"948",283177
"949",109468
"950",51485
"951",360498
"952",1202119
"953",394520
"954",306760
"955",19485
"956",6239731
"957",-4636
"958",1121280
"959",1754286
"960",609477
"961",963446
"962",1010860
"963",2969921
"964",10279036
"965",6020696
"966",160704
"967",4638402
"968",301887
"969",247283
"970",1588532
"971",1581894
"972",1554943
"973",171164
"974",1078378
"975",55900
"976",97685
"977",8058011
"978",1124
"979",45389
"980",9513916
"981",412784
"982",355309
"983",200484
"984",1151376
"985",114395
"986",195145
"987",1647551
"988",131467
"989",379642
"990",123560
"991",326470
"992",210492
"993",44736
"994",1647801
"995",10782569
"996",5476831
"997",834480
"998",3363205
"999",34443
"1000",158247
"1001",27884
"1002",60687
"1003",1635963
"1004",178953
"1005",254968
"1006",140175
"1007",1390548
"1008",477120
"1009",84138
"1010",81661
"1011",78496
"1012",165747
"1013",70398
"1014",126024
"1015",16394
"1016",186942
"1017",303676
"1018",454155
"1019",6159390
"1020",387186
"1021",1904216
"1022",1994018
"1023",4129884
"1024",617638
"1025",2062602
"1026",28287
"1027",856932
"1028",140013
"1029",1792968
"1030",3070391
"1031",5238217
"1032",28172
"1033",83
"1034",154683
"1035",262117
"1036",-11287
"1037",3149499
"1038",3926034
"1039",285756
"1040",686365
"1041",989900
"1042",200490
"1043",241798
"1044",7672
"1045",447945
"1046",219418
"1047",1317329
"1048",3687123
"1049",-57
"1050",1260353
"1051",165890
"1052",412314
"1053",8931826
"1054",2842799
"1055",77851
"1056",1950611
"1057",277140
"1058",9210807
"1059",2502589
"1060",513166
"1061",645177
"1062",134242
"1063",9916795
"1064",71077
"1065",32969
"1066",190213
"1067",52056
"1068",1986589
"1069",1551129
"1070",145804
"1071",292371
"1072",701163
"1073",45008
"1074",16971
"1075",16588
"1076",18224
"1077",45730
"1078",20112
"1079",1006840
"1080",74834
"1081",183461
"1082",522368
"1083",58054
"1084",106259
"1085",187710
"1086",206383
"1087",21943
"1088",141376
"1089",31726
"1090",79654
"1091",203347
"1092",177137
"1093",1055
"1094",12547
"1095",198467
"1096",33269
"1097",210824
"1098",474543
"1099",5505
"1100",25421
"1101",68430
"1102",74946
"1103",18997
"1104",2669813
"1105",1502141
"1106",826075
"1107",20627
"1108",1486644
"1109",409266
"1110",38934
"1111",568025
"1112",720528
"1113",267396
"1114",396194
"1115",463236
"1116",8083869
"1117",563577
"1118",17999
"1119",7068955
"1120",779091
"1121",1768568
"1122",5407441
"1123",5311074
"1124",906213
"1125",3539463
"1126",3422
"1127",152883
"1128",1089830
"1129",3390255
"1130",411271
"1131",1048621
"1132",279992
"1133",511896
"1134",8649
"1135",1218370
"1136",962267
"1137",1248835
"1138",669389
"1139",1441301
"1140",7303214
"1141",2485094
"1142",310158
"1143",260858
"1144",1543981
"1145",22369
"1146",161837
"1147",22941
"1148",33641
"1149",96167
"1150",94379
"1151",217860
"1152",700656
"1153",243934
"1154",19264
"1155",439036
"1156",2062754
"1157",1624735
"1158",163534
"1159",366741
"1160",1564640
"1161",1078851
"1162",6142696
"1163",9008171
"1164",277432
"1165",80040
"1166",950026
"1167",9492797
"1168",3898474
"1169",1590702
"1170",136261
"1171",757706
"1172",1125708
"1173",3216075
"1174",923763
"1175",21069
"1176",1810510
"1177",11891
"1178",15874
"1179",13308
"1180",9450
"1181",205593
"1182",41979
"1183",903930
"1184",36778
"1185",60600
"1186",33541
"1187",145632
"1188",5862873
"1189",580455
"1190",2818154
"1191",952492
"1192",278458
"1193",14833
"1194",2940278
"1195",88809
"1196",3476352
"1197",142
"1198",919109
"1199",2304184
"1200",10256951
"1201",1390039
"1202",2293842
"1203",1775484
"1204",170730
"1205",3129302
"1206",5230371
"1207",813679
"1208",214552
"1209",3671503
"1210",1849
"1211",389376
"1212",462481
"1213",2085738
"1214",416771
"1215",459685
"1216",3816517
"1217",611423
"1218",1549764
"1219",324000
"1220",787348
"1221",383539
"1222",798941
"1223",654430
"1224",937011
"1225",-986
"1226",-42198
"1227",7578627
"1228",899020
"1229",780022
"1230",236592
"1231",4065698
"1232",1225458
"1233",13636
"1234",863153
"1235",1626178
"1236",1996029
"1237",287305
"1238",2164268
"1239",95630
"1240",687918
"1241",120671
"1242",3882316
"1243",205795
"1244",57087
"1245",4195787
"1246",3584645
"1247",234595
"1248",204304
"1249",189631
"1250",1326647
"1251",32091
"1252",2672997
"1253",5955142
"1254",16470777
"1255",10345565
"1256",6877779
"1257",981945
"1258",3148726
"1259",359686
"1260",1489770
"1261",294312
"1262",6193695
"1263",1686632
"1264",1791157
"1265",1497028
"1266",120165
"1267",206111
"1268",377423
"1269",502764
"1270",60859
"1271",75264
"1272",78996
"1273",6241087
"1274",273736
"1275",3955556
"1276",92279
"1277",123897
"1278",421569
"1279",366233
"1280",13372429
"1281",28931
"1282",565298
"1283",-28617
"1284",2006848
"1285",79294
"1286",245077
"1287",1413815
"1288",705963
"1289",-21038
"1290",786828
"1291",2778416
"1292",626569
"1293",1593224
"1294",1887786
"1295",3853916
"1296",1450594
"1297",106127
"1298",4180081
"1299",406132
"1300",1039241
"1301",945733
"1302",803187
"1303",439237
"1304",155363
"1305",10379868
"1306",2402837
"1307",863062
"1308",1285963
"1309",436249
"1310",146130
"1311",340415
"1312",531132
"1313",462173
"1314",23930
"1315",3652973
"1316",507868
"1317",1301225
"1318",1001153
"1319",131313
"1320",177678
"1321",589677
"1322",1417216
"1323",380128
"1324",290081
"1325",338196
"1326",3713755
"1327",2180715
"1328",3015382
"1329",26518
"1330",1169129
"1331",486031
"1332",5450808
"1333",171469
"1334",162234
"1335",60441
"1336",387905
"1337",274320
"1338",50804
"1339",27358
"1340",929260
"1341",867031
"1342",1156232
"1343",824201
"1344",77284
"1345",64316
"1346",3490069
"1347",2292050
"1348",100178
"1349",186440
"1350",143299
"1351",115914
"1352",2673916
"1353",20919
"1354",2544914
"1355",381179
"1356",4108979
"1357",49885
"1358",133957
"1359",1151616
"1360",315444
"1361",23698
"1362",1428269
"1363",853491
"1364",20865
"1365",1011098
"1366",1906428
"1367",1187524
"1368",67920
"1369",1183538
"1370",344789
"1371",905365
"1372",50098
"1373",346659
"1374",534275
"1375",2041526
"1376",53774
"1377",2607394
"1378",49168
"1379",1653493
"1380",1489397
"1381",277749
"1382",84172
"1383",4249492
"1384",191833
"1385",1072769
"1386",112502
"1387",1351452
"1388",6966882
"1389",2030353
"1390",317145
"1391",14713
"1392",154508
"1393",97535
"1394",7970
"1395",1259130
"1396",238739
"1397",58739
"1398",186662
"1399",55394
"1400",151053
"1401",420747
"1402",289617
"1403",800390
"1404",100725
"1405",130785
"1406",483590
"1407",4007040
"1408",5720500
"1409",3478361
"1410",1314516
"1411",2094193
"1412",23978
"1413",973872
"1414",1770115
"1415",96063
"1416",2025264
"1417",1310940
"1418",886626
"1419",364356
"1420",84483
"1421",176566
"1422",9989
"1423",227260
"1424",88270
"1425",77820
"1426",221449
"1427",72450
"1428",148190
"1429",421717
"1430",11511
"1431",15146823
"1432",107089
"1433",322976
"1434",2849338
"1435",179396
"1436",3052443
"1437",2292978
"1438",251005
"1439",577883
"1440",9355347
"1441",61188
"1442",239270
"1443",39183
"1444",190356
"1445",37181
"1446",98131
"1447",363705
"1448",261061
"1449",532658
"1450",46111
"1451",89010
"1452",636721
"1453",160152
"1454",633930
"1455",50667
"1456",754574
"1457",2776936
"1458",471879
"1459",41299
"1460",71188
"1461",2139887
"1462",119306
"1463",1328067
"1464",1597038
"1465",2649758
"1466",850990
"1467",2030415
"1468",808194
"1469",28845
"1470",1136172
"1471",66104
"1472",19633
"1473",815481
"1474",513260
"1475",128049
"1476",724984
"1477",1481009
"1478",374368
"1479",601364
"1480",478
"1481",80638
"1482",20064
"1483",17050
"1484",171572
"1485",1251837
"1486",298850
"1487",292467
"1488",77264
"1489",154048
"1490",14816
"1491",9173
"1492",550302
"1493",121257
"1494",195769
"1495",390781
"1496",6732560
"1497",439105
"1498",142059
"1499",1318957
"1500",70997
"1501",207339
"1502",887560
"1503",46727
"1504",58730
"1505",48533
"1506",191795
"1507",36366
"1508",397026
"1509",907832
"1510",258296
"1511",6972961
"1512",302270
"1513",764871
"1514",1921588
"1515",465228
"1516",6519836
"1517",288766
"1518",178413
"1519",175454
"1520",421664
"1521",1773041
"1522",45891
"1523",91732
"1524",337486
"1525",-12827
"1526",24653
"1527",27866
"1528",246554
"1529",106768
"1530",161112
"1531",612450
"1532",412817
"1533",472956
"1534",419188
"1535",57577
"1536",40897
"1537",76757
"1538",1549624
"1539",17380
"1540",133868
"1541",81630
"1542",214416
"1543",262024
"1544",1166132
"1545",347859
"1546",344555
"1547",12893
"1548",701363
"1549",4058990
"1550",2909783
"1551",660333
"1552",224224
"1553",350278
"1554",98847
"1555",336839
"1556",3199945
"1557",-13967
"1558",77447
"1559",317215
"1560",591011
"1561",4159222
"1562",4050744
"1563",1957079
"1564",89998
"1565",377606
"1566",13266
"1567",118554
"1568",19097
"1569",133362
"1570",8364
"1571",20877
"1572",286983
"1573",1622900
"1574",169545
"1575",18563
"1576",248934
"1577",1569531
"1578",959976
"1579",436897
"1580",84968
"1581",24793
"1582",73296
"1583",201291
"1584",47293
"1585",280488
"1586",2146422
"1587",1886523
"1588",1776183
"1589",614048
"1590",601608
"1591",7764723
"1592",50013
"1593",12146295
"1594",1107260
"1595",783962
"1596",8499617
"1597",1035822
"1598",198476
"1599",644263
"1600",3076673
"1601",4091395
"1602",7520037
"1603",5319464
"1604",1156708
"1605",6479810
"1606",3859937
"1607",47316
"1608",32873
"1609",152678
"1610",21008
"1611",54004
"1612",10526
"1613",16298
"1614",225769
"1615",95686
"1616",252609
"1617",145025
"1618",263565
"1619",84980
"1620",25034
"1621",56133
"1622",408896
"1623",1066713
"1624",107647
"1625",139163
"1626",1702063
"1627",1545065
"1628",566806
"1629",1020112
"1630",82646
"1631",189361
"1632",802180
"1633",64235
"1634",95245
"1635",411149
"1636",196203
"1637",830780
"1638",124099
"1639",91733
"1640",24152
"1641",18564
"1642",109913
"1643",107278
"1644",1119328
"1645",1360821
"1646",1046360
"1647",53555
"1648",705858
"1649",92774
"1650",411309
"1651",288965
"1652",26244
"1653",786814
"1654",29976
"1655",272938
"1656",3487
"1657",270154
"1658",714074
"1659",454811
"1660",231110
"1661",723027
"1662",1163573
"1663",4426641
"1664",1208615
"1665",651101
"1666",2905611
"1667",1034503
"1668",630875
"1669",2184
"1670",122078
"1671",82377
"1672",342650
"1673",372896
"1674",228806
"1675",12698
"1676",238092
"1677",20746
"1678",159840
"1679",206345
"1680",20793
"1681",44410
"1682",42484
"1683",130665
"1684",88214
"1685",182879
"1686",510433
"1687",513392
"1688",95807
"1689",515679
"1690",475917
"1691",23795
"1692",44464
"1693",37205
"1694",5851
"1695",294125
"1696",124591
"1697",87711
"1698",100806
"1699",225269
"1700",305932
"1701",33607
"1702",1074728
"1703",36432
"1704",201101
"1705",76893
"1706",22063
"1707",1164271
"1708",-3673
"1709",288399
"1710",123957
"1711",108445
"1712",68420
"1713",771464
"1714",-11103
"1715",74351
"1716",61646
"1717",131815
"1718",46854
"1719",65728
"1720",32858
"1721",20317
"1722",47564
"1723",627528
"1724",909892
"1725",559589
"1726",125854
"1727",191313
"1728",605729
"1729",336528
"1730",149817
"1731",17144
"1732",1869
"1733",137004
"1734",497733
"1735",295997
"1736",378156
"1737",604742
"1738",80822
"1739",36197
"1740",42573
"1741",181809
"1742",40038
"1743",1131
"1744",43995
"1745",1081940
"1746",1988749
"1747",103803
"1748",39092
"1749",740495
"1750",40153
"1751",287279
"1752",611517
"1753",65772
"1754",587741
"1755",229324
"1756",31217
"1757",45642
"1758",1222025
"1759",53825
"1760",687750
"1761",1099371
"1762",4410763
"1763",182937
"1764",3345546
"1765",3441221
"1766",898789
"1767",19259
"1768",297286
"1769",13074635
"1770",164543
"1771",19219
"1772",1541130
"1773",768273
"1774",502955
"1775",780
"1776",17581
"1777",255914
"1778",392145
"1779",945611
"1780",103062
"1781",115156
"1782",603694
"1783",280000
"1784",297521
"1785",2256298
"1786",3351399
"1787",257205
"1788",605729
"1789",3464956
"1790",9553
"1791",196434
"1792",148648
"1793",222458
"1794",127232
"1795",678935
"1796",120980
"1797",573385
"1798",4600755
"1799",7007873
"1800",577159
"1801",7826
"1802",11357284
"1803",1228230
"1804",2158975
"1805",36427
"1806",2799518
"1807",266385
"1808",931451
"1809",2710079
"1810",1292407
"1811",1648411
"1812",221993
"1813",2352420
"1814",320207
"1815",582400
"1816",179652
"1817",1698030
"1818",1369362
"1819",22725
"1820",69989
"1821",153193
"1822",426849
"1823",1277210
"1824",535672
"1825",914900
"1826",33058
"1827",30
"1828",422176
"1829",437593
"1830",283231
"1831",51740
"1832",1881666
"1833",342131
"1834",617059
"1835",637271
"1836",440180
"1837",176929
"1838",111679
"1839",2014348
"1840",467412
"1841",179705
"1842",63418
"1843",787474
"1844",480448
"1845",443996
"1846",88258
"1847",257759
"1848",36428
"1849",429979
"1850",100297
"1851",4884678
"1852",1617084
"1853",1611785
"1854",609328
"1855",128278
"1856",9297
"1857",219823
"1858",184381
"1859",9339
"1860",161444
"1861",262348
"1862",42778
"1863",812027
"1864",482041
"1865",254260
"1866",301053
"1867",732347
"1868",3983384
"1869",299633
"1870",252801
"1871",1388397
"1872",765754
"1873",7654140
"1874",873641
"1875",2589166
"1876",1610956
"1877",1562315
"1878",646769
"1879",4079236
"1880",8658524
"1881",6840113
"1882",152294
"1883",3667297
"1884",4523212
"1885",76362
"1886",847471
"1887",78154
"1888",886617
"1889",38706
"1890",377098
"1891",18885
"1892",2373845
"1893",405906
"1894",1479596
"1895",210746
"1896",1797887
"1897",228537
"1898",13402077
"1899",2117399
"1900",277243
"1901",1389934
"1902",940842
"1903",757980
"1904",2754007
"1905",13305299
"1906",9979703
"1907",81659
"1908",522475
"1909",456198
"1910",165002
"1911",177245
"1912",150852
"1913",56445
"1914",351832
"1915",15835081
"1916",789552
"1917",282454
"1918",3339138
"1919",5117185
"1920",313560
"1921",199601
"1922",1857378
"1923",1459802
"1924",1976175
"1925",13964565
"1926",344039
"1927",2157645
"1928",186680
"1929",725299
"1930",134719
"1931",75277
"1932",359217
"1933",19715
"1934",16520
"1935",50790
"1936",272052
"1937",995
"1938",437234
