"","query.number","significant","p.value","term.size","query.size","overlap.size","precision","recall","term.id","domain","subgraph.number","term.name","relative.depth","intersection"
"1",1,TRUE,0.0493,2,93,2,0.022,1,"GO:0006212","BP",7,"uracil catabolic process",1,"ENSMUSG00000022304,ENSMUSG00000033308"
"2",1,TRUE,0.000232,1063,93,19,0.204,0.018,"GO:0055114","BP",6,"oxidation-reduction process",1,"ENSMUSG00000001642,ENSMUSG00000004610,ENSMUSG00000009614,ENSMUSG00000014294,ENSMUSG00000022351,ENSMUSG00000033308,ENSMUSG00000033938,ENSMUSG00000034108,ENSMUSG00000037876,ENSMUSG00000052520,ENSMUSG00000052974,ENSMUSG00000053644,ENSMUSG00000062410,ENSMUSG00000063929,ENSMUSG00000064341,ENSMUSG00000064351,ENSMUSG00000064368,ENSMUSG00000067225,ENSMUSG00000092008"
"3",1,TRUE,0.0493,2,93,2,0.022,1,"GO:0090420","BP",5,"naphthalene-containing compound metabolic process",1,"ENSMUSG00000001642,ENSMUSG00000052974"
"4",1,TRUE,0.0493,2,93,2,0.022,1,"GO:0018931","BP",5,"naphthalene metabolic process",1,"ENSMUSG00000001642,ENSMUSG00000052974"
"5",1,TRUE,0.0142,570,93,12,0.129,0.021,"GO:0048037","MF",1,"cofactor binding",1,"ENSMUSG00000009614,ENSMUSG00000022351,ENSMUSG00000032342,ENSMUSG00000033308,ENSMUSG00000052305,ENSMUSG00000052520,ENSMUSG00000052974,ENSMUSG00000063929,ENSMUSG00000064351,ENSMUSG00000067225,ENSMUSG00000069919,ENSMUSG00000092008"
"6",1,TRUE,0.00335,185,93,8,0.086,0.043,"GO:0046906","MF",1,"tetrapyrrole binding",1,"ENSMUSG00000052305,ENSMUSG00000052520,ENSMUSG00000052974,ENSMUSG00000063929,ENSMUSG00000064351,ENSMUSG00000067225,ENSMUSG00000069919,ENSMUSG00000092008"
"7",1,TRUE,0.0023,176,93,8,0.086,0.045,"GO:0020037","MF",1,"heme binding",2,"ENSMUSG00000052305,ENSMUSG00000052520,ENSMUSG00000052974,ENSMUSG00000063929,ENSMUSG00000064351,ENSMUSG00000067225,ENSMUSG00000069919,ENSMUSG00000092008"
"8",1,TRUE,0.0396,35,93,4,0.043,0.114,"GO:0008391","MF",8,"arachidonic acid monooxygenase activity",1,"ENSMUSG00000052974,ENSMUSG00000063929,ENSMUSG00000067225,ENSMUSG00000092008"
"9",1,TRUE,0.0275,32,93,4,0.043,0.125,"GO:0008392","MF",8,"arachidonic acid epoxygenase activity",2,"ENSMUSG00000052974,ENSMUSG00000063929,ENSMUSG00000067225,ENSMUSG00000092008"
"10",1,TRUE,5.18e-08,810,93,21,0.226,0.026,"GO:0016491","MF",9,"oxidoreductase activity",1,"ENSMUSG00000001642,ENSMUSG00000004610,ENSMUSG00000009614,ENSMUSG00000014294,ENSMUSG00000022351,ENSMUSG00000033308,ENSMUSG00000033938,ENSMUSG00000034108,ENSMUSG00000037876,ENSMUSG00000052305,ENSMUSG00000052520,ENSMUSG00000052974,ENSMUSG00000053644,ENSMUSG00000062410,ENSMUSG00000063929,ENSMUSG00000064341,ENSMUSG00000064351,ENSMUSG00000064368,ENSMUSG00000067225,ENSMUSG00000069919,ENSMUSG00000092008"
"11",1,TRUE,0.0241,31,93,4,0.043,0.129,"GO:0003954","MF",3,"NADH dehydrogenase activity",1,"ENSMUSG00000014294,ENSMUSG00000033938,ENSMUSG00000064341,ENSMUSG00000064368"
"12",1,TRUE,0.0158,28,93,4,0.043,0.143,"GO:0050136","MF",3,"NADH dehydrogenase (quinone) activity",2,"ENSMUSG00000014294,ENSMUSG00000033938,ENSMUSG00000064341,ENSMUSG00000064368"
"13",1,TRUE,0.0158,28,93,4,0.043,0.143,"GO:0008137","MF",3,"NADH dehydrogenase (ubiquinone) activity",3,"ENSMUSG00000014294,ENSMUSG00000033938,ENSMUSG00000064341,ENSMUSG00000064368"
"14",1,TRUE,0.0493,2,93,2,0.022,1,"GO:0002061","MF",4,"pyrimidine nucleobase binding",1,"ENSMUSG00000022304,ENSMUSG00000033308"
"15",1,TRUE,0.0493,2,93,2,0.022,1,"GO:0002058","MF",4,"uracil binding",1,"ENSMUSG00000022304,ENSMUSG00000033308"
"16",1,TRUE,0.018,137,53,6,0.113,0.044,"KEGG:00190","keg",2,"Oxidative phosphorylation",1,"ENSMUSG00000014294,ENSMUSG00000033938,ENSMUSG00000038690,ENSMUSG00000064341,ENSMUSG00000064351,ENSMUSG00000064368"
