"","query.number","significant","p.value","term.size","query.size","overlap.size","precision","recall","term.id","domain","subgraph.number","term.name","relative.depth","intersection"
"1",1,TRUE,0.0143,224,94,8,0.085,0.036,"GO:0015850","BP",27,"organic hydroxy compound transport",1,"ENSMUSG00000002944,ENSMUSG00000007655,ENSMUSG00000020102,ENSMUSG00000020458,ENSMUSG00000030237,ENSMUSG00000032080,ENSMUSG00000032231,ENSMUSG00000044254"
"2",1,TRUE,0.0322,11,94,3,0.032,0.273,"GO:0001765","BP",20,"membrane raft assembly",1,"ENSMUSG00000007655,ENSMUSG00000032231,ENSMUSG00000041959"
"3",1,TRUE,6.72e-13,1750,94,36,0.383,0.021,"GO:0044281","BP",19,"small molecule metabolic process",1,"ENSMUSG00000002944,ENSMUSG00000006589,ENSMUSG00000007655,ENSMUSG00000010025,ENSMUSG00000015806,ENSMUSG00000021226,ENSMUSG00000021228,ENSMUSG00000021594,ENSMUSG00000022241,ENSMUSG00000023861,ENSMUSG00000024646,ENSMUSG00000026853,ENSMUSG00000027820,ENSMUSG00000028194,ENSMUSG00000028307,ENSMUSG00000028712,ENSMUSG00000029314,ENSMUSG00000029482,ENSMUSG00000032080,ENSMUSG00000032420,ENSMUSG00000032715,ENSMUSG00000032808,ENSMUSG00000034371,ENSMUSG00000037798,ENSMUSG00000040170,ENSMUSG00000040613,ENSMUSG00000041237,ENSMUSG00000044254,ENSMUSG00000045294,ENSMUSG00000051483,ENSMUSG00000052392,ENSMUSG00000055782,ENSMUSG00000060317,ENSMUSG00000066072,ENSMUSG00000074254,ENSMUSG00000078672"
"4",1,TRUE,0.0102,649,94,13,0.138,0.02,"GO:0055086","BP",19,"nucleobase-containing small molecule metabolic process",1,"ENSMUSG00000006589,ENSMUSG00000021226,ENSMUSG00000021228,ENSMUSG00000023861,ENSMUSG00000028307,ENSMUSG00000029314,ENSMUSG00000032420,ENSMUSG00000034371,ENSMUSG00000040170,ENSMUSG00000040613,ENSMUSG00000041237,ENSMUSG00000052392,ENSMUSG00000060317"
"5",1,TRUE,0.000178,2043,94,27,0.287,0.013,"GO:0009056","BP",19,"catabolic process",1,"ENSMUSG00000004798,ENSMUSG00000015806,ENSMUSG00000021226,ENSMUSG00000022769,ENSMUSG00000024807,ENSMUSG00000025037,ENSMUSG00000026692,ENSMUSG00000027333,ENSMUSG00000027999,ENSMUSG00000028194,ENSMUSG00000028307,ENSMUSG00000028712,ENSMUSG00000029833,ENSMUSG00000032080,ENSMUSG00000032231,ENSMUSG00000032420,ENSMUSG00000032715,ENSMUSG00000034371,ENSMUSG00000037798,ENSMUSG00000039202,ENSMUSG00000040613,ENSMUSG00000041237,ENSMUSG00000044254,ENSMUSG00000047767,ENSMUSG00000052392,ENSMUSG00000055782,ENSMUSG00000066072"
"6",1,TRUE,0.000202,305,94,11,0.117,0.036,"GO:0044282","BP",19,"small molecule catabolic process",2,"ENSMUSG00000015806,ENSMUSG00000021226,ENSMUSG00000028194,ENSMUSG00000028307,ENSMUSG00000028712,ENSMUSG00000034371,ENSMUSG00000037798,ENSMUSG00000040613,ENSMUSG00000052392,ENSMUSG00000055782,ENSMUSG00000066072"
"7",1,TRUE,0.00028,1813,94,25,0.266,0.014,"GO:0044248","BP",19,"cellular catabolic process",2,"ENSMUSG00000004798,ENSMUSG00000015806,ENSMUSG00000021226,ENSMUSG00000022769,ENSMUSG00000024807,ENSMUSG00000025037,ENSMUSG00000026692,ENSMUSG00000027333,ENSMUSG00000028194,ENSMUSG00000028307,ENSMUSG00000028712,ENSMUSG00000032080,ENSMUSG00000032231,ENSMUSG00000032420,ENSMUSG00000032715,ENSMUSG00000034371,ENSMUSG00000037798,ENSMUSG00000039202,ENSMUSG00000040613,ENSMUSG00000041237,ENSMUSG00000044254,ENSMUSG00000047767,ENSMUSG00000052392,ENSMUSG00000055782,ENSMUSG00000066072"
"8",1,TRUE,0.000453,1724,94,24,0.255,0.014,"GO:1901575","BP",19,"organic substance catabolic process",2,"ENSMUSG00000015806,ENSMUSG00000021226,ENSMUSG00000022769,ENSMUSG00000024807,ENSMUSG00000025037,ENSMUSG00000027333,ENSMUSG00000027999,ENSMUSG00000028194,ENSMUSG00000028307,ENSMUSG00000028712,ENSMUSG00000029833,ENSMUSG00000032080,ENSMUSG00000032231,ENSMUSG00000032420,ENSMUSG00000032715,ENSMUSG00000034371,ENSMUSG00000037798,ENSMUSG00000039202,ENSMUSG00000040613,ENSMUSG00000041237,ENSMUSG00000044254,ENSMUSG00000052392,ENSMUSG00000055782,ENSMUSG00000066072"
"9",1,TRUE,1.76e-09,1216,94,27,0.287,0.022,"GO:0006629","BP",19,"lipid metabolic process",1,"ENSMUSG00000002944,ENSMUSG00000007655,ENSMUSG00000010025,ENSMUSG00000021226,ENSMUSG00000021228,ENSMUSG00000021594,ENSMUSG00000024646,ENSMUSG00000026853,ENSMUSG00000027999,ENSMUSG00000028712,ENSMUSG00000028995,ENSMUSG00000029314,ENSMUSG00000029482,ENSMUSG00000032080,ENSMUSG00000032715,ENSMUSG00000032808,ENSMUSG00000039202,ENSMUSG00000040613,ENSMUSG00000044254,ENSMUSG00000045294,ENSMUSG00000052392,ENSMUSG00000052534,ENSMUSG00000055782,ENSMUSG00000060317,ENSMUSG00000066072,ENSMUSG00000074254,ENSMUSG00000078672"
"10",1,TRUE,6.18e-07,645,94,18,0.191,0.028,"GO:0017144","BP",19,"drug metabolic process",1,"ENSMUSG00000002944,ENSMUSG00000006589,ENSMUSG00000007655,ENSMUSG00000010025,ENSMUSG00000015806,ENSMUSG00000021594,ENSMUSG00000025037,ENSMUSG00000026692,ENSMUSG00000027333,ENSMUSG00000028194,ENSMUSG00000028307,ENSMUSG00000032080,ENSMUSG00000032420,ENSMUSG00000034371,ENSMUSG00000037798,ENSMUSG00000040170,ENSMUSG00000041237,ENSMUSG00000051483"
"11",1,TRUE,0.00936,96,94,6,0.064,0.062,"GO:0042737","BP",19,"drug catabolic process",2,"ENSMUSG00000015806,ENSMUSG00000025037,ENSMUSG00000026692,ENSMUSG00000027333,ENSMUSG00000032080,ENSMUSG00000032420"
"12",1,TRUE,3.17e-12,935,94,27,0.287,0.029,"GO:0006082","BP",19,"organic acid metabolic process",1,"ENSMUSG00000002944,ENSMUSG00000007655,ENSMUSG00000010025,ENSMUSG00000015806,ENSMUSG00000021226,ENSMUSG00000021228,ENSMUSG00000022241,ENSMUSG00000023861,ENSMUSG00000024646,ENSMUSG00000026853,ENSMUSG00000028194,ENSMUSG00000028307,ENSMUSG00000028712,ENSMUSG00000029482,ENSMUSG00000032080,ENSMUSG00000032715,ENSMUSG00000032808,ENSMUSG00000034371,ENSMUSG00000037798,ENSMUSG00000040170,ENSMUSG00000041237,ENSMUSG00000045294,ENSMUSG00000052392,ENSMUSG00000055782,ENSMUSG00000060317,ENSMUSG00000066072,ENSMUSG00000074254"
"13",1,TRUE,2e-11,920,94,26,0.277,0.028,"GO:0043436","BP",19,"oxoacid metabolic process",2,"ENSMUSG00000002944,ENSMUSG00000007655,ENSMUSG00000010025,ENSMUSG00000015806,ENSMUSG00000021226,ENSMUSG00000021228,ENSMUSG00000022241,ENSMUSG00000023861,ENSMUSG00000024646,ENSMUSG00000026853,ENSMUSG00000028194,ENSMUSG00000028307,ENSMUSG00000028712,ENSMUSG00000029482,ENSMUSG00000032080,ENSMUSG00000032715,ENSMUSG00000032808,ENSMUSG00000034371,ENSMUSG00000037798,ENSMUSG00000041237,ENSMUSG00000045294,ENSMUSG00000052392,ENSMUSG00000055782,ENSMUSG00000060317,ENSMUSG00000066072,ENSMUSG00000074254"
"14",1,TRUE,7.01e-12,880,94,26,0.277,0.03,"GO:0019752","BP",19,"carboxylic acid metabolic process",3,"ENSMUSG00000002944,ENSMUSG00000007655,ENSMUSG00000010025,ENSMUSG00000015806,ENSMUSG00000021226,ENSMUSG00000021228,ENSMUSG00000022241,ENSMUSG00000023861,ENSMUSG00000024646,ENSMUSG00000026853,ENSMUSG00000028194,ENSMUSG00000028307,ENSMUSG00000028712,ENSMUSG00000029482,ENSMUSG00000032080,ENSMUSG00000032715,ENSMUSG00000032808,ENSMUSG00000034371,ENSMUSG00000037798,ENSMUSG00000041237,ENSMUSG00000045294,ENSMUSG00000052392,ENSMUSG00000055782,ENSMUSG00000060317,ENSMUSG00000066072,ENSMUSG00000074254"
"15",1,TRUE,2.7e-12,547,94,22,0.234,0.04,"GO:0032787","BP",19,"monocarboxylic acid metabolic process",4,"ENSMUSG00000002944,ENSMUSG00000007655,ENSMUSG00000010025,ENSMUSG00000021226,ENSMUSG00000021228,ENSMUSG00000023861,ENSMUSG00000024646,ENSMUSG00000026853,ENSMUSG00000028307,ENSMUSG00000028712,ENSMUSG00000029482,ENSMUSG00000032080,ENSMUSG00000032715,ENSMUSG00000032808,ENSMUSG00000034371,ENSMUSG00000041237,ENSMUSG00000045294,ENSMUSG00000052392,ENSMUSG00000055782,ENSMUSG00000060317,ENSMUSG00000066072,ENSMUSG00000074254"
"16",1,TRUE,0.00885,210,94,8,0.085,0.038,"GO:0016054","BP",19,"organic acid catabolic process",2,"ENSMUSG00000015806,ENSMUSG00000021226,ENSMUSG00000028194,ENSMUSG00000028712,ENSMUSG00000037798,ENSMUSG00000052392,ENSMUSG00000055782,ENSMUSG00000066072"
"17",1,TRUE,0.00885,210,94,8,0.085,0.038,"GO:0046395","BP",19,"carboxylic acid catabolic process",3,"ENSMUSG00000015806,ENSMUSG00000021226,ENSMUSG00000028194,ENSMUSG00000028712,ENSMUSG00000037798,ENSMUSG00000052392,ENSMUSG00000055782,ENSMUSG00000066072"
"18",1,TRUE,0.00603,942,94,16,0.17,0.017,"GO:0019637","BP",19,"organophosphate metabolic process",1,"ENSMUSG00000006589,ENSMUSG00000021226,ENSMUSG00000021228,ENSMUSG00000023861,ENSMUSG00000027999,ENSMUSG00000028307,ENSMUSG00000028995,ENSMUSG00000029314,ENSMUSG00000032080,ENSMUSG00000032420,ENSMUSG00000034371,ENSMUSG00000040170,ENSMUSG00000041237,ENSMUSG00000044254,ENSMUSG00000052392,ENSMUSG00000060317"
"19",1,TRUE,0.0171,577,94,12,0.128,0.021,"GO:0006753","BP",19,"nucleoside phosphate metabolic process",2,"ENSMUSG00000006589,ENSMUSG00000021226,ENSMUSG00000021228,ENSMUSG00000023861,ENSMUSG00000028307,ENSMUSG00000029314,ENSMUSG00000032420,ENSMUSG00000034371,ENSMUSG00000040170,ENSMUSG00000041237,ENSMUSG00000052392,ENSMUSG00000060317"
"20",1,TRUE,0.0154,571,94,12,0.128,0.021,"GO:0009117","BP",19,"nucleotide metabolic process",3,"ENSMUSG00000006589,ENSMUSG00000021226,ENSMUSG00000021228,ENSMUSG00000023861,ENSMUSG00000028307,ENSMUSG00000029314,ENSMUSG00000032420,ENSMUSG00000034371,ENSMUSG00000040170,ENSMUSG00000041237,ENSMUSG00000052392,ENSMUSG00000060317"
"21",1,TRUE,0.0461,436,94,10,0.106,0.023,"GO:0009259","BP",19,"ribonucleotide metabolic process",4,"ENSMUSG00000006589,ENSMUSG00000021226,ENSMUSG00000021228,ENSMUSG00000023861,ENSMUSG00000028307,ENSMUSG00000032420,ENSMUSG00000034371,ENSMUSG00000041237,ENSMUSG00000052392,ENSMUSG00000060317"
"22",1,TRUE,0.0356,423,94,10,0.106,0.024,"GO:0009150","BP",19,"purine ribonucleotide metabolic process",5,"ENSMUSG00000006589,ENSMUSG00000021226,ENSMUSG00000021228,ENSMUSG00000023861,ENSMUSG00000028307,ENSMUSG00000032420,ENSMUSG00000034371,ENSMUSG00000041237,ENSMUSG00000052392,ENSMUSG00000060317"
"23",1,TRUE,1.5e-10,913,94,25,0.266,0.027,"GO:0044255","BP",19,"cellular lipid metabolic process",1,"ENSMUSG00000002944,ENSMUSG00000007655,ENSMUSG00000010025,ENSMUSG00000021226,ENSMUSG00000021228,ENSMUSG00000021594,ENSMUSG00000024646,ENSMUSG00000026853,ENSMUSG00000027999,ENSMUSG00000028712,ENSMUSG00000028995,ENSMUSG00000029314,ENSMUSG00000029482,ENSMUSG00000032080,ENSMUSG00000032715,ENSMUSG00000032808,ENSMUSG00000039202,ENSMUSG00000040613,ENSMUSG00000044254,ENSMUSG00000045294,ENSMUSG00000052392,ENSMUSG00000055782,ENSMUSG00000060317,ENSMUSG00000066072,ENSMUSG00000074254"
"24",1,TRUE,8.9e-05,115,94,8,0.085,0.07,"GO:0006638","BP",19,"neutral lipid metabolic process",2,"ENSMUSG00000002944,ENSMUSG00000007655,ENSMUSG00000029314,ENSMUSG00000032080,ENSMUSG00000039202,ENSMUSG00000040613,ENSMUSG00000044254,ENSMUSG00000045294"
"25",1,TRUE,0.0189,309,94,9,0.096,0.029,"GO:0046486","BP",19,"glycerolipid metabolic process",2,"ENSMUSG00000002944,ENSMUSG00000007655,ENSMUSG00000028995,ENSMUSG00000029314,ENSMUSG00000032080,ENSMUSG00000039202,ENSMUSG00000040613,ENSMUSG00000044254,ENSMUSG00000045294"
"26",1,TRUE,7.75e-05,113,94,8,0.085,0.071,"GO:0006639","BP",19,"acylglycerol metabolic process",3,"ENSMUSG00000002944,ENSMUSG00000007655,ENSMUSG00000029314,ENSMUSG00000032080,ENSMUSG00000039202,ENSMUSG00000040613,ENSMUSG00000044254,ENSMUSG00000045294"
"27",1,TRUE,0.000482,96,94,7,0.074,0.073,"GO:0006641","BP",19,"triglyceride metabolic process",4,"ENSMUSG00000002944,ENSMUSG00000007655,ENSMUSG00000029314,ENSMUSG00000032080,ENSMUSG00000040613,ENSMUSG00000044254,ENSMUSG00000045294"
"28",1,TRUE,4.63e-11,365,94,18,0.191,0.049,"GO:0006631","BP",19,"fatty acid metabolic process",2,"ENSMUSG00000002944,ENSMUSG00000007655,ENSMUSG00000010025,ENSMUSG00000021226,ENSMUSG00000021228,ENSMUSG00000024646,ENSMUSG00000026853,ENSMUSG00000028712,ENSMUSG00000029482,ENSMUSG00000032080,ENSMUSG00000032715,ENSMUSG00000032808,ENSMUSG00000045294,ENSMUSG00000052392,ENSMUSG00000055782,ENSMUSG00000060317,ENSMUSG00000066072,ENSMUSG00000074254"
"29",1,TRUE,0.0208,30,94,4,0.043,0.133,"GO:0000038","BP",19,"very long-chain fatty acid metabolic process",3,"ENSMUSG00000021226,ENSMUSG00000021228,ENSMUSG00000052392,ENSMUSG00000055782"
"30",1,TRUE,1.8e-05,94,94,8,0.085,0.085,"GO:0001676","BP",19,"long-chain fatty acid metabolic process",3,"ENSMUSG00000002944,ENSMUSG00000021226,ENSMUSG00000021228,ENSMUSG00000028712,ENSMUSG00000032808,ENSMUSG00000052392,ENSMUSG00000066072,ENSMUSG00000074254"
"31",1,TRUE,0.0329,1609,94,20,0.213,0.012,"GO:1901700","BP",9,"response to oxygen-containing compound",1,"ENSMUSG00000002944,ENSMUSG00000006589,ENSMUSG00000007655,ENSMUSG00000010025,ENSMUSG00000015806,ENSMUSG00000021594,ENSMUSG00000027248,ENSMUSG00000028051,ENSMUSG00000028307,ENSMUSG00000028456,ENSMUSG00000029482,ENSMUSG00000029833,ENSMUSG00000032080,ENSMUSG00000032715,ENSMUSG00000039202,ENSMUSG00000040613,ENSMUSG00000041237,ENSMUSG00000044254,ENSMUSG00000045294,ENSMUSG00000078672"
"32",1,TRUE,0.0203,2759,94,28,0.298,0.01,"GO:0070887","BP",9,"cellular response to chemical stimulus",1,"ENSMUSG00000002944,ENSMUSG00000005268,ENSMUSG00000006589,ENSMUSG00000007655,ENSMUSG00000014773,ENSMUSG00000015806,ENSMUSG00000021594,ENSMUSG00000022769,ENSMUSG00000023861,ENSMUSG00000025969,ENSMUSG00000027248,ENSMUSG00000027820,ENSMUSG00000028051,ENSMUSG00000028194,ENSMUSG00000028456,ENSMUSG00000029482,ENSMUSG00000029833,ENSMUSG00000030770,ENSMUSG00000032080,ENSMUSG00000032715,ENSMUSG00000039202,ENSMUSG00000040170,ENSMUSG00000040613,ENSMUSG00000041237,ENSMUSG00000044254,ENSMUSG00000045294,ENSMUSG00000056749,ENSMUSG00000078672"
"33",1,TRUE,0.0183,1028,94,16,0.17,0.016,"GO:1901701","BP",9,"cellular response to oxygen-containing compound",2,"ENSMUSG00000002944,ENSMUSG00000006589,ENSMUSG00000007655,ENSMUSG00000021594,ENSMUSG00000027248,ENSMUSG00000028051,ENSMUSG00000028456,ENSMUSG00000029482,ENSMUSG00000029833,ENSMUSG00000032080,ENSMUSG00000032715,ENSMUSG00000040613,ENSMUSG00000041237,ENSMUSG00000044254,ENSMUSG00000045294,ENSMUSG00000078672"
"34",1,TRUE,0.0343,958,94,15,0.16,0.016,"GO:0010243","BP",9,"response to organonitrogen compound",1,"ENSMUSG00000002944,ENSMUSG00000006589,ENSMUSG00000007655,ENSMUSG00000015806,ENSMUSG00000021594,ENSMUSG00000022769,ENSMUSG00000024807,ENSMUSG00000028051,ENSMUSG00000028307,ENSMUSG00000029482,ENSMUSG00000032715,ENSMUSG00000040613,ENSMUSG00000041237,ENSMUSG00000044254,ENSMUSG00000078672"
"35",1,TRUE,0.0156,475,94,11,0.117,0.023,"GO:1901652","BP",9,"response to peptide",2,"ENSMUSG00000002944,ENSMUSG00000006589,ENSMUSG00000007655,ENSMUSG00000015806,ENSMUSG00000021594,ENSMUSG00000028307,ENSMUSG00000032715,ENSMUSG00000040613,ENSMUSG00000041237,ENSMUSG00000044254,ENSMUSG00000078672"
"36",1,TRUE,0.0255,407,94,10,0.106,0.025,"GO:0043434","BP",9,"response to peptide hormone",1,"ENSMUSG00000006589,ENSMUSG00000007655,ENSMUSG00000015806,ENSMUSG00000021594,ENSMUSG00000028307,ENSMUSG00000032715,ENSMUSG00000040613,ENSMUSG00000041237,ENSMUSG00000044254,ENSMUSG00000078672"
"37",1,TRUE,0.0256,321,94,9,0.096,0.028,"GO:1901653","BP",9,"cellular response to peptide",1,"ENSMUSG00000002944,ENSMUSG00000006589,ENSMUSG00000007655,ENSMUSG00000021594,ENSMUSG00000032715,ENSMUSG00000040613,ENSMUSG00000041237,ENSMUSG00000044254,ENSMUSG00000078672"
"38",1,TRUE,0.048,438,94,10,0.106,0.023,"GO:1901615","BP",17,"organic hydroxy compound metabolic process",1,"ENSMUSG00000010025,ENSMUSG00000015806,ENSMUSG00000021594,ENSMUSG00000025037,ENSMUSG00000028712,ENSMUSG00000032080,ENSMUSG00000034371,ENSMUSG00000044254,ENSMUSG00000045294,ENSMUSG00000066072"
"39",1,TRUE,0.00944,149,94,7,0.074,0.047,"GO:0015718","BP",24,"monocarboxylic acid transport",1,"ENSMUSG00000002944,ENSMUSG00000020102,ENSMUSG00000023861,ENSMUSG00000027999,ENSMUSG00000028655,ENSMUSG00000030237,ENSMUSG00000032548"
"40",1,TRUE,2.17e-07,1063,94,23,0.245,0.022,"GO:0055114","BP",21,"oxidation-reduction process",1,"ENSMUSG00000002944,ENSMUSG00000005547,ENSMUSG00000010025,ENSMUSG00000015806,ENSMUSG00000021594,ENSMUSG00000024646,ENSMUSG00000025037,ENSMUSG00000026692,ENSMUSG00000027248,ENSMUSG00000027333,ENSMUSG00000028307,ENSMUSG00000028712,ENSMUSG00000028715,ENSMUSG00000031924,ENSMUSG00000032808,ENSMUSG00000040170,ENSMUSG00000051483,ENSMUSG00000055782,ENSMUSG00000061292,ENSMUSG00000066072,ENSMUSG00000074254,ENSMUSG00000074639,ENSMUSG00000078672"
"41",1,TRUE,3.16e-06,464,94,15,0.16,0.032,"GO:0051186","BP",5,"cofactor metabolic process",1,"ENSMUSG00000001665,ENSMUSG00000015806,ENSMUSG00000021226,ENSMUSG00000021228,ENSMUSG00000023861,ENSMUSG00000025270,ENSMUSG00000028307,ENSMUSG00000032080,ENSMUSG00000032786,ENSMUSG00000034371,ENSMUSG00000037798,ENSMUSG00000040170,ENSMUSG00000041237,ENSMUSG00000052392,ENSMUSG00000060317"
"42",1,TRUE,0.000216,307,94,11,0.117,0.036,"GO:0006732","BP",5,"coenzyme metabolic process",2,"ENSMUSG00000015806,ENSMUSG00000021226,ENSMUSG00000021228,ENSMUSG00000023861,ENSMUSG00000028307,ENSMUSG00000034371,ENSMUSG00000037798,ENSMUSG00000040170,ENSMUSG00000041237,ENSMUSG00000052392,ENSMUSG00000060317"
"43",1,TRUE,0.0162,228,94,8,0.085,0.035,"GO:0051188","BP",5,"cofactor biosynthetic process",2,"ENSMUSG00000015806,ENSMUSG00000023861,ENSMUSG00000025270,ENSMUSG00000028307,ENSMUSG00000032786,ENSMUSG00000034371,ENSMUSG00000037798,ENSMUSG00000041237"
"44",1,TRUE,0.0477,2,94,2,0.021,1,"GO:0006001","BP",13,"fructose catabolic process",1,"ENSMUSG00000028307,ENSMUSG00000034371"
"45",1,TRUE,0.0477,2,94,2,0.021,1,"GO:0061624","BP",13,"fructose catabolic process to hydroxyacetone phosphate and glyceraldehyde-3-phosphate",2,"ENSMUSG00000028307,ENSMUSG00000034371"
"46",1,TRUE,0.0477,2,94,2,0.021,1,"GO:0061625","BP",13,"glycolytic process through fructose-1-phosphate",1,"ENSMUSG00000028307,ENSMUSG00000034371"
"47",1,TRUE,0.0477,2,94,2,0.021,1,"GO:1905595","BP",25,"regulation of low-density lipoprotein particle receptor binding",1,"ENSMUSG00000032231,ENSMUSG00000044254"
"48",1,TRUE,0.00181,380,94,11,0.117,0.029,"GO:0010876","BP",6,"lipid localization",1,"ENSMUSG00000002944,ENSMUSG00000007655,ENSMUSG00000027999,ENSMUSG00000028655,ENSMUSG00000030237,ENSMUSG00000032080,ENSMUSG00000032231,ENSMUSG00000032548,ENSMUSG00000040584,ENSMUSG00000044254,ENSMUSG00000078672"
"49",1,TRUE,0.00421,332,94,10,0.106,0.03,"GO:0006869","BP",6,"lipid transport",1,"ENSMUSG00000002944,ENSMUSG00000007655,ENSMUSG00000027999,ENSMUSG00000028655,ENSMUSG00000030237,ENSMUSG00000032080,ENSMUSG00000032231,ENSMUSG00000032548,ENSMUSG00000040584,ENSMUSG00000044254"
"50",1,TRUE,0.0401,429,94,10,0.106,0.023,"GO:0015711","BP",23,"organic anion transport",1,"ENSMUSG00000002944,ENSMUSG00000020102,ENSMUSG00000023861,ENSMUSG00000027999,ENSMUSG00000028655,ENSMUSG00000030237,ENSMUSG00000030654,ENSMUSG00000032080,ENSMUSG00000032548,ENSMUSG00000040584"
"51",1,TRUE,0.0477,2,94,2,0.021,1,"GO:1990667","CC",15,"PCSK9-AnxA2 complex",1,"ENSMUSG00000032231,ENSMUSG00000044254"
"52",1,TRUE,0.0477,9964,94,63,0.67,0.006,"GO:0016020","CC",3,"membrane",1,"ENSMUSG00000002944,ENSMUSG00000004798,ENSMUSG00000005268,ENSMUSG00000005547,ENSMUSG00000007655,ENSMUSG00000010025,ENSMUSG00000014773,ENSMUSG00000019779,ENSMUSG00000020102,ENSMUSG00000020458,ENSMUSG00000021336,ENSMUSG00000021594,ENSMUSG00000022769,ENSMUSG00000023861,ENSMUSG00000024480,ENSMUSG00000024646,ENSMUSG00000024807,ENSMUSG00000024866,ENSMUSG00000025037,ENSMUSG00000025270,ENSMUSG00000025969,ENSMUSG00000026692,ENSMUSG00000026853,ENSMUSG00000027248,ENSMUSG00000027333,ENSMUSG00000027820,ENSMUSG00000028051,ENSMUSG00000028307,ENSMUSG00000028456,ENSMUSG00000028655,ENSMUSG00000028712,ENSMUSG00000028715,ENSMUSG00000028995,ENSMUSG00000029314,ENSMUSG00000030237,ENSMUSG00000030654,ENSMUSG00000030701,ENSMUSG00000030770,ENSMUSG00000031924,ENSMUSG00000032231,ENSMUSG00000032420,ENSMUSG00000032548,ENSMUSG00000032715,ENSMUSG00000032808,ENSMUSG00000034258,ENSMUSG00000035413,ENSMUSG00000039202,ENSMUSG00000039809,ENSMUSG00000040170,ENSMUSG00000040584,ENSMUSG00000041959,ENSMUSG00000044254,ENSMUSG00000045294,ENSMUSG00000047767,ENSMUSG00000048578,ENSMUSG00000051483,ENSMUSG00000055782,ENSMUSG00000061292,ENSMUSG00000063354,ENSMUSG00000066072,ENSMUSG00000072568,ENSMUSG00000074254,ENSMUSG00000079508"
"53",1,TRUE,0.0013,1427,94,21,0.223,0.015,"GO:0031984","CC",3,"organelle subcompartment",1,"ENSMUSG00000007655,ENSMUSG00000010025,ENSMUSG00000020458,ENSMUSG00000022769,ENSMUSG00000024480,ENSMUSG00000024646,ENSMUSG00000024807,ENSMUSG00000026692,ENSMUSG00000027248,ENSMUSG00000028307,ENSMUSG00000028655,ENSMUSG00000028715,ENSMUSG00000029314,ENSMUSG00000030654,ENSMUSG00000032808,ENSMUSG00000040170,ENSMUSG00000045294,ENSMUSG00000048578,ENSMUSG00000066072,ENSMUSG00000074254,ENSMUSG00000079508"
"54",1,TRUE,0.0474,13275,94,76,0.809,0.006,"GO:0044424","CC",3,"intracellular part",1,"ENSMUSG00000001665,ENSMUSG00000002944,ENSMUSG00000004798,ENSMUSG00000006589,ENSMUSG00000007655,ENSMUSG00000010025,ENSMUSG00000014773,ENSMUSG00000015806,ENSMUSG00000019779,ENSMUSG00000020102,ENSMUSG00000020458,ENSMUSG00000021226,ENSMUSG00000021228,ENSMUSG00000021594,ENSMUSG00000022241,ENSMUSG00000022769,ENSMUSG00000023272,ENSMUSG00000023861,ENSMUSG00000024480,ENSMUSG00000024646,ENSMUSG00000024807,ENSMUSG00000024866,ENSMUSG00000025037,ENSMUSG00000025270,ENSMUSG00000026692,ENSMUSG00000026853,ENSMUSG00000027248,ENSMUSG00000027333,ENSMUSG00000027820,ENSMUSG00000027999,ENSMUSG00000028194,ENSMUSG00000028307,ENSMUSG00000028456,ENSMUSG00000028655,ENSMUSG00000028712,ENSMUSG00000028715,ENSMUSG00000028995,ENSMUSG00000029314,ENSMUSG00000029482,ENSMUSG00000029833,ENSMUSG00000030654,ENSMUSG00000030701,ENSMUSG00000030770,ENSMUSG00000031924,ENSMUSG00000032080,ENSMUSG00000032231,ENSMUSG00000032420,ENSMUSG00000032715,ENSMUSG00000032786,ENSMUSG00000032808,ENSMUSG00000035413,ENSMUSG00000037798,ENSMUSG00000039202,ENSMUSG00000039457,ENSMUSG00000039809,ENSMUSG00000040170,ENSMUSG00000040613,ENSMUSG00000041237,ENSMUSG00000041959,ENSMUSG00000044254,ENSMUSG00000045294,ENSMUSG00000047767,ENSMUSG00000048578,ENSMUSG00000049971,ENSMUSG00000051483,ENSMUSG00000052392,ENSMUSG00000052534,ENSMUSG00000055782,ENSMUSG00000056749,ENSMUSG00000060317,ENSMUSG00000063354,ENSMUSG00000066072,ENSMUSG00000072568,ENSMUSG00000074254,ENSMUSG00000078672,ENSMUSG00000079508"
"55",1,TRUE,4.9e-06,10422,94,73,0.777,0.007,"GO:0005737","CC",3,"cytoplasm",2,"ENSMUSG00000001665,ENSMUSG00000002944,ENSMUSG00000004798,ENSMUSG00000006589,ENSMUSG00000007655,ENSMUSG00000010025,ENSMUSG00000014773,ENSMUSG00000015806,ENSMUSG00000019779,ENSMUSG00000020102,ENSMUSG00000020458,ENSMUSG00000021226,ENSMUSG00000021228,ENSMUSG00000021594,ENSMUSG00000022241,ENSMUSG00000022769,ENSMUSG00000023272,ENSMUSG00000023861,ENSMUSG00000024480,ENSMUSG00000024646,ENSMUSG00000024807,ENSMUSG00000024866,ENSMUSG00000025037,ENSMUSG00000025270,ENSMUSG00000026692,ENSMUSG00000026853,ENSMUSG00000027248,ENSMUSG00000027333,ENSMUSG00000027820,ENSMUSG00000027999,ENSMUSG00000028194,ENSMUSG00000028307,ENSMUSG00000028456,ENSMUSG00000028655,ENSMUSG00000028712,ENSMUSG00000028715,ENSMUSG00000028995,ENSMUSG00000029314,ENSMUSG00000029482,ENSMUSG00000029833,ENSMUSG00000030654,ENSMUSG00000030701,ENSMUSG00000030770,ENSMUSG00000031924,ENSMUSG00000032080,ENSMUSG00000032231,ENSMUSG00000032420,ENSMUSG00000032786,ENSMUSG00000032808,ENSMUSG00000035413,ENSMUSG00000037798,ENSMUSG00000039202,ENSMUSG00000039809,ENSMUSG00000040170,ENSMUSG00000040613,ENSMUSG00000041237,ENSMUSG00000041959,ENSMUSG00000044254,ENSMUSG00000045294,ENSMUSG00000047767,ENSMUSG00000048578,ENSMUSG00000049971,ENSMUSG00000051483,ENSMUSG00000052392,ENSMUSG00000052534,ENSMUSG00000055782,ENSMUSG00000060317,ENSMUSG00000063354,ENSMUSG00000066072,ENSMUSG00000072568,ENSMUSG00000074254,ENSMUSG00000078672,ENSMUSG00000079508"
"56",1,TRUE,0.000111,8155,94,61,0.649,0.007,"GO:0044444","CC",3,"cytoplasmic part",3,"ENSMUSG00000002944,ENSMUSG00000004798,ENSMUSG00000006589,ENSMUSG00000007655,ENSMUSG00000010025,ENSMUSG00000014773,ENSMUSG00000015806,ENSMUSG00000019779,ENSMUSG00000020458,ENSMUSG00000021226,ENSMUSG00000021228,ENSMUSG00000021594,ENSMUSG00000022241,ENSMUSG00000022769,ENSMUSG00000023272,ENSMUSG00000023861,ENSMUSG00000024480,ENSMUSG00000024646,ENSMUSG00000024807,ENSMUSG00000025037,ENSMUSG00000025270,ENSMUSG00000026692,ENSMUSG00000026853,ENSMUSG00000027248,ENSMUSG00000027820,ENSMUSG00000027999,ENSMUSG00000028194,ENSMUSG00000028307,ENSMUSG00000028456,ENSMUSG00000028655,ENSMUSG00000028715,ENSMUSG00000028995,ENSMUSG00000029314,ENSMUSG00000029482,ENSMUSG00000030654,ENSMUSG00000030770,ENSMUSG00000031924,ENSMUSG00000032080,ENSMUSG00000032231,ENSMUSG00000032420,ENSMUSG00000032786,ENSMUSG00000032808,ENSMUSG00000035413,ENSMUSG00000037798,ENSMUSG00000039202,ENSMUSG00000040170,ENSMUSG00000041237,ENSMUSG00000041959,ENSMUSG00000044254,ENSMUSG00000045294,ENSMUSG00000047767,ENSMUSG00000048578,ENSMUSG00000049971,ENSMUSG00000052392,ENSMUSG00000055782,ENSMUSG00000060317,ENSMUSG00000063354,ENSMUSG00000066072,ENSMUSG00000074254,ENSMUSG00000078672,ENSMUSG00000079508"
"57",1,TRUE,0.00753,144,94,7,0.074,0.049,"GO:0042579","CC",3,"microbody",4,"ENSMUSG00000007655,ENSMUSG00000010025,ENSMUSG00000021228,ENSMUSG00000026853,ENSMUSG00000052392,ENSMUSG00000055782,ENSMUSG00000060317"
"58",1,TRUE,0.00753,144,94,7,0.074,0.049,"GO:0005777","CC",3,"peroxisome",5,"ENSMUSG00000007655,ENSMUSG00000010025,ENSMUSG00000021228,ENSMUSG00000026853,ENSMUSG00000052392,ENSMUSG00000055782,ENSMUSG00000060317"
"59",1,TRUE,0.00594,3746,94,35,0.372,0.009,"GO:0012505","CC",3,"endomembrane system",1,"ENSMUSG00000002944,ENSMUSG00000007655,ENSMUSG00000010025,ENSMUSG00000020458,ENSMUSG00000022769,ENSMUSG00000023272,ENSMUSG00000024480,ENSMUSG00000024646,ENSMUSG00000024807,ENSMUSG00000026692,ENSMUSG00000026853,ENSMUSG00000027248,ENSMUSG00000027333,ENSMUSG00000027820,ENSMUSG00000027999,ENSMUSG00000028307,ENSMUSG00000028456,ENSMUSG00000028655,ENSMUSG00000028715,ENSMUSG00000029314,ENSMUSG00000030654,ENSMUSG00000032231,ENSMUSG00000032715,ENSMUSG00000032808,ENSMUSG00000035413,ENSMUSG00000039202,ENSMUSG00000040170,ENSMUSG00000041959,ENSMUSG00000044254,ENSMUSG00000045294,ENSMUSG00000048578,ENSMUSG00000063354,ENSMUSG00000066072,ENSMUSG00000074254,ENSMUSG00000079508"
"60",1,TRUE,9.29e-07,1599,94,27,0.287,0.017,"GO:0005783","CC",3,"endoplasmic reticulum",2,"ENSMUSG00000002944,ENSMUSG00000007655,ENSMUSG00000010025,ENSMUSG00000020458,ENSMUSG00000022769,ENSMUSG00000023272,ENSMUSG00000024646,ENSMUSG00000024807,ENSMUSG00000026692,ENSMUSG00000026853,ENSMUSG00000027248,ENSMUSG00000027999,ENSMUSG00000028307,ENSMUSG00000028655,ENSMUSG00000028715,ENSMUSG00000029314,ENSMUSG00000030654,ENSMUSG00000032808,ENSMUSG00000035413,ENSMUSG00000040170,ENSMUSG00000041959,ENSMUSG00000044254,ENSMUSG00000045294,ENSMUSG00000048578,ENSMUSG00000066072,ENSMUSG00000074254,ENSMUSG00000079508"
"61",1,TRUE,2.92e-06,1001,94,21,0.223,0.021,"GO:0044432","CC",3,"endoplasmic reticulum part",3,"ENSMUSG00000007655,ENSMUSG00000010025,ENSMUSG00000020458,ENSMUSG00000022769,ENSMUSG00000024646,ENSMUSG00000024807,ENSMUSG00000026692,ENSMUSG00000027248,ENSMUSG00000028307,ENSMUSG00000028655,ENSMUSG00000028715,ENSMUSG00000029314,ENSMUSG00000030654,ENSMUSG00000032808,ENSMUSG00000040170,ENSMUSG00000044254,ENSMUSG00000045294,ENSMUSG00000048578,ENSMUSG00000066072,ENSMUSG00000074254,ENSMUSG00000079508"
"62",1,TRUE,2.14e-06,884,94,20,0.213,0.023,"GO:0098827","CC",3,"endoplasmic reticulum subcompartment",4,"ENSMUSG00000007655,ENSMUSG00000010025,ENSMUSG00000020458,ENSMUSG00000022769,ENSMUSG00000024646,ENSMUSG00000024807,ENSMUSG00000026692,ENSMUSG00000027248,ENSMUSG00000028307,ENSMUSG00000028655,ENSMUSG00000028715,ENSMUSG00000029314,ENSMUSG00000030654,ENSMUSG00000032808,ENSMUSG00000040170,ENSMUSG00000045294,ENSMUSG00000048578,ENSMUSG00000066072,ENSMUSG00000074254,ENSMUSG00000079508"
"63",1,TRUE,0.0363,2364,94,25,0.266,0.011,"GO:0031090","CC",3,"organelle membrane",1,"ENSMUSG00000004798,ENSMUSG00000007655,ENSMUSG00000010025,ENSMUSG00000023861,ENSMUSG00000024480,ENSMUSG00000024646,ENSMUSG00000025037,ENSMUSG00000025270,ENSMUSG00000026692,ENSMUSG00000026853,ENSMUSG00000027333,ENSMUSG00000028307,ENSMUSG00000028715,ENSMUSG00000030654,ENSMUSG00000031924,ENSMUSG00000032231,ENSMUSG00000032715,ENSMUSG00000032808,ENSMUSG00000039202,ENSMUSG00000040170,ENSMUSG00000047767,ENSMUSG00000063354,ENSMUSG00000066072,ENSMUSG00000074254,ENSMUSG00000079508"
"64",1,TRUE,2.91e-06,900,94,20,0.213,0.022,"GO:0042175","CC",3,"nuclear outer membrane-endoplasmic reticulum membrane network",1,"ENSMUSG00000007655,ENSMUSG00000010025,ENSMUSG00000020458,ENSMUSG00000022769,ENSMUSG00000024646,ENSMUSG00000024807,ENSMUSG00000026692,ENSMUSG00000027248,ENSMUSG00000028307,ENSMUSG00000028655,ENSMUSG00000028715,ENSMUSG00000029314,ENSMUSG00000030654,ENSMUSG00000032808,ENSMUSG00000040170,ENSMUSG00000045294,ENSMUSG00000048578,ENSMUSG00000066072,ENSMUSG00000074254,ENSMUSG00000079508"
"65",1,TRUE,1.86e-06,877,94,20,0.213,0.023,"GO:0005789","CC",3,"endoplasmic reticulum membrane",2,"ENSMUSG00000007655,ENSMUSG00000010025,ENSMUSG00000020458,ENSMUSG00000022769,ENSMUSG00000024646,ENSMUSG00000024807,ENSMUSG00000026692,ENSMUSG00000027248,ENSMUSG00000028307,ENSMUSG00000028655,ENSMUSG00000028715,ENSMUSG00000029314,ENSMUSG00000030654,ENSMUSG00000032808,ENSMUSG00000040170,ENSMUSG00000045294,ENSMUSG00000048578,ENSMUSG00000066072,ENSMUSG00000074254,ENSMUSG00000079508"
"66",1,TRUE,0.0308,416,94,10,0.106,0.024,"GO:0045177","CC",14,"apical part of cell",1,"ENSMUSG00000002944,ENSMUSG00000007655,ENSMUSG00000014773,ENSMUSG00000021336,ENSMUSG00000024866,ENSMUSG00000027248,ENSMUSG00000028712,ENSMUSG00000040584,ENSMUSG00000063354,ENSMUSG00000066072"
"67",1,TRUE,0.00469,336,94,10,0.106,0.03,"GO:0016324","CC",14,"apical plasma membrane",2,"ENSMUSG00000002944,ENSMUSG00000007655,ENSMUSG00000014773,ENSMUSG00000021336,ENSMUSG00000024866,ENSMUSG00000027248,ENSMUSG00000028712,ENSMUSG00000040584,ENSMUSG00000063354,ENSMUSG00000066072"
"68",1,TRUE,0.00978,25,94,4,0.043,0.16,"GO:0016289","MF",1,"CoA hydrolase activity",1,"ENSMUSG00000021226,ENSMUSG00000021228,ENSMUSG00000052392,ENSMUSG00000060317"
"69",1,TRUE,0.00689,23,94,4,0.043,0.174,"GO:0047617","MF",1,"acyl-CoA hydrolase activity",2,"ENSMUSG00000021226,ENSMUSG00000021228,ENSMUSG00000052392,ENSMUSG00000060317"
"70",1,TRUE,3.44e-07,5935,94,55,0.585,0.009,"GO:0003824","MF",7,"catalytic activity",1,"ENSMUSG00000001665,ENSMUSG00000004798,ENSMUSG00000005547,ENSMUSG00000006589,ENSMUSG00000010025,ENSMUSG00000015806,ENSMUSG00000019779,ENSMUSG00000021226,ENSMUSG00000021228,ENSMUSG00000021594,ENSMUSG00000022241,ENSMUSG00000022769,ENSMUSG00000024646,ENSMUSG00000024807,ENSMUSG00000024866,ENSMUSG00000025037,ENSMUSG00000025270,ENSMUSG00000025969,ENSMUSG00000026692,ENSMUSG00000026853,ENSMUSG00000027248,ENSMUSG00000027333,ENSMUSG00000027820,ENSMUSG00000027999,ENSMUSG00000028194,ENSMUSG00000028307,ENSMUSG00000028712,ENSMUSG00000028715,ENSMUSG00000029314,ENSMUSG00000029482,ENSMUSG00000029833,ENSMUSG00000030513,ENSMUSG00000030711,ENSMUSG00000032420,ENSMUSG00000032786,ENSMUSG00000032808,ENSMUSG00000034371,ENSMUSG00000037798,ENSMUSG00000039202,ENSMUSG00000040170,ENSMUSG00000040584,ENSMUSG00000040613,ENSMUSG00000041237,ENSMUSG00000044254,ENSMUSG00000049971,ENSMUSG00000051483,ENSMUSG00000052392,ENSMUSG00000055782,ENSMUSG00000060317,ENSMUSG00000061292,ENSMUSG00000066072,ENSMUSG00000069668,ENSMUSG00000074254,ENSMUSG00000074639,ENSMUSG00000078672"
"71",1,TRUE,2.25e-05,810,94,18,0.191,0.022,"GO:0016491","MF",7,"oxidoreductase activity",2,"ENSMUSG00000005547,ENSMUSG00000010025,ENSMUSG00000015806,ENSMUSG00000021594,ENSMUSG00000024646,ENSMUSG00000025037,ENSMUSG00000026692,ENSMUSG00000027248,ENSMUSG00000027333,ENSMUSG00000028712,ENSMUSG00000028715,ENSMUSG00000032808,ENSMUSG00000040170,ENSMUSG00000051483,ENSMUSG00000061292,ENSMUSG00000066072,ENSMUSG00000074254,ENSMUSG00000074639"
"72",1,TRUE,4.09e-05,149,94,9,0.096,0.06,"GO:0004497","MF",7,"monooxygenase activity",3,"ENSMUSG00000005547,ENSMUSG00000026692,ENSMUSG00000028712,ENSMUSG00000028715,ENSMUSG00000032808,ENSMUSG00000040170,ENSMUSG00000061292,ENSMUSG00000066072,ENSMUSG00000074254"
"73",1,TRUE,4.85e-05,205,94,10,0.106,0.049,"GO:0016705","MF",7,"oxidoreductase activity, acting on paired donors, with incorporation or reduction of molecular oxygen",3,"ENSMUSG00000005547,ENSMUSG00000024646,ENSMUSG00000026692,ENSMUSG00000028712,ENSMUSG00000028715,ENSMUSG00000032808,ENSMUSG00000040170,ENSMUSG00000061292,ENSMUSG00000066072,ENSMUSG00000074254"
"74",1,TRUE,0.0165,9,94,3,0.032,0.333,"GO:0016713","MF",7,"oxidoreductase activity, acting on paired donors, with incorporation or reduction of molecular oxygen, reduced iron-sulfur protein as one donor, and incorporation of one atom of oxygen",4,"ENSMUSG00000028712,ENSMUSG00000028715,ENSMUSG00000066072"
"75",1,TRUE,0.00396,6,94,3,0.032,0.5,"GO:0018685","MF",7,"alkane 1-monooxygenase activity",5,"ENSMUSG00000028712,ENSMUSG00000028715,ENSMUSG00000066072"
"76",1,TRUE,0.0491,37,94,4,0.043,0.108,"GO:0016709","MF",7,"oxidoreductase activity, acting on paired donors, with incorporation or reduction of molecular oxygen, NAD(P)H as one donor, and incorporation of one atom of oxygen",4,"ENSMUSG00000026692,ENSMUSG00000028712,ENSMUSG00000040170,ENSMUSG00000066072"
"77",1,TRUE,0.000995,35,94,5,0.053,0.143,"GO:0008391","MF",7,"arachidonic acid monooxygenase activity",4,"ENSMUSG00000028712,ENSMUSG00000028715,ENSMUSG00000032808,ENSMUSG00000066072,ENSMUSG00000074254"
"78",1,TRUE,0.0272,32,94,4,0.043,0.125,"GO:0008392","MF",7,"arachidonic acid epoxygenase activity",5,"ENSMUSG00000028712,ENSMUSG00000032808,ENSMUSG00000066072,ENSMUSG00000074254"
"79",1,TRUE,0.00502,48,94,5,0.053,0.104,"GO:0008028","MF",16,"monocarboxylic acid transmembrane transporter activity",1,"ENSMUSG00000020102,ENSMUSG00000023861,ENSMUSG00000028655,ENSMUSG00000030237,ENSMUSG00000032548"
"80",1,TRUE,0.0477,2,94,2,0.021,1,"GO:0016749","MF",2,"N-succinyltransferase activity",1,"ENSMUSG00000025270,ENSMUSG00000032786"
"81",1,TRUE,0.0477,2,94,2,0.021,1,"GO:0003870","MF",2,"5-aminolevulinate synthase activity",2,"ENSMUSG00000025270,ENSMUSG00000032786"
"82",1,TRUE,0.0165,9,94,3,0.032,0.333,"GO:0102991","MF",18,"myristoyl-CoA hydrolase activity",1,"ENSMUSG00000021226,ENSMUSG00000021228,ENSMUSG00000052392"
"83",1,TRUE,7.56e-07,570,94,17,0.181,0.03,"GO:0048037","MF",10,"cofactor binding",1,"ENSMUSG00000005547,ENSMUSG00000015806,ENSMUSG00000021594,ENSMUSG00000024646,ENSMUSG00000025037,ENSMUSG00000025270,ENSMUSG00000026692,ENSMUSG00000028712,ENSMUSG00000028715,ENSMUSG00000031924,ENSMUSG00000032786,ENSMUSG00000032808,ENSMUSG00000034258,ENSMUSG00000040170,ENSMUSG00000061292,ENSMUSG00000066072,ENSMUSG00000074254"
"84",1,TRUE,1.82e-05,185,94,10,0.106,0.054,"GO:0046906","MF",10,"tetrapyrrole binding",1,"ENSMUSG00000005547,ENSMUSG00000024646,ENSMUSG00000028712,ENSMUSG00000028715,ENSMUSG00000031924,ENSMUSG00000032808,ENSMUSG00000034258,ENSMUSG00000061292,ENSMUSG00000066072,ENSMUSG00000074254"
"85",1,TRUE,1.12e-05,176,94,10,0.106,0.057,"GO:0020037","MF",10,"heme binding",2,"ENSMUSG00000005547,ENSMUSG00000024646,ENSMUSG00000028712,ENSMUSG00000028715,ENSMUSG00000031924,ENSMUSG00000032808,ENSMUSG00000034258,ENSMUSG00000061292,ENSMUSG00000066072,ENSMUSG00000074254"
"86",1,TRUE,0.00885,210,94,8,0.085,0.038,"GO:0005506","MF",22,"iron ion binding",1,"ENSMUSG00000005547,ENSMUSG00000028712,ENSMUSG00000028715,ENSMUSG00000032420,ENSMUSG00000032808,ENSMUSG00000061292,ENSMUSG00000066072,ENSMUSG00000074254"
"87",1,TRUE,0.00753,6034,94,47,0.5,0.008,"GO:0043167","MF",12,"ion binding",1,"ENSMUSG00000002944,ENSMUSG00000004798,ENSMUSG00000005268,ENSMUSG00000005547,ENSMUSG00000006589,ENSMUSG00000014773,ENSMUSG00000015806,ENSMUSG00000019779,ENSMUSG00000021594,ENSMUSG00000022241,ENSMUSG00000023272,ENSMUSG00000024646,ENSMUSG00000024863,ENSMUSG00000024866,ENSMUSG00000025037,ENSMUSG00000025270,ENSMUSG00000025969,ENSMUSG00000026692,ENSMUSG00000027820,ENSMUSG00000027999,ENSMUSG00000028051,ENSMUSG00000028194,ENSMUSG00000028307,ENSMUSG00000028456,ENSMUSG00000028712,ENSMUSG00000028715,ENSMUSG00000029482,ENSMUSG00000029833,ENSMUSG00000030513,ENSMUSG00000031924,ENSMUSG00000032080,ENSMUSG00000032231,ENSMUSG00000032420,ENSMUSG00000032715,ENSMUSG00000032786,ENSMUSG00000032808,ENSMUSG00000034371,ENSMUSG00000037798,ENSMUSG00000040170,ENSMUSG00000040584,ENSMUSG00000040613,ENSMUSG00000041237,ENSMUSG00000041959,ENSMUSG00000055782,ENSMUSG00000061292,ENSMUSG00000066072,ENSMUSG00000074254"
"88",1,TRUE,0.0238,2782,94,28,0.298,0.01,"GO:0043168","MF",12,"anion binding",2,"ENSMUSG00000002944,ENSMUSG00000004798,ENSMUSG00000006589,ENSMUSG00000015806,ENSMUSG00000019779,ENSMUSG00000021594,ENSMUSG00000022241,ENSMUSG00000024863,ENSMUSG00000025037,ENSMUSG00000025270,ENSMUSG00000025969,ENSMUSG00000026692,ENSMUSG00000028051,ENSMUSG00000028194,ENSMUSG00000028307,ENSMUSG00000028456,ENSMUSG00000028715,ENSMUSG00000029482,ENSMUSG00000030513,ENSMUSG00000032080,ENSMUSG00000032231,ENSMUSG00000032715,ENSMUSG00000032786,ENSMUSG00000034371,ENSMUSG00000037798,ENSMUSG00000040170,ENSMUSG00000040584,ENSMUSG00000055782"
"89",1,TRUE,0.0259,50,55,4,0.073,0.08,"KEGG:00071","keg",4,"Fatty acid degradation",1,"ENSMUSG00000010025,ENSMUSG00000028712,ENSMUSG00000028715,ENSMUSG00000066072"
"90",1,TRUE,0.00235,91,55,6,0.109,0.066,"KEGG:00830","keg",11,"Retinol metabolism",1,"ENSMUSG00000005547,ENSMUSG00000028712,ENSMUSG00000028715,ENSMUSG00000032808,ENSMUSG00000066072,ENSMUSG00000074254"
"91",1,TRUE,0.000625,1351,55,23,0.418,0.017,"KEGG:01100","keg",26,"Metabolic pathways",1,"ENSMUSG00000005547,ENSMUSG00000006589,ENSMUSG00000010025,ENSMUSG00000015806,ENSMUSG00000021226,ENSMUSG00000021228,ENSMUSG00000025037,ENSMUSG00000025270,ENSMUSG00000027999,ENSMUSG00000028307,ENSMUSG00000028712,ENSMUSG00000028715,ENSMUSG00000029314,ENSMUSG00000032420,ENSMUSG00000032786,ENSMUSG00000032808,ENSMUSG00000034371,ENSMUSG00000037798,ENSMUSG00000041237,ENSMUSG00000051483,ENSMUSG00000052392,ENSMUSG00000066072,ENSMUSG00000074254"
"92",1,TRUE,0.00221,90,55,6,0.109,0.067,"KEGG:00590","keg",8,"Arachidonic acid metabolism",1,"ENSMUSG00000027999,ENSMUSG00000028712,ENSMUSG00000028715,ENSMUSG00000032808,ENSMUSG00000051483,ENSMUSG00000066072"
