"","query.number","significant","p.value","term.size","query.size","overlap.size","precision","recall","term.id","domain","subgraph.number","term.name","relative.depth","intersection"
"1",1,TRUE,0.0166,980,98,16,0.163,0.016,"GO:0060284","BP",2,"regulation of cell development",1,"ENSMUSG00000003814,ENSMUSG00000007655,ENSMUSG00000010175,ENSMUSG00000020458,ENSMUSG00000022682,ENSMUSG00000026031,ENSMUSG00000026833,ENSMUSG00000026864,ENSMUSG00000030357,ENSMUSG00000038648,ENSMUSG00000041936,ENSMUSG00000046876,ENSMUSG00000049044,ENSMUSG00000051391,ENSMUSG00000052534,ENSMUSG00000053110"
"2",1,TRUE,0.00904,934,98,16,0.163,0.017,"GO:0051960","BP",2,"regulation of nervous system development",1,"ENSMUSG00000003814,ENSMUSG00000007655,ENSMUSG00000010175,ENSMUSG00000020458,ENSMUSG00000022682,ENSMUSG00000026031,ENSMUSG00000026833,ENSMUSG00000026864,ENSMUSG00000030357,ENSMUSG00000038648,ENSMUSG00000041936,ENSMUSG00000046876,ENSMUSG00000049044,ENSMUSG00000051391,ENSMUSG00000052534,ENSMUSG00000053110"
"3",1,TRUE,0.00252,846,98,16,0.163,0.019,"GO:0050767","BP",2,"regulation of neurogenesis",2,"ENSMUSG00000003814,ENSMUSG00000007655,ENSMUSG00000010175,ENSMUSG00000020458,ENSMUSG00000022682,ENSMUSG00000026031,ENSMUSG00000026833,ENSMUSG00000026864,ENSMUSG00000030357,ENSMUSG00000038648,ENSMUSG00000041936,ENSMUSG00000046876,ENSMUSG00000049044,ENSMUSG00000051391,ENSMUSG00000052534,ENSMUSG00000053110"
"4",1,TRUE,0.00675,700,98,14,0.143,0.02,"GO:0045664","BP",2,"regulation of neuron differentiation",3,"ENSMUSG00000003814,ENSMUSG00000007655,ENSMUSG00000010175,ENSMUSG00000020458,ENSMUSG00000022682,ENSMUSG00000026031,ENSMUSG00000026833,ENSMUSG00000026864,ENSMUSG00000030357,ENSMUSG00000038648,ENSMUSG00000041936,ENSMUSG00000049044,ENSMUSG00000051391,ENSMUSG00000052534"
"5",1,TRUE,0.0119,8,98,3,0.031,0.375,"GO:0007000","BP",3,"nucleolus organization",1,"ENSMUSG00000022682,ENSMUSG00000027395,ENSMUSG00000033909"
"6",1,TRUE,0.000715,1088,98,19,0.194,0.017,"GO:1901698","BP",5,"response to nitrogen compound",1,"ENSMUSG00000002944,ENSMUSG00000006676,ENSMUSG00000007655,ENSMUSG00000014905,ENSMUSG00000016921,ENSMUSG00000020048,ENSMUSG00000020176,ENSMUSG00000020964,ENSMUSG00000026031,ENSMUSG00000026688,ENSMUSG00000026864,ENSMUSG00000030659,ENSMUSG00000032271,ENSMUSG00000036646,ENSMUSG00000037965,ENSMUSG00000039804,ENSMUSG00000041936,ENSMUSG00000051391,ENSMUSG00000079012"
"7",1,TRUE,0.0076,3131,98,32,0.327,0.01,"GO:0010033","BP",5,"response to organic substance",1,"ENSMUSG00000002944,ENSMUSG00000003814,ENSMUSG00000006676,ENSMUSG00000007655,ENSMUSG00000014905,ENSMUSG00000016921,ENSMUSG00000019947,ENSMUSG00000020048,ENSMUSG00000020176,ENSMUSG00000020964,ENSMUSG00000024513,ENSMUSG00000026031,ENSMUSG00000026688,ENSMUSG00000026864,ENSMUSG00000027248,ENSMUSG00000029657,ENSMUSG00000029833,ENSMUSG00000030357,ENSMUSG00000030659,ENSMUSG00000031381,ENSMUSG00000032271,ENSMUSG00000036646,ENSMUSG00000037965,ENSMUSG00000038648,ENSMUSG00000039804,ENSMUSG00000040033,ENSMUSG00000041936,ENSMUSG00000051391,ENSMUSG00000053110,ENSMUSG00000063511,ENSMUSG00000074254,ENSMUSG00000079012"
"8",1,TRUE,0.00266,958,98,17,0.173,0.018,"GO:0010243","BP",5,"response to organonitrogen compound",2,"ENSMUSG00000002944,ENSMUSG00000006676,ENSMUSG00000007655,ENSMUSG00000014905,ENSMUSG00000016921,ENSMUSG00000020048,ENSMUSG00000020176,ENSMUSG00000020964,ENSMUSG00000026031,ENSMUSG00000026688,ENSMUSG00000026864,ENSMUSG00000030659,ENSMUSG00000032271,ENSMUSG00000036646,ENSMUSG00000039804,ENSMUSG00000051391,ENSMUSG00000079012"
"9",1,TRUE,0.041,935,98,15,0.153,0.016,"GO:0006082","BP",4,"organic acid metabolic process",1,"ENSMUSG00000002944,ENSMUSG00000007655,ENSMUSG00000010175,ENSMUSG00000021228,ENSMUSG00000021884,ENSMUSG00000026688,ENSMUSG00000028194,ENSMUSG00000030659,ENSMUSG00000040170,ENSMUSG00000055782,ENSMUSG00000060317,ENSMUSG00000066072,ENSMUSG00000070985,ENSMUSG00000074254,ENSMUSG00000074882"
"10",1,TRUE,0.0458,2759,98,28,0.286,0.01,"GO:0070887","BP",10,"cellular response to chemical stimulus",1,"ENSMUSG00000002944,ENSMUSG00000003814,ENSMUSG00000006676,ENSMUSG00000007655,ENSMUSG00000014905,ENSMUSG00000019947,ENSMUSG00000020048,ENSMUSG00000020176,ENSMUSG00000024513,ENSMUSG00000026031,ENSMUSG00000026688,ENSMUSG00000026864,ENSMUSG00000027248,ENSMUSG00000028194,ENSMUSG00000029657,ENSMUSG00000029833,ENSMUSG00000030357,ENSMUSG00000030659,ENSMUSG00000031381,ENSMUSG00000037965,ENSMUSG00000038648,ENSMUSG00000039804,ENSMUSG00000040033,ENSMUSG00000040170,ENSMUSG00000041936,ENSMUSG00000051391,ENSMUSG00000053110,ENSMUSG00000063511"
"11",1,TRUE,0.0102,11180,98,72,0.735,0.006,"GO:0008152","BP",1,"metabolic process",1,"ENSMUSG00000001774,ENSMUSG00000002455,ENSMUSG00000002944,ENSMUSG00000003814,ENSMUSG00000006676,ENSMUSG00000007655,ENSMUSG00000010175,ENSMUSG00000012428,ENSMUSG00000014905,ENSMUSG00000016921,ENSMUSG00000019947,ENSMUSG00000020048,ENSMUSG00000020176,ENSMUSG00000020964,ENSMUSG00000021228,ENSMUSG00000021884,ENSMUSG00000022682,ENSMUSG00000024513,ENSMUSG00000025037,ENSMUSG00000026020,ENSMUSG00000026031,ENSMUSG00000026688,ENSMUSG00000026833,ENSMUSG00000026864,ENSMUSG00000027248,ENSMUSG00000027395,ENSMUSG00000027580,ENSMUSG00000028194,ENSMUSG00000028715,ENSMUSG00000028995,ENSMUSG00000029657,ENSMUSG00000029833,ENSMUSG00000030036,ENSMUSG00000030357,ENSMUSG00000030527,ENSMUSG00000030659,ENSMUSG00000031381,ENSMUSG00000032271,ENSMUSG00000032420,ENSMUSG00000033909,ENSMUSG00000034780,ENSMUSG00000035948,ENSMUSG00000036151,ENSMUSG00000036646,ENSMUSG00000037965,ENSMUSG00000038648,ENSMUSG00000039218,ENSMUSG00000039804,ENSMUSG00000040033,ENSMUSG00000040170,ENSMUSG00000040363,ENSMUSG00000041096,ENSMUSG00000041229,ENSMUSG00000041936,ENSMUSG00000046794,ENSMUSG00000046876,ENSMUSG00000049516,ENSMUSG00000051391,ENSMUSG00000052534,ENSMUSG00000052752,ENSMUSG00000053110,ENSMUSG00000055782,ENSMUSG00000060317,ENSMUSG00000063362,ENSMUSG00000063488,ENSMUSG00000063511,ENSMUSG00000066072,ENSMUSG00000070544,ENSMUSG00000070985,ENSMUSG00000074254,ENSMUSG00000074882,ENSMUSG00000079012"
"12",1,TRUE,0.0456,1063,98,16,0.163,0.015,"GO:0055114","BP",1,"oxidation-reduction process",2,"ENSMUSG00000002944,ENSMUSG00000012428,ENSMUSG00000020176,ENSMUSG00000021884,ENSMUSG00000025037,ENSMUSG00000027248,ENSMUSG00000028715,ENSMUSG00000030659,ENSMUSG00000040170,ENSMUSG00000041229,ENSMUSG00000046794,ENSMUSG00000051391,ENSMUSG00000055782,ENSMUSG00000066072,ENSMUSG00000074254,ENSMUSG00000074882"
"13",1,TRUE,0.0137,215,98,8,0.082,0.037,"GO:0034976","BP",6,"response to endoplasmic reticulum stress",1,"ENSMUSG00000006676,ENSMUSG00000014905,ENSMUSG00000020048,ENSMUSG00000020964,ENSMUSG00000026864,ENSMUSG00000027248,ENSMUSG00000036646,ENSMUSG00000038648"
"14",1,TRUE,0.000182,1216,98,21,0.214,0.017,"GO:0006629","BP",8,"lipid metabolic process",1,"ENSMUSG00000002944,ENSMUSG00000007655,ENSMUSG00000010175,ENSMUSG00000020964,ENSMUSG00000021228,ENSMUSG00000021884,ENSMUSG00000026688,ENSMUSG00000028995,ENSMUSG00000030527,ENSMUSG00000030659,ENSMUSG00000031381,ENSMUSG00000034780,ENSMUSG00000036151,ENSMUSG00000052534,ENSMUSG00000055782,ENSMUSG00000060317,ENSMUSG00000063362,ENSMUSG00000066072,ENSMUSG00000070985,ENSMUSG00000074254,ENSMUSG00000074882"
"15",1,TRUE,0.00676,913,98,16,0.163,0.018,"GO:0044255","BP",8,"cellular lipid metabolic process",1,"ENSMUSG00000002944,ENSMUSG00000007655,ENSMUSG00000020964,ENSMUSG00000021228,ENSMUSG00000021884,ENSMUSG00000028995,ENSMUSG00000030659,ENSMUSG00000031381,ENSMUSG00000034780,ENSMUSG00000055782,ENSMUSG00000060317,ENSMUSG00000063362,ENSMUSG00000066072,ENSMUSG00000070985,ENSMUSG00000074254,ENSMUSG00000074882"
"16",1,TRUE,0.0146,547,98,12,0.122,0.022,"GO:0032787","BP",8,"monocarboxylic acid metabolic process",1,"ENSMUSG00000002944,ENSMUSG00000007655,ENSMUSG00000010175,ENSMUSG00000021228,ENSMUSG00000021884,ENSMUSG00000030659,ENSMUSG00000055782,ENSMUSG00000060317,ENSMUSG00000066072,ENSMUSG00000070985,ENSMUSG00000074254,ENSMUSG00000074882"
"17",1,TRUE,0.00177,365,98,11,0.112,0.03,"GO:0006631","BP",8,"fatty acid metabolic process",2,"ENSMUSG00000002944,ENSMUSG00000007655,ENSMUSG00000021228,ENSMUSG00000021884,ENSMUSG00000030659,ENSMUSG00000055782,ENSMUSG00000060317,ENSMUSG00000066072,ENSMUSG00000070985,ENSMUSG00000074254,ENSMUSG00000074882"
"18",1,TRUE,2.66e-05,11903,98,80,0.816,0.007,"GO:0043226","CC",11,"organelle",1,"ENSMUSG00000002455,ENSMUSG00000002944,ENSMUSG00000003814,ENSMUSG00000004462,ENSMUSG00000006676,ENSMUSG00000007655,ENSMUSG00000010175,ENSMUSG00000012428,ENSMUSG00000014905,ENSMUSG00000016831,ENSMUSG00000016921,ENSMUSG00000019947,ENSMUSG00000020048,ENSMUSG00000020142,ENSMUSG00000020198,ENSMUSG00000020458,ENSMUSG00000020869,ENSMUSG00000020964,ENSMUSG00000020994,ENSMUSG00000021228,ENSMUSG00000021884,ENSMUSG00000021973,ENSMUSG00000022682,ENSMUSG00000024513,ENSMUSG00000025037,ENSMUSG00000026020,ENSMUSG00000026417,ENSMUSG00000026688,ENSMUSG00000026833,ENSMUSG00000026864,ENSMUSG00000027248,ENSMUSG00000027395,ENSMUSG00000027580,ENSMUSG00000028194,ENSMUSG00000028398,ENSMUSG00000028465,ENSMUSG00000028715,ENSMUSG00000029101,ENSMUSG00000029407,ENSMUSG00000029657,ENSMUSG00000029833,ENSMUSG00000030036,ENSMUSG00000030357,ENSMUSG00000030527,ENSMUSG00000030659,ENSMUSG00000031381,ENSMUSG00000032420,ENSMUSG00000033909,ENSMUSG00000034780,ENSMUSG00000035948,ENSMUSG00000036151,ENSMUSG00000036270,ENSMUSG00000036646,ENSMUSG00000038648,ENSMUSG00000039218,ENSMUSG00000039367,ENSMUSG00000039804,ENSMUSG00000040033,ENSMUSG00000040170,ENSMUSG00000040363,ENSMUSG00000041096,ENSMUSG00000041229,ENSMUSG00000041936,ENSMUSG00000046794,ENSMUSG00000046876,ENSMUSG00000049044,ENSMUSG00000049516,ENSMUSG00000051391,ENSMUSG00000052534,ENSMUSG00000052752,ENSMUSG00000053110,ENSMUSG00000055782,ENSMUSG00000060317,ENSMUSG00000063362,ENSMUSG00000063488,ENSMUSG00000063511,ENSMUSG00000066072,ENSMUSG00000070544,ENSMUSG00000070985,ENSMUSG00000074254"
"19",1,TRUE,0.000357,8171,98,62,0.633,0.008,"GO:0044422","CC",11,"organelle part",2,"ENSMUSG00000002455,ENSMUSG00000003814,ENSMUSG00000004462,ENSMUSG00000006676,ENSMUSG00000007655,ENSMUSG00000012428,ENSMUSG00000014905,ENSMUSG00000016831,ENSMUSG00000016921,ENSMUSG00000020048,ENSMUSG00000020142,ENSMUSG00000020198,ENSMUSG00000020458,ENSMUSG00000020869,ENSMUSG00000020964,ENSMUSG00000020994,ENSMUSG00000021973,ENSMUSG00000022682,ENSMUSG00000024513,ENSMUSG00000025037,ENSMUSG00000026020,ENSMUSG00000026417,ENSMUSG00000026688,ENSMUSG00000026864,ENSMUSG00000027248,ENSMUSG00000027395,ENSMUSG00000027580,ENSMUSG00000028398,ENSMUSG00000028715,ENSMUSG00000029101,ENSMUSG00000029407,ENSMUSG00000029657,ENSMUSG00000029833,ENSMUSG00000030036,ENSMUSG00000030357,ENSMUSG00000030527,ENSMUSG00000030659,ENSMUSG00000031381,ENSMUSG00000032420,ENSMUSG00000033909,ENSMUSG00000034780,ENSMUSG00000036151,ENSMUSG00000036270,ENSMUSG00000036646,ENSMUSG00000038648,ENSMUSG00000039218,ENSMUSG00000039367,ENSMUSG00000040170,ENSMUSG00000040363,ENSMUSG00000041096,ENSMUSG00000041229,ENSMUSG00000041936,ENSMUSG00000046876,ENSMUSG00000049044,ENSMUSG00000049516,ENSMUSG00000052534,ENSMUSG00000053110,ENSMUSG00000063362,ENSMUSG00000063511,ENSMUSG00000066072,ENSMUSG00000070544,ENSMUSG00000074254"
"20",1,TRUE,2.1e-06,10644,98,77,0.786,0.007,"GO:0043227","CC",11,"membrane-bounded organelle",2,"ENSMUSG00000002455,ENSMUSG00000002944,ENSMUSG00000003814,ENSMUSG00000006676,ENSMUSG00000007655,ENSMUSG00000010175,ENSMUSG00000012428,ENSMUSG00000014905,ENSMUSG00000016831,ENSMUSG00000016921,ENSMUSG00000019947,ENSMUSG00000020048,ENSMUSG00000020142,ENSMUSG00000020198,ENSMUSG00000020458,ENSMUSG00000020869,ENSMUSG00000020964,ENSMUSG00000020994,ENSMUSG00000021228,ENSMUSG00000021884,ENSMUSG00000021973,ENSMUSG00000022682,ENSMUSG00000024513,ENSMUSG00000025037,ENSMUSG00000026020,ENSMUSG00000026417,ENSMUSG00000026688,ENSMUSG00000026833,ENSMUSG00000026864,ENSMUSG00000027248,ENSMUSG00000027395,ENSMUSG00000027580,ENSMUSG00000028194,ENSMUSG00000028398,ENSMUSG00000028715,ENSMUSG00000029101,ENSMUSG00000029407,ENSMUSG00000029657,ENSMUSG00000029833,ENSMUSG00000030036,ENSMUSG00000030357,ENSMUSG00000030527,ENSMUSG00000030659,ENSMUSG00000031381,ENSMUSG00000032420,ENSMUSG00000033909,ENSMUSG00000034780,ENSMUSG00000035948,ENSMUSG00000036151,ENSMUSG00000036270,ENSMUSG00000036646,ENSMUSG00000038648,ENSMUSG00000039218,ENSMUSG00000039367,ENSMUSG00000039804,ENSMUSG00000040033,ENSMUSG00000040170,ENSMUSG00000040363,ENSMUSG00000041096,ENSMUSG00000041229,ENSMUSG00000041936,ENSMUSG00000046794,ENSMUSG00000046876,ENSMUSG00000049516,ENSMUSG00000051391,ENSMUSG00000052534,ENSMUSG00000052752,ENSMUSG00000053110,ENSMUSG00000055782,ENSMUSG00000060317,ENSMUSG00000063362,ENSMUSG00000063488,ENSMUSG00000063511,ENSMUSG00000066072,ENSMUSG00000070544,ENSMUSG00000070985,ENSMUSG00000074254"
"21",1,TRUE,2.45e-05,13871,98,87,0.888,0.006,"GO:0005622","CC",11,"intracellular",1,"ENSMUSG00000002455,ENSMUSG00000002944,ENSMUSG00000003814,ENSMUSG00000004462,ENSMUSG00000006676,ENSMUSG00000007655,ENSMUSG00000010175,ENSMUSG00000012428,ENSMUSG00000014905,ENSMUSG00000016831,ENSMUSG00000016921,ENSMUSG00000019947,ENSMUSG00000020048,ENSMUSG00000020142,ENSMUSG00000020176,ENSMUSG00000020198,ENSMUSG00000020458,ENSMUSG00000020869,ENSMUSG00000020964,ENSMUSG00000020994,ENSMUSG00000021228,ENSMUSG00000021884,ENSMUSG00000021973,ENSMUSG00000022682,ENSMUSG00000024513,ENSMUSG00000025037,ENSMUSG00000026020,ENSMUSG00000026031,ENSMUSG00000026417,ENSMUSG00000026688,ENSMUSG00000026833,ENSMUSG00000026864,ENSMUSG00000027248,ENSMUSG00000027395,ENSMUSG00000027580,ENSMUSG00000028194,ENSMUSG00000028398,ENSMUSG00000028465,ENSMUSG00000028715,ENSMUSG00000028995,ENSMUSG00000029101,ENSMUSG00000029407,ENSMUSG00000029657,ENSMUSG00000029833,ENSMUSG00000030036,ENSMUSG00000030357,ENSMUSG00000030527,ENSMUSG00000030659,ENSMUSG00000031381,ENSMUSG00000032271,ENSMUSG00000032420,ENSMUSG00000033909,ENSMUSG00000034780,ENSMUSG00000035948,ENSMUSG00000036151,ENSMUSG00000036270,ENSMUSG00000036646,ENSMUSG00000038648,ENSMUSG00000039218,ENSMUSG00000039367,ENSMUSG00000039804,ENSMUSG00000040033,ENSMUSG00000040170,ENSMUSG00000040363,ENSMUSG00000041096,ENSMUSG00000041229,ENSMUSG00000041762,ENSMUSG00000041936,ENSMUSG00000046794,ENSMUSG00000046876,ENSMUSG00000049044,ENSMUSG00000049516,ENSMUSG00000051391,ENSMUSG00000052534,ENSMUSG00000052752,ENSMUSG00000053110,ENSMUSG00000053841,ENSMUSG00000055782,ENSMUSG00000060317,ENSMUSG00000063362,ENSMUSG00000063488,ENSMUSG00000063511,ENSMUSG00000066072,ENSMUSG00000070544,ENSMUSG00000070985,ENSMUSG00000072568,ENSMUSG00000074254"
"22",1,TRUE,1.13e-06,13275,98,87,0.888,0.007,"GO:0044424","CC",11,"intracellular part",2,"ENSMUSG00000002455,ENSMUSG00000002944,ENSMUSG00000003814,ENSMUSG00000004462,ENSMUSG00000006676,ENSMUSG00000007655,ENSMUSG00000010175,ENSMUSG00000012428,ENSMUSG00000014905,ENSMUSG00000016831,ENSMUSG00000016921,ENSMUSG00000019947,ENSMUSG00000020048,ENSMUSG00000020142,ENSMUSG00000020176,ENSMUSG00000020198,ENSMUSG00000020458,ENSMUSG00000020869,ENSMUSG00000020964,ENSMUSG00000020994,ENSMUSG00000021228,ENSMUSG00000021884,ENSMUSG00000021973,ENSMUSG00000022682,ENSMUSG00000024513,ENSMUSG00000025037,ENSMUSG00000026020,ENSMUSG00000026031,ENSMUSG00000026417,ENSMUSG00000026688,ENSMUSG00000026833,ENSMUSG00000026864,ENSMUSG00000027248,ENSMUSG00000027395,ENSMUSG00000027580,ENSMUSG00000028194,ENSMUSG00000028398,ENSMUSG00000028465,ENSMUSG00000028715,ENSMUSG00000028995,ENSMUSG00000029101,ENSMUSG00000029407,ENSMUSG00000029657,ENSMUSG00000029833,ENSMUSG00000030036,ENSMUSG00000030357,ENSMUSG00000030527,ENSMUSG00000030659,ENSMUSG00000031381,ENSMUSG00000032271,ENSMUSG00000032420,ENSMUSG00000033909,ENSMUSG00000034780,ENSMUSG00000035948,ENSMUSG00000036151,ENSMUSG00000036270,ENSMUSG00000036646,ENSMUSG00000038648,ENSMUSG00000039218,ENSMUSG00000039367,ENSMUSG00000039804,ENSMUSG00000040033,ENSMUSG00000040170,ENSMUSG00000040363,ENSMUSG00000041096,ENSMUSG00000041229,ENSMUSG00000041762,ENSMUSG00000041936,ENSMUSG00000046794,ENSMUSG00000046876,ENSMUSG00000049044,ENSMUSG00000049516,ENSMUSG00000051391,ENSMUSG00000052534,ENSMUSG00000052752,ENSMUSG00000053110,ENSMUSG00000053841,ENSMUSG00000055782,ENSMUSG00000060317,ENSMUSG00000063362,ENSMUSG00000063488,ENSMUSG00000063511,ENSMUSG00000066072,ENSMUSG00000070544,ENSMUSG00000070985,ENSMUSG00000072568,ENSMUSG00000074254"
"23",1,TRUE,0.000109,10422,98,73,0.745,0.007,"GO:0005737","CC",11,"cytoplasm",3,"ENSMUSG00000002944,ENSMUSG00000003814,ENSMUSG00000004462,ENSMUSG00000006676,ENSMUSG00000007655,ENSMUSG00000010175,ENSMUSG00000012428,ENSMUSG00000014905,ENSMUSG00000020048,ENSMUSG00000020142,ENSMUSG00000020176,ENSMUSG00000020198,ENSMUSG00000020458,ENSMUSG00000020869,ENSMUSG00000020964,ENSMUSG00000021228,ENSMUSG00000021884,ENSMUSG00000021973,ENSMUSG00000024513,ENSMUSG00000025037,ENSMUSG00000026020,ENSMUSG00000026031,ENSMUSG00000026417,ENSMUSG00000026688,ENSMUSG00000026833,ENSMUSG00000026864,ENSMUSG00000027248,ENSMUSG00000027395,ENSMUSG00000028194,ENSMUSG00000028398,ENSMUSG00000028465,ENSMUSG00000028715,ENSMUSG00000028995,ENSMUSG00000029101,ENSMUSG00000029407,ENSMUSG00000029657,ENSMUSG00000029833,ENSMUSG00000030036,ENSMUSG00000030357,ENSMUSG00000030527,ENSMUSG00000030659,ENSMUSG00000031381,ENSMUSG00000032271,ENSMUSG00000032420,ENSMUSG00000033909,ENSMUSG00000034780,ENSMUSG00000035948,ENSMUSG00000036151,ENSMUSG00000036270,ENSMUSG00000036646,ENSMUSG00000038648,ENSMUSG00000039367,ENSMUSG00000040033,ENSMUSG00000040170,ENSMUSG00000041096,ENSMUSG00000041762,ENSMUSG00000041936,ENSMUSG00000046794,ENSMUSG00000046876,ENSMUSG00000049044,ENSMUSG00000051391,ENSMUSG00000052534,ENSMUSG00000053110,ENSMUSG00000053841,ENSMUSG00000055782,ENSMUSG00000060317,ENSMUSG00000063362,ENSMUSG00000063511,ENSMUSG00000066072,ENSMUSG00000070544,ENSMUSG00000070985,ENSMUSG00000072568,ENSMUSG00000074254"
"24",1,TRUE,0.000329,8155,98,62,0.633,0.008,"GO:0044444","CC",11,"cytoplasmic part",4,"ENSMUSG00000002944,ENSMUSG00000003814,ENSMUSG00000006676,ENSMUSG00000007655,ENSMUSG00000012428,ENSMUSG00000014905,ENSMUSG00000020048,ENSMUSG00000020142,ENSMUSG00000020176,ENSMUSG00000020198,ENSMUSG00000020458,ENSMUSG00000020869,ENSMUSG00000020964,ENSMUSG00000021228,ENSMUSG00000021884,ENSMUSG00000021973,ENSMUSG00000024513,ENSMUSG00000025037,ENSMUSG00000026020,ENSMUSG00000026031,ENSMUSG00000026417,ENSMUSG00000026688,ENSMUSG00000026833,ENSMUSG00000026864,ENSMUSG00000027248,ENSMUSG00000027395,ENSMUSG00000028194,ENSMUSG00000028398,ENSMUSG00000028715,ENSMUSG00000028995,ENSMUSG00000029101,ENSMUSG00000029407,ENSMUSG00000029657,ENSMUSG00000030036,ENSMUSG00000030357,ENSMUSG00000030527,ENSMUSG00000030659,ENSMUSG00000031381,ENSMUSG00000032271,ENSMUSG00000032420,ENSMUSG00000034780,ENSMUSG00000035948,ENSMUSG00000036151,ENSMUSG00000036270,ENSMUSG00000036646,ENSMUSG00000038648,ENSMUSG00000039367,ENSMUSG00000040033,ENSMUSG00000040170,ENSMUSG00000041936,ENSMUSG00000046794,ENSMUSG00000046876,ENSMUSG00000049044,ENSMUSG00000051391,ENSMUSG00000053110,ENSMUSG00000055782,ENSMUSG00000060317,ENSMUSG00000063362,ENSMUSG00000066072,ENSMUSG00000070544,ENSMUSG00000070985,ENSMUSG00000074254"
"25",1,TRUE,0.000106,11660,98,78,0.796,0.007,"GO:0043229","CC",11,"intracellular organelle",3,"ENSMUSG00000002455,ENSMUSG00000002944,ENSMUSG00000003814,ENSMUSG00000004462,ENSMUSG00000006676,ENSMUSG00000007655,ENSMUSG00000010175,ENSMUSG00000012428,ENSMUSG00000014905,ENSMUSG00000016831,ENSMUSG00000016921,ENSMUSG00000019947,ENSMUSG00000020048,ENSMUSG00000020142,ENSMUSG00000020198,ENSMUSG00000020458,ENSMUSG00000020869,ENSMUSG00000020964,ENSMUSG00000020994,ENSMUSG00000021228,ENSMUSG00000021884,ENSMUSG00000021973,ENSMUSG00000022682,ENSMUSG00000024513,ENSMUSG00000025037,ENSMUSG00000026020,ENSMUSG00000026417,ENSMUSG00000026688,ENSMUSG00000026833,ENSMUSG00000026864,ENSMUSG00000027248,ENSMUSG00000027395,ENSMUSG00000027580,ENSMUSG00000028194,ENSMUSG00000028398,ENSMUSG00000028465,ENSMUSG00000028715,ENSMUSG00000029101,ENSMUSG00000029407,ENSMUSG00000029657,ENSMUSG00000029833,ENSMUSG00000030036,ENSMUSG00000030357,ENSMUSG00000030527,ENSMUSG00000030659,ENSMUSG00000031381,ENSMUSG00000032420,ENSMUSG00000033909,ENSMUSG00000034780,ENSMUSG00000035948,ENSMUSG00000036151,ENSMUSG00000036270,ENSMUSG00000036646,ENSMUSG00000038648,ENSMUSG00000039218,ENSMUSG00000039367,ENSMUSG00000039804,ENSMUSG00000040033,ENSMUSG00000040170,ENSMUSG00000040363,ENSMUSG00000041096,ENSMUSG00000041229,ENSMUSG00000041936,ENSMUSG00000046794,ENSMUSG00000046876,ENSMUSG00000049516,ENSMUSG00000052534,ENSMUSG00000052752,ENSMUSG00000053110,ENSMUSG00000055782,ENSMUSG00000060317,ENSMUSG00000063362,ENSMUSG00000063488,ENSMUSG00000063511,ENSMUSG00000066072,ENSMUSG00000070544,ENSMUSG00000070985,ENSMUSG00000074254"
"26",1,TRUE,0.000321,7938,98,61,0.622,0.008,"GO:0044446","CC",11,"intracellular organelle part",4,"ENSMUSG00000002455,ENSMUSG00000003814,ENSMUSG00000004462,ENSMUSG00000006676,ENSMUSG00000007655,ENSMUSG00000012428,ENSMUSG00000014905,ENSMUSG00000016831,ENSMUSG00000016921,ENSMUSG00000020048,ENSMUSG00000020142,ENSMUSG00000020198,ENSMUSG00000020458,ENSMUSG00000020869,ENSMUSG00000020964,ENSMUSG00000020994,ENSMUSG00000021973,ENSMUSG00000022682,ENSMUSG00000024513,ENSMUSG00000025037,ENSMUSG00000026020,ENSMUSG00000026417,ENSMUSG00000026688,ENSMUSG00000026864,ENSMUSG00000027248,ENSMUSG00000027395,ENSMUSG00000027580,ENSMUSG00000028398,ENSMUSG00000028715,ENSMUSG00000029101,ENSMUSG00000029407,ENSMUSG00000029657,ENSMUSG00000029833,ENSMUSG00000030036,ENSMUSG00000030357,ENSMUSG00000030527,ENSMUSG00000030659,ENSMUSG00000031381,ENSMUSG00000032420,ENSMUSG00000033909,ENSMUSG00000034780,ENSMUSG00000036151,ENSMUSG00000036270,ENSMUSG00000036646,ENSMUSG00000038648,ENSMUSG00000039218,ENSMUSG00000039367,ENSMUSG00000040170,ENSMUSG00000040363,ENSMUSG00000041096,ENSMUSG00000041229,ENSMUSG00000041936,ENSMUSG00000046876,ENSMUSG00000049516,ENSMUSG00000052534,ENSMUSG00000053110,ENSMUSG00000063362,ENSMUSG00000063511,ENSMUSG00000066072,ENSMUSG00000070544,ENSMUSG00000074254"
"27",1,TRUE,0.0475,4097,98,36,0.367,0.009,"GO:0044428","CC",11,"nuclear part",5,"ENSMUSG00000002455,ENSMUSG00000003814,ENSMUSG00000014905,ENSMUSG00000016831,ENSMUSG00000016921,ENSMUSG00000020458,ENSMUSG00000020869,ENSMUSG00000020994,ENSMUSG00000022682,ENSMUSG00000024513,ENSMUSG00000026020,ENSMUSG00000026688,ENSMUSG00000026864,ENSMUSG00000027395,ENSMUSG00000027580,ENSMUSG00000029101,ENSMUSG00000029407,ENSMUSG00000029657,ENSMUSG00000029833,ENSMUSG00000030357,ENSMUSG00000030527,ENSMUSG00000030659,ENSMUSG00000032420,ENSMUSG00000033909,ENSMUSG00000036270,ENSMUSG00000038648,ENSMUSG00000039218,ENSMUSG00000040363,ENSMUSG00000041096,ENSMUSG00000041229,ENSMUSG00000046876,ENSMUSG00000049516,ENSMUSG00000052534,ENSMUSG00000053110,ENSMUSG00000063511,ENSMUSG00000070544"
"28",1,TRUE,1.09e-06,1427,98,26,0.265,0.018,"GO:0031984","CC",11,"organelle subcompartment",5,"ENSMUSG00000003814,ENSMUSG00000006676,ENSMUSG00000007655,ENSMUSG00000012428,ENSMUSG00000020048,ENSMUSG00000020198,ENSMUSG00000020458,ENSMUSG00000020869,ENSMUSG00000020964,ENSMUSG00000026688,ENSMUSG00000026864,ENSMUSG00000027248,ENSMUSG00000028715,ENSMUSG00000029407,ENSMUSG00000030036,ENSMUSG00000030659,ENSMUSG00000031381,ENSMUSG00000034780,ENSMUSG00000036151,ENSMUSG00000036646,ENSMUSG00000038648,ENSMUSG00000039367,ENSMUSG00000040170,ENSMUSG00000063362,ENSMUSG00000066072,ENSMUSG00000074254"
"29",1,TRUE,2.74e-06,9957,98,74,0.755,0.007,"GO:0043231","CC",11,"intracellular membrane-bounded organelle",4,"ENSMUSG00000002455,ENSMUSG00000002944,ENSMUSG00000003814,ENSMUSG00000006676,ENSMUSG00000007655,ENSMUSG00000010175,ENSMUSG00000012428,ENSMUSG00000014905,ENSMUSG00000016831,ENSMUSG00000016921,ENSMUSG00000019947,ENSMUSG00000020048,ENSMUSG00000020198,ENSMUSG00000020458,ENSMUSG00000020869,ENSMUSG00000020964,ENSMUSG00000020994,ENSMUSG00000021228,ENSMUSG00000021884,ENSMUSG00000021973,ENSMUSG00000022682,ENSMUSG00000024513,ENSMUSG00000025037,ENSMUSG00000026020,ENSMUSG00000026688,ENSMUSG00000026833,ENSMUSG00000026864,ENSMUSG00000027248,ENSMUSG00000027395,ENSMUSG00000027580,ENSMUSG00000028194,ENSMUSG00000028398,ENSMUSG00000028715,ENSMUSG00000029101,ENSMUSG00000029407,ENSMUSG00000029657,ENSMUSG00000029833,ENSMUSG00000030036,ENSMUSG00000030357,ENSMUSG00000030527,ENSMUSG00000030659,ENSMUSG00000031381,ENSMUSG00000032420,ENSMUSG00000033909,ENSMUSG00000034780,ENSMUSG00000035948,ENSMUSG00000036151,ENSMUSG00000036270,ENSMUSG00000036646,ENSMUSG00000038648,ENSMUSG00000039218,ENSMUSG00000039367,ENSMUSG00000039804,ENSMUSG00000040033,ENSMUSG00000040170,ENSMUSG00000040363,ENSMUSG00000041096,ENSMUSG00000041229,ENSMUSG00000041936,ENSMUSG00000046794,ENSMUSG00000046876,ENSMUSG00000049516,ENSMUSG00000052534,ENSMUSG00000052752,ENSMUSG00000053110,ENSMUSG00000055782,ENSMUSG00000060317,ENSMUSG00000063362,ENSMUSG00000063488,ENSMUSG00000063511,ENSMUSG00000066072,ENSMUSG00000070544,ENSMUSG00000070985,ENSMUSG00000074254"
"30",1,TRUE,9.25e-07,900,98,21,0.214,0.023,"GO:0042175","CC",11,"nuclear outer membrane-endoplasmic reticulum membrane network",1,"ENSMUSG00000003814,ENSMUSG00000006676,ENSMUSG00000007655,ENSMUSG00000020048,ENSMUSG00000020458,ENSMUSG00000020869,ENSMUSG00000020964,ENSMUSG00000026688,ENSMUSG00000026864,ENSMUSG00000027248,ENSMUSG00000028715,ENSMUSG00000030036,ENSMUSG00000030659,ENSMUSG00000031381,ENSMUSG00000036151,ENSMUSG00000036646,ENSMUSG00000038648,ENSMUSG00000040170,ENSMUSG00000063362,ENSMUSG00000066072,ENSMUSG00000074254"
"31",1,TRUE,5.62e-05,1599,98,25,0.255,0.016,"GO:0005783","CC",11,"endoplasmic reticulum",1,"ENSMUSG00000002944,ENSMUSG00000003814,ENSMUSG00000006676,ENSMUSG00000007655,ENSMUSG00000014905,ENSMUSG00000020048,ENSMUSG00000020458,ENSMUSG00000020869,ENSMUSG00000020964,ENSMUSG00000026688,ENSMUSG00000026833,ENSMUSG00000026864,ENSMUSG00000027248,ENSMUSG00000028715,ENSMUSG00000029407,ENSMUSG00000030036,ENSMUSG00000030659,ENSMUSG00000031381,ENSMUSG00000036151,ENSMUSG00000036646,ENSMUSG00000038648,ENSMUSG00000040170,ENSMUSG00000063362,ENSMUSG00000066072,ENSMUSG00000074254"
"32",1,TRUE,6.23e-06,1001,98,21,0.214,0.021,"GO:0044432","CC",11,"endoplasmic reticulum part",2,"ENSMUSG00000003814,ENSMUSG00000006676,ENSMUSG00000007655,ENSMUSG00000014905,ENSMUSG00000020048,ENSMUSG00000020458,ENSMUSG00000020869,ENSMUSG00000020964,ENSMUSG00000026688,ENSMUSG00000026864,ENSMUSG00000027248,ENSMUSG00000028715,ENSMUSG00000030036,ENSMUSG00000031381,ENSMUSG00000036151,ENSMUSG00000036646,ENSMUSG00000038648,ENSMUSG00000040170,ENSMUSG00000063362,ENSMUSG00000066072,ENSMUSG00000074254"
"33",1,TRUE,4.42e-06,884,98,20,0.204,0.023,"GO:0098827","CC",11,"endoplasmic reticulum subcompartment",3,"ENSMUSG00000003814,ENSMUSG00000006676,ENSMUSG00000007655,ENSMUSG00000020048,ENSMUSG00000020458,ENSMUSG00000020869,ENSMUSG00000020964,ENSMUSG00000026688,ENSMUSG00000026864,ENSMUSG00000027248,ENSMUSG00000028715,ENSMUSG00000030036,ENSMUSG00000031381,ENSMUSG00000036151,ENSMUSG00000036646,ENSMUSG00000038648,ENSMUSG00000040170,ENSMUSG00000063362,ENSMUSG00000066072,ENSMUSG00000074254"
"34",1,TRUE,3.85e-06,877,98,20,0.204,0.023,"GO:0005789","CC",11,"endoplasmic reticulum membrane",3,"ENSMUSG00000003814,ENSMUSG00000006676,ENSMUSG00000007655,ENSMUSG00000020048,ENSMUSG00000020458,ENSMUSG00000020869,ENSMUSG00000020964,ENSMUSG00000026688,ENSMUSG00000026864,ENSMUSG00000027248,ENSMUSG00000028715,ENSMUSG00000030036,ENSMUSG00000031381,ENSMUSG00000036151,ENSMUSG00000036646,ENSMUSG00000038648,ENSMUSG00000040170,ENSMUSG00000063362,ENSMUSG00000066072,ENSMUSG00000074254"
"35",1,TRUE,0.0345,33,98,4,0.041,0.121,"GO:0005790","CC",11,"smooth endoplasmic reticulum",2,"ENSMUSG00000003814,ENSMUSG00000020048,ENSMUSG00000026864,ENSMUSG00000027248"
"36",1,TRUE,0.0439,35,98,4,0.041,0.114,"GO:0008391","MF",9,"arachidonic acid monooxygenase activity",1,"ENSMUSG00000028715,ENSMUSG00000066072,ENSMUSG00000074254,ENSMUSG00000074882"
"37",1,TRUE,3.85e-05,164,50,9,0.18,0.055,"KEGG:04141","keg",7,"Protein processing in endoplasmic reticulum",1,"ENSMUSG00000003814,ENSMUSG00000020048,ENSMUSG00000020964,ENSMUSG00000026864,ENSMUSG00000027248,ENSMUSG00000029657,ENSMUSG00000030036,ENSMUSG00000036646,ENSMUSG00000039367"
