"","x"
"ENSG00000065665",2.3187789907944
"ENSG00000164463",2.16415662103546
"ENSG00000125657",2.14837017720472
"ENSG00000224298",2.10922652717404
"ENSG00000116883",2.10400842908981
"ENSG00000165997",1.99186066080896
"ENSG00000243742",1.98871384367702
"ENSG00000259863",1.98471644944372
"ENSG00000099290",1.97305275868973
"ENSG00000100906",1.9660372589209
"ENSG00000164938",1.96180527260574
"ENSG00000105085",1.95287413324209
"ENSG00000240038",1.92826242616047
"ENSG00000151553",1.90283086751866
"ENSG00000172232",1.88925105531544
"ENSG00000103365",1.86251250338768
"ENSG00000148344",1.85987318923688
"ENSG00000152409",1.82424832421519
"ENSG00000266964",1.8118237269699
"ENSG00000003249",1.80918746702867
"ENSG00000114796",1.8028589271695
"ENSG00000144909",1.80131923737273
"ENSG00000270069",1.7868938881826
"ENSG00000259298",1.77966696143031
"ENSG00000261114",1.77802573603503
"ENSG00000164398",1.76434097909967
"ENSG00000166482",1.76310723659201
"ENSG00000271964",1.75800952890064
"ENSG00000095574",1.75653160366808
"ENSG00000127311",1.73590052502522
"ENSG00000198839",1.72594359249609
"ENSG00000133169",1.71874293544519
"ENSG00000079277",1.70059308323366
"ENSG00000165813",1.69533119015844
"ENSG00000023287",1.68185460977792
"ENSG00000152042",1.67415770754232
"ENSG00000196549",1.6667767471075
"ENSG00000178809",1.66369050866558
"ENSG00000100697",1.65628196623169
"ENSG00000233750",1.65438063191132
"ENSG00000180747",1.65325166844588
"ENSG00000262180",1.65305228870662
"ENSG00000188001",1.64569627686603
"ENSG00000102531",1.6303021234797
"ENSG00000170667",1.62899822953794
"ENSG00000224745",1.62544725437549
"ENSG00000261656",1.62532952325806
"ENSG00000263244",1.62489814648466
"ENSG00000106823",1.61889849536617
"ENSG00000121741",1.61702518496948
"ENSG00000100626",1.61626018205874
"ENSG00000204620",1.61493309695948
"ENSG00000170949",1.61418435066839
"ENSG00000001561",1.60964507266759
"ENSG00000164292",1.60732920137784
"ENSG00000172466",1.60360025364264
"ENSG00000144802",1.59872921375111
"ENSG00000260618",1.5920517434864
"ENSG00000164329",1.59136000199658
"ENSG00000151229",1.58855449479272
"ENSG00000205038",1.58635679914355
"ENSG00000265413",1.58216707520103
"ENSG00000129071",1.57984018574077
"ENSG00000165322",1.57640707319198
"ENSG00000100156",1.57611810577276
"ENSG00000137507",1.56397639146272
"ENSG00000067082",1.56395100650181
"ENSG00000234925",1.56247207203935
"ENSG00000205189",1.56005864981529
"ENSG00000167470",1.55911591155508
"ENSG00000108239",1.55840344198377
"ENSG00000136141",1.55390875161312
"ENSG00000143702",1.55106095727685
"ENSG00000070182",1.5469564196604
"ENSG00000138032",1.54404141381391
"ENSG00000133639",1.54020643851952
"ENSG00000106538",1.53982232493124
"ENSG00000197769",1.53693821937151
"ENSG00000119147",1.53651660189537
"ENSG00000236199",1.53599436496463
"ENSG00000011083",1.53540220692398
"ENSG00000140470",1.53214637352159
"ENSG00000123560",1.53088834478133
"ENSG00000151893",1.53032631316799
"ENSG00000137145",1.52974801077544
"ENSG00000102452",1.5294751373214
"ENSG00000230002",1.5291212385515
"ENSG00000272842",1.52816551941641
"ENSG00000249992",1.5280817388091
"ENSG00000204389",1.5252587337589
"ENSG00000169629",1.5244157517427
"ENSG00000029363",1.52373872040978
"ENSG00000157224",1.52115363329589
"ENSG00000011405",1.52050493098778
"ENSG00000150275",1.51860668059729
"ENSG00000179978",1.5156141285523
"ENSG00000185189",1.5133463874621
"ENSG00000172059",1.51323225667766
"ENSG00000155428",1.51231107205027
"ENSG00000226786",1.51124890276593
