"","distances"
"1",107051
"2",241043
"3",167491
"4",69723
"5",100164
"6",581698
"7",136864
"8",12257
"9",645818
"10",556565
"11",2361339
"12",163076
"13",71701
"14",114107
"15",1252367
"16",1049602
"17",146297
"18",457689
"19",97587
"20",455185
"21",646474
"22",574599
"23",165814
"24",121250
"25",1686684
"26",2421760
"27",114982
"28",241016
"29",566856
"30",1206407
"31",294853
"32",52198
"33",698879
"34",391201
"35",66219
"36",1873828
"37",750151
"38",82245
"39",1130512
"40",90676
"41",1187943
"42",239912
"43",153633
"44",723498
"45",957508
"46",4158537
"47",43230
"48",17886
"49",235860
"50",29457
"51",232849
"52",1886009
"53",499167
"54",803972
"55",142885
"56",1464581
"57",8430
"58",1166698
"59",526180
"60",463443
"61",88724
"62",2189408
"63",226160
"64",114739
"65",860831
"66",60335
"67",819055
"68",707962
"69",550613
"70",61704
"71",658416
"72",283046
"73",916533
"74",2488537
"75",602546
"76",609855
"77",1500097
"78",429738
"79",2562
"80",2284512
"81",108005
"82",3042314
"83",257622
"84",988966
"85",1239508
"86",5721
"87",790025
"88",1033231
"89",615481
"90",2359587
"91",5284496
"92",1992049
"93",8974
"94",5921133
"95",77181
"96",2625571
"97",2399823
"98",76381
"99",622082
"100",2895372
"101",1024359
"102",538537
"103",455741
"104",161210
"105",5097776
"106",352094
"107",93625
"108",6030591
"109",1994850
"110",407477
"111",123300
"112",1315134
"113",475811
"114",305869
"115",628165
"116",1350355
"117",22989
"118",487576
"119",193309
"120",52585
"121",861268
"122",278274
"123",990249
"124",756032
"125",1718781
"126",26079862
"127",24055
"128",25484
"129",4004480
"130",559020
"131",222587
"132",574683
"133",52177
"134",2259844
"135",306695
"136",718295
"137",92018
"138",303188
"139",27015
"140",237866
"141",471357
"142",229141
"143",298577
"144",147808
"145",48715
"146",2899082
"147",333216
"148",145095
"149",57186
"150",737732
"151",136244
"152",607852
"153",4832656
"154",554313
"155",2070239
"156",219438
"157",768461
"158",2444315
"159",656587
"160",4137254
"161",687197
"162",1308445
"163",634172
"164",1647009
"165",1325446
"166",2634062
"167",5895300
"168",5322616
"169",731090
"170",2377296
"171",111878
"172",185710
"173",887497
"174",489752
"175",40106
"176",65806
"177",138086
"178",763513
"179",275644
"180",1185765
"181",80857
"182",38817
"183",1090638
"184",2752173
"185",151619
"186",470687
"187",706507
"188",928598
"189",6758943
"190",3446002
"191",1565822
"192",1900762
"193",4527250
"194",463164
"195",1467040
"196",142198
"197",630122
"198",2543043
"199",760220
"200",5290440
"201",1153146
"202",2647828
"203",1733838
"204",168237
"205",839541
"206",108433
"207",8499887
"208",790805
"209",4026564
"210",320729
"211",2714709
"212",436159
"213",38449
"214",56913
"215",280326
"216",1185981
"217",2994759
"218",4343519
"219",613269
"220",147289
"221",1041477
"222",104566
"223",260795
"224",229902
"225",972925
"226",3162986
"227",76498
"228",1655340
"229",353816
"230",1946262
"231",6689329
"232",5721697
"233",326219
"234",8478133
"235",3130200
"236",575895
"237",274350
"238",275775
"239",40651
"240",159342
"241",9739670
"242",511048
"243",502090
"244",13694
"245",508569
"246",57198
"247",1240987
"248",1054904
"249",7497581
"250",327176
"251",216929
"252",212826
"253",321283
"254",1966948
"255",1517582
"256",1484039
"257",2317459
"258",395686
"259",4228037
"260",1406573
"261",253695
"262",87378
"263",305794
"264",493498
"265",8517549
"266",4919010
"267",1189886
"268",2264207
"269",173257
"270",1152266
"271",188709
"272",4072222
"273",8061642
"274",8002669
"275",3785456
"276",3189620
"277",5564898
"278",3789771
"279",187833
"280",14944
"281",15394
"282",906692
"283",691134
"284",4217226
"285",1411740
"286",832380
"287",19059
"288",10515434
"289",521348
"290",645128
"291",455153
"292",813342
"293",4985749
"294",587775
"295",8720964
"296",3706985
"297",3112996
"298",901316
"299",2775516
"300",136939
"301",315179
"302",732
"303",200166
"304",287232
"305",203432
"306",138925
"307",2880730
"308",490866
"309",759005
"310",797376
"311",1793136
"312",980735
"313",1740657
"314",314075
"315",460907
"316",376849
"317",476119
"318",6072621
"319",331924
"320",2937162
"321",44727
"322",1217497
"323",104476
"324",157229
"325",2611474
"326",1119295
"327",321504
"328",107895
"329",189518
"330",923792
"331",6031520
"332",4989792
"333",3213241
"334",958314
"335",919028
"336",5067859
"337",240639
"338",554498
"339",74847
"340",1284517
"341",2110378
"342",1041367
"343",760476
"344",202007
"345",2657180
"346",171831
"347",685692
"348",239771
"349",167642
"350",85753
"351",563009
"352",399407
"353",180868
"354",34949
"355",1697828
"356",648405
"357",101829
"358",1027515
"359",22834
"360",1573727
"361",1777808
"362",263594
"363",860786
"364",130260
"365",5382939
"366",68232
"367",1688134
"368",-9319
"369",497044
"370",5738067
"371",21201002
"372",2488643
"373",1961210
"374",1769708
"375",1311074
"376",114800
"377",6728660
"378",3284164
"379",1655022
"380",5597727
"381",3156888
"382",100956
"383",273238
"384",57069
"385",160291
"386",2122024
"387",3213210
"388",1710573
"389",111747
"390",1151463
"391",2512
"392",1101797
"393",460038
"394",2461859
"395",1769585
"396",372430
"397",202957
"398",2266411
"399",299691
"400",237096
"401",3303133
"402",2740162
"403",134742
"404",96443
"405",1073921
"406",136444
"407",2531825
"408",1853504
"409",2253060
"410",662227
"411",186533
"412",2299813
"413",4667520
"414",13558617
"415",4035941
"416",1256454
"417",1514789
"418",7007344
"419",438322
"420",263940
"421",85647
"422",1916617
"423",38811
"424",71101
"425",199395
"426",46024
"427",479967
"428",315752
"429",58
"430",151455
"431",1654
"432",31410
"433",188247
"434",180883
"435",1294046
"436",305241
"437",28749
"438",422564
"439",2768376
"440",605977
"441",4360032
"442",3910053
"443",780519
"444",1521059
"445",5733165
"446",2672348
"447",12068364
"448",601770
"449",1324918
"450",3461713
"451",2749870
"452",672064
"453",5739925
"454",10210567
"455",6653199
"456",4368863
"457",315064
"458",123501
"459",263905
"460",786515
"461",823552
"462",3902289
"463",8807
"464",394417
"465",4017479
"466",1194894
"467",5340459
"468",5727114
"469",1914257
"470",210539
"471",2269194
"472",208546
"473",-1211
"474",1927342
"475",1394018
"476",4017215
"477",4829846
"478",89094
"479",373904
"480",159274
"481",503583
"482",1757366
"483",1011381
"484",2431687
"485",2472374
"486",11625841
"487",-23992
"488",103102
"489",2799191
"490",289633
"491",1540446
"492",628448
"493",4139639
"494",845294
"495",4408816
"496",2464542
"497",411268
"498",4651706
"499",2016362
"500",4114313
"501",336549
"502",3272081
"503",1119731
"504",10681083
"505",25836
"506",100032
"507",673367
"508",107835
"509",34945
"510",6152459
"511",9798652
"512",15022352
"513",3987481
"514",724798
"515",2038842
"516",97147
"517",1362962
"518",2206240
"519",526204
"520",9492449
"521",2197697
"522",3543457
"523",635589
"524",169799
"525",759992
"526",3602722
"527",2983395
"528",39515
"529",4268279
"530",59808
"531",3132666
"532",216932
"533",444812
"534",1376995
"535",151
"536",1327433
"537",9515801
"538",5236968
"539",840494
"540",381272
"541",3352045
"542",220194
"543",7824559
"544",2341802
"545",434202
"546",1282373
"547",2089820
"548",239002
"549",170910
"550",2625010
"551",1215140
"552",2824767
"553",2914155
"554",1942595
"555",3336110
"556",297014
"557",1664449
"558",461905
"559",1231320
"560",1612446
"561",376897
"562",139253
"563",953564
"564",251586
"565",561157
"566",244545
"567",97480
"568",11425
"569",408611
"570",130506
"571",106300
"572",-152937
"573",-139065
"574",2645180
"575",1765865
"576",3263639
"577",1003046
"578",200772
"579",271425
"580",265861
"581",2768466
"582",637075
"583",2209039
"584",252665
"585",2817373
"586",8216255
"587",2802660
"588",867377
"589",504206
"590",86581
"591",3099083
"592",2764860
"593",516636
"594",325284
"595",202313
"596",682807
"597",505945
"598",240230
"599",1402786
"600",305493
"601",314893
"602",1220562
"603",5703301
"604",331008
"605",3888791
"606",94538
"607",51839
"608",236245
"609",1837322
"610",6189838
"611",42688
"612",1782699
"613",1294671
"614",424923
"615",611480
"616",11912
"617",190353
"618",232083
"619",28041
"620",488912
"621",36504
"622",136773
"623",69099
"624",132443
"625",62513
"626",463944
"627",144380
"628",128147
"629",302916
"630",12792
"631",16005
"632",101719
"633",313661
"634",676925
"635",938366
"636",630733
"637",52220
"638",209977
"639",380727
"640",2175100
"641",677109
"642",1128750
"643",-24842
"644",584002
"645",44090
"646",1100124
"647",49548
"648",1439165
"649",1430401
"650",140388
"651",985817
"652",4734860
"653",448062
"654",4176948
"655",16073382
"656",160177
"657",1782623
"658",3373734
"659",1160207
"660",97074
"661",3393716
"662",4642848
"663",400915
"664",10012652
"665",111007
"666",939221
"667",5164051
"668",1164167
"669",207589
"670",890227
"671",466291
"672",247393
"673",274391
"674",1129199
"675",346815
"676",197325
"677",4166644
"678",1554115
"679",3080046
"680",3885217
"681",479083
"682",24751
"683",6315811
"684",1487593
"685",2446728
"686",2584293
"687",4314009
"688",6146463
"689",2403428
"690",332718
"691",3792441
"692",1425695
"693",121002
"694",906173
"695",1373660
"696",5045667
"697",1466
"698",126801
"699",1140416
"700",295679
"701",2490094
"702",457659
"703",29039
"704",292070
"705",95694
"706",45654
"707",247562
"708",1629835
"709",8529570
"710",1084238
"711",5241326
"712",97728
"713",178744
"714",1206987
"715",1640480
"716",1031186
"717",167578
"718",2103564
"719",2391190
"720",157462
"721",2689483
"722",2482651
"723",153033
"724",937809
"725",4391392
"726",65848
"727",62055
"728",102588
"729",230840
"730",31521
"731",87614
"732",51729
"733",114114
"734",81322
"735",725943
"736",18578951
"737",292659
"738",157128
"739",866423
"740",10342981
"741",10891865
"742",984531
"743",2156728
"744",1973618
"745",76390
"746",4279996
"747",1845675
"748",328741
"749",463070
"750",172750
"751",3300
"752",31903
"753",407275
"754",181074
"755",238425
"756",78402
"757",5944771
"758",688441
"759",4887417
"760",4013322
"761",480548
"762",2913181
"763",130275
"764",575645
"765",1687032
"766",4599159
"767",291156
"768",19045
"769",84619
"770",413082
"771",1292693
"772",4499655
"773",492949
"774",1175251
"775",854724
"776",458267
"777",2083160
"778",2683431
"779",5904786
"780",134051
"781",1106154
"782",142602
"783",617415
"784",3572777
"785",1716758
"786",929755
"787",1158296
"788",535340
"789",1848928
"790",341229
"791",657474
"792",396917
"793",2396450
"794",1682054
"795",773799
"796",291294
"797",1274705
"798",1060242
"799",951259
"800",1250915
"801",1090885
"802",2143559
"803",2197055
"804",11328
"805",90072
"806",4184085
"807",418234
"808",3883703
"809",665001
"810",10872232
"811",9171521
"812",2605563
"813",355635
"814",386688
"815",53368
"816",1266554
"817",5060681
"818",423636
"819",7853524
"820",3347632
"821",227360
"822",893698
"823",4515376
"824",18845
"825",139305
"826",556815
"827",1612092
"828",1097198
"829",44226
"830",184393
"831",88235
"832",2772525
"833",952642
"834",1496708
"835",1693228
"836",413516
"837",1696869
"838",465612
"839",2968020
"840",28092
"841",43648
"842",6950339
"843",3613836
"844",1166714
"845",1140004
"846",245445
"847",527058
"848",1276227
"849",63201
"850",7246602
"851",276012
"852",351794
"853",7545338
"854",1461652
"855",598193
"856",22694
"857",206208
"858",150962
"859",256257
"860",89175
"861",267919
"862",164447
"863",191775
"864",217172
"865",1492369
"866",2616292
"867",319132
"868",322320
"869",158459
"870",636594
"871",6267967
"872",2600573
"873",10210436
"874",7488535
"875",84896
"876",535498
"877",258601
"878",145661
"879",92862
"880",74023
"881",42893
"882",345940
"883",585041
"884",70824
"885",1685662
"886",316813
"887",106711
"888",506274
"889",24918406
"890",5022098
"891",4793905
"892",5126750
"893",5637990
"894",687935
"895",519469
"896",1983490
"897",4762161
"898",894786
"899",2781714
"900",1331450
"901",447227
"902",750539
"903",145634
"904",2176917
"905",123191
"906",7370837
"907",424722
"908",2026846
"909",318922
"910",748557
"911",655183
"912",2776805
"913",4672541
"914",638064
"915",978937
"916",1428975
"917",508823
"918",869612
"919",359472
"920",353624
"921",999443
"922",254852
"923",538595
"924",390032
"925",663998
"926",1301427
"927",54789
"928",501085
"929",513089
"930",220947
"931",459185
"932",52999
"933",3264874
"934",55399
"935",131587
"936",37208
"937",20817
"938",162695
"939",16054
"940",360498
"941",485176
"942",5845152
"943",293048
"944",1121280
"945",1470952
"946",939595
"947",963446
"948",188566
"949",189795
"950",424763
"951",115848
"952",4413867
"953",5410480
"954",2583166
"955",484957
"956",6020696
"957",160704
"958",5499460
"959",1966645
"960",2773254
"961",799103
"962",442652
"963",18320675
"964",217465
"965",1403741
"966",271445
"967",50203
"968",1647551
"969",874515
"970",363697
"971",111584
"972",32528
"973",83888
"974",18259
"975",183395
"976",973069
"977",2860030
"978",1039490
"979",730332
"980",6913341
"981",50051
"982",2297680
"983",3428227
"984",608390
"985",191401
"986",446442
"987",2820428
"988",214610
"989",60687
"990",1849615
"991",81949
"992",119443
"993",363594
"994",1948574
"995",39856
"996",165747
"997",274153
"998",306405
"999",147735
"1000",6642295
"1001",387186
"1002",3124782
"1003",4627259
"1004",274467
"1005",617638
"1006",214892
"1007",3046148
"1008",1453017
"1009",183897
"1010",2068739
"1011",2683882
"1012",28172
"1013",436805
"1014",-11287
"1015",62192
"1016",55355
"1017",550068
"1018",456873
"1019",190406
"1020",152394
"1021",1021061
"1022",3102225
"1023",1534565
"1024",-19
"1025",778239
"1026",1542876
"1027",47777
"1028",1229734
"1029",1317329
"1030",890660
"1031",2709883
"1032",1390549
"1033",823492
"1034",242087
"1035",1416151
"1036",5082604
"1037",21801
"1038",3863067
"1039",955926
"1040",641558
"1041",3133917
"1042",8420699
"1043",958363
"1044",477602
"1045",813007
"1046",200814
"1047",9590954
"1048",88671
"1049",331870
"1050",2012269
"1051",572600
"1052",903500
"1053",19405
"1054",60533
"1055",67784
"1056",211489
"1057",326729
"1058",537112
"1059",97052
"1060",1353184
"1061",21398
"1062",39144
"1063",742704
"1064",133545
"1065",537535
"1066",102075
"1067",4415
"1068",196771
"1069",221580
"1070",33269
"1071",82955
"1072",117104
"1073",-493
"1074",272723
"1075",59784
"1076",5505
"1077",51621
"1078",114323
"1079",18997
"1080",396024
"1081",725338
"1082",59432
"1083",108295
"1084",1040723
"1085",1658119
"1086",295047
"1087",337036
"1088",139717
"1089",1902042
"1090",61625
"1091",637718
"1092",775803
"1093",6603963
"1094",2460516
"1095",17394140
"1096",851387
"1097",3338347
"1098",3974534
"1099",220450
"1100",55563
"1101",152883
"1102",46050
"1103",1325012
"1104",693657
"1105",2785118
"1106",781566
"1107",190703
"1108",28309
"1109",136618
"1110",670702
"1111",992731
"1112",151385
"1113",962267
"1114",1021982
"1115",814714
"1116",967592
"1117",104448
"1118",5152496
"1119",65312
"1120",1225667
"1121",174842
"1122",88814
"1123",62681
"1124",538701
"1125",144714
"1126",2354936
"1127",2088555
"1128",42853
"1129",105296
"1130",125101
"1131",22941
"1132",54983
"1133",125660
"1134",146736
"1135",6578
"1136",2516849
"1137",567646
"1138",258463
"1139",99420
"1140",1632094
"1141",617797
"1142",2882118
"1143",2177391
"1144",1083938
"1145",2325373
"1146",8563314
"1147",686237
"1148",80040
"1149",6917648
"1150",3404648
"1151",4032071
"1152",706736
"1153",-30764
"1154",489629
"1155",11622
"1156",180816
"1157",719580
"1158",187112
"1159",3883
"1160",139000
"1161",717642
"1162",334645
"1163",639926
"1164",161146
"1165",1059386
"1166",845250
"1167",1128595
"1168",1404435
"1169",101876
"1170",13554
"1171",319393
"1172",808550
"1173",222881
"1174",225200
"1175",282836
"1176",1111742
"1177",5586479
"1178",2950771
"1179",607037
"1180",278458
"1181",798448
"1182",28775
"1183",127519
"1184",5452775
"1185",142
"1186",13935119
"1187",339658
"1188",1390039
"1189",1028447
"1190",9867030
"1191",1708304
"1192",961356
"1193",2018547
"1194",1575416
"1195",453705
"1196",162
"1197",479624
"1198",401069
"1199",1403722
"1200",525825
"1201",1003565
"1202",173087
"1203",5589870
"1204",522739
"1205",324000
"1206",224952
"1207",559744
"1208",383539
"1209",282129
"1210",14510
"1211",427592
"1212",716959
"1213",102015
"1214",372256
"1215",256054
"1216",-986
"1217",1171397
"1218",6232274
"1219",161116
"1220",492114
"1221",81544
"1222",46426
"1223",5971066
"1224",1047834
"1225",863153
"1226",520911
"1227",1085446
"1228",1996029
"1229",287305
"1230",325116
"1231",9862888
"1232",92376
"1233",1226583
"1234",55130
"1235",3634729
"1236",489528
"1237",189631
"1238",-129832
"1239",889197
"1240",329957
"1241",1188161
"1242",20083953
"1243",298778
"1244",2447677
"1245",70995
"1246",1184785
"1247",568431
"1248",16598522
"1249",4197172
"1250",207905
"1251",138906
"1252",1489770
"1253",1382557
"1254",5409705
"1255",2332928
"1256",181036
"1257",1995206
"1258",77800
"1259",550525
"1260",47173
"1261",447502
"1262",2065307
"1263",56838
"1264",58169
"1265",139380
"1266",260788
"1267",16238
"1268",103483
"1269",319
"1270",401801
"1271",132551
"1272",64109
"1273",40752
"1274",35430
"1275",2133969
"1276",5478360
"1277",3666590
"1278",2321778
"1279",11525714
"1280",473323
"1281",204600
"1282",342194
"1283",908742
"1284",570688
"1285",1871197
"1286",705963
"1287",-21038
"1288",786828
"1289",1983361
"1290",1443590
"1291",76619
"1292",1463270
"1293",1800611
"1294",42353
"1295",712330
"1296",23261
"1297",1538327
"1298",1568166
"1299",1187373
"1300",254628
"1301",106127
"1302",528307
"1303",3650974
"1304",406132
"1305",93180
"1306",204634
"1307",199295
"1308",582247
"1309",522447
"1310",1101000
"1311",4392437
"1312",7244401
"1313",862621
"1314",1812739
"1315",17398
"1316",361907
"1317",248586
"1318",581890
"1319",1299589
"1320",46534
"1321",482124
"1322",462173
"1323",3814869
"1324",1563846
"1325",1360934
"1326",131313
"1327",1385311
"1328",153290
"1329",10545
"1330",390509
"1331",1357381
"1332",46433
"1333",206141
"1334",-85734
"1335",4291657
"1336",927732
"1337",153521
"1338",287613
"1339",2859572
"1340",38726
"1341",168972
"1342",87741
"1343",2300701
"1344",2938012
"1345",210886
"1346",163063
"1347",54112
"1348",387905
"1349",451889
"1350",20075
"1351",43788
"1352",190848
"1353",445378
"1354",180885
"1355",26857
"1356",637191
"1357",32036
"1358",261872
"1359",18599
"1360",1784080
"1361",2792307
"1362",460219
"1363",267435
"1364",2234236
"1365",363520
"1366",3011597
"1367",20919
"1368",1891855
"1369",830400
"1370",1452151
"1371",2505994
"1372",1110735
"1373",842589
"1374",1037277
"1375",230975
"1376",208350
"1377",1650718
"1378",383582
"1379",2647129
"1380",1187524
"1381",2563117
"1382",56641
"1383",4013937
"1384",949266
"1385",135866
"1386",807896
"1387",11066
"1388",153787
"1389",1441304
"1390",306668
"1391",1461520
"1392",663855
"1393",3338101
"1394",406429
"1395",419061
"1396",192922
"1397",112502
"1398",2397946
"1399",4932693
"1400",3201885
"1401",229524
"1402",388451
"1403",106706
"1404",740291
"1405",409379
"1406",246488
"1407",21009
"1408",190683
"1409",61503
"1410",474698
"1411",298018
"1412",925091
"1413",549386
"1414",236962
"1415",3682576
"1416",294000
"1417",1622146
"1418",1064499
"1419",2982096
"1420",141693
"1421",307545
"1422",851448
"1423",2079707
"1424",15385
"1425",993029
"1426",996023
"1427",1265554
"1428",1376008
"1429",1015698
"1430",538866
"1431",3664180
"1432",637234
"1433",300107
"1434",218
"1435",176429
"1436",79542
"1437",11053
"1438",9989
"1439",227260
"1440",218379
"1441",72660
"1442",162812
"1443",54106
"1444",117961
"1445",21911
"1446",336744
"1447",15202639
"1448",107089
"1449",629712
"1450",7688177
"1451",854761
"1452",25952
"1453",109974
"1454",41145
"1455",48438
"1456",305289
"1457",102606
"1458",759071
"1459",273462
"1460",8396731
"1461",311110
"1462",39183
"1463",142151
"1464",251384
"1465",5376
"1466",55801
"1467",78153
"1468",45647
"1469",1194204
"1470",89010
"1471",636721
"1472",160152
"1473",487756
"1474",595323
"1475",1493170
"1476",404904
"1477",921899
"1478",175001
"1479",71247
"1480",71188
"1481",1542192
"1482",3833442
"1483",914568
"1484",2857741
"1485",850990
"1486",1283954
"1487",631824
"1488",350153
"1489",202526
"1490",26530
"1491",44687
"1492",473786
"1493",600526
"1494",50073
"1495",815481
"1496",642474
"1497",724984
"1498",1889953
"1499",303146
"1500",91807
"1501",34885
"1502",47591
"1503",167377
"1504",265878
"1505",17225
"1506",1532206
"1507",186835
"1508",26143
"1509",288951
"1510",582582
"1511",317699
"1512",248150
"1513",55830
"1514",666609
"1515",499043
"1516",3589850
"1517",1152860
"1518",412965
"1519",439105
"1520",904699
"1521",588801
"1522",70997
"1523",136865
"1524",956699
"1525",839
"1526",67777
"1527",1676512
"1528",7201491
"1529",139510
"1530",109423
"1531",11597
"1532",186821
"1533",674167
"1534",839112
"1535",1499789
"1536",2630471
"1537",399859
"1538",164567
"1539",3673781
"1540",1762
"1541",175454
"1542",421664
"1543",1718813
"1544",43691
"1545",528302
"1546",13561
"1547",7987
"1548",17567
"1549",90083
"1550",118153
"1551",199569
"1552",208876
"1553",546080
"1554",21811
"1555",337277
"1556",42318
"1557",449359
"1558",501152
"1559",40897
"1560",118755
"1561",129579
"1562",239226
"1563",165242
"1564",726352
"1565",8521
"1566",925844
"1567",10299
"1568",41870
"1569",1087153
"1570",65981
"1571",41576
"1572",768384
"1573",166225
"1574",261563
"1575",4276475
"1576",577347
"1577",2146209
"1578",1570675
"1579",98847
"1580",50791
"1581",14268
"1582",446177
"1583",3096196
"1584",-13967
"1585",77447
"1586",647773
"1587",357276
"1588",1383156
"1589",259695
"1590",1013193
"1591",444561
"1592",191822
"1593",3401103
"1594",1117268
"1595",737401
"1596",39504
"1597",88691
"1598",142716
"1599",151649
"1600",126755
"1601",-73
"1602",13266
"1603",69407
"1604",134503
"1605",80431
"1606",614289
"1607",2996683
"1608",248649
"1609",119086
"1610",863795
"1611",23516
"1612",80772
"1613",394109
"1614",160195
"1615",46864
"1616",807861
"1617",1639474
"1618",1215636
"1619",1939832
"1620",4586201
"1621",601608
"1622",7764723
"1623",568559
"1624",1300942
"1625",67119
"1626",329888
"1627",11196602
"1628",783962
"1629",10622668
"1630",187243
"1631",3817471
"1632",7874479
"1633",2599266
"1634",1108534
"1635",142913
"1636",69062
"1637",547442
"1638",11175329
"1639",4186508
"1640",32873
"1641",152678
"1642",21008
"1643",217887
"1644",49835
"1645",8184
"1646",14266
"1647",557434
"1648",231942
"1649",642832
"1650",458638
"1651",824
"1652",685468
"1653",234756
"1654",20320
"1655",106150
"1656",916629
"1657",748387
"1658",286002
"1659",67337
"1660",878211
"1661",4925
"1662",255970
"1663",5838
"1664",490020
"1665",701363
"1666",1058009
"1667",312564
"1668",-340
"1669",598230
"1670",146893
"1671",19741
"1672",610666
"1673",343741
"1674",59913
"1675",129421
"1676",44134
"1677",109913
"1678",328857
"1679",56059
"1680",514718
"1681",1213793
"1682",1831694
"1683",223983
"1684",338588
"1685",570235
"1686",119461
"1687",2833
"1688",383147
"1689",142880
"1690",452607
"1691",1627467
"1692",723027
"1693",1163573
"1694",11146445
"1695",2184
"1696",122078
"1697",1940
"1698",354109
"1699",430649
"1700",27080
"1701",196435
"1702",189913
"1703",63353
"1704",20746
"1705",58948
"1706",457724
"1707",202810
"1708",353464
"1709",288786
"1710",860289
"1711",389117
"1712",109396
"1713",352443
"1714",90835
"1715",398510
"1716",222738
"1717",100806
"1718",1086012
"1719",510
"1720",518988
"1721",268448
"1722",76893
"1723",22063
"1724",22738
"1725",1047528
"1726",38105
"1727",291890
"1728",11244
"1729",90064
"1730",108445
"1731",314119
"1732",538516
"1733",621527
"1734",65728
"1735",32858
"1736",547039
"1737",73244
"1738",104576
"1739",679230
"1740",456506
"1741",386006
"1742",702430
"1743",604246
"1744",303773
"1745",8289
"1746",28366
"1747",1415406
"1748",680
"1749",435813
"1750",36197
"1751",164332
"1752",50117
"1753",520409
"1754",732720
"1755",539242
"1756",1033318
"1757",59917
"1758",362107
"1759",18772
"1760",16461
"1761",434205
"1762",473984
"1763",614204
"1764",65374
"1765",32701
"1766",220320
"1767",254316
"1768",90265
"1769",411866
"1770",164323
"1771",569428
"1772",1973202
"1773",53825
"1774",428406
"1775",71262
"1776",18385
"1777",973902
"1778",1182445
"1779",727611
"1780",2288483
"1781",919767
"1782",203462
"1783",1216724
"1784",6014988
"1785",825549
"1786",1221049
"1787",1721615
"1788",8622022
"1789",1238631
"1790",464500
"1791",19219
"1792",499653
"1793",984868
"1794",124900
"1795",706176
"1796",5500
"1797",589127
"1798",255914
"1799",72615
"1800",3236
"1801",132032
"1802",1111886
"1803",115156
"1804",1438606
"1805",2138725
"1806",42294
"1807",4049240
"1808",491719
"1809",88813
"1810",276097
"1811",124838
"1812",25020
"1813",616214
"1814",1691613
"1815",5110887
"1816",4611666
"1817",1025476
"1818",2203498
"1819",49438
"1820",90903
"1821",549599
"1822",709335
"1823",11212
"1824",244993
"1825",47073
"1826",7766270
"1827",6785613
"1828",339939
"1829",1628459
"1830",1919117
"1831",5412077
"1832",320207
"1833",14423
"1834",1456860
"1835",523606
"1836",593675
"1837",714016
"1838",245687
"1839",95298
"1840",568851
"1841",1675140
"1842",632651
"1843",276723
"1844",33058
"1845",30
"1846",3664196
"1847",289978
"1848",954869
"1849",754583
"1850",2985572
"1851",63418
"1852",301818
"1853",337945
"1854",3759
"1855",473166
"1856",66464
"1857",143336
"1858",302281
"1859",-7420
"1860",325875
"1861",4182727
"1862",747451
"1863",549913
"1864",329326
"1865",53643
"1866",124465
"1867",206598
"1868",460424
"1869",605543
"1870",62372
"1871",852459
"1872",891233
"1873",108978
"1874",302226
"1875",291834
"1876",9297
"1877",2028379
"1878",5680696
"1879",267457
"1880",2606119
"1881",10317879
"1882",735017
"1883",3051792
"1884",4995117
"1885",15951333
"1886",2887763
"1887",776233
"1888",3821566
"1889",803510
"1890",1238494
"1891",506401
"1892",155782
"1893",206485
"1894",58235
"1895",57157
"1896",27984
"1897",2642261
"1898",1302859
"1899",1112208
"1900",1125974
"1901",228537
"1902",13402077
"1903",2117399
"1904",954511
"1905",1666884
"1906",3434470
"1907",124423
"1908",1309989
"1909",12066928
"1910",8853060
"1911",233893
"1912",1923380
"1913",610933
"1914",390205
"1915",144028
"1916",4362988
"1917",1754689
"1918",8958827
"1919",119989
"1920",280404
"1921",551165
"1922",3131196
"1923",227156
"1924",-46761
"1925",4576032
"1926",187418
"1927",4974365
"1928",235134
"1929",487097
"1930",630710
"1931",409065
"1932",1832643
"1933",11345842
"1934",3014777
"1935",232649
"1936",75277
"1937",359217
"1938",47109
"1939",50790
"1940",272052
"1941",58099
"1942",-960
